\relax 
\citation{Palm}
\citation{Chapra}
\@writefile{toc}{\contentsline {section}{\numberline {1}Palm Figure 6.1-1}{2}}
\@writefile{toc}{\contentsline {section}{\numberline {2}Chapra Problem 3.5}{2}}
\@writefile{toc}{\contentsline {section}{\numberline {3}Chapra Problem 4.1}{2}}
\@writefile{toc}{\contentsline {section}{\numberline {4}3D Projections}{2}}
\@writefile{toc}{\contentsline {section}{\numberline {A}Codes}{3}}
\@writefile{toc}{\contentsline {subsection}{\numberline {A.1}PlotExponential.m}{3}}
\@writefile{toc}{\contentsline {subsection}{\numberline {A.2}CosSeries.m}{4}}
\@writefile{toc}{\contentsline {subsection}{\numberline {A.3}DivAvg.m}{5}}
\@writefile{toc}{\contentsline {subsection}{\numberline {A.4}IsometricProjection.m}{6}}
\@writefile{toc}{\contentsline {section}{\numberline {B}Figures}{7}}
\@writefile{lof}{\contentsline {figure}{\numberline {1}{\ignorespaces Output of {\tt  PlotExponential.m} for Palm Figure 6.1-1}}{7}}
\@writefile{lof}{\contentsline {figure}{\numberline {2}{\ignorespaces Output of {\tt  CosSeriesChecker.m} for Chapra 3.5}}{8}}
\@writefile{lof}{\contentsline {figure}{\numberline {3}{\ignorespaces Output of {\tt  IsometricProjection.m} for Chapra Problem 4.1}}{9}}
\bibcite{Chapra}{1}
\bibcite{Palm}{2}
