\contentsline {figure}{\numberline {1}{\ignorespaces Output of {\tt PlotExponential.m} for Palm Figure 6.1-1}}{7}
\contentsline {figure}{\numberline {2}{\ignorespaces Output of {\tt CosSeriesChecker.m} for Chapra 3.5}}{8}
\contentsline {figure}{\numberline {3}{\ignorespaces Output of {\tt IsometricProjection.m} for Chapra Problem 4.1}}{9}
