\contentsline {section}{\numberline {1}Palm Figure 6.1-1}{2}
\contentsline {section}{\numberline {2}Chapra Problem 3.5}{2}
\contentsline {section}{\numberline {3}Chapra Problem 4.1}{2}
\contentsline {section}{\numberline {4}3D Projections}{2}
\contentsline {section}{\numberline {A}Codes}{3}
\contentsline {subsection}{\numberline {A.1}PlotExponential.m}{3}
\contentsline {subsection}{\numberline {A.2}CosSeries.m}{4}
\contentsline {subsection}{\numberline {A.3}DivAvg.m}{5}
\contentsline {subsection}{\numberline {A.4}IsometricProjection.m}{6}
\contentsline {section}{\numberline {B}Figures}{7}
