%!PS-Adobe-3.0 EPSF-3.0
%%Creator: (MATLAB, The Mathworks, Inc. Version 8.6.0.267246 \(R2015b\). Operating System: Windows 8)
%%Title: ./PlotExponential.eps
%%CreationDate: 2015-09-25T18:39:35
%%Pages: (atend)
%%BoundingBox:    39    14   524   419
%%LanguageLevel: 3
%%EndComments
%%BeginProlog
%%BeginResource: procset (Apache XML Graphics Std ProcSet) 1.2 0
%%Version: 1.2 0
%%Copyright: (Copyright 2001-2003,2010 The Apache Software Foundation. License terms: http://www.apache.org/licenses/LICENSE-2.0)
/bd{bind def}bind def
/ld{load def}bd
/GR/grestore ld
/M/moveto ld
/LJ/setlinejoin ld
/C/curveto ld
/f/fill ld
/LW/setlinewidth ld
/GC/setgray ld
/t/show ld
/N/newpath ld
/CT/concat ld
/cp/closepath ld
/S/stroke ld
/L/lineto ld
/CC/setcmykcolor ld
/A/ashow ld
/GS/gsave ld
/RC/setrgbcolor ld
/RM/rmoveto ld
/ML/setmiterlimit ld
/re {4 2 roll M
1 index 0 rlineto
0 exch rlineto
neg 0 rlineto
cp } bd
/_ctm matrix def
/_tm matrix def
/BT { _ctm currentmatrix pop matrix _tm copy pop 0 0 moveto } bd
/ET { _ctm setmatrix } bd
/iTm { _ctm setmatrix _tm concat } bd
/Tm { _tm astore pop iTm 0 0 moveto } bd
/ux 0.0 def
/uy 0.0 def
/F {
  /Tp exch def
  /Tf exch def
  Tf findfont Tp scalefont setfont
  /cf Tf def  /cs Tp def
} bd
/ULS {currentpoint /uy exch def /ux exch def} bd
/ULE {
  /Tcx currentpoint pop def
  gsave
  newpath
  cf findfont cs scalefont dup
  /FontMatrix get 0 get /Ts exch def /FontInfo get dup
  /UnderlinePosition get Ts mul /To exch def
  /UnderlineThickness get Ts mul /Tt exch def
  ux uy To add moveto  Tcx uy To add lineto
  Tt setlinewidth stroke
  grestore
} bd
/OLE {
  /Tcx currentpoint pop def
  gsave
  newpath
  cf findfont cs scalefont dup
  /FontMatrix get 0 get /Ts exch def /FontInfo get dup
  /UnderlinePosition get Ts mul /To exch def
  /UnderlineThickness get Ts mul /Tt exch def
  ux uy To add cs add moveto Tcx uy To add cs add lineto
  Tt setlinewidth stroke
  grestore
} bd
/SOE {
  /Tcx currentpoint pop def
  gsave
  newpath
  cf findfont cs scalefont dup
  /FontMatrix get 0 get /Ts exch def /FontInfo get dup
  /UnderlinePosition get Ts mul /To exch def
  /UnderlineThickness get Ts mul /Tt exch def
  ux uy To add cs 10 mul 26 idiv add moveto Tcx uy To add cs 10 mul 26 idiv add lineto
  Tt setlinewidth stroke
  grestore
} bd
/QT {
/Y22 exch store
/X22 exch store
/Y21 exch store
/X21 exch store
currentpoint
/Y21 load 2 mul add 3 div exch
/X21 load 2 mul add 3 div exch
/X21 load 2 mul /X22 load add 3 div
/Y21 load 2 mul /Y22 load add 3 div
/X22 load /Y22 load curveto
} bd
/SSPD {
dup length /d exch dict def
{
/v exch def
/k exch def
currentpagedevice k known {
/cpdv currentpagedevice k get def
v cpdv ne {
/upd false def
/nullv v type /nulltype eq def
/nullcpdv cpdv type /nulltype eq def
nullv nullcpdv or
{
/upd true def
} {
/sametype v type cpdv type eq def
sametype {
v type /arraytype eq {
/vlen v length def
/cpdvlen cpdv length def
vlen cpdvlen eq {
0 1 vlen 1 sub {
/i exch def
/obj v i get def
/cpdobj cpdv i get def
obj cpdobj ne {
/upd true def
exit
} if
} for
} {
/upd true def
} ifelse
} {
v type /dicttype eq {
v {
/dv exch def
/dk exch def
/cpddv cpdv dk get def
dv cpddv ne {
/upd true def
exit
} if
} forall
} {
/upd true def
} ifelse
} ifelse
} if
} ifelse
upd true eq {
d k v put
} if
} if
} if
} forall
d length 0 gt {
d setpagedevice
} if
} bd
%%EndResource
%%BeginResource: procset (Apache XML Graphics EPS ProcSet) 1.0 0
%%Version: 1.0 0
%%Copyright: (Copyright 2002-2003 The Apache Software Foundation. License terms: http://www.apache.org/licenses/LICENSE-2.0)
/BeginEPSF { %def
/b4_Inc_state save def         % Save state for cleanup
/dict_count countdictstack def % Count objects on dict stack
/op_count count 1 sub def      % Count objects on operand stack
userdict begin                 % Push userdict on dict stack
/showpage { } def              % Redefine showpage, { } = null proc
0 setgray 0 setlinecap         % Prepare graphics state
1 setlinewidth 0 setlinejoin
10 setmiterlimit [ ] 0 setdash newpath
/languagelevel where           % If level not equal to 1 then
{pop languagelevel             % set strokeadjust and
1 ne                           % overprint to their defaults.
{false setstrokeadjust false setoverprint
} if
} if
} bd
/EndEPSF { %def
count op_count sub {pop} repeat            % Clean up stacks
countdictstack dict_count sub {end} repeat
b4_Inc_state restore
} bd
%%EndResource
%FOPBeginFontDict
%%IncludeResource: font Courier-Bold
%%IncludeResource: font Helvetica
%%IncludeResource: font Courier-BoldOblique
%%IncludeResource: font Courier-Oblique
%%IncludeResource: font Times-Roman
%%IncludeResource: font Helvetica-BoldOblique
%%IncludeResource: font Helvetica-Bold
%%IncludeResource: font Helvetica-Oblique
%%IncludeResource: font Times-BoldItalic
%%IncludeResource: font Courier
%%IncludeResource: font Times-Italic
%%IncludeResource: font Times-Bold
%%IncludeResource: font Symbol
%%IncludeResource: font ZapfDingbats
%FOPEndFontDict
%%BeginResource: encoding WinAnsiEncoding
/WinAnsiEncoding [
/.notdef /.notdef /.notdef /.notdef /.notdef
/.notdef /.notdef /.notdef /.notdef /.notdef
/.notdef /.notdef /.notdef /.notdef /.notdef
/.notdef /.notdef /.notdef /.notdef /.notdef
/.notdef /.notdef /.notdef /.notdef /.notdef
/.notdef /.notdef /.notdef /.notdef /.notdef
/.notdef /.notdef /space /exclam /quotedbl
/numbersign /dollar /percent /ampersand /quotesingle
/parenleft /parenright /asterisk /plus /comma
/hyphen /period /slash /zero /one
/two /three /four /five /six
/seven /eight /nine /colon /semicolon
/less /equal /greater /question /at
/A /B /C /D /E
/F /G /H /I /J
/K /L /M /N /O
/P /Q /R /S /T
/U /V /W /X /Y
/Z /bracketleft /backslash /bracketright /asciicircum
/underscore /quoteleft /a /b /c
/d /e /f /g /h
/i /j /k /l /m
/n /o /p /q /r
/s /t /u /v /w
/x /y /z /braceleft /bar
/braceright /asciitilde /bullet /Euro /bullet
/quotesinglbase /florin /quotedblbase /ellipsis /dagger
/daggerdbl /circumflex /perthousand /Scaron /guilsinglleft
/OE /bullet /Zcaron /bullet /bullet
/quoteleft /quoteright /quotedblleft /quotedblright /bullet
/endash /emdash /asciitilde /trademark /scaron
/guilsinglright /oe /bullet /zcaron /Ydieresis
/space /exclamdown /cent /sterling /currency
/yen /brokenbar /section /dieresis /copyright
/ordfeminine /guillemotleft /logicalnot /sfthyphen /registered
/macron /degree /plusminus /twosuperior /threesuperior
/acute /mu /paragraph /middot /cedilla
/onesuperior /ordmasculine /guillemotright /onequarter /onehalf
/threequarters /questiondown /Agrave /Aacute /Acircumflex
/Atilde /Adieresis /Aring /AE /Ccedilla
/Egrave /Eacute /Ecircumflex /Edieresis /Igrave
/Iacute /Icircumflex /Idieresis /Eth /Ntilde
/Ograve /Oacute /Ocircumflex /Otilde /Odieresis
/multiply /Oslash /Ugrave /Uacute /Ucircumflex
/Udieresis /Yacute /Thorn /germandbls /agrave
/aacute /acircumflex /atilde /adieresis /aring
/ae /ccedilla /egrave /eacute /ecircumflex
/edieresis /igrave /iacute /icircumflex /idieresis
/eth /ntilde /ograve /oacute /ocircumflex
/otilde /odieresis /divide /oslash /ugrave
/uacute /ucircumflex /udieresis /yacute /thorn
/ydieresis
] def
%%EndResource
%FOPBeginFontReencode
/Courier-Bold findfont
dup length dict begin
  {1 index /FID ne {def} {pop pop} ifelse} forall
  /Encoding WinAnsiEncoding def
  currentdict
end
/Courier-Bold exch definefont pop
/Helvetica findfont
dup length dict begin
  {1 index /FID ne {def} {pop pop} ifelse} forall
  /Encoding WinAnsiEncoding def
  currentdict
end
/Helvetica exch definefont pop
/Courier-BoldOblique findfont
dup length dict begin
  {1 index /FID ne {def} {pop pop} ifelse} forall
  /Encoding WinAnsiEncoding def
  currentdict
end
/Courier-BoldOblique exch definefont pop
/Courier-Oblique findfont
dup length dict begin
  {1 index /FID ne {def} {pop pop} ifelse} forall
  /Encoding WinAnsiEncoding def
  currentdict
end
/Courier-Oblique exch definefont pop
/Times-Roman findfont
dup length dict begin
  {1 index /FID ne {def} {pop pop} ifelse} forall
  /Encoding WinAnsiEncoding def
  currentdict
end
/Times-Roman exch definefont pop
/Helvetica-BoldOblique findfont
dup length dict begin
  {1 index /FID ne {def} {pop pop} ifelse} forall
  /Encoding WinAnsiEncoding def
  currentdict
end
/Helvetica-BoldOblique exch definefont pop
/Helvetica-Bold findfont
dup length dict begin
  {1 index /FID ne {def} {pop pop} ifelse} forall
  /Encoding WinAnsiEncoding def
  currentdict
end
/Helvetica-Bold exch definefont pop
/Helvetica-Oblique findfont
dup length dict begin
  {1 index /FID ne {def} {pop pop} ifelse} forall
  /Encoding WinAnsiEncoding def
  currentdict
end
/Helvetica-Oblique exch definefont pop
/Times-BoldItalic findfont
dup length dict begin
  {1 index /FID ne {def} {pop pop} ifelse} forall
  /Encoding WinAnsiEncoding def
  currentdict
end
/Times-BoldItalic exch definefont pop
/Courier findfont
dup length dict begin
  {1 index /FID ne {def} {pop pop} ifelse} forall
  /Encoding WinAnsiEncoding def
  currentdict
end
/Courier exch definefont pop
/Times-Italic findfont
dup length dict begin
  {1 index /FID ne {def} {pop pop} ifelse} forall
  /Encoding WinAnsiEncoding def
  currentdict
end
/Times-Italic exch definefont pop
/Times-Bold findfont
dup length dict begin
  {1 index /FID ne {def} {pop pop} ifelse} forall
  /Encoding WinAnsiEncoding def
  currentdict
end
/Times-Bold exch definefont pop
%FOPEndFontReencode
%%EndProlog
%%Page: 1 1
%%PageBoundingBox: 0 0 576 432
%%BeginPageSetup
[1 0 0 -1 0 432] CT
%%EndPageSetup
GS
[0.75 0 0 0.75 0 0] CT
0.997 GC
N
0 0 768 576 re
f
GR
GS
[0.75 0 0 0.75 0 0] CT
0.997 GC
N
0 0 768 576 re
f
GR
GS
[0.75 0 0 0.75 0 0] CT
0.997 GC
N
100 513 M
695 513 L
695 43 L
100 43 L
cp
f
GR
GS
[0.75 0 0 0.75 0 0] CT
0 GC
2 setlinecap
1 LJ
0.667 LW
N
100 513 M
695 513 L
S
GR
GS
[0.75 0 0 0.75 0 0] CT
0 GC
2 setlinecap
1 LJ
0.667 LW
N
100 43 M
695 43 L
S
GR
GS
[0.75 0 0 0.75 0 0] CT
0 GC
2 setlinecap
1 LJ
0.667 LW
N
100 513 M
100 507.05 L
S
GR
GS
[0.75 0 0 0.75 0 0] CT
0 GC
2 setlinecap
1 LJ
0.667 LW
N
159.5 513 M
159.5 507.05 L
S
GR
GS
[0.75 0 0 0.75 0 0] CT
0 GC
2 setlinecap
1 LJ
0.667 LW
N
219 513 M
219 507.05 L
S
GR
GS
[0.75 0 0 0.75 0 0] CT
0 GC
2 setlinecap
1 LJ
0.667 LW
N
278.5 513 M
278.5 507.05 L
S
GR
GS
[0.75 0 0 0.75 0 0] CT
0 GC
2 setlinecap
1 LJ
0.667 LW
N
338 513 M
338 507.05 L
S
GR
GS
[0.75 0 0 0.75 0 0] CT
0 GC
2 setlinecap
1 LJ
0.667 LW
N
397.5 513 M
397.5 507.05 L
S
GR
GS
[0.75 0 0 0.75 0 0] CT
0 GC
2 setlinecap
1 LJ
0.667 LW
N
457 513 M
457 507.05 L
S
GR
GS
[0.75 0 0 0.75 0 0] CT
0 GC
2 setlinecap
1 LJ
0.667 LW
N
516.5 513 M
516.5 507.05 L
S
GR
GS
[0.75 0 0 0.75 0 0] CT
0 GC
2 setlinecap
1 LJ
0.667 LW
N
576 513 M
576 507.05 L
S
GR
GS
[0.75 0 0 0.75 0 0] CT
0 GC
2 setlinecap
1 LJ
0.667 LW
N
635.5 513 M
635.5 507.05 L
S
GR
GS
[0.75 0 0 0.75 0 0] CT
0 GC
2 setlinecap
1 LJ
0.667 LW
N
695 513 M
695 507.05 L
S
GR
GS
[0.75 0 0 0.75 0 0] CT
0 GC
2 setlinecap
1 LJ
0.667 LW
N
100 43 M
100 48.95 L
S
GR
GS
[0.75 0 0 0.75 0 0] CT
0 GC
2 setlinecap
1 LJ
0.667 LW
N
159.5 43 M
159.5 48.95 L
S
GR
GS
[0.75 0 0 0.75 0 0] CT
0 GC
2 setlinecap
1 LJ
0.667 LW
N
219 43 M
219 48.95 L
S
GR
GS
[0.75 0 0 0.75 0 0] CT
0 GC
2 setlinecap
1 LJ
0.667 LW
N
278.5 43 M
278.5 48.95 L
S
GR
GS
[0.75 0 0 0.75 0 0] CT
0 GC
2 setlinecap
1 LJ
0.667 LW
N
338 43 M
338 48.95 L
S
GR
GS
[0.75 0 0 0.75 0 0] CT
0 GC
2 setlinecap
1 LJ
0.667 LW
N
397.5 43 M
397.5 48.95 L
S
GR
GS
[0.75 0 0 0.75 0 0] CT
0 GC
2 setlinecap
1 LJ
0.667 LW
N
457 43 M
457 48.95 L
S
GR
GS
[0.75 0 0 0.75 0 0] CT
0 GC
2 setlinecap
1 LJ
0.667 LW
N
516.5 43 M
516.5 48.95 L
S
GR
GS
[0.75 0 0 0.75 0 0] CT
0 GC
2 setlinecap
1 LJ
0.667 LW
N
576 43 M
576 48.95 L
S
GR
GS
[0.75 0 0 0.75 0 0] CT
0 GC
2 setlinecap
1 LJ
0.667 LW
N
635.5 43 M
635.5 48.95 L
S
GR
GS
[0.75 0 0 0.75 0 0] CT
0 GC
2 setlinecap
1 LJ
0.667 LW
N
695 43 M
695 48.95 L
S
GR
GS
[0.75 0 0 0.75 75 388.74998] CT
0 GC
/Helvetica 13 F
GS
[1 0 0 1 0 0] CT
-4 14 moveto 
1 -1 scale
(0) t 
GR
GR
GS
[0.75 0 0 0.75 119.625 388.74998] CT
0 GC
/Helvetica 13 F
GS
[1 0 0 1 0 0] CT
-9.5 14 moveto 
1 -1 scale
(0.1) t 
GR
GR
GS
[0.75 0 0 0.75 164.25 388.74998] CT
0 GC
/Helvetica 13 F
GS
[1 0 0 1 0 0] CT
-9.5 14 moveto 
1 -1 scale
(0.2) t 
GR
GR
GS
[0.75 0 0 0.75 208.875 388.74998] CT
0 GC
/Helvetica 13 F
GS
[1 0 0 1 0 0] CT
-9.5 14 moveto 
1 -1 scale
(0.3) t 
GR
GR
GS
[0.75 0 0 0.75 253.5 388.74998] CT
0 GC
/Helvetica 13 F
GS
[1 0 0 1 0 0] CT
-9.5 14 moveto 
1 -1 scale
(0.4) t 
GR
GR
GS
[0.75 0 0 0.75 298.125 388.74998] CT
0 GC
/Helvetica 13 F
GS
[1 0 0 1 0 0] CT
-9.5 14 moveto 
1 -1 scale
(0.5) t 
GR
GR
GS
[0.75 0 0 0.75 342.75 388.74998] CT
0 GC
/Helvetica 13 F
GS
[1 0 0 1 0 0] CT
-9.5 14 moveto 
1 -1 scale
(0.6) t 
GR
GR
GS
[0.75 0 0 0.75 387.375 388.74998] CT
0 GC
/Helvetica 13 F
GS
[1 0 0 1 0 0] CT
-9.5 14 moveto 
1 -1 scale
(0.7) t 
GR
GR
GS
[0.75 0 0 0.75 432 388.74998] CT
0 GC
/Helvetica 13 F
GS
[1 0 0 1 0 0] CT
-9.5 14 moveto 
1 -1 scale
(0.8) t 
GR
GR
GS
[0.75 0 0 0.75 476.625 388.74998] CT
0 GC
/Helvetica 13 F
GS
[1 0 0 1 0 0] CT
-9.5 14 moveto 
1 -1 scale
(0.9) t 
GR
GR
GS
[0.75 0 0 0.75 521.25 388.74998] CT
0 GC
/Helvetica 13 F
GS
[1 0 0 1 0 0] CT
-4 14 moveto 
1 -1 scale
(1) t 
GR
GR
GS
[0.75 0 0 0.75 295.5 414.75] CT
0 GC
/Helvetica-Italic 15 F
GS
[1 0 0 1 0 0] CT
0 0 moveto 
1 -1 scale
(x) t 
GR
GR
GS
[0.75 0 0 0.75 0 0] CT
0 GC
2 setlinecap
1 LJ
0.667 LW
N
100 513 M
100 43 L
S
GR
GS
[0.75 0 0 0.75 0 0] CT
0 GC
2 setlinecap
1 LJ
0.667 LW
N
695 513 M
695 43 L
S
GR
GS
[0.75 0 0 0.75 0 0] CT
0 GC
2 setlinecap
1 LJ
0.667 LW
N
100 513 M
105.95 513 L
S
GR
GS
[0.75 0 0 0.75 0 0] CT
0 GC
2 setlinecap
1 LJ
0.667 LW
N
100 454.25 M
105.95 454.25 L
S
GR
GS
[0.75 0 0 0.75 0 0] CT
0 GC
2 setlinecap
1 LJ
0.667 LW
N
100 395.5 M
105.95 395.5 L
S
GR
GS
[0.75 0 0 0.75 0 0] CT
0 GC
2 setlinecap
1 LJ
0.667 LW
N
100 336.75 M
105.95 336.75 L
S
GR
GS
[0.75 0 0 0.75 0 0] CT
0 GC
2 setlinecap
1 LJ
0.667 LW
N
100 278 M
105.95 278 L
S
GR
GS
[0.75 0 0 0.75 0 0] CT
0 GC
2 setlinecap
1 LJ
0.667 LW
N
100 219.25 M
105.95 219.25 L
S
GR
GS
[0.75 0 0 0.75 0 0] CT
0 GC
2 setlinecap
1 LJ
0.667 LW
N
100 160.5 M
105.95 160.5 L
S
GR
GS
[0.75 0 0 0.75 0 0] CT
0 GC
2 setlinecap
1 LJ
0.667 LW
N
100 101.75 M
105.95 101.75 L
S
GR
GS
[0.75 0 0 0.75 0 0] CT
0 GC
2 setlinecap
1 LJ
0.667 LW
N
100 43 M
105.95 43 L
S
GR
GS
[0.75 0 0 0.75 0 0] CT
0 GC
2 setlinecap
1 LJ
0.667 LW
N
695 513 M
689.05 513 L
S
GR
GS
[0.75 0 0 0.75 0 0] CT
0 GC
2 setlinecap
1 LJ
0.667 LW
N
695 454.25 M
689.05 454.25 L
S
GR
GS
[0.75 0 0 0.75 0 0] CT
0 GC
2 setlinecap
1 LJ
0.667 LW
N
695 395.5 M
689.05 395.5 L
S
GR
GS
[0.75 0 0 0.75 0 0] CT
0 GC
2 setlinecap
1 LJ
0.667 LW
N
695 336.75 M
689.05 336.75 L
S
GR
GS
[0.75 0 0 0.75 0 0] CT
0 GC
2 setlinecap
1 LJ
0.667 LW
N
695 278 M
689.05 278 L
S
GR
GS
[0.75 0 0 0.75 0 0] CT
0 GC
2 setlinecap
1 LJ
0.667 LW
N
695 219.25 M
689.05 219.25 L
S
GR
GS
[0.75 0 0 0.75 0 0] CT
0 GC
2 setlinecap
1 LJ
0.667 LW
N
695 160.5 M
689.05 160.5 L
S
GR
GS
[0.75 0 0 0.75 0 0] CT
0 GC
2 setlinecap
1 LJ
0.667 LW
N
695 101.75 M
689.05 101.75 L
S
GR
GS
[0.75 0 0 0.75 0 0] CT
0 GC
2 setlinecap
1 LJ
0.667 LW
N
695 43 M
689.05 43 L
S
GR
GS
[0.75 0 0 0.75 71 384.75] CT
0 GC
/Helvetica 13 F
GS
[1 0 0 1 0 0] CT
-8 5.5 moveto 
1 -1 scale
(0) t 
GR
GR
GS
[0.75 0 0 0.75 71 340.6875] CT
0 GC
/Helvetica 13 F
GS
[1 0 0 1 0 0] CT
-19 5.5 moveto 
1 -1 scale
(0.5) t 
GR
GR
GS
[0.75 0 0 0.75 71 296.625] CT
0 GC
/Helvetica 13 F
GS
[1 0 0 1 0 0] CT
-8 5.5 moveto 
1 -1 scale
(1) t 
GR
GR
GS
[0.75 0 0 0.75 71 252.5625] CT
0 GC
/Helvetica 13 F
GS
[1 0 0 1 0 0] CT
-19 5.5 moveto 
1 -1 scale
(1.5) t 
GR
GR
GS
[0.75 0 0 0.75 71 208.5] CT
0 GC
/Helvetica 13 F
GS
[1 0 0 1 0 0] CT
-8 5.5 moveto 
1 -1 scale
(2) t 
GR
GR
GS
[0.75 0 0 0.75 71 164.4375] CT
0 GC
/Helvetica 13 F
GS
[1 0 0 1 0 0] CT
-19 5.5 moveto 
1 -1 scale
(2.5) t 
GR
GR
GS
[0.75 0 0 0.75 71 120.375] CT
0 GC
/Helvetica 13 F
GS
[1 0 0 1 0 0] CT
-8 5.5 moveto 
1 -1 scale
(3) t 
GR
GR
GS
[0.75 0 0 0.75 71 76.3125] CT
0 GC
/Helvetica 13 F
GS
[1 0 0 1 0 0] CT
-19 5.5 moveto 
1 -1 scale
(3.5) t 
GR
GR
GS
[0.75 0 0 0.75 71 32.25] CT
0 GC
/Helvetica 13 F
GS
[1 0 0 1 0 0] CT
-8 5.5 moveto 
1 -1 scale
(4) t 
GR
GR
GS
[0 -0.75 0.75 0 51 211.5] CT
0 GC
/Helvetica-Italic 15 F
GS
[1 0 0 1 0 0] CT
0 0 moveto 
1 -1 scale
(y) t 
GR
GR
GS
[0.75 0 0 0.75 185.25 27] CT
0 GC
/Helvetica-Bold 15 F
GS
[1 0 0 1 0 0] CT
0 0 moveto 
1 -1 scale
(The Exponential Function ) t 
GR
GR
GS
[0.75 0 0 0.75 326.25 27] CT
0 GC
/Helvetica-BoldItalic 15 F
GS
[1 0 0 1 0 0] CT
0 0 moveto 
1 -1 scale
(y) t 
GR
GR
GS
[0.75 0 0 0.75 333 27] CT
0 GC
/Helvetica-Bold 15 F
GS
[1 0 0 1 0 0] CT
0 0 moveto 
1 -1 scale
( = 10) t 
GR
GR
GS
[0.75 0 0 0.75 358.5 21.75] CT
0 GC
/Helvetica-BoldItalic 11 F
GS
[1 0 0 1 0 0] CT
0 0 moveto 
1 -1 scale
(mx) t 
GR
GR
GS
[0.75 0 0 0.75 370.5 27] CT
0 GC
/Helvetica-Bold 15 F
GS
[1 0 0 1 0 0] CT
0 0 moveto 
1 -1 scale
( \(th174\)) t 
GR
GR
GS
[0.75 0 0 0.75 0 0] CT
0 GC
1 LJ
0.667 LW
N
100 395.5 M
100.596 396.04 L
101.191 396.578 L
101.787 397.114 L
102.382 397.647 L
102.978 398.177 L
103.574 398.705 L
104.169 399.231 L
104.765 399.754 L
105.36 400.275 L
105.956 400.794 L
106.552 401.31 L
107.147 401.823 L
107.743 402.335 L
108.338 402.844 L
108.934 403.35 L
109.53 403.854 L
110.125 404.356 L
110.721 404.856 L
111.316 405.354 L
111.912 405.849 L
112.508 406.341 L
113.103 406.832 L
113.699 407.32 L
114.294 407.806 L
114.89 408.29 L
115.485 408.772 L
116.081 409.251 L
116.677 409.728 L
117.272 410.203 L
117.868 410.676 L
118.463 411.147 L
119.059 411.615 L
119.655 412.081 L
120.25 412.545 L
120.846 413.007 L
121.441 413.467 L
122.037 413.925 L
122.633 414.381 L
123.228 414.834 L
123.824 415.286 L
124.419 415.735 L
125.015 416.183 L
125.611 416.628 L
126.206 417.071 L
126.802 417.512 L
127.397 417.951 L
127.993 418.389 L
128.589 418.824 L
129.184 419.257 L
S
GR
GS
[0.75 0 0 0.75 0 0] CT
0 GC
1 LJ
0.667 LW
N
128.589 418.824 M
129.184 419.257 L
129.78 419.688 L
130.375 420.117 L
130.971 420.544 L
131.567 420.97 L
132.162 421.393 L
132.758 421.814 L
133.353 422.233 L
133.949 422.651 L
134.545 423.066 L
135.14 423.48 L
135.736 423.892 L
136.331 424.302 L
136.927 424.71 L
137.523 425.116 L
138.118 425.52 L
138.714 425.922 L
139.309 426.323 L
139.905 426.721 L
140.501 427.118 L
141.096 427.513 L
141.692 427.906 L
142.287 428.298 L
142.883 428.687 L
143.478 429.075 L
144.074 429.461 L
144.67 429.845 L
145.265 430.228 L
145.861 430.608 L
146.456 430.987 L
147.052 431.364 L
147.648 431.74 L
148.243 432.114 L
148.839 432.486 L
149.434 432.856 L
150.03 433.224 L
150.626 433.591 L
151.221 433.957 L
151.817 434.32 L
152.412 434.682 L
153.008 435.042 L
153.604 435.401 L
154.199 435.758 L
154.795 436.113 L
155.39 436.466 L
155.986 436.818 L
156.582 437.169 L
157.177 437.518 L
157.773 437.865 L
158.368 438.21 L
158.964 438.554 L
S
GR
GS
[0.75 0 0 0.75 0 0] CT
0 GC
1 LJ
0.667 LW
N
158.368 438.21 M
158.964 438.554 L
159.56 438.897 L
160.155 439.237 L
160.751 439.577 L
161.346 439.914 L
161.942 440.251 L
162.538 440.585 L
163.133 440.918 L
163.729 441.25 L
164.324 441.58 L
164.92 441.908 L
165.516 442.235 L
166.111 442.561 L
166.707 442.885 L
167.302 443.207 L
167.898 443.528 L
168.493 443.848 L
169.089 444.166 L
169.685 444.482 L
170.28 444.797 L
170.876 445.111 L
171.471 445.423 L
172.067 445.734 L
172.663 446.043 L
173.258 446.351 L
173.854 446.658 L
174.449 446.963 L
175.045 447.267 L
175.641 447.569 L
176.236 447.87 L
176.832 448.169 L
177.427 448.468 L
178.023 448.764 L
178.619 449.06 L
179.214 449.354 L
179.81 449.647 L
180.405 449.938 L
181.001 450.228 L
181.597 450.517 L
182.192 450.804 L
182.788 451.09 L
183.383 451.375 L
183.979 451.658 L
184.575 451.94 L
185.17 452.221 L
185.766 452.501 L
186.361 452.779 L
186.957 453.056 L
187.553 453.332 L
188.148 453.606 L
188.744 453.879 L
S
GR
GS
[0.75 0 0 0.75 0 0] CT
0 GC
1 LJ
0.667 LW
N
188.148 453.606 M
188.744 453.879 L
189.339 454.151 L
189.935 454.422 L
190.531 454.691 L
191.126 454.959 L
191.722 455.226 L
192.317 455.492 L
192.913 455.757 L
193.508 456.02 L
194.104 456.282 L
194.7 456.543 L
195.295 456.802 L
195.891 457.061 L
196.486 457.318 L
197.082 457.574 L
197.678 457.829 L
198.273 458.083 L
198.869 458.335 L
199.464 458.587 L
200.06 458.837 L
200.656 459.086 L
201.251 459.334 L
201.847 459.581 L
202.442 459.827 L
203.038 460.071 L
203.634 460.315 L
204.229 460.557 L
204.825 460.798 L
205.42 461.038 L
206.016 461.277 L
206.612 461.515 L
207.207 461.752 L
207.803 461.988 L
208.398 462.222 L
208.994 462.456 L
209.59 462.688 L
210.185 462.92 L
210.781 463.15 L
211.376 463.379 L
211.972 463.607 L
212.568 463.835 L
213.163 464.061 L
213.759 464.286 L
214.354 464.51 L
214.95 464.733 L
215.546 464.955 L
216.141 465.176 L
216.737 465.396 L
217.332 465.615 L
217.928 465.833 L
218.524 466.05 L
S
GR
GS
[0.75 0 0 0.75 0 0] CT
0 GC
1 LJ
0.667 LW
N
217.928 465.833 M
218.524 466.05 L
219.119 466.266 L
219.715 466.48 L
220.31 466.694 L
220.906 466.907 L
221.501 467.119 L
222.097 467.33 L
222.693 467.54 L
223.288 467.749 L
223.884 467.958 L
224.479 468.165 L
225.075 468.371 L
225.671 468.576 L
226.266 468.781 L
226.862 468.984 L
227.457 469.186 L
228.053 469.388 L
228.649 469.588 L
229.244 469.788 L
229.84 469.987 L
230.435 470.185 L
231.031 470.382 L
231.627 470.578 L
232.222 470.773 L
232.818 470.967 L
233.413 471.16 L
234.009 471.353 L
234.605 471.544 L
235.2 471.735 L
235.796 471.925 L
236.391 472.114 L
236.987 472.302 L
237.583 472.489 L
238.178 472.675 L
238.774 472.861 L
239.369 473.045 L
239.965 473.229 L
240.561 473.412 L
241.156 473.594 L
241.752 473.775 L
242.347 473.956 L
242.943 474.135 L
243.539 474.314 L
244.134 474.492 L
244.73 474.669 L
245.325 474.845 L
245.921 475.021 L
246.517 475.195 L
247.112 475.369 L
247.708 475.542 L
248.303 475.715 L
S
GR
GS
[0.75 0 0 0.75 0 0] CT
0 GC
1 LJ
0.667 LW
N
247.708 475.542 M
248.303 475.715 L
248.899 475.886 L
249.494 476.057 L
250.09 476.227 L
250.686 476.396 L
251.281 476.564 L
251.877 476.732 L
252.472 476.898 L
253.068 477.065 L
253.664 477.23 L
254.259 477.394 L
254.855 477.558 L
255.45 477.721 L
256.046 477.883 L
256.642 478.045 L
257.237 478.206 L
257.833 478.366 L
258.428 478.525 L
259.024 478.683 L
259.62 478.841 L
260.215 478.998 L
260.811 479.155 L
261.406 479.31 L
262.002 479.465 L
262.598 479.62 L
263.193 479.773 L
263.789 479.926 L
264.384 480.078 L
264.98 480.229 L
265.576 480.38 L
266.171 480.53 L
266.767 480.68 L
267.362 480.828 L
267.958 480.976 L
268.554 481.123 L
269.149 481.27 L
269.745 481.416 L
270.34 481.561 L
270.936 481.706 L
271.532 481.85 L
272.127 481.993 L
272.723 482.136 L
273.318 482.278 L
273.914 482.419 L
274.51 482.56 L
275.105 482.7 L
275.701 482.839 L
276.296 482.978 L
276.892 483.116 L
277.487 483.253 L
278.083 483.39 L
S
GR
GS
[0.75 0 0 0.75 0 0] CT
0 GC
1 LJ
0.667 LW
N
277.487 483.253 M
278.083 483.39 L
278.679 483.526 L
279.274 483.662 L
279.87 483.797 L
280.465 483.931 L
281.061 484.065 L
281.657 484.198 L
282.252 484.33 L
282.848 484.462 L
283.443 484.593 L
284.039 484.724 L
284.635 484.854 L
285.23 484.983 L
285.826 485.112 L
286.421 485.241 L
287.017 485.368 L
287.613 485.495 L
288.208 485.622 L
288.804 485.748 L
289.399 485.873 L
289.995 485.998 L
290.591 486.122 L
291.186 486.246 L
291.782 486.369 L
292.377 486.491 L
292.973 486.613 L
293.569 486.734 L
294.164 486.855 L
294.76 486.975 L
295.355 487.095 L
295.951 487.214 L
296.547 487.333 L
297.142 487.451 L
297.738 487.568 L
298.333 487.685 L
298.929 487.802 L
299.525 487.918 L
300.12 488.033 L
300.716 488.148 L
301.311 488.262 L
301.907 488.376 L
302.503 488.489 L
303.098 488.602 L
303.694 488.714 L
304.289 488.826 L
304.885 488.937 L
305.48 489.048 L
306.076 489.158 L
306.672 489.268 L
307.267 489.377 L
307.863 489.485 L
S
GR
GS
[0.75 0 0 0.75 0 0] CT
0 GC
1 LJ
0.667 LW
N
307.267 489.377 M
307.863 489.485 L
308.458 489.593 L
309.054 489.701 L
309.65 489.808 L
310.245 489.915 L
310.841 490.021 L
311.436 490.127 L
312.032 490.232 L
312.628 490.337 L
313.223 490.441 L
313.819 490.545 L
314.414 490.648 L
315.01 490.751 L
315.606 490.853 L
316.201 490.955 L
316.797 491.056 L
317.392 491.157 L
317.988 491.258 L
318.584 491.358 L
319.179 491.457 L
319.775 491.556 L
320.37 491.655 L
320.966 491.753 L
321.562 491.851 L
322.157 491.948 L
322.753 492.045 L
323.348 492.141 L
323.944 492.237 L
324.54 492.333 L
325.135 492.428 L
325.731 492.522 L
326.326 492.617 L
326.922 492.71 L
327.518 492.804 L
328.113 492.897 L
328.709 492.989 L
329.304 493.081 L
329.9 493.173 L
330.496 493.264 L
331.091 493.355 L
331.687 493.445 L
332.282 493.535 L
332.878 493.624 L
333.473 493.714 L
334.069 493.802 L
334.665 493.891 L
335.26 493.978 L
335.856 494.066 L
336.451 494.153 L
337.047 494.24 L
337.643 494.326 L
S
GR
GS
[0.75 0 0 0.75 0 0] CT
0 GC
1 LJ
0.667 LW
N
337.047 494.24 M
337.643 494.326 L
338.238 494.412 L
338.834 494.497 L
339.429 494.582 L
340.025 494.667 L
340.621 494.751 L
341.216 494.835 L
341.812 494.919 L
342.407 495.002 L
343.003 495.085 L
343.599 495.167 L
344.194 495.249 L
344.79 495.331 L
345.385 495.412 L
345.981 495.493 L
346.577 495.574 L
347.172 495.654 L
347.768 495.733 L
348.363 495.813 L
348.959 495.892 L
349.555 495.971 L
350.15 496.049 L
350.746 496.127 L
351.341 496.204 L
351.937 496.282 L
352.533 496.359 L
353.128 496.435 L
353.724 496.511 L
354.319 496.587 L
354.915 496.663 L
355.511 496.738 L
356.106 496.813 L
356.702 496.887 L
357.297 496.961 L
357.893 497.035 L
358.488 497.108 L
359.084 497.181 L
359.68 497.254 L
360.275 497.327 L
360.871 497.399 L
361.466 497.47 L
362.062 497.542 L
362.658 497.613 L
363.253 497.684 L
363.849 497.754 L
364.444 497.824 L
365.04 497.894 L
365.636 497.964 L
366.231 498.033 L
366.827 498.102 L
367.422 498.17 L
S
GR
GS
[0.75 0 0 0.75 0 0] CT
0 GC
1 LJ
0.667 LW
N
366.827 498.102 M
367.422 498.17 L
368.018 498.238 L
368.614 498.306 L
369.209 498.374 L
369.805 498.441 L
370.4 498.508 L
370.996 498.575 L
371.592 498.641 L
372.187 498.707 L
372.783 498.773 L
373.378 498.838 L
373.974 498.903 L
374.57 498.968 L
375.165 499.033 L
375.761 499.097 L
376.356 499.161 L
376.952 499.225 L
377.548 499.288 L
378.143 499.351 L
378.739 499.414 L
379.334 499.476 L
379.93 499.538 L
380.526 499.6 L
381.121 499.662 L
381.717 499.723 L
382.312 499.784 L
382.908 499.845 L
383.504 499.906 L
384.099 499.966 L
384.695 500.026 L
385.29 500.085 L
385.886 500.145 L
386.481 500.204 L
387.077 500.263 L
387.673 500.321 L
388.268 500.38 L
388.864 500.438 L
389.459 500.496 L
390.055 500.553 L
390.651 500.61 L
391.246 500.667 L
391.842 500.724 L
392.437 500.78 L
393.033 500.837 L
393.629 500.893 L
394.224 500.948 L
394.82 501.004 L
395.415 501.059 L
396.011 501.114 L
396.607 501.168 L
397.202 501.223 L
S
GR
GS
[0.75 0 0 0.75 0 0] CT
0 GC
1 LJ
0.667 LW
N
396.607 501.168 M
397.202 501.223 L
397.798 501.277 L
398.393 501.331 L
398.989 501.385 L
399.585 501.438 L
400.18 501.491 L
400.776 501.544 L
401.371 501.597 L
401.967 501.649 L
402.563 501.702 L
403.158 501.753 L
403.754 501.805 L
404.349 501.857 L
404.945 501.908 L
405.541 501.959 L
406.136 502.01 L
406.732 502.06 L
407.327 502.111 L
407.923 502.161 L
408.519 502.211 L
409.114 502.26 L
409.71 502.31 L
410.305 502.359 L
410.901 502.408 L
411.496 502.456 L
412.092 502.505 L
412.688 502.553 L
413.283 502.601 L
413.879 502.649 L
414.474 502.697 L
415.07 502.744 L
415.666 502.791 L
416.261 502.838 L
416.857 502.885 L
417.452 502.931 L
418.048 502.978 L
418.644 503.024 L
419.239 503.07 L
419.835 503.115 L
420.43 503.161 L
421.026 503.206 L
421.622 503.251 L
422.217 503.296 L
422.813 503.341 L
423.408 503.385 L
424.004 503.429 L
424.6 503.473 L
425.195 503.517 L
425.791 503.561 L
426.386 503.604 L
426.982 503.647 L
S
GR
GS
[0.75 0 0 0.75 0 0] CT
0 GC
1 LJ
0.667 LW
N
426.386 503.604 M
426.982 503.647 L
427.578 503.69 L
428.173 503.733 L
428.769 503.776 L
429.364 503.818 L
429.96 503.86 L
430.556 503.902 L
431.151 503.944 L
431.747 503.986 L
432.342 504.027 L
432.938 504.069 L
433.534 504.11 L
434.129 504.151 L
434.725 504.191 L
435.32 504.232 L
435.916 504.272 L
436.512 504.312 L
437.107 504.352 L
437.703 504.392 L
438.298 504.432 L
438.894 504.471 L
439.49 504.51 L
440.085 504.549 L
440.681 504.588 L
441.276 504.627 L
441.872 504.665 L
442.467 504.704 L
443.063 504.742 L
443.659 504.78 L
444.254 504.818 L
444.85 504.855 L
445.445 504.893 L
446.041 504.93 L
446.637 504.967 L
447.232 505.004 L
447.828 505.041 L
448.423 505.077 L
449.019 505.114 L
449.615 505.15 L
450.21 505.186 L
450.806 505.222 L
451.401 505.258 L
451.997 505.294 L
452.593 505.329 L
453.188 505.364 L
453.784 505.399 L
454.379 505.434 L
454.975 505.469 L
455.571 505.504 L
456.166 505.538 L
456.762 505.573 L
S
GR
GS
[0.75 0 0 0.75 0 0] CT
0 GC
1 LJ
0.667 LW
N
456.166 505.538 M
456.762 505.573 L
457.357 505.607 L
457.953 505.641 L
458.549 505.675 L
459.144 505.708 L
459.74 505.742 L
460.335 505.775 L
460.931 505.808 L
461.527 505.841 L
462.122 505.874 L
462.718 505.907 L
463.313 505.94 L
463.909 505.972 L
464.504 506.005 L
465.1 506.037 L
465.696 506.069 L
466.291 506.101 L
466.887 506.132 L
467.482 506.164 L
468.078 506.195 L
468.674 506.227 L
469.269 506.258 L
469.865 506.289 L
470.46 506.32 L
471.056 506.35 L
471.652 506.381 L
472.247 506.411 L
472.843 506.442 L
473.438 506.472 L
474.034 506.502 L
474.63 506.532 L
475.225 506.562 L
475.821 506.591 L
476.416 506.621 L
477.012 506.65 L
477.608 506.679 L
478.203 506.708 L
478.799 506.737 L
479.394 506.766 L
479.99 506.795 L
480.586 506.823 L
481.181 506.852 L
481.777 506.88 L
482.372 506.908 L
482.968 506.936 L
483.564 506.964 L
484.159 506.992 L
484.755 507.019 L
485.35 507.047 L
485.946 507.074 L
486.542 507.102 L
S
GR
GS
[0.75 0 0 0.75 0 0] CT
0 GC
1 LJ
0.667 LW
N
485.946 507.074 M
486.542 507.102 L
487.137 507.129 L
487.733 507.156 L
488.328 507.183 L
488.924 507.209 L
489.52 507.236 L
490.115 507.262 L
490.711 507.289 L
491.306 507.315 L
491.902 507.341 L
492.497 507.367 L
493.093 507.393 L
493.689 507.419 L
494.284 507.445 L
494.88 507.47 L
495.475 507.496 L
496.071 507.521 L
496.667 507.546 L
497.262 507.571 L
497.858 507.596 L
498.453 507.621 L
499.049 507.646 L
499.645 507.67 L
500.24 507.695 L
500.836 507.719 L
501.431 507.744 L
502.027 507.768 L
502.623 507.792 L
503.218 507.816 L
503.814 507.84 L
504.409 507.863 L
505.005 507.887 L
505.601 507.91 L
506.196 507.934 L
506.792 507.957 L
507.387 507.98 L
507.983 508.003 L
508.579 508.026 L
509.174 508.049 L
509.77 508.072 L
510.365 508.095 L
510.961 508.117 L
511.557 508.14 L
512.152 508.162 L
512.748 508.184 L
513.343 508.207 L
513.939 508.229 L
514.535 508.251 L
515.13 508.272 L
515.726 508.294 L
516.321 508.316 L
S
GR
GS
[0.75 0 0 0.75 0 0] CT
0 GC
1 LJ
0.667 LW
N
515.726 508.294 M
516.321 508.316 L
516.917 508.337 L
517.513 508.359 L
518.108 508.38 L
518.704 508.401 L
519.299 508.422 L
519.895 508.444 L
520.49 508.465 L
521.086 508.485 L
521.682 508.506 L
522.277 508.527 L
522.873 508.547 L
523.468 508.568 L
524.064 508.588 L
524.66 508.609 L
525.255 508.629 L
525.851 508.649 L
526.446 508.669 L
527.042 508.689 L
527.638 508.709 L
528.233 508.728 L
528.829 508.748 L
529.424 508.768 L
530.02 508.787 L
530.616 508.806 L
531.211 508.826 L
531.807 508.845 L
532.402 508.864 L
532.998 508.883 L
533.594 508.902 L
534.189 508.921 L
534.785 508.94 L
535.38 508.958 L
535.976 508.977 L
536.572 508.995 L
537.167 509.014 L
537.763 509.032 L
538.358 509.05 L
538.954 509.068 L
539.55 509.087 L
540.145 509.105 L
540.741 509.122 L
541.336 509.14 L
541.932 509.158 L
542.528 509.176 L
543.123 509.193 L
543.719 509.211 L
544.314 509.228 L
544.91 509.246 L
545.505 509.263 L
546.101 509.28 L
S
GR
GS
[0.75 0 0 0.75 0 0] CT
0 GC
1 LJ
0.667 LW
N
545.505 509.263 M
546.101 509.28 L
546.697 509.297 L
547.292 509.314 L
547.888 509.331 L
548.484 509.348 L
549.079 509.365 L
549.675 509.382 L
550.27 509.398 L
550.866 509.415 L
551.461 509.431 L
552.057 509.448 L
552.653 509.464 L
553.248 509.48 L
553.844 509.496 L
554.439 509.513 L
555.035 509.529 L
555.631 509.545 L
556.226 509.56 L
556.822 509.576 L
557.417 509.592 L
558.013 509.608 L
558.609 509.623 L
559.204 509.639 L
559.8 509.654 L
560.395 509.67 L
560.991 509.685 L
561.587 509.7 L
562.182 509.715 L
562.778 509.73 L
563.373 509.746 L
563.969 509.76 L
564.565 509.775 L
565.16 509.79 L
565.756 509.805 L
566.351 509.82 L
566.947 509.834 L
567.543 509.849 L
568.138 509.863 L
568.734 509.878 L
569.329 509.892 L
569.925 509.906 L
570.521 509.921 L
571.116 509.935 L
571.712 509.949 L
572.307 509.963 L
572.903 509.977 L
573.498 509.991 L
574.094 510.005 L
574.69 510.018 L
575.285 510.032 L
575.881 510.046 L
S
GR
GS
[0.75 0 0 0.75 0 0] CT
0 GC
1 LJ
0.667 LW
N
575.285 510.032 M
575.881 510.046 L
576.477 510.059 L
577.072 510.073 L
577.668 510.086 L
578.263 510.1 L
578.859 510.113 L
579.454 510.126 L
580.05 510.14 L
580.646 510.153 L
581.241 510.166 L
581.837 510.179 L
582.432 510.192 L
583.028 510.205 L
583.624 510.218 L
584.219 510.23 L
584.815 510.243 L
585.41 510.256 L
586.006 510.268 L
586.602 510.281 L
587.197 510.294 L
587.793 510.306 L
588.388 510.318 L
588.984 510.331 L
589.58 510.343 L
590.175 510.355 L
590.771 510.367 L
591.366 510.379 L
591.962 510.392 L
592.558 510.404 L
593.153 510.415 L
593.749 510.427 L
594.344 510.439 L
594.94 510.451 L
595.536 510.463 L
596.131 510.474 L
596.727 510.486 L
597.322 510.498 L
597.918 510.509 L
598.513 510.521 L
599.109 510.532 L
599.705 510.543 L
600.3 510.555 L
600.896 510.566 L
601.491 510.577 L
602.087 510.588 L
602.683 510.599 L
603.278 510.61 L
603.874 510.621 L
604.469 510.632 L
605.065 510.643 L
605.661 510.654 L
S
GR
GS
[0.75 0 0 0.75 0 0] CT
0 GC
1 LJ
0.667 LW
N
605.065 510.643 M
605.661 510.654 L
606.256 510.665 L
606.852 510.675 L
607.447 510.686 L
608.043 510.697 L
608.639 510.707 L
609.234 510.718 L
609.83 510.728 L
610.425 510.739 L
611.021 510.749 L
611.617 510.76 L
612.212 510.77 L
612.808 510.78 L
613.403 510.79 L
613.999 510.801 L
614.595 510.811 L
615.19 510.821 L
615.786 510.831 L
616.381 510.841 L
616.977 510.851 L
617.573 510.861 L
618.168 510.87 L
618.764 510.88 L
619.359 510.89 L
619.955 510.9 L
620.551 510.909 L
621.146 510.919 L
621.742 510.928 L
622.337 510.938 L
622.933 510.948 L
623.529 510.957 L
624.124 510.966 L
624.72 510.976 L
625.315 510.985 L
625.911 510.994 L
626.507 511.004 L
627.102 511.013 L
627.698 511.022 L
628.293 511.031 L
628.889 511.04 L
629.484 511.049 L
630.08 511.058 L
630.676 511.067 L
631.271 511.076 L
631.867 511.085 L
632.462 511.093 L
633.058 511.102 L
633.654 511.111 L
634.249 511.12 L
634.845 511.128 L
635.44 511.137 L
S
GR
GS
[0.75 0 0 0.75 0 0] CT
0 GC
1 LJ
0.667 LW
N
634.845 511.128 M
635.44 511.137 L
636.036 511.145 L
636.632 511.154 L
637.227 511.162 L
637.823 511.171 L
638.418 511.179 L
639.014 511.188 L
639.61 511.196 L
640.205 511.204 L
640.801 511.213 L
641.396 511.221 L
641.992 511.229 L
642.588 511.237 L
643.183 511.245 L
643.779 511.253 L
644.374 511.261 L
644.97 511.269 L
645.566 511.277 L
646.161 511.285 L
646.757 511.293 L
647.352 511.301 L
647.948 511.309 L
648.544 511.317 L
649.139 511.324 L
649.735 511.332 L
650.33 511.34 L
650.926 511.347 L
651.521 511.355 L
652.117 511.362 L
652.713 511.37 L
653.308 511.378 L
653.904 511.385 L
654.5 511.392 L
655.095 511.4 L
655.691 511.407 L
656.286 511.414 L
656.882 511.422 L
657.477 511.429 L
658.073 511.436 L
658.669 511.443 L
659.264 511.451 L
659.86 511.458 L
660.455 511.465 L
661.051 511.472 L
661.647 511.479 L
662.242 511.486 L
662.838 511.493 L
663.433 511.5 L
664.029 511.507 L
664.625 511.514 L
665.22 511.52 L
S
GR
GS
[0.75 0 0 0.75 0 0] CT
0 GC
1 LJ
0.667 LW
N
664.625 511.514 M
665.22 511.52 L
665.816 511.527 L
666.411 511.534 L
667.007 511.541 L
667.603 511.547 L
668.198 511.554 L
668.794 511.561 L
669.389 511.567 L
669.985 511.574 L
670.581 511.581 L
671.176 511.587 L
671.772 511.594 L
672.367 511.6 L
672.963 511.606 L
673.559 511.613 L
674.154 511.619 L
674.75 511.626 L
675.345 511.632 L
675.941 511.638 L
676.537 511.645 L
677.132 511.651 L
677.728 511.657 L
678.323 511.663 L
678.919 511.669 L
679.515 511.675 L
680.11 511.681 L
680.706 511.688 L
681.301 511.694 L
681.897 511.7 L
682.492 511.706 L
683.088 511.712 L
683.684 511.717 L
684.279 511.723 L
684.875 511.729 L
685.47 511.735 L
686.066 511.741 L
686.662 511.747 L
687.257 511.752 L
687.853 511.758 L
688.448 511.764 L
689.044 511.77 L
689.64 511.775 L
690.235 511.781 L
690.831 511.786 L
691.426 511.792 L
692.022 511.798 L
692.618 511.803 L
693.213 511.809 L
693.809 511.814 L
694.404 511.82 L
695 511.825 L
S
GR
GS
[0.75 0 0 0.75 0 0] CT
0 GC
1 LJ
0.667 LW
N
694.404 511.82 M
695 511.825 L
S
GR
GS
[0.75 0 0 0.75 0 0] CT
0 GC
1 LJ
0.667 LW
N
100 395.5 M
100.596 395.771 L
101.191 396.04 L
101.787 396.31 L
102.382 396.578 L
102.978 396.846 L
103.574 397.114 L
104.169 397.381 L
104.765 397.647 L
105.36 397.912 L
105.956 398.177 L
106.552 398.442 L
107.147 398.705 L
107.743 398.969 L
108.338 399.231 L
108.934 399.493 L
109.53 399.754 L
110.125 400.015 L
110.721 400.275 L
111.316 400.535 L
111.912 400.794 L
112.508 401.052 L
113.103 401.31 L
113.699 401.567 L
114.294 401.823 L
114.89 402.079 L
115.485 402.335 L
116.081 402.589 L
116.677 402.844 L
117.272 403.097 L
117.868 403.35 L
118.463 403.603 L
119.059 403.854 L
119.655 404.106 L
120.25 404.356 L
120.846 404.607 L
121.441 404.856 L
122.037 405.105 L
122.633 405.354 L
123.228 405.601 L
123.824 405.849 L
124.419 406.095 L
125.015 406.341 L
125.611 406.587 L
126.206 406.832 L
126.802 407.076 L
127.397 407.32 L
127.993 407.564 L
128.589 407.806 L
129.184 408.048 L
S
GR
GS
[0.75 0 0 0.75 0 0] CT
0 GC
1 LJ
0.667 LW
N
128.589 407.806 M
129.184 408.048 L
129.78 408.29 L
130.375 408.531 L
130.971 408.772 L
131.567 409.012 L
132.162 409.251 L
132.758 409.49 L
133.353 409.728 L
133.949 409.966 L
134.545 410.203 L
135.14 410.44 L
135.736 410.676 L
136.331 410.911 L
136.927 411.147 L
137.523 411.381 L
138.118 411.615 L
138.714 411.848 L
139.309 412.081 L
139.905 412.314 L
140.501 412.545 L
141.096 412.777 L
141.692 413.007 L
142.287 413.238 L
142.883 413.467 L
143.478 413.696 L
144.074 413.925 L
144.67 414.153 L
145.265 414.381 L
145.861 414.608 L
146.456 414.834 L
147.052 415.06 L
147.648 415.286 L
148.243 415.511 L
148.839 415.735 L
149.434 415.959 L
150.03 416.183 L
150.626 416.405 L
151.221 416.628 L
151.817 416.85 L
152.412 417.071 L
153.008 417.292 L
153.604 417.512 L
154.199 417.732 L
154.795 417.951 L
155.39 418.17 L
155.986 418.389 L
156.582 418.606 L
157.177 418.824 L
157.773 419.04 L
158.368 419.257 L
158.964 419.473 L
S
GR
GS
[0.75 0 0 0.75 0 0] CT
0 GC
1 LJ
0.667 LW
N
158.368 419.257 M
158.964 419.473 L
159.56 419.688 L
160.155 419.903 L
160.751 420.117 L
161.346 420.331 L
161.942 420.544 L
162.538 420.757 L
163.133 420.97 L
163.729 421.181 L
164.324 421.393 L
164.92 421.604 L
165.516 421.814 L
166.111 422.024 L
166.707 422.233 L
167.302 422.442 L
167.898 422.651 L
168.493 422.859 L
169.089 423.066 L
169.685 423.273 L
170.28 423.48 L
170.876 423.686 L
171.471 423.892 L
172.067 424.097 L
172.663 424.302 L
173.258 424.506 L
173.854 424.71 L
174.449 424.913 L
175.045 425.116 L
175.641 425.318 L
176.236 425.52 L
176.832 425.721 L
177.427 425.922 L
178.023 426.123 L
178.619 426.323 L
179.214 426.522 L
179.81 426.721 L
180.405 426.92 L
181.001 427.118 L
181.597 427.316 L
182.192 427.513 L
182.788 427.71 L
183.383 427.906 L
183.979 428.102 L
184.575 428.298 L
185.17 428.493 L
185.766 428.687 L
186.361 428.881 L
186.957 429.075 L
187.553 429.268 L
188.148 429.461 L
188.744 429.653 L
S
GR
GS
[0.75 0 0 0.75 0 0] CT
0 GC
1 LJ
0.667 LW
N
188.148 429.461 M
188.744 429.653 L
189.339 429.845 L
189.935 430.037 L
190.531 430.228 L
191.126 430.418 L
191.722 430.608 L
192.317 430.798 L
192.913 430.987 L
193.508 431.176 L
194.104 431.364 L
194.7 431.552 L
195.295 431.74 L
195.891 431.927 L
196.486 432.114 L
197.082 432.3 L
197.678 432.486 L
198.273 432.671 L
198.869 432.856 L
199.464 433.04 L
200.06 433.224 L
200.656 433.408 L
201.251 433.591 L
201.847 433.774 L
202.442 433.957 L
203.038 434.139 L
203.634 434.32 L
204.229 434.501 L
204.825 434.682 L
205.42 434.862 L
206.016 435.042 L
206.612 435.222 L
207.207 435.401 L
207.803 435.579 L
208.398 435.758 L
208.994 435.935 L
209.59 436.113 L
210.185 436.29 L
210.781 436.466 L
211.376 436.643 L
211.972 436.818 L
212.568 436.994 L
213.163 437.169 L
213.759 437.343 L
214.354 437.518 L
214.95 437.691 L
215.546 437.865 L
216.141 438.038 L
216.737 438.21 L
217.332 438.383 L
217.928 438.554 L
218.524 438.726 L
S
GR
GS
[0.75 0 0 0.75 0 0] CT
0 GC
1 LJ
0.667 LW
N
217.928 438.554 M
218.524 438.726 L
219.119 438.897 L
219.715 439.067 L
220.31 439.237 L
220.906 439.407 L
221.501 439.577 L
222.097 439.746 L
222.693 439.914 L
223.288 440.083 L
223.884 440.251 L
224.479 440.418 L
225.075 440.585 L
225.671 440.752 L
226.266 440.918 L
226.862 441.084 L
227.457 441.25 L
228.053 441.415 L
228.649 441.58 L
229.244 441.744 L
229.84 441.908 L
230.435 442.072 L
231.031 442.235 L
231.627 442.398 L
232.222 442.561 L
232.818 442.723 L
233.413 442.885 L
234.009 443.046 L
234.605 443.207 L
235.2 443.368 L
235.796 443.528 L
236.391 443.688 L
236.987 443.848 L
237.583 444.007 L
238.178 444.166 L
238.774 444.324 L
239.369 444.482 L
239.965 444.64 L
240.561 444.797 L
241.156 444.954 L
241.752 445.111 L
242.347 445.267 L
242.943 445.423 L
243.539 445.579 L
244.134 445.734 L
244.73 445.889 L
245.325 446.043 L
245.921 446.198 L
246.517 446.351 L
247.112 446.505 L
247.708 446.658 L
248.303 446.811 L
S
GR
GS
[0.75 0 0 0.75 0 0] CT
0 GC
1 LJ
0.667 LW
N
247.708 446.658 M
248.303 446.811 L
248.899 446.963 L
249.494 447.115 L
250.09 447.267 L
250.686 447.418 L
251.281 447.569 L
251.877 447.72 L
252.472 447.87 L
253.068 448.02 L
253.664 448.169 L
254.259 448.319 L
254.855 448.468 L
255.45 448.616 L
256.046 448.764 L
256.642 448.912 L
257.237 449.06 L
257.833 449.207 L
258.428 449.354 L
259.024 449.5 L
259.62 449.647 L
260.215 449.793 L
260.811 449.938 L
261.406 450.083 L
262.002 450.228 L
262.598 450.373 L
263.193 450.517 L
263.789 450.661 L
264.384 450.804 L
264.98 450.947 L
265.576 451.09 L
266.171 451.233 L
266.767 451.375 L
267.362 451.517 L
267.958 451.658 L
268.554 451.8 L
269.149 451.94 L
269.745 452.081 L
270.34 452.221 L
270.936 452.361 L
271.532 452.501 L
272.127 452.64 L
272.723 452.779 L
273.318 452.918 L
273.914 453.056 L
274.51 453.194 L
275.105 453.332 L
275.701 453.469 L
276.296 453.606 L
276.892 453.743 L
277.487 453.879 L
278.083 454.015 L
S
GR
GS
[0.75 0 0 0.75 0 0] CT
0 GC
1 LJ
0.667 LW
N
277.487 453.879 M
278.083 454.015 L
278.679 454.151 L
279.274 454.287 L
279.87 454.422 L
280.465 454.557 L
281.061 454.691 L
281.657 454.826 L
282.252 454.959 L
282.848 455.093 L
283.443 455.226 L
284.039 455.359 L
284.635 455.492 L
285.23 455.624 L
285.826 455.757 L
286.421 455.888 L
287.017 456.02 L
287.613 456.151 L
288.208 456.282 L
288.804 456.413 L
289.399 456.543 L
289.995 456.673 L
290.591 456.802 L
291.186 456.932 L
291.782 457.061 L
292.377 457.19 L
292.973 457.318 L
293.569 457.446 L
294.164 457.574 L
294.76 457.702 L
295.355 457.829 L
295.951 457.956 L
296.547 458.083 L
297.142 458.209 L
297.738 458.335 L
298.333 458.461 L
298.929 458.587 L
299.525 458.712 L
300.12 458.837 L
300.716 458.962 L
301.311 459.086 L
301.907 459.21 L
302.503 459.334 L
303.098 459.458 L
303.694 459.581 L
304.289 459.704 L
304.885 459.827 L
305.48 459.949 L
306.076 460.071 L
306.672 460.193 L
307.267 460.315 L
307.863 460.436 L
S
GR
GS
[0.75 0 0 0.75 0 0] CT
0 GC
1 LJ
0.667 LW
N
307.267 460.315 M
307.863 460.436 L
308.458 460.557 L
309.054 460.678 L
309.65 460.798 L
310.245 460.918 L
310.841 461.038 L
311.436 461.158 L
312.032 461.277 L
312.628 461.396 L
313.223 461.515 L
313.819 461.634 L
314.414 461.752 L
315.01 461.87 L
315.606 461.988 L
316.201 462.105 L
316.797 462.222 L
317.392 462.339 L
317.988 462.456 L
318.584 462.572 L
319.179 462.688 L
319.775 462.804 L
320.37 462.92 L
320.966 463.035 L
321.562 463.15 L
322.157 463.265 L
322.753 463.379 L
323.348 463.493 L
323.944 463.607 L
324.54 463.721 L
325.135 463.835 L
325.731 463.948 L
326.326 464.061 L
326.922 464.173 L
327.518 464.286 L
328.113 464.398 L
328.709 464.51 L
329.304 464.621 L
329.9 464.733 L
330.496 464.844 L
331.091 464.955 L
331.687 465.065 L
332.282 465.176 L
332.878 465.286 L
333.473 465.396 L
334.069 465.505 L
334.665 465.615 L
335.26 465.724 L
335.856 465.833 L
336.451 465.941 L
337.047 466.05 L
337.643 466.158 L
S
GR
GS
[0.75 0 0 0.75 0 0] CT
0 GC
1 LJ
0.667 LW
N
337.047 466.05 M
337.643 466.158 L
338.238 466.266 L
338.834 466.373 L
339.429 466.48 L
340.025 466.588 L
340.621 466.694 L
341.216 466.801 L
341.812 466.907 L
342.407 467.013 L
343.003 467.119 L
343.599 467.225 L
344.194 467.33 L
344.79 467.436 L
345.385 467.54 L
345.981 467.645 L
346.577 467.749 L
347.172 467.854 L
347.768 467.958 L
348.363 468.061 L
348.959 468.165 L
349.555 468.268 L
350.15 468.371 L
350.746 468.474 L
351.341 468.576 L
351.937 468.678 L
352.533 468.781 L
353.128 468.882 L
353.724 468.984 L
354.319 469.085 L
354.915 469.186 L
355.511 469.287 L
356.106 469.388 L
356.702 469.488 L
357.297 469.588 L
357.893 469.688 L
358.488 469.788 L
359.084 469.888 L
359.68 469.987 L
360.275 470.086 L
360.871 470.185 L
361.466 470.283 L
362.062 470.382 L
362.658 470.48 L
363.253 470.578 L
363.849 470.675 L
364.444 470.773 L
365.04 470.87 L
365.636 470.967 L
366.231 471.064 L
366.827 471.16 L
367.422 471.257 L
S
GR
GS
[0.75 0 0 0.75 0 0] CT
0 GC
1 LJ
0.667 LW
N
366.827 471.16 M
367.422 471.257 L
368.018 471.353 L
368.614 471.449 L
369.209 471.544 L
369.805 471.64 L
370.4 471.735 L
370.996 471.83 L
371.592 471.925 L
372.187 472.019 L
372.783 472.114 L
373.378 472.208 L
373.974 472.302 L
374.57 472.395 L
375.165 472.489 L
375.761 472.582 L
376.356 472.675 L
376.952 472.768 L
377.548 472.861 L
378.143 472.953 L
378.739 473.045 L
379.334 473.137 L
379.93 473.229 L
380.526 473.32 L
381.121 473.412 L
381.717 473.503 L
382.312 473.594 L
382.908 473.685 L
383.504 473.775 L
384.099 473.865 L
384.695 473.956 L
385.29 474.045 L
385.886 474.135 L
386.481 474.225 L
387.077 474.314 L
387.673 474.403 L
388.268 474.492 L
388.864 474.58 L
389.459 474.669 L
390.055 474.757 L
390.651 474.845 L
391.246 474.933 L
391.842 475.021 L
392.437 475.108 L
393.033 475.195 L
393.629 475.282 L
394.224 475.369 L
394.82 475.456 L
395.415 475.542 L
396.011 475.629 L
396.607 475.715 L
397.202 475.8 L
S
GR
GS
[0.75 0 0 0.75 0 0] CT
0 GC
1 LJ
0.667 LW
N
396.607 475.715 M
397.202 475.8 L
397.798 475.886 L
398.393 475.971 L
398.989 476.057 L
399.585 476.142 L
400.18 476.227 L
400.776 476.311 L
401.371 476.396 L
401.967 476.48 L
402.563 476.564 L
403.158 476.648 L
403.754 476.732 L
404.349 476.815 L
404.945 476.898 L
405.541 476.982 L
406.136 477.065 L
406.732 477.147 L
407.327 477.23 L
407.923 477.312 L
408.519 477.394 L
409.114 477.476 L
409.71 477.558 L
410.305 477.64 L
410.901 477.721 L
411.496 477.802 L
412.092 477.883 L
412.688 477.964 L
413.283 478.045 L
413.879 478.125 L
414.474 478.206 L
415.07 478.286 L
415.666 478.366 L
416.261 478.445 L
416.857 478.525 L
417.452 478.604 L
418.048 478.683 L
418.644 478.762 L
419.239 478.841 L
419.835 478.92 L
420.43 478.998 L
421.026 479.077 L
421.622 479.155 L
422.217 479.233 L
422.813 479.31 L
423.408 479.388 L
424.004 479.465 L
424.6 479.543 L
425.195 479.62 L
425.791 479.696 L
426.386 479.773 L
426.982 479.85 L
S
GR
GS
[0.75 0 0 0.75 0 0] CT
0 GC
1 LJ
0.667 LW
N
426.386 479.773 M
426.982 479.85 L
427.578 479.926 L
428.173 480.002 L
428.769 480.078 L
429.364 480.154 L
429.96 480.229 L
430.556 480.305 L
431.151 480.38 L
431.747 480.455 L
432.342 480.53 L
432.938 480.605 L
433.534 480.68 L
434.129 480.754 L
434.725 480.828 L
435.32 480.902 L
435.916 480.976 L
436.512 481.05 L
437.107 481.123 L
437.703 481.197 L
438.298 481.27 L
438.894 481.343 L
439.49 481.416 L
440.085 481.489 L
440.681 481.561 L
441.276 481.634 L
441.872 481.706 L
442.467 481.778 L
443.063 481.85 L
443.659 481.921 L
444.254 481.993 L
444.85 482.064 L
445.445 482.136 L
446.041 482.207 L
446.637 482.278 L
447.232 482.348 L
447.828 482.419 L
448.423 482.489 L
449.019 482.56 L
449.615 482.63 L
450.21 482.7 L
450.806 482.769 L
451.401 482.839 L
451.997 482.908 L
452.593 482.978 L
453.188 483.047 L
453.784 483.116 L
454.379 483.184 L
454.975 483.253 L
455.571 483.322 L
456.166 483.39 L
456.762 483.458 L
S
GR
GS
[0.75 0 0 0.75 0 0] CT
0 GC
1 LJ
0.667 LW
N
456.166 483.39 M
456.762 483.458 L
457.357 483.526 L
457.953 483.594 L
458.549 483.662 L
459.144 483.729 L
459.74 483.797 L
460.335 483.864 L
460.931 483.931 L
461.527 483.998 L
462.122 484.065 L
462.718 484.131 L
463.313 484.198 L
463.909 484.264 L
464.504 484.33 L
465.1 484.396 L
465.696 484.462 L
466.291 484.528 L
466.887 484.593 L
467.482 484.659 L
468.078 484.724 L
468.674 484.789 L
469.269 484.854 L
469.865 484.919 L
470.46 484.983 L
471.056 485.048 L
471.652 485.112 L
472.247 485.176 L
472.843 485.241 L
473.438 485.304 L
474.034 485.368 L
474.63 485.432 L
475.225 485.495 L
475.821 485.559 L
476.416 485.622 L
477.012 485.685 L
477.608 485.748 L
478.203 485.81 L
478.799 485.873 L
479.394 485.935 L
479.99 485.998 L
480.586 486.06 L
481.181 486.122 L
481.777 486.184 L
482.372 486.246 L
482.968 486.307 L
483.564 486.369 L
484.159 486.43 L
484.755 486.491 L
485.35 486.552 L
485.946 486.613 L
486.542 486.674 L
S
GR
GS
[0.75 0 0 0.75 0 0] CT
0 GC
1 LJ
0.667 LW
N
485.946 486.613 M
486.542 486.674 L
487.137 486.734 L
487.733 486.795 L
488.328 486.855 L
488.924 486.915 L
489.52 486.975 L
490.115 487.035 L
490.711 487.095 L
491.306 487.155 L
491.902 487.214 L
492.497 487.274 L
493.093 487.333 L
493.689 487.392 L
494.284 487.451 L
494.88 487.51 L
495.475 487.568 L
496.071 487.627 L
496.667 487.685 L
497.262 487.744 L
497.858 487.802 L
498.453 487.86 L
499.049 487.918 L
499.645 487.975 L
500.24 488.033 L
500.836 488.091 L
501.431 488.148 L
502.027 488.205 L
502.623 488.262 L
503.218 488.319 L
503.814 488.376 L
504.409 488.433 L
505.005 488.489 L
505.601 488.546 L
506.196 488.602 L
506.792 488.658 L
507.387 488.714 L
507.983 488.77 L
508.579 488.826 L
509.174 488.882 L
509.77 488.937 L
510.365 488.992 L
510.961 489.048 L
511.557 489.103 L
512.152 489.158 L
512.748 489.213 L
513.343 489.268 L
513.939 489.322 L
514.535 489.377 L
515.13 489.431 L
515.726 489.485 L
516.321 489.539 L
S
GR
GS
[0.75 0 0 0.75 0 0] CT
0 GC
1 LJ
0.667 LW
N
515.726 489.485 M
516.321 489.539 L
516.917 489.593 L
517.513 489.647 L
518.108 489.701 L
518.704 489.755 L
519.299 489.808 L
519.895 489.862 L
520.49 489.915 L
521.086 489.968 L
521.682 490.021 L
522.277 490.074 L
522.873 490.127 L
523.468 490.179 L
524.064 490.232 L
524.66 490.284 L
525.255 490.337 L
525.851 490.389 L
526.446 490.441 L
527.042 490.493 L
527.638 490.545 L
528.233 490.596 L
528.829 490.648 L
529.424 490.699 L
530.02 490.751 L
530.616 490.802 L
531.211 490.853 L
531.807 490.904 L
532.402 490.955 L
532.998 491.006 L
533.594 491.056 L
534.189 491.107 L
534.785 491.157 L
535.38 491.208 L
535.976 491.258 L
536.572 491.308 L
537.167 491.358 L
537.763 491.408 L
538.358 491.457 L
538.954 491.507 L
539.55 491.556 L
540.145 491.606 L
540.741 491.655 L
541.336 491.704 L
541.932 491.753 L
542.528 491.802 L
543.123 491.851 L
543.719 491.9 L
544.314 491.948 L
544.91 491.997 L
545.505 492.045 L
546.101 492.093 L
S
GR
GS
[0.75 0 0 0.75 0 0] CT
0 GC
1 LJ
0.667 LW
N
545.505 492.045 M
546.101 492.093 L
546.697 492.141 L
547.292 492.189 L
547.888 492.237 L
548.484 492.285 L
549.079 492.333 L
549.675 492.38 L
550.27 492.428 L
550.866 492.475 L
551.461 492.522 L
552.057 492.57 L
552.653 492.617 L
553.248 492.664 L
553.844 492.71 L
554.439 492.757 L
555.035 492.804 L
555.631 492.85 L
556.226 492.897 L
556.822 492.943 L
557.417 492.989 L
558.013 493.035 L
558.609 493.081 L
559.204 493.127 L
559.8 493.173 L
560.395 493.218 L
560.991 493.264 L
561.587 493.309 L
562.182 493.355 L
562.778 493.4 L
563.373 493.445 L
563.969 493.49 L
564.565 493.535 L
565.16 493.58 L
565.756 493.624 L
566.351 493.669 L
566.947 493.714 L
567.543 493.758 L
568.138 493.802 L
568.734 493.846 L
569.329 493.891 L
569.925 493.935 L
570.521 493.978 L
571.116 494.022 L
571.712 494.066 L
572.307 494.109 L
572.903 494.153 L
573.498 494.196 L
574.094 494.24 L
574.69 494.283 L
575.285 494.326 L
575.881 494.369 L
S
GR
GS
[0.75 0 0 0.75 0 0] CT
0 GC
1 LJ
0.667 LW
N
575.285 494.326 M
575.881 494.369 L
576.477 494.412 L
577.072 494.455 L
577.668 494.497 L
578.263 494.54 L
578.859 494.582 L
579.454 494.625 L
580.05 494.667 L
580.646 494.709 L
581.241 494.751 L
581.837 494.793 L
582.432 494.835 L
583.028 494.877 L
583.624 494.919 L
584.219 494.961 L
584.815 495.002 L
585.41 495.043 L
586.006 495.085 L
586.602 495.126 L
587.197 495.167 L
587.793 495.208 L
588.388 495.249 L
588.984 495.29 L
589.58 495.331 L
590.175 495.372 L
590.771 495.412 L
591.366 495.453 L
591.962 495.493 L
592.558 495.533 L
593.153 495.574 L
593.749 495.614 L
594.344 495.654 L
594.94 495.694 L
595.536 495.733 L
596.131 495.773 L
596.727 495.813 L
597.322 495.852 L
597.918 495.892 L
598.513 495.931 L
599.109 495.971 L
599.705 496.01 L
600.3 496.049 L
600.896 496.088 L
601.491 496.127 L
602.087 496.166 L
602.683 496.204 L
603.278 496.243 L
603.874 496.282 L
604.469 496.32 L
605.065 496.359 L
605.661 496.397 L
S
GR
GS
[0.75 0 0 0.75 0 0] CT
0 GC
1 LJ
0.667 LW
N
605.065 496.359 M
605.661 496.397 L
606.256 496.435 L
606.852 496.473 L
607.447 496.511 L
608.043 496.549 L
608.639 496.587 L
609.234 496.625 L
609.83 496.663 L
610.425 496.7 L
611.021 496.738 L
611.617 496.775 L
612.212 496.813 L
612.808 496.85 L
613.403 496.887 L
613.999 496.924 L
614.595 496.961 L
615.19 496.998 L
615.786 497.035 L
616.381 497.072 L
616.977 497.108 L
617.573 497.145 L
618.168 497.181 L
618.764 497.218 L
619.359 497.254 L
619.955 497.29 L
620.551 497.327 L
621.146 497.363 L
621.742 497.399 L
622.337 497.435 L
622.933 497.47 L
623.529 497.506 L
624.124 497.542 L
624.72 497.577 L
625.315 497.613 L
625.911 497.648 L
626.507 497.684 L
627.102 497.719 L
627.698 497.754 L
628.293 497.789 L
628.889 497.824 L
629.484 497.859 L
630.08 497.894 L
630.676 497.929 L
631.271 497.964 L
631.867 497.998 L
632.462 498.033 L
633.058 498.067 L
633.654 498.102 L
634.249 498.136 L
634.845 498.17 L
635.44 498.204 L
S
GR
GS
[0.75 0 0 0.75 0 0] CT
0 GC
1 LJ
0.667 LW
N
634.845 498.17 M
635.44 498.204 L
636.036 498.238 L
636.632 498.272 L
637.227 498.306 L
637.823 498.34 L
638.418 498.374 L
639.014 498.407 L
639.61 498.441 L
640.205 498.475 L
640.801 498.508 L
641.396 498.541 L
641.992 498.575 L
642.588 498.608 L
643.183 498.641 L
643.779 498.674 L
644.374 498.707 L
644.97 498.74 L
645.566 498.773 L
646.161 498.806 L
646.757 498.838 L
647.352 498.871 L
647.948 498.903 L
648.544 498.936 L
649.139 498.968 L
649.735 499 L
650.33 499.033 L
650.926 499.065 L
651.521 499.097 L
652.117 499.129 L
652.713 499.161 L
653.308 499.193 L
653.904 499.225 L
654.5 499.256 L
655.095 499.288 L
655.691 499.319 L
656.286 499.351 L
656.882 499.382 L
657.477 499.414 L
658.073 499.445 L
658.669 499.476 L
659.264 499.507 L
659.86 499.538 L
660.455 499.569 L
661.051 499.6 L
661.647 499.631 L
662.242 499.662 L
662.838 499.693 L
663.433 499.723 L
664.029 499.754 L
664.625 499.784 L
665.22 499.815 L
S
GR
GS
[0.75 0 0 0.75 0 0] CT
0 GC
1 LJ
0.667 LW
N
664.625 499.784 M
665.22 499.815 L
665.816 499.845 L
666.411 499.875 L
667.007 499.906 L
667.603 499.936 L
668.198 499.966 L
668.794 499.996 L
669.389 500.026 L
669.985 500.056 L
670.581 500.085 L
671.176 500.115 L
671.772 500.145 L
672.367 500.174 L
672.963 500.204 L
673.559 500.233 L
674.154 500.263 L
674.75 500.292 L
675.345 500.321 L
675.941 500.351 L
676.537 500.38 L
677.132 500.409 L
677.728 500.438 L
678.323 500.467 L
678.919 500.496 L
679.515 500.524 L
680.11 500.553 L
680.706 500.582 L
681.301 500.61 L
681.897 500.639 L
682.492 500.667 L
683.088 500.696 L
683.684 500.724 L
684.279 500.752 L
684.875 500.78 L
685.47 500.809 L
686.066 500.837 L
686.662 500.865 L
687.257 500.893 L
687.853 500.92 L
688.448 500.948 L
689.044 500.976 L
689.64 501.004 L
690.235 501.031 L
690.831 501.059 L
691.426 501.086 L
692.022 501.114 L
692.618 501.141 L
693.213 501.168 L
693.809 501.196 L
694.404 501.223 L
695 501.25 L
S
GR
GS
[0.75 0 0 0.75 0 0] CT
0 GC
1 LJ
0.667 LW
N
694.404 501.223 M
695 501.25 L
S
GR
GS
[0.75 0 0 0.75 0 0] CT
0 GC
1 LJ
0.667 LW
N
100 395.5 M
100.596 395.5 L
101.191 395.5 L
101.787 395.5 L
102.382 395.5 L
102.978 395.5 L
103.574 395.5 L
104.169 395.5 L
104.765 395.5 L
105.36 395.5 L
105.956 395.5 L
106.552 395.5 L
107.147 395.5 L
107.743 395.5 L
108.338 395.5 L
108.934 395.5 L
109.53 395.5 L
110.125 395.5 L
110.721 395.5 L
111.316 395.5 L
111.912 395.5 L
112.508 395.5 L
113.103 395.5 L
113.699 395.5 L
114.294 395.5 L
114.89 395.5 L
115.485 395.5 L
116.081 395.5 L
116.677 395.5 L
117.272 395.5 L
117.868 395.5 L
118.463 395.5 L
119.059 395.5 L
119.655 395.5 L
120.25 395.5 L
120.846 395.5 L
121.441 395.5 L
122.037 395.5 L
122.633 395.5 L
123.228 395.5 L
123.824 395.5 L
124.419 395.5 L
125.015 395.5 L
125.611 395.5 L
126.206 395.5 L
126.802 395.5 L
127.397 395.5 L
127.993 395.5 L
128.589 395.5 L
129.184 395.5 L
S
GR
GS
[0.75 0 0 0.75 0 0] CT
0 GC
1 LJ
0.667 LW
N
128.589 395.5 M
129.184 395.5 L
129.78 395.5 L
130.375 395.5 L
130.971 395.5 L
131.567 395.5 L
132.162 395.5 L
132.758 395.5 L
133.353 395.5 L
133.949 395.5 L
134.545 395.5 L
135.14 395.5 L
135.736 395.5 L
136.331 395.5 L
136.927 395.5 L
137.523 395.5 L
138.118 395.5 L
138.714 395.5 L
139.309 395.5 L
139.905 395.5 L
140.501 395.5 L
141.096 395.5 L
141.692 395.5 L
142.287 395.5 L
142.883 395.5 L
143.478 395.5 L
144.074 395.5 L
144.67 395.5 L
145.265 395.5 L
145.861 395.5 L
146.456 395.5 L
147.052 395.5 L
147.648 395.5 L
148.243 395.5 L
148.839 395.5 L
149.434 395.5 L
150.03 395.5 L
150.626 395.5 L
151.221 395.5 L
151.817 395.5 L
152.412 395.5 L
153.008 395.5 L
153.604 395.5 L
154.199 395.5 L
154.795 395.5 L
155.39 395.5 L
155.986 395.5 L
156.582 395.5 L
157.177 395.5 L
157.773 395.5 L
158.368 395.5 L
158.964 395.5 L
S
GR
GS
[0.75 0 0 0.75 0 0] CT
0 GC
1 LJ
0.667 LW
N
158.368 395.5 M
158.964 395.5 L
159.56 395.5 L
160.155 395.5 L
160.751 395.5 L
161.346 395.5 L
161.942 395.5 L
162.538 395.5 L
163.133 395.5 L
163.729 395.5 L
164.324 395.5 L
164.92 395.5 L
165.516 395.5 L
166.111 395.5 L
166.707 395.5 L
167.302 395.5 L
167.898 395.5 L
168.493 395.5 L
169.089 395.5 L
169.685 395.5 L
170.28 395.5 L
170.876 395.5 L
171.471 395.5 L
172.067 395.5 L
172.663 395.5 L
173.258 395.5 L
173.854 395.5 L
174.449 395.5 L
175.045 395.5 L
175.641 395.5 L
176.236 395.5 L
176.832 395.5 L
177.427 395.5 L
178.023 395.5 L
178.619 395.5 L
179.214 395.5 L
179.81 395.5 L
180.405 395.5 L
181.001 395.5 L
181.597 395.5 L
182.192 395.5 L
182.788 395.5 L
183.383 395.5 L
183.979 395.5 L
184.575 395.5 L
185.17 395.5 L
185.766 395.5 L
186.361 395.5 L
186.957 395.5 L
187.553 395.5 L
188.148 395.5 L
188.744 395.5 L
S
GR
GS
[0.75 0 0 0.75 0 0] CT
0 GC
1 LJ
0.667 LW
N
188.148 395.5 M
188.744 395.5 L
189.339 395.5 L
189.935 395.5 L
190.531 395.5 L
191.126 395.5 L
191.722 395.5 L
192.317 395.5 L
192.913 395.5 L
193.508 395.5 L
194.104 395.5 L
194.7 395.5 L
195.295 395.5 L
195.891 395.5 L
196.486 395.5 L
197.082 395.5 L
197.678 395.5 L
198.273 395.5 L
198.869 395.5 L
199.464 395.5 L
200.06 395.5 L
200.656 395.5 L
201.251 395.5 L
201.847 395.5 L
202.442 395.5 L
203.038 395.5 L
203.634 395.5 L
204.229 395.5 L
204.825 395.5 L
205.42 395.5 L
206.016 395.5 L
206.612 395.5 L
207.207 395.5 L
207.803 395.5 L
208.398 395.5 L
208.994 395.5 L
209.59 395.5 L
210.185 395.5 L
210.781 395.5 L
211.376 395.5 L
211.972 395.5 L
212.568 395.5 L
213.163 395.5 L
213.759 395.5 L
214.354 395.5 L
214.95 395.5 L
215.546 395.5 L
216.141 395.5 L
216.737 395.5 L
217.332 395.5 L
217.928 395.5 L
218.524 395.5 L
S
GR
GS
[0.75 0 0 0.75 0 0] CT
0 GC
1 LJ
0.667 LW
N
217.928 395.5 M
218.524 395.5 L
219.119 395.5 L
219.715 395.5 L
220.31 395.5 L
220.906 395.5 L
221.501 395.5 L
222.097 395.5 L
222.693 395.5 L
223.288 395.5 L
223.884 395.5 L
224.479 395.5 L
225.075 395.5 L
225.671 395.5 L
226.266 395.5 L
226.862 395.5 L
227.457 395.5 L
228.053 395.5 L
228.649 395.5 L
229.244 395.5 L
229.84 395.5 L
230.435 395.5 L
231.031 395.5 L
231.627 395.5 L
232.222 395.5 L
232.818 395.5 L
233.413 395.5 L
234.009 395.5 L
234.605 395.5 L
235.2 395.5 L
235.796 395.5 L
236.391 395.5 L
236.987 395.5 L
237.583 395.5 L
238.178 395.5 L
238.774 395.5 L
239.369 395.5 L
239.965 395.5 L
240.561 395.5 L
241.156 395.5 L
241.752 395.5 L
242.347 395.5 L
242.943 395.5 L
243.539 395.5 L
244.134 395.5 L
244.73 395.5 L
245.325 395.5 L
245.921 395.5 L
246.517 395.5 L
247.112 395.5 L
247.708 395.5 L
248.303 395.5 L
S
GR
GS
[0.75 0 0 0.75 0 0] CT
0 GC
1 LJ
0.667 LW
N
247.708 395.5 M
248.303 395.5 L
248.899 395.5 L
249.494 395.5 L
250.09 395.5 L
250.686 395.5 L
251.281 395.5 L
251.877 395.5 L
252.472 395.5 L
253.068 395.5 L
253.664 395.5 L
254.259 395.5 L
254.855 395.5 L
255.45 395.5 L
256.046 395.5 L
256.642 395.5 L
257.237 395.5 L
257.833 395.5 L
258.428 395.5 L
259.024 395.5 L
259.62 395.5 L
260.215 395.5 L
260.811 395.5 L
261.406 395.5 L
262.002 395.5 L
262.598 395.5 L
263.193 395.5 L
263.789 395.5 L
264.384 395.5 L
264.98 395.5 L
265.576 395.5 L
266.171 395.5 L
266.767 395.5 L
267.362 395.5 L
267.958 395.5 L
268.554 395.5 L
269.149 395.5 L
269.745 395.5 L
270.34 395.5 L
270.936 395.5 L
271.532 395.5 L
272.127 395.5 L
272.723 395.5 L
273.318 395.5 L
273.914 395.5 L
274.51 395.5 L
275.105 395.5 L
275.701 395.5 L
276.296 395.5 L
276.892 395.5 L
277.487 395.5 L
278.083 395.5 L
S
GR
GS
[0.75 0 0 0.75 0 0] CT
0 GC
1 LJ
0.667 LW
N
277.487 395.5 M
278.083 395.5 L
278.679 395.5 L
279.274 395.5 L
279.87 395.5 L
280.465 395.5 L
281.061 395.5 L
281.657 395.5 L
282.252 395.5 L
282.848 395.5 L
283.443 395.5 L
284.039 395.5 L
284.635 395.5 L
285.23 395.5 L
285.826 395.5 L
286.421 395.5 L
287.017 395.5 L
287.613 395.5 L
288.208 395.5 L
288.804 395.5 L
289.399 395.5 L
289.995 395.5 L
290.591 395.5 L
291.186 395.5 L
291.782 395.5 L
292.377 395.5 L
292.973 395.5 L
293.569 395.5 L
294.164 395.5 L
294.76 395.5 L
295.355 395.5 L
295.951 395.5 L
296.547 395.5 L
297.142 395.5 L
297.738 395.5 L
298.333 395.5 L
298.929 395.5 L
299.525 395.5 L
300.12 395.5 L
300.716 395.5 L
301.311 395.5 L
301.907 395.5 L
302.503 395.5 L
303.098 395.5 L
303.694 395.5 L
304.289 395.5 L
304.885 395.5 L
305.48 395.5 L
306.076 395.5 L
306.672 395.5 L
307.267 395.5 L
307.863 395.5 L
S
GR
GS
[0.75 0 0 0.75 0 0] CT
0 GC
1 LJ
0.667 LW
N
307.267 395.5 M
307.863 395.5 L
308.458 395.5 L
309.054 395.5 L
309.65 395.5 L
310.245 395.5 L
310.841 395.5 L
311.436 395.5 L
312.032 395.5 L
312.628 395.5 L
313.223 395.5 L
313.819 395.5 L
314.414 395.5 L
315.01 395.5 L
315.606 395.5 L
316.201 395.5 L
316.797 395.5 L
317.392 395.5 L
317.988 395.5 L
318.584 395.5 L
319.179 395.5 L
319.775 395.5 L
320.37 395.5 L
320.966 395.5 L
321.562 395.5 L
322.157 395.5 L
322.753 395.5 L
323.348 395.5 L
323.944 395.5 L
324.54 395.5 L
325.135 395.5 L
325.731 395.5 L
326.326 395.5 L
326.922 395.5 L
327.518 395.5 L
328.113 395.5 L
328.709 395.5 L
329.304 395.5 L
329.9 395.5 L
330.496 395.5 L
331.091 395.5 L
331.687 395.5 L
332.282 395.5 L
332.878 395.5 L
333.473 395.5 L
334.069 395.5 L
334.665 395.5 L
335.26 395.5 L
335.856 395.5 L
336.451 395.5 L
337.047 395.5 L
337.643 395.5 L
S
GR
GS
[0.75 0 0 0.75 0 0] CT
0 GC
1 LJ
0.667 LW
N
337.047 395.5 M
337.643 395.5 L
338.238 395.5 L
338.834 395.5 L
339.429 395.5 L
340.025 395.5 L
340.621 395.5 L
341.216 395.5 L
341.812 395.5 L
342.407 395.5 L
343.003 395.5 L
343.599 395.5 L
344.194 395.5 L
344.79 395.5 L
345.385 395.5 L
345.981 395.5 L
346.577 395.5 L
347.172 395.5 L
347.768 395.5 L
348.363 395.5 L
348.959 395.5 L
349.555 395.5 L
350.15 395.5 L
350.746 395.5 L
351.341 395.5 L
351.937 395.5 L
352.533 395.5 L
353.128 395.5 L
353.724 395.5 L
354.319 395.5 L
354.915 395.5 L
355.511 395.5 L
356.106 395.5 L
356.702 395.5 L
357.297 395.5 L
357.893 395.5 L
358.488 395.5 L
359.084 395.5 L
359.68 395.5 L
360.275 395.5 L
360.871 395.5 L
361.466 395.5 L
362.062 395.5 L
362.658 395.5 L
363.253 395.5 L
363.849 395.5 L
364.444 395.5 L
365.04 395.5 L
365.636 395.5 L
366.231 395.5 L
366.827 395.5 L
367.422 395.5 L
S
GR
GS
[0.75 0 0 0.75 0 0] CT
0 GC
1 LJ
0.667 LW
N
366.827 395.5 M
367.422 395.5 L
368.018 395.5 L
368.614 395.5 L
369.209 395.5 L
369.805 395.5 L
370.4 395.5 L
370.996 395.5 L
371.592 395.5 L
372.187 395.5 L
372.783 395.5 L
373.378 395.5 L
373.974 395.5 L
374.57 395.5 L
375.165 395.5 L
375.761 395.5 L
376.356 395.5 L
376.952 395.5 L
377.548 395.5 L
378.143 395.5 L
378.739 395.5 L
379.334 395.5 L
379.93 395.5 L
380.526 395.5 L
381.121 395.5 L
381.717 395.5 L
382.312 395.5 L
382.908 395.5 L
383.504 395.5 L
384.099 395.5 L
384.695 395.5 L
385.29 395.5 L
385.886 395.5 L
386.481 395.5 L
387.077 395.5 L
387.673 395.5 L
388.268 395.5 L
388.864 395.5 L
389.459 395.5 L
390.055 395.5 L
390.651 395.5 L
391.246 395.5 L
391.842 395.5 L
392.437 395.5 L
393.033 395.5 L
393.629 395.5 L
394.224 395.5 L
394.82 395.5 L
395.415 395.5 L
396.011 395.5 L
396.607 395.5 L
397.202 395.5 L
S
GR
GS
[0.75 0 0 0.75 0 0] CT
0 GC
1 LJ
0.667 LW
N
396.607 395.5 M
397.202 395.5 L
397.798 395.5 L
398.393 395.5 L
398.989 395.5 L
399.585 395.5 L
400.18 395.5 L
400.776 395.5 L
401.371 395.5 L
401.967 395.5 L
402.563 395.5 L
403.158 395.5 L
403.754 395.5 L
404.349 395.5 L
404.945 395.5 L
405.541 395.5 L
406.136 395.5 L
406.732 395.5 L
407.327 395.5 L
407.923 395.5 L
408.519 395.5 L
409.114 395.5 L
409.71 395.5 L
410.305 395.5 L
410.901 395.5 L
411.496 395.5 L
412.092 395.5 L
412.688 395.5 L
413.283 395.5 L
413.879 395.5 L
414.474 395.5 L
415.07 395.5 L
415.666 395.5 L
416.261 395.5 L
416.857 395.5 L
417.452 395.5 L
418.048 395.5 L
418.644 395.5 L
419.239 395.5 L
419.835 395.5 L
420.43 395.5 L
421.026 395.5 L
421.622 395.5 L
422.217 395.5 L
422.813 395.5 L
423.408 395.5 L
424.004 395.5 L
424.6 395.5 L
425.195 395.5 L
425.791 395.5 L
426.386 395.5 L
426.982 395.5 L
S
GR
GS
[0.75 0 0 0.75 0 0] CT
0 GC
1 LJ
0.667 LW
N
426.386 395.5 M
426.982 395.5 L
427.578 395.5 L
428.173 395.5 L
428.769 395.5 L
429.364 395.5 L
429.96 395.5 L
430.556 395.5 L
431.151 395.5 L
431.747 395.5 L
432.342 395.5 L
432.938 395.5 L
433.534 395.5 L
434.129 395.5 L
434.725 395.5 L
435.32 395.5 L
435.916 395.5 L
436.512 395.5 L
437.107 395.5 L
437.703 395.5 L
438.298 395.5 L
438.894 395.5 L
439.49 395.5 L
440.085 395.5 L
440.681 395.5 L
441.276 395.5 L
441.872 395.5 L
442.467 395.5 L
443.063 395.5 L
443.659 395.5 L
444.254 395.5 L
444.85 395.5 L
445.445 395.5 L
446.041 395.5 L
446.637 395.5 L
447.232 395.5 L
447.828 395.5 L
448.423 395.5 L
449.019 395.5 L
449.615 395.5 L
450.21 395.5 L
450.806 395.5 L
451.401 395.5 L
451.997 395.5 L
452.593 395.5 L
453.188 395.5 L
453.784 395.5 L
454.379 395.5 L
454.975 395.5 L
455.571 395.5 L
456.166 395.5 L
456.762 395.5 L
S
GR
GS
[0.75 0 0 0.75 0 0] CT
0 GC
1 LJ
0.667 LW
N
456.166 395.5 M
456.762 395.5 L
457.357 395.5 L
457.953 395.5 L
458.549 395.5 L
459.144 395.5 L
459.74 395.5 L
460.335 395.5 L
460.931 395.5 L
461.527 395.5 L
462.122 395.5 L
462.718 395.5 L
463.313 395.5 L
463.909 395.5 L
464.504 395.5 L
465.1 395.5 L
465.696 395.5 L
466.291 395.5 L
466.887 395.5 L
467.482 395.5 L
468.078 395.5 L
468.674 395.5 L
469.269 395.5 L
469.865 395.5 L
470.46 395.5 L
471.056 395.5 L
471.652 395.5 L
472.247 395.5 L
472.843 395.5 L
473.438 395.5 L
474.034 395.5 L
474.63 395.5 L
475.225 395.5 L
475.821 395.5 L
476.416 395.5 L
477.012 395.5 L
477.608 395.5 L
478.203 395.5 L
478.799 395.5 L
479.394 395.5 L
479.99 395.5 L
480.586 395.5 L
481.181 395.5 L
481.777 395.5 L
482.372 395.5 L
482.968 395.5 L
483.564 395.5 L
484.159 395.5 L
484.755 395.5 L
485.35 395.5 L
485.946 395.5 L
486.542 395.5 L
S
GR
GS
[0.75 0 0 0.75 0 0] CT
0 GC
1 LJ
0.667 LW
N
485.946 395.5 M
486.542 395.5 L
487.137 395.5 L
487.733 395.5 L
488.328 395.5 L
488.924 395.5 L
489.52 395.5 L
490.115 395.5 L
490.711 395.5 L
491.306 395.5 L
491.902 395.5 L
492.497 395.5 L
493.093 395.5 L
493.689 395.5 L
494.284 395.5 L
494.88 395.5 L
495.475 395.5 L
496.071 395.5 L
496.667 395.5 L
497.262 395.5 L
497.858 395.5 L
498.453 395.5 L
499.049 395.5 L
499.645 395.5 L
500.24 395.5 L
500.836 395.5 L
501.431 395.5 L
502.027 395.5 L
502.623 395.5 L
503.218 395.5 L
503.814 395.5 L
504.409 395.5 L
505.005 395.5 L
505.601 395.5 L
506.196 395.5 L
506.792 395.5 L
507.387 395.5 L
507.983 395.5 L
508.579 395.5 L
509.174 395.5 L
509.77 395.5 L
510.365 395.5 L
510.961 395.5 L
511.557 395.5 L
512.152 395.5 L
512.748 395.5 L
513.343 395.5 L
513.939 395.5 L
514.535 395.5 L
515.13 395.5 L
515.726 395.5 L
516.321 395.5 L
S
GR
GS
[0.75 0 0 0.75 0 0] CT
0 GC
1 LJ
0.667 LW
N
515.726 395.5 M
516.321 395.5 L
516.917 395.5 L
517.513 395.5 L
518.108 395.5 L
518.704 395.5 L
519.299 395.5 L
519.895 395.5 L
520.49 395.5 L
521.086 395.5 L
521.682 395.5 L
522.277 395.5 L
522.873 395.5 L
523.468 395.5 L
524.064 395.5 L
524.66 395.5 L
525.255 395.5 L
525.851 395.5 L
526.446 395.5 L
527.042 395.5 L
527.638 395.5 L
528.233 395.5 L
528.829 395.5 L
529.424 395.5 L
530.02 395.5 L
530.616 395.5 L
531.211 395.5 L
531.807 395.5 L
532.402 395.5 L
532.998 395.5 L
533.594 395.5 L
534.189 395.5 L
534.785 395.5 L
535.38 395.5 L
535.976 395.5 L
536.572 395.5 L
537.167 395.5 L
537.763 395.5 L
538.358 395.5 L
538.954 395.5 L
539.55 395.5 L
540.145 395.5 L
540.741 395.5 L
541.336 395.5 L
541.932 395.5 L
542.528 395.5 L
543.123 395.5 L
543.719 395.5 L
544.314 395.5 L
544.91 395.5 L
545.505 395.5 L
546.101 395.5 L
S
GR
GS
[0.75 0 0 0.75 0 0] CT
0 GC
1 LJ
0.667 LW
N
545.505 395.5 M
546.101 395.5 L
546.697 395.5 L
547.292 395.5 L
547.888 395.5 L
548.484 395.5 L
549.079 395.5 L
549.675 395.5 L
550.27 395.5 L
550.866 395.5 L
551.461 395.5 L
552.057 395.5 L
552.653 395.5 L
553.248 395.5 L
553.844 395.5 L
554.439 395.5 L
555.035 395.5 L
555.631 395.5 L
556.226 395.5 L
556.822 395.5 L
557.417 395.5 L
558.013 395.5 L
558.609 395.5 L
559.204 395.5 L
559.8 395.5 L
560.395 395.5 L
560.991 395.5 L
561.587 395.5 L
562.182 395.5 L
562.778 395.5 L
563.373 395.5 L
563.969 395.5 L
564.565 395.5 L
565.16 395.5 L
565.756 395.5 L
566.351 395.5 L
566.947 395.5 L
567.543 395.5 L
568.138 395.5 L
568.734 395.5 L
569.329 395.5 L
569.925 395.5 L
570.521 395.5 L
571.116 395.5 L
571.712 395.5 L
572.307 395.5 L
572.903 395.5 L
573.498 395.5 L
574.094 395.5 L
574.69 395.5 L
575.285 395.5 L
575.881 395.5 L
S
GR
GS
[0.75 0 0 0.75 0 0] CT
0 GC
1 LJ
0.667 LW
N
575.285 395.5 M
575.881 395.5 L
576.477 395.5 L
577.072 395.5 L
577.668 395.5 L
578.263 395.5 L
578.859 395.5 L
579.454 395.5 L
580.05 395.5 L
580.646 395.5 L
581.241 395.5 L
581.837 395.5 L
582.432 395.5 L
583.028 395.5 L
583.624 395.5 L
584.219 395.5 L
584.815 395.5 L
585.41 395.5 L
586.006 395.5 L
586.602 395.5 L
587.197 395.5 L
587.793 395.5 L
588.388 395.5 L
588.984 395.5 L
589.58 395.5 L
590.175 395.5 L
590.771 395.5 L
591.366 395.5 L
591.962 395.5 L
592.558 395.5 L
593.153 395.5 L
593.749 395.5 L
594.344 395.5 L
594.94 395.5 L
595.536 395.5 L
596.131 395.5 L
596.727 395.5 L
597.322 395.5 L
597.918 395.5 L
598.513 395.5 L
599.109 395.5 L
599.705 395.5 L
600.3 395.5 L
600.896 395.5 L
601.491 395.5 L
602.087 395.5 L
602.683 395.5 L
603.278 395.5 L
603.874 395.5 L
604.469 395.5 L
605.065 395.5 L
605.661 395.5 L
S
GR
GS
[0.75 0 0 0.75 0 0] CT
0 GC
1 LJ
0.667 LW
N
605.065 395.5 M
605.661 395.5 L
606.256 395.5 L
606.852 395.5 L
607.447 395.5 L
608.043 395.5 L
608.639 395.5 L
609.234 395.5 L
609.83 395.5 L
610.425 395.5 L
611.021 395.5 L
611.617 395.5 L
612.212 395.5 L
612.808 395.5 L
613.403 395.5 L
613.999 395.5 L
614.595 395.5 L
615.19 395.5 L
615.786 395.5 L
616.381 395.5 L
616.977 395.5 L
617.573 395.5 L
618.168 395.5 L
618.764 395.5 L
619.359 395.5 L
619.955 395.5 L
620.551 395.5 L
621.146 395.5 L
621.742 395.5 L
622.337 395.5 L
622.933 395.5 L
623.529 395.5 L
624.124 395.5 L
624.72 395.5 L
625.315 395.5 L
625.911 395.5 L
626.507 395.5 L
627.102 395.5 L
627.698 395.5 L
628.293 395.5 L
628.889 395.5 L
629.484 395.5 L
630.08 395.5 L
630.676 395.5 L
631.271 395.5 L
631.867 395.5 L
632.462 395.5 L
633.058 395.5 L
633.654 395.5 L
634.249 395.5 L
634.845 395.5 L
635.44 395.5 L
S
GR
GS
[0.75 0 0 0.75 0 0] CT
0 GC
1 LJ
0.667 LW
N
634.845 395.5 M
635.44 395.5 L
636.036 395.5 L
636.632 395.5 L
637.227 395.5 L
637.823 395.5 L
638.418 395.5 L
639.014 395.5 L
639.61 395.5 L
640.205 395.5 L
640.801 395.5 L
641.396 395.5 L
641.992 395.5 L
642.588 395.5 L
643.183 395.5 L
643.779 395.5 L
644.374 395.5 L
644.97 395.5 L
645.566 395.5 L
646.161 395.5 L
646.757 395.5 L
647.352 395.5 L
647.948 395.5 L
648.544 395.5 L
649.139 395.5 L
649.735 395.5 L
650.33 395.5 L
650.926 395.5 L
651.521 395.5 L
652.117 395.5 L
652.713 395.5 L
653.308 395.5 L
653.904 395.5 L
654.5 395.5 L
655.095 395.5 L
655.691 395.5 L
656.286 395.5 L
656.882 395.5 L
657.477 395.5 L
658.073 395.5 L
658.669 395.5 L
659.264 395.5 L
659.86 395.5 L
660.455 395.5 L
661.051 395.5 L
661.647 395.5 L
662.242 395.5 L
662.838 395.5 L
663.433 395.5 L
664.029 395.5 L
664.625 395.5 L
665.22 395.5 L
S
GR
GS
[0.75 0 0 0.75 0 0] CT
0 GC
1 LJ
0.667 LW
N
664.625 395.5 M
665.22 395.5 L
665.816 395.5 L
666.411 395.5 L
667.007 395.5 L
667.603 395.5 L
668.198 395.5 L
668.794 395.5 L
669.389 395.5 L
669.985 395.5 L
670.581 395.5 L
671.176 395.5 L
671.772 395.5 L
672.367 395.5 L
672.963 395.5 L
673.559 395.5 L
674.154 395.5 L
674.75 395.5 L
675.345 395.5 L
675.941 395.5 L
676.537 395.5 L
677.132 395.5 L
677.728 395.5 L
678.323 395.5 L
678.919 395.5 L
679.515 395.5 L
680.11 395.5 L
680.706 395.5 L
681.301 395.5 L
681.897 395.5 L
682.492 395.5 L
683.088 395.5 L
683.684 395.5 L
684.279 395.5 L
684.875 395.5 L
685.47 395.5 L
686.066 395.5 L
686.662 395.5 L
687.257 395.5 L
687.853 395.5 L
688.448 395.5 L
689.044 395.5 L
689.64 395.5 L
690.235 395.5 L
690.831 395.5 L
691.426 395.5 L
692.022 395.5 L
692.618 395.5 L
693.213 395.5 L
693.809 395.5 L
694.404 395.5 L
695 395.5 L
S
GR
GS
[0.75 0 0 0.75 0 0] CT
0 GC
1 LJ
0.667 LW
N
694.404 395.5 M
695 395.5 L
S
GR
GS
[0.75 0 0 0.75 0 0] CT
0 GC
1 LJ
0.667 LW
N
100 395.5 M
100.596 395.229 L
101.191 394.957 L
101.787 394.685 L
102.382 394.412 L
102.978 394.138 L
103.574 393.864 L
104.169 393.589 L
104.765 393.313 L
105.36 393.037 L
105.956 392.76 L
106.552 392.483 L
107.147 392.205 L
107.743 391.926 L
108.338 391.647 L
108.934 391.367 L
109.53 391.086 L
110.125 390.805 L
110.721 390.523 L
111.316 390.24 L
111.912 389.957 L
112.508 389.673 L
113.103 389.388 L
113.699 389.103 L
114.294 388.817 L
114.89 388.531 L
115.485 388.243 L
116.081 387.955 L
116.677 387.667 L
117.272 387.378 L
117.868 387.088 L
118.463 386.797 L
119.059 386.506 L
119.655 386.214 L
120.25 385.922 L
120.846 385.628 L
121.441 385.334 L
122.037 385.04 L
122.633 384.745 L
123.228 384.449 L
123.824 384.152 L
124.419 383.855 L
125.015 383.557 L
125.611 383.258 L
126.206 382.959 L
126.802 382.658 L
127.397 382.358 L
127.993 382.056 L
128.589 381.754 L
129.184 381.451 L
S
GR
GS
[0.75 0 0 0.75 0 0] CT
0 GC
1 LJ
0.667 LW
N
128.589 381.754 M
129.184 381.451 L
129.78 381.148 L
130.375 380.843 L
130.971 380.538 L
131.567 380.233 L
132.162 379.926 L
132.758 379.619 L
133.353 379.312 L
133.949 379.003 L
134.545 378.694 L
135.14 378.384 L
135.736 378.073 L
136.331 377.762 L
136.927 377.45 L
137.523 377.137 L
138.118 376.824 L
138.714 376.509 L
139.309 376.194 L
139.905 375.879 L
140.501 375.562 L
141.096 375.245 L
141.692 374.927 L
142.287 374.609 L
142.883 374.289 L
143.478 373.969 L
144.074 373.648 L
144.67 373.327 L
145.265 373.005 L
145.861 372.681 L
146.456 372.358 L
147.052 372.033 L
147.648 371.708 L
148.243 371.382 L
148.839 371.055 L
149.434 370.728 L
150.03 370.399 L
150.626 370.07 L
151.221 369.74 L
151.817 369.41 L
152.412 369.078 L
153.008 368.746 L
153.604 368.413 L
154.199 368.08 L
154.795 367.745 L
155.39 367.41 L
155.986 367.074 L
156.582 366.738 L
157.177 366.4 L
157.773 366.062 L
158.368 365.723 L
158.964 365.383 L
S
GR
GS
[0.75 0 0 0.75 0 0] CT
0 GC
1 LJ
0.667 LW
N
158.368 365.723 M
158.964 365.383 L
159.56 365.042 L
160.155 364.701 L
160.751 364.359 L
161.346 364.016 L
161.942 363.672 L
162.538 363.327 L
163.133 362.982 L
163.729 362.636 L
164.324 362.289 L
164.92 361.941 L
165.516 361.592 L
166.111 361.243 L
166.707 360.893 L
167.302 360.542 L
167.898 360.19 L
168.493 359.837 L
169.089 359.484 L
169.685 359.13 L
170.28 358.775 L
170.876 358.419 L
171.471 358.062 L
172.067 357.704 L
172.663 357.346 L
173.258 356.987 L
173.854 356.627 L
174.449 356.266 L
175.045 355.904 L
175.641 355.542 L
176.236 355.179 L
176.832 354.814 L
177.427 354.449 L
178.023 354.083 L
178.619 353.717 L
179.214 353.349 L
179.81 352.981 L
180.405 352.612 L
181.001 352.241 L
181.597 351.871 L
182.192 351.499 L
182.788 351.126 L
183.383 350.753 L
183.979 350.378 L
184.575 350.003 L
185.17 349.627 L
185.766 349.25 L
186.361 348.872 L
186.957 348.493 L
187.553 348.114 L
188.148 347.733 L
188.744 347.352 L
S
GR
GS
[0.75 0 0 0.75 0 0] CT
0 GC
1 LJ
0.667 LW
N
188.148 347.733 M
188.744 347.352 L
189.339 346.969 L
189.935 346.586 L
190.531 346.202 L
191.126 345.817 L
191.722 345.432 L
192.317 345.045 L
192.913 344.657 L
193.508 344.269 L
194.104 343.88 L
194.7 343.489 L
195.295 343.098 L
195.891 342.706 L
196.486 342.313 L
197.082 341.919 L
197.678 341.525 L
198.273 341.129 L
198.869 340.732 L
199.464 340.335 L
200.06 339.936 L
200.656 339.537 L
201.251 339.137 L
201.847 338.735 L
202.442 338.333 L
203.038 337.93 L
203.634 337.526 L
204.229 337.121 L
204.825 336.716 L
205.42 336.309 L
206.016 335.901 L
206.612 335.492 L
207.207 335.083 L
207.803 334.672 L
208.398 334.261 L
208.994 333.848 L
209.59 333.435 L
210.185 333.021 L
210.781 332.605 L
211.376 332.189 L
211.972 331.772 L
212.568 331.353 L
213.163 330.934 L
213.759 330.514 L
214.354 330.093 L
214.95 329.671 L
215.546 329.248 L
216.141 328.824 L
216.737 328.399 L
217.332 327.973 L
217.928 327.546 L
218.524 327.118 L
S
GR
GS
[0.75 0 0 0.75 0 0] CT
0 GC
1 LJ
0.667 LW
N
217.928 327.546 M
218.524 327.118 L
219.119 326.689 L
219.715 326.259 L
220.31 325.828 L
220.906 325.396 L
221.501 324.964 L
222.097 324.53 L
222.693 324.095 L
223.288 323.659 L
223.884 323.222 L
224.479 322.784 L
225.075 322.345 L
225.671 321.905 L
226.266 321.464 L
226.862 321.022 L
227.457 320.579 L
228.053 320.135 L
228.649 319.69 L
229.244 319.244 L
229.84 318.797 L
230.435 318.349 L
231.031 317.9 L
231.627 317.449 L
232.222 316.998 L
232.818 316.546 L
233.413 316.093 L
234.009 315.638 L
234.605 315.183 L
235.2 314.726 L
235.796 314.269 L
236.391 313.81 L
236.987 313.351 L
237.583 312.89 L
238.178 312.428 L
238.774 311.965 L
239.369 311.501 L
239.965 311.036 L
240.561 310.57 L
241.156 310.103 L
241.752 309.635 L
242.347 309.166 L
242.943 308.695 L
243.539 308.224 L
244.134 307.751 L
244.73 307.278 L
245.325 306.803 L
245.921 306.327 L
246.517 305.85 L
247.112 305.372 L
247.708 304.893 L
248.303 304.413 L
S
GR
GS
[0.75 0 0 0.75 0 0] CT
0 GC
1 LJ
0.667 LW
N
247.708 304.893 M
248.303 304.413 L
248.899 303.932 L
249.494 303.449 L
250.09 302.966 L
250.686 302.481 L
251.281 301.995 L
251.877 301.508 L
252.472 301.02 L
253.068 300.531 L
253.664 300.041 L
254.259 299.55 L
254.855 299.057 L
255.45 298.563 L
256.046 298.068 L
256.642 297.573 L
257.237 297.075 L
257.833 296.577 L
258.428 296.078 L
259.024 295.577 L
259.62 295.075 L
260.215 294.573 L
260.811 294.069 L
261.406 293.563 L
262.002 293.057 L
262.598 292.549 L
263.193 292.041 L
263.789 291.531 L
264.384 291.02 L
264.98 290.508 L
265.576 289.994 L
266.171 289.48 L
266.767 288.964 L
267.362 288.447 L
267.958 287.929 L
268.554 287.409 L
269.149 286.889 L
269.745 286.367 L
270.34 285.844 L
270.936 285.32 L
271.532 284.794 L
272.127 284.268 L
272.723 283.74 L
273.318 283.211 L
273.914 282.681 L
274.51 282.149 L
275.105 281.617 L
275.701 281.083 L
276.296 280.548 L
276.892 280.011 L
277.487 279.474 L
278.083 278.935 L
S
GR
GS
[0.75 0 0 0.75 0 0] CT
0 GC
1 LJ
0.667 LW
N
277.487 279.474 M
278.083 278.935 L
278.679 278.395 L
279.274 277.853 L
279.87 277.311 L
280.465 276.767 L
281.061 276.222 L
281.657 275.675 L
282.252 275.128 L
282.848 274.579 L
283.443 274.028 L
284.039 273.477 L
284.635 272.924 L
285.23 272.37 L
285.826 271.815 L
286.421 271.259 L
287.017 270.701 L
287.613 270.142 L
288.208 269.581 L
288.804 269.019 L
289.399 268.456 L
289.995 267.892 L
290.591 267.327 L
291.186 266.76 L
291.782 266.191 L
292.377 265.622 L
292.973 265.051 L
293.569 264.479 L
294.164 263.905 L
294.76 263.331 L
295.355 262.755 L
295.951 262.177 L
296.547 261.598 L
297.142 261.018 L
297.738 260.437 L
298.333 259.854 L
298.929 259.27 L
299.525 258.684 L
300.12 258.097 L
300.716 257.509 L
301.311 256.92 L
301.907 256.329 L
302.503 255.736 L
303.098 255.143 L
303.694 254.548 L
304.289 253.951 L
304.885 253.354 L
305.48 252.755 L
306.076 252.154 L
306.672 251.552 L
307.267 250.949 L
307.863 250.344 L
S
GR
GS
[0.75 0 0 0.75 0 0] CT
0 GC
1 LJ
0.667 LW
N
307.267 250.949 M
307.863 250.344 L
308.458 249.738 L
309.054 249.13 L
309.65 248.522 L
310.245 247.911 L
310.841 247.3 L
311.436 246.686 L
312.032 246.072 L
312.628 245.456 L
313.223 244.839 L
313.819 244.22 L
314.414 243.6 L
315.01 242.978 L
315.606 242.355 L
316.201 241.73 L
316.797 241.104 L
317.392 240.477 L
317.988 239.848 L
318.584 239.218 L
319.179 238.586 L
319.775 237.953 L
320.37 237.318 L
320.966 236.682 L
321.562 236.044 L
322.157 235.405 L
322.753 234.765 L
323.348 234.123 L
323.944 233.479 L
324.54 232.834 L
325.135 232.188 L
325.731 231.54 L
326.326 230.89 L
326.922 230.239 L
327.518 229.587 L
328.113 228.933 L
328.709 228.277 L
329.304 227.62 L
329.9 226.962 L
330.496 226.302 L
331.091 225.64 L
331.687 224.977 L
332.282 224.312 L
332.878 223.646 L
333.473 222.978 L
334.069 222.309 L
334.665 221.638 L
335.26 220.966 L
335.856 220.292 L
336.451 219.617 L
337.047 218.94 L
337.643 218.261 L
S
GR
GS
[0.75 0 0 0.75 0 0] CT
0 GC
1 LJ
0.667 LW
N
337.047 218.94 M
337.643 218.261 L
338.238 217.581 L
338.834 216.899 L
339.429 216.216 L
340.025 215.531 L
340.621 214.845 L
341.216 214.157 L
341.812 213.467 L
342.407 212.776 L
343.003 212.083 L
343.599 211.389 L
344.194 210.693 L
344.79 209.995 L
345.385 209.296 L
345.981 208.595 L
346.577 207.893 L
347.172 207.189 L
347.768 206.483 L
348.363 205.776 L
348.959 205.067 L
349.555 204.356 L
350.15 203.644 L
350.746 202.93 L
351.341 202.215 L
351.937 201.498 L
352.533 200.779 L
353.128 200.058 L
353.724 199.336 L
354.319 198.612 L
354.915 197.887 L
355.511 197.16 L
356.106 196.431 L
356.702 195.701 L
357.297 194.968 L
357.893 194.235 L
358.488 193.499 L
359.084 192.762 L
359.68 192.023 L
360.275 191.282 L
360.871 190.54 L
361.466 189.796 L
362.062 189.05 L
362.658 188.302 L
363.253 187.553 L
363.849 186.802 L
364.444 186.049 L
365.04 185.295 L
365.636 184.539 L
366.231 183.781 L
366.827 183.021 L
367.422 182.26 L
S
GR
GS
[0.75 0 0 0.75 0 0] CT
0 GC
1 LJ
0.667 LW
N
366.827 183.021 M
367.422 182.26 L
368.018 181.496 L
368.614 180.731 L
369.209 179.965 L
369.805 179.196 L
370.4 178.426 L
370.996 177.654 L
371.592 176.88 L
372.187 176.104 L
372.783 175.327 L
373.378 174.548 L
373.974 173.767 L
374.57 172.984 L
375.165 172.199 L
375.761 171.413 L
376.356 170.625 L
376.952 169.835 L
377.548 169.043 L
378.143 168.249 L
378.739 167.454 L
379.334 166.656 L
379.93 165.857 L
380.526 165.056 L
381.121 164.253 L
381.717 163.448 L
382.312 162.642 L
382.908 161.833 L
383.504 161.023 L
384.099 160.211 L
384.695 159.397 L
385.29 158.581 L
385.886 157.763 L
386.481 156.943 L
387.077 156.122 L
387.673 155.298 L
388.268 154.473 L
388.864 153.645 L
389.459 152.816 L
390.055 151.985 L
390.651 151.152 L
391.246 150.317 L
391.842 149.48 L
392.437 148.641 L
393.033 147.8 L
393.629 146.958 L
394.224 146.113 L
394.82 145.266 L
395.415 144.418 L
396.011 143.567 L
396.607 142.715 L
397.202 141.86 L
S
GR
GS
[0.75 0 0 0.75 0 0] CT
0 GC
1 LJ
0.667 LW
N
396.607 142.715 M
397.202 141.86 L
397.798 141.004 L
398.393 140.146 L
398.989 139.285 L
399.585 138.423 L
400.18 137.558 L
400.776 136.692 L
401.371 135.824 L
401.967 134.953 L
402.563 134.081 L
403.158 133.207 L
403.754 132.33 L
404.349 131.452 L
404.945 130.571 L
405.541 129.689 L
406.136 128.804 L
406.732 127.918 L
407.327 127.029 L
407.923 126.139 L
408.519 125.246 L
409.114 124.351 L
409.71 123.454 L
410.305 122.555 L
410.901 121.654 L
411.496 120.751 L
412.092 119.846 L
412.688 118.939 L
413.283 118.03 L
413.879 117.118 L
414.474 116.205 L
415.07 115.289 L
415.666 114.371 L
416.261 113.452 L
416.857 112.53 L
417.452 111.606 L
418.048 110.679 L
418.644 109.751 L
419.239 108.82 L
419.835 107.888 L
420.43 106.953 L
421.026 106.016 L
421.622 105.077 L
422.217 104.135 L
422.813 103.192 L
423.408 102.246 L
424.004 101.299 L
424.6 100.349 L
425.195 99.396 L
425.791 98.442 L
426.386 97.485 L
426.982 96.526 L
S
GR
GS
[0.75 0 0 0.75 0 0] CT
0 GC
1 LJ
0.667 LW
N
426.386 97.485 M
426.982 96.526 L
427.578 95.565 L
428.173 94.602 L
428.769 93.637 L
429.364 92.669 L
429.96 91.699 L
430.556 90.727 L
431.151 89.752 L
431.747 88.776 L
432.342 87.797 L
432.938 86.816 L
433.534 85.832 L
434.129 84.847 L
434.725 83.859 L
435.32 82.868 L
435.916 81.876 L
436.512 80.881 L
437.107 79.884 L
437.703 78.884 L
438.298 77.883 L
438.894 76.879 L
439.49 75.872 L
440.085 74.864 L
440.681 73.852 L
441.276 72.839 L
441.872 71.823 L
442.467 70.805 L
443.063 69.785 L
443.659 68.762 L
444.254 67.737 L
444.85 66.71 L
445.445 65.68 L
446.041 64.648 L
446.637 63.613 L
447.232 62.576 L
447.828 61.537 L
448.423 60.495 L
449.019 59.451 L
449.615 58.404 L
450.21 57.355 L
450.806 56.304 L
451.401 55.25 L
451.997 54.194 L
452.593 53.135 L
453.188 52.074 L
453.784 51.01 L
454.379 49.944 L
454.975 48.876 L
455.571 47.805 L
456.166 46.731 L
456.762 45.655 L
S
GR
GS
[0.75 0 0 0.75 0 0] CT
0 GC
1 LJ
0.667 LW
N
456.166 46.731 M
456.762 45.655 L
457.357 44.577 L
457.953 43.496 L
458.251 42.953 L
S
GR
GS
[0.75 0 0 0.75 0 0] CT
0 GC
1 LJ
0.667 LW
N
100 395.5 M
100.596 394.957 L
101.191 394.412 L
101.787 393.864 L
102.382 393.313 L
102.978 392.76 L
103.574 392.205 L
104.169 391.647 L
104.765 391.086 L
105.36 390.523 L
105.956 389.957 L
106.552 389.388 L
107.147 388.817 L
107.743 388.243 L
108.338 387.667 L
108.934 387.088 L
109.53 386.506 L
110.125 385.922 L
110.721 385.334 L
111.316 384.745 L
111.912 384.152 L
112.508 383.557 L
113.103 382.959 L
113.699 382.358 L
114.294 381.754 L
114.89 381.148 L
115.485 380.538 L
116.081 379.926 L
116.677 379.312 L
117.272 378.694 L
117.868 378.073 L
118.463 377.45 L
119.059 376.824 L
119.655 376.194 L
120.25 375.562 L
120.846 374.927 L
121.441 374.289 L
122.037 373.648 L
122.633 373.005 L
123.228 372.358 L
123.824 371.708 L
124.419 371.055 L
125.015 370.399 L
125.611 369.74 L
126.206 369.078 L
126.802 368.413 L
127.397 367.745 L
127.993 367.074 L
128.589 366.4 L
129.184 365.723 L
S
GR
GS
[0.75 0 0 0.75 0 0] CT
0 GC
1 LJ
0.667 LW
N
128.589 366.4 M
129.184 365.723 L
129.78 365.042 L
130.375 364.359 L
130.971 363.672 L
131.567 362.982 L
132.162 362.289 L
132.758 361.592 L
133.353 360.893 L
133.949 360.19 L
134.545 359.484 L
135.14 358.775 L
135.736 358.062 L
136.331 357.346 L
136.927 356.627 L
137.523 355.904 L
138.118 355.179 L
138.714 354.449 L
139.309 353.717 L
139.905 352.981 L
140.501 352.241 L
141.096 351.499 L
141.692 350.753 L
142.287 350.003 L
142.883 349.25 L
143.478 348.493 L
144.074 347.733 L
144.67 346.969 L
145.265 346.202 L
145.861 345.432 L
146.456 344.657 L
147.052 343.88 L
147.648 343.098 L
148.243 342.313 L
148.839 341.525 L
149.434 340.732 L
150.03 339.936 L
150.626 339.137 L
151.221 338.333 L
151.817 337.526 L
152.412 336.716 L
153.008 335.901 L
153.604 335.083 L
154.199 334.261 L
154.795 333.435 L
155.39 332.605 L
155.986 331.772 L
156.582 330.934 L
157.177 330.093 L
157.773 329.248 L
158.368 328.399 L
158.964 327.546 L
S
GR
GS
[0.75 0 0 0.75 0 0] CT
0 GC
1 LJ
0.667 LW
N
158.368 328.399 M
158.964 327.546 L
159.56 326.689 L
160.155 325.828 L
160.751 324.964 L
161.346 324.095 L
161.942 323.222 L
162.538 322.345 L
163.133 321.464 L
163.729 320.579 L
164.324 319.69 L
164.92 318.797 L
165.516 317.9 L
166.111 316.998 L
166.707 316.093 L
167.302 315.183 L
167.898 314.269 L
168.493 313.351 L
169.089 312.428 L
169.685 311.501 L
170.28 310.57 L
170.876 309.635 L
171.471 308.695 L
172.067 307.751 L
172.663 306.803 L
173.258 305.85 L
173.854 304.893 L
174.449 303.932 L
175.045 302.966 L
175.641 301.995 L
176.236 301.02 L
176.832 300.041 L
177.427 299.057 L
178.023 298.068 L
178.619 297.075 L
179.214 296.078 L
179.81 295.075 L
180.405 294.069 L
181.001 293.057 L
181.597 292.041 L
182.192 291.02 L
182.788 289.994 L
183.383 288.964 L
183.979 287.929 L
184.575 286.889 L
185.17 285.844 L
185.766 284.794 L
186.361 283.74 L
186.957 282.681 L
187.553 281.617 L
188.148 280.548 L
188.744 279.474 L
S
GR
GS
[0.75 0 0 0.75 0 0] CT
0 GC
1 LJ
0.667 LW
N
188.148 280.548 M
188.744 279.474 L
189.339 278.395 L
189.935 277.311 L
190.531 276.222 L
191.126 275.128 L
191.722 274.028 L
192.317 272.924 L
192.913 271.815 L
193.508 270.701 L
194.104 269.581 L
194.7 268.456 L
195.295 267.327 L
195.891 266.191 L
196.486 265.051 L
197.082 263.905 L
197.678 262.755 L
198.273 261.598 L
198.869 260.437 L
199.464 259.27 L
200.06 258.097 L
200.656 256.92 L
201.251 255.736 L
201.847 254.548 L
202.442 253.354 L
203.038 252.154 L
203.634 250.949 L
204.229 249.738 L
204.825 248.522 L
205.42 247.3 L
206.016 246.072 L
206.612 244.839 L
207.207 243.6 L
207.803 242.355 L
208.398 241.104 L
208.994 239.848 L
209.59 238.586 L
210.185 237.318 L
210.781 236.044 L
211.376 234.765 L
211.972 233.479 L
212.568 232.188 L
213.163 230.89 L
213.759 229.587 L
214.354 228.277 L
214.95 226.962 L
215.546 225.64 L
216.141 224.312 L
216.737 222.978 L
217.332 221.638 L
217.928 220.292 L
218.524 218.94 L
S
GR
GS
[0.75 0 0 0.75 0 0] CT
0 GC
1 LJ
0.667 LW
N
217.928 220.292 M
218.524 218.94 L
219.119 217.581 L
219.715 216.216 L
220.31 214.845 L
220.906 213.467 L
221.501 212.083 L
222.097 210.693 L
222.693 209.296 L
223.288 207.893 L
223.884 206.483 L
224.479 205.067 L
225.075 203.644 L
225.671 202.215 L
226.266 200.779 L
226.862 199.336 L
227.457 197.887 L
228.053 196.431 L
228.649 194.968 L
229.244 193.499 L
229.84 192.023 L
230.435 190.54 L
231.031 189.05 L
231.627 187.553 L
232.222 186.049 L
232.818 184.539 L
233.413 183.021 L
234.009 181.496 L
234.605 179.965 L
235.2 178.426 L
235.796 176.88 L
236.391 175.327 L
236.987 173.767 L
237.583 172.199 L
238.178 170.625 L
238.774 169.043 L
239.369 167.454 L
239.965 165.857 L
240.561 164.253 L
241.156 162.642 L
241.752 161.023 L
242.347 159.397 L
242.943 157.763 L
243.539 156.122 L
244.134 154.473 L
244.73 152.816 L
245.325 151.152 L
245.921 149.48 L
246.517 147.8 L
247.112 146.113 L
247.708 144.418 L
248.303 142.715 L
S
GR
GS
[0.75 0 0 0.75 0 0] CT
0 GC
1 LJ
0.667 LW
N
247.708 144.418 M
248.303 142.715 L
248.899 141.004 L
249.494 139.285 L
250.09 137.558 L
250.686 135.824 L
251.281 134.081 L
251.877 132.33 L
252.472 130.571 L
253.068 128.804 L
253.664 127.029 L
254.259 125.246 L
254.855 123.454 L
255.45 121.654 L
256.046 119.846 L
256.642 118.03 L
257.237 116.205 L
257.833 114.371 L
258.428 112.53 L
259.024 110.679 L
259.62 108.82 L
260.215 106.953 L
260.811 105.077 L
261.406 103.192 L
262.002 101.299 L
262.598 99.396 L
263.193 97.485 L
263.789 95.565 L
264.384 93.637 L
264.98 91.699 L
265.576 89.752 L
266.171 87.797 L
266.767 85.832 L
267.362 83.859 L
267.958 81.876 L
268.554 79.884 L
269.149 77.883 L
269.745 75.872 L
270.34 73.852 L
270.936 71.823 L
271.532 69.785 L
272.127 67.737 L
272.723 65.68 L
273.318 63.613 L
273.914 61.537 L
274.51 59.451 L
275.105 57.355 L
275.701 55.25 L
276.296 53.135 L
276.892 51.01 L
277.487 48.876 L
278.083 46.731 L
S
GR
GS
[0.75 0 0 0.75 0 0] CT
0 GC
1 LJ
0.667 LW
N
277.487 48.876 M
278.083 46.731 L
278.679 44.577 L
279.126 42.953 L
S
GR
GS
[0.75 0 0 0.75 115.5 367.5] CT
0 GC
/Helvetica-Italic 13 F
GS
[1 0 0 1 0 0] CT
0 0 moveto 
1 -1 scale
(m) t 
GR
GR
GS
[0.75 0 0 0.75 123.75 367.5] CT
0 GC
/Helvetica 13 F
GS
[1 0 0 1 0 0] CT
0 0 moveto 
1 -1 scale
( = -2) t 
GR
GR
GS
[0.75 0 0 0.75 141.75 72] CT
0 GC
/Helvetica-Italic 13 F
GS
[1 0 0 1 0 0] CT
0 0 moveto 
1 -1 scale
(m) t 
GR
GR
GS
[0.75 0 0 0.75 150 72] CT
0 GC
/Helvetica 13 F
GS
[1 0 0 1 0 0] CT
0 0 moveto 
1 -1 scale
( = 2) t 
GR
GR
GS
[0.75 0 0 0.75 271.5 81] CT
0 GC
/Helvetica-Italic 13 F
GS
[1 0 0 1 0 0] CT
0 0 moveto 
1 -1 scale
(m) t 
GR
GR
GS
[0.75 0 0 0.75 279.75 81] CT
0 GC
/Helvetica 13 F
GS
[1 0 0 1 0 0] CT
0 0 moveto 
1 -1 scale
( = 1) t 
GR
GR
GS
[0.75 0 0 0.75 302.25 352.5] CT
0 GC
/Helvetica-Italic 13 F
GS
[1 0 0 1 0 0] CT
0 0 moveto 
1 -1 scale
(m) t 
GR
GR
GS
[0.75 0 0 0.75 310.5 352.5] CT
0 GC
/Helvetica 13 F
GS
[1 0 0 1 0 0] CT
0 0 moveto 
1 -1 scale
( =  -1) t 
GR
GR
GS
[0.75 0 0 0.75 311.25 283.5] CT
0 GC
/Helvetica-Italic 13 F
GS
[1 0 0 1 0 0] CT
0 0 moveto 
1 -1 scale
(m) t 
GR
GR
GS
[0.75 0 0 0.75 319.5 283.5] CT
0 GC
/Helvetica 13 F
GS
[1 0 0 1 0 0] CT
0 0 moveto 
1 -1 scale
( = 0) t 
GR
GR
%%Trailer
%%Pages: 1
%%EOF
