%!PS-Adobe-3.0 EPSF-3.0
%%Creator: (MATLAB, The Mathworks, Inc. Version 8.6.0.267246 \(R2015b\). Operating System: Linux)
%%Title: ./VoltagePlots.eps
%%CreationDate: 2015-10-04T21:45:21
%%Pages: (atend)
%%BoundingBox:    50    65   529   705
%%LanguageLevel: 3
%%EndComments
%%BeginProlog
%%BeginResource: procset (Apache XML Graphics Std ProcSet) 1.2 0
%%Version: 1.2 0
%%Copyright: (Copyright 2001-2003,2010 The Apache Software Foundation. License terms: http://www.apache.org/licenses/LICENSE-2.0)
/bd{bind def}bind def
/ld{load def}bd
/GR/grestore ld
/M/moveto ld
/LJ/setlinejoin ld
/C/curveto ld
/f/fill ld
/LW/setlinewidth ld
/GC/setgray ld
/t/show ld
/N/newpath ld
/CT/concat ld
/cp/closepath ld
/S/stroke ld
/L/lineto ld
/CC/setcmykcolor ld
/A/ashow ld
/GS/gsave ld
/RC/setrgbcolor ld
/RM/rmoveto ld
/ML/setmiterlimit ld
/re {4 2 roll M
1 index 0 rlineto
0 exch rlineto
neg 0 rlineto
cp } bd
/_ctm matrix def
/_tm matrix def
/BT { _ctm currentmatrix pop matrix _tm copy pop 0 0 moveto } bd
/ET { _ctm setmatrix } bd
/iTm { _ctm setmatrix _tm concat } bd
/Tm { _tm astore pop iTm 0 0 moveto } bd
/ux 0.0 def
/uy 0.0 def
/F {
  /Tp exch def
  /Tf exch def
  Tf findfont Tp scalefont setfont
  /cf Tf def  /cs Tp def
} bd
/ULS {currentpoint /uy exch def /ux exch def} bd
/ULE {
  /Tcx currentpoint pop def
  gsave
  newpath
  cf findfont cs scalefont dup
  /FontMatrix get 0 get /Ts exch def /FontInfo get dup
  /UnderlinePosition get Ts mul /To exch def
  /UnderlineThickness get Ts mul /Tt exch def
  ux uy To add moveto  Tcx uy To add lineto
  Tt setlinewidth stroke
  grestore
} bd
/OLE {
  /Tcx currentpoint pop def
  gsave
  newpath
  cf findfont cs scalefont dup
  /FontMatrix get 0 get /Ts exch def /FontInfo get dup
  /UnderlinePosition get Ts mul /To exch def
  /UnderlineThickness get Ts mul /Tt exch def
  ux uy To add cs add moveto Tcx uy To add cs add lineto
  Tt setlinewidth stroke
  grestore
} bd
/SOE {
  /Tcx currentpoint pop def
  gsave
  newpath
  cf findfont cs scalefont dup
  /FontMatrix get 0 get /Ts exch def /FontInfo get dup
  /UnderlinePosition get Ts mul /To exch def
  /UnderlineThickness get Ts mul /Tt exch def
  ux uy To add cs 10 mul 26 idiv add moveto Tcx uy To add cs 10 mul 26 idiv add lineto
  Tt setlinewidth stroke
  grestore
} bd
/QT {
/Y22 exch store
/X22 exch store
/Y21 exch store
/X21 exch store
currentpoint
/Y21 load 2 mul add 3 div exch
/X21 load 2 mul add 3 div exch
/X21 load 2 mul /X22 load add 3 div
/Y21 load 2 mul /Y22 load add 3 div
/X22 load /Y22 load curveto
} bd
/SSPD {
dup length /d exch dict def
{
/v exch def
/k exch def
currentpagedevice k known {
/cpdv currentpagedevice k get def
v cpdv ne {
/upd false def
/nullv v type /nulltype eq def
/nullcpdv cpdv type /nulltype eq def
nullv nullcpdv or
{
/upd true def
} {
/sametype v type cpdv type eq def
sametype {
v type /arraytype eq {
/vlen v length def
/cpdvlen cpdv length def
vlen cpdvlen eq {
0 1 vlen 1 sub {
/i exch def
/obj v i get def
/cpdobj cpdv i get def
obj cpdobj ne {
/upd true def
exit
} if
} for
} {
/upd true def
} ifelse
} {
v type /dicttype eq {
v {
/dv exch def
/dk exch def
/cpddv cpdv dk get def
dv cpddv ne {
/upd true def
exit
} if
} forall
} {
/upd true def
} ifelse
} ifelse
} if
} ifelse
upd true eq {
d k v put
} if
} if
} if
} forall
d length 0 gt {
d setpagedevice
} if
} bd
%%EndResource
%%BeginResource: procset (Apache XML Graphics EPS ProcSet) 1.0 0
%%Version: 1.0 0
%%Copyright: (Copyright 2002-2003 The Apache Software Foundation. License terms: http://www.apache.org/licenses/LICENSE-2.0)
/BeginEPSF { %def
/b4_Inc_state save def         % Save state for cleanup
/dict_count countdictstack def % Count objects on dict stack
/op_count count 1 sub def      % Count objects on operand stack
userdict begin                 % Push userdict on dict stack
/showpage { } def              % Redefine showpage, { } = null proc
0 setgray 0 setlinecap         % Prepare graphics state
1 setlinewidth 0 setlinejoin
10 setmiterlimit [ ] 0 setdash newpath
/languagelevel where           % If level not equal to 1 then
{pop languagelevel             % set strokeadjust and
1 ne                           % overprint to their defaults.
{false setstrokeadjust false setoverprint
} if
} if
} bd
/EndEPSF { %def
count op_count sub {pop} repeat            % Clean up stacks
countdictstack dict_count sub {end} repeat
b4_Inc_state restore
} bd
%%EndResource
%FOPBeginFontDict
%%IncludeResource: font Courier-Bold
%%IncludeResource: font Helvetica
%%IncludeResource: font Courier-BoldOblique
%%IncludeResource: font Courier-Oblique
%%IncludeResource: font Times-Roman
%%IncludeResource: font Helvetica-BoldOblique
%%IncludeResource: font Helvetica-Bold
%%IncludeResource: font Helvetica-Oblique
%%IncludeResource: font Times-BoldItalic
%%IncludeResource: font Courier
%%IncludeResource: font Times-Italic
%%IncludeResource: font Times-Bold
%%IncludeResource: font Symbol
%%IncludeResource: font ZapfDingbats
%FOPEndFontDict
%%BeginResource: encoding WinAnsiEncoding
/WinAnsiEncoding [
/.notdef /.notdef /.notdef /.notdef /.notdef
/.notdef /.notdef /.notdef /.notdef /.notdef
/.notdef /.notdef /.notdef /.notdef /.notdef
/.notdef /.notdef /.notdef /.notdef /.notdef
/.notdef /.notdef /.notdef /.notdef /.notdef
/.notdef /.notdef /.notdef /.notdef /.notdef
/.notdef /.notdef /space /exclam /quotedbl
/numbersign /dollar /percent /ampersand /quotesingle
/parenleft /parenright /asterisk /plus /comma
/hyphen /period /slash /zero /one
/two /three /four /five /six
/seven /eight /nine /colon /semicolon
/less /equal /greater /question /at
/A /B /C /D /E
/F /G /H /I /J
/K /L /M /N /O
/P /Q /R /S /T
/U /V /W /X /Y
/Z /bracketleft /backslash /bracketright /asciicircum
/underscore /quoteleft /a /b /c
/d /e /f /g /h
/i /j /k /l /m
/n /o /p /q /r
/s /t /u /v /w
/x /y /z /braceleft /bar
/braceright /asciitilde /bullet /Euro /bullet
/quotesinglbase /florin /quotedblbase /ellipsis /dagger
/daggerdbl /circumflex /perthousand /Scaron /guilsinglleft
/OE /bullet /Zcaron /bullet /bullet
/quoteleft /quoteright /quotedblleft /quotedblright /bullet
/endash /emdash /asciitilde /trademark /scaron
/guilsinglright /oe /bullet /zcaron /Ydieresis
/space /exclamdown /cent /sterling /currency
/yen /brokenbar /section /dieresis /copyright
/ordfeminine /guillemotleft /logicalnot /sfthyphen /registered
/macron /degree /plusminus /twosuperior /threesuperior
/acute /mu /paragraph /middot /cedilla
/onesuperior /ordmasculine /guillemotright /onequarter /onehalf
/threequarters /questiondown /Agrave /Aacute /Acircumflex
/Atilde /Adieresis /Aring /AE /Ccedilla
/Egrave /Eacute /Ecircumflex /Edieresis /Igrave
/Iacute /Icircumflex /Idieresis /Eth /Ntilde
/Ograve /Oacute /Ocircumflex /Otilde /Odieresis
/multiply /Oslash /Ugrave /Uacute /Ucircumflex
/Udieresis /Yacute /Thorn /germandbls /agrave
/aacute /acircumflex /atilde /adieresis /aring
/ae /ccedilla /egrave /eacute /ecircumflex
/edieresis /igrave /iacute /icircumflex /idieresis
/eth /ntilde /ograve /oacute /ocircumflex
/otilde /odieresis /divide /oslash /ugrave
/uacute /ucircumflex /udieresis /yacute /thorn
/ydieresis
] def
%%EndResource
%FOPBeginFontReencode
/Courier-Bold findfont
dup length dict begin
  {1 index /FID ne {def} {pop pop} ifelse} forall
  /Encoding WinAnsiEncoding def
  currentdict
end
/Courier-Bold exch definefont pop
/Helvetica findfont
dup length dict begin
  {1 index /FID ne {def} {pop pop} ifelse} forall
  /Encoding WinAnsiEncoding def
  currentdict
end
/Helvetica exch definefont pop
/Courier-BoldOblique findfont
dup length dict begin
  {1 index /FID ne {def} {pop pop} ifelse} forall
  /Encoding WinAnsiEncoding def
  currentdict
end
/Courier-BoldOblique exch definefont pop
/Courier-Oblique findfont
dup length dict begin
  {1 index /FID ne {def} {pop pop} ifelse} forall
  /Encoding WinAnsiEncoding def
  currentdict
end
/Courier-Oblique exch definefont pop
/Times-Roman findfont
dup length dict begin
  {1 index /FID ne {def} {pop pop} ifelse} forall
  /Encoding WinAnsiEncoding def
  currentdict
end
/Times-Roman exch definefont pop
/Helvetica-BoldOblique findfont
dup length dict begin
  {1 index /FID ne {def} {pop pop} ifelse} forall
  /Encoding WinAnsiEncoding def
  currentdict
end
/Helvetica-BoldOblique exch definefont pop
/Helvetica-Bold findfont
dup length dict begin
  {1 index /FID ne {def} {pop pop} ifelse} forall
  /Encoding WinAnsiEncoding def
  currentdict
end
/Helvetica-Bold exch definefont pop
/Helvetica-Oblique findfont
dup length dict begin
  {1 index /FID ne {def} {pop pop} ifelse} forall
  /Encoding WinAnsiEncoding def
  currentdict
end
/Helvetica-Oblique exch definefont pop
/Times-BoldItalic findfont
dup length dict begin
  {1 index /FID ne {def} {pop pop} ifelse} forall
  /Encoding WinAnsiEncoding def
  currentdict
end
/Times-BoldItalic exch definefont pop
/Courier findfont
dup length dict begin
  {1 index /FID ne {def} {pop pop} ifelse} forall
  /Encoding WinAnsiEncoding def
  currentdict
end
/Courier exch definefont pop
/Times-Italic findfont
dup length dict begin
  {1 index /FID ne {def} {pop pop} ifelse} forall
  /Encoding WinAnsiEncoding def
  currentdict
end
/Times-Italic exch definefont pop
/Times-Bold findfont
dup length dict begin
  {1 index /FID ne {def} {pop pop} ifelse} forall
  /Encoding WinAnsiEncoding def
  currentdict
end
/Times-Bold exch definefont pop
%FOPEndFontReencode
%%EndProlog
%%Page: 1 1
%%PageBoundingBox: 0 0 576 756
%%BeginPageSetup
[1 0 0 -1 0 756] CT
%%EndPageSetup
GS
[0.98462 0 0 0.98438 0 0] CT
0.997 GC
N
0 0 585 768 re
f
GR
GS
[0.98462 0 0 0.98438 0 0] CT
0.997 GC
N
0 0 585 768 re
f
GR
GS
[0.98462 0 0 0.98438 0 0] CT
0.997 GC
N
76 223 M
529 223 L
529 58 L
76 58 L
cp
f
GR
GS
[0.98462 0 0 0.98438 0 0] CT
0 GC
2 setlinecap
1 LJ
0.667 LW
N
76 223 M
529 223 L
S
GR
GS
[0.98462 0 0 0.98438 0 0] CT
0 GC
2 setlinecap
1 LJ
0.667 LW
N
76 58 M
529 58 L
S
GR
GS
[0.98462 0 0 0.98438 0 0] CT
0 GC
2 setlinecap
1 LJ
0.667 LW
N
76 223 M
76 218.47 L
S
GR
GS
[0.98462 0 0 0.98438 0 0] CT
0 GC
2 setlinecap
1 LJ
0.667 LW
N
121.3 223 M
121.3 218.47 L
S
GR
GS
[0.98462 0 0 0.98438 0 0] CT
0 GC
2 setlinecap
1 LJ
0.667 LW
N
166.6 223 M
166.6 218.47 L
S
GR
GS
[0.98462 0 0 0.98438 0 0] CT
0 GC
2 setlinecap
1 LJ
0.667 LW
N
211.9 223 M
211.9 218.47 L
S
GR
GS
[0.98462 0 0 0.98438 0 0] CT
0 GC
2 setlinecap
1 LJ
0.667 LW
N
257.2 223 M
257.2 218.47 L
S
GR
GS
[0.98462 0 0 0.98438 0 0] CT
0 GC
2 setlinecap
1 LJ
0.667 LW
N
302.5 223 M
302.5 218.47 L
S
GR
GS
[0.98462 0 0 0.98438 0 0] CT
0 GC
2 setlinecap
1 LJ
0.667 LW
N
347.8 223 M
347.8 218.47 L
S
GR
GS
[0.98462 0 0 0.98438 0 0] CT
0 GC
2 setlinecap
1 LJ
0.667 LW
N
393.1 223 M
393.1 218.47 L
S
GR
GS
[0.98462 0 0 0.98438 0 0] CT
0 GC
2 setlinecap
1 LJ
0.667 LW
N
438.4 223 M
438.4 218.47 L
S
GR
GS
[0.98462 0 0 0.98438 0 0] CT
0 GC
2 setlinecap
1 LJ
0.667 LW
N
483.7 223 M
483.7 218.47 L
S
GR
GS
[0.98462 0 0 0.98438 0 0] CT
0 GC
2 setlinecap
1 LJ
0.667 LW
N
529 223 M
529 218.47 L
S
GR
GS
[0.98462 0 0 0.98438 0 0] CT
0 GC
2 setlinecap
1 LJ
0.667 LW
N
76 58 M
76 62.53 L
S
GR
GS
[0.98462 0 0 0.98438 0 0] CT
0 GC
2 setlinecap
1 LJ
0.667 LW
N
121.3 58 M
121.3 62.53 L
S
GR
GS
[0.98462 0 0 0.98438 0 0] CT
0 GC
2 setlinecap
1 LJ
0.667 LW
N
166.6 58 M
166.6 62.53 L
S
GR
GS
[0.98462 0 0 0.98438 0 0] CT
0 GC
2 setlinecap
1 LJ
0.667 LW
N
211.9 58 M
211.9 62.53 L
S
GR
GS
[0.98462 0 0 0.98438 0 0] CT
0 GC
2 setlinecap
1 LJ
0.667 LW
N
257.2 58 M
257.2 62.53 L
S
GR
GS
[0.98462 0 0 0.98438 0 0] CT
0 GC
2 setlinecap
1 LJ
0.667 LW
N
302.5 58 M
302.5 62.53 L
S
GR
GS
[0.98462 0 0 0.98438 0 0] CT
0 GC
2 setlinecap
1 LJ
0.667 LW
N
347.8 58 M
347.8 62.53 L
S
GR
GS
[0.98462 0 0 0.98438 0 0] CT
0 GC
2 setlinecap
1 LJ
0.667 LW
N
393.1 58 M
393.1 62.53 L
S
GR
GS
[0.98462 0 0 0.98438 0 0] CT
0 GC
2 setlinecap
1 LJ
0.667 LW
N
438.4 58 M
438.4 62.53 L
S
GR
GS
[0.98462 0 0 0.98438 0 0] CT
0 GC
2 setlinecap
1 LJ
0.667 LW
N
483.7 58 M
483.7 62.53 L
S
GR
GS
[0.98462 0 0 0.98438 0 0] CT
0 GC
2 setlinecap
1 LJ
0.667 LW
N
529 58 M
529 62.53 L
S
GR
GS
[0.98462 0 0 0.98438 74.83077 224.14062] CT
0 GC
/Helvetica 10 F
GS
[1 0 0 1 0 0] CT
-10 10 moveto 
1 -1 scale
(-0.5) t 
GR
GR
GS
[0.98462 0 0 0.98438 119.43385 224.14062] CT
0 GC
/Helvetica 10 F
GS
[1 0 0 1 0 0] CT
-3.5 10 moveto 
1 -1 scale
(0) t 
GR
GR
GS
[0.98462 0 0 0.98438 164.03693 224.14062] CT
0 GC
/Helvetica 10 F
GS
[1 0 0 1 0 0] CT
-8 10 moveto 
1 -1 scale
(0.5) t 
GR
GR
GS
[0.98462 0 0 0.98438 208.63999 224.14062] CT
0 GC
/Helvetica 10 F
GS
[1 0 0 1 0 0] CT
-3.5 10 moveto 
1 -1 scale
(1) t 
GR
GR
GS
[0.98462 0 0 0.98438 253.24309 224.14062] CT
0 GC
/Helvetica 10 F
GS
[1 0 0 1 0 0] CT
-8 10 moveto 
1 -1 scale
(1.5) t 
GR
GR
GS
[0.98462 0 0 0.98438 297.84615 224.14062] CT
0 GC
/Helvetica 10 F
GS
[1 0 0 1 0 0] CT
-3.5 10 moveto 
1 -1 scale
(2) t 
GR
GR
GS
[0.98462 0 0 0.98438 342.44922 224.14062] CT
0 GC
/Helvetica 10 F
GS
[1 0 0 1 0 0] CT
-8 10 moveto 
1 -1 scale
(2.5) t 
GR
GR
GS
[0.98462 0 0 0.98438 387.05231 224.14062] CT
0 GC
/Helvetica 10 F
GS
[1 0 0 1 0 0] CT
-3.5 10 moveto 
1 -1 scale
(3) t 
GR
GR
GS
[0.98462 0 0 0.98438 431.65538 224.14062] CT
0 GC
/Helvetica 10 F
GS
[1 0 0 1 0 0] CT
-8 10 moveto 
1 -1 scale
(3.5) t 
GR
GR
GS
[0.98462 0 0 0.98438 476.25847 224.14062] CT
0 GC
/Helvetica 10 F
GS
[1 0 0 1 0 0] CT
-3.5 10 moveto 
1 -1 scale
(4) t 
GR
GR
GS
[0.98462 0 0 0.98438 520.86154 224.14062] CT
0 GC
/Helvetica 10 F
GS
[1 0 0 1 0 0] CT
-8 10 moveto 
1 -1 scale
(4.5) t 
GR
GR
GS
[0.98462 0 0 0.98438 0 0] CT
0 GC
2 setlinecap
1 LJ
0.667 LW
N
76 223 M
76 58 L
S
GR
GS
[0.98462 0 0 0.98438 0 0] CT
0 GC
2 setlinecap
1 LJ
0.667 LW
N
529 223 M
529 58 L
S
GR
GS
[0.98462 0 0 0.98438 0 0] CT
0 GC
2 setlinecap
1 LJ
0.667 LW
N
76 223 M
80.53 223 L
S
GR
GS
[0.98462 0 0 0.98438 0 0] CT
0 GC
2 setlinecap
1 LJ
0.667 LW
N
76 199.429 M
80.53 199.429 L
S
GR
GS
[0.98462 0 0 0.98438 0 0] CT
0 GC
2 setlinecap
1 LJ
0.667 LW
N
76 175.857 M
80.53 175.857 L
S
GR
GS
[0.98462 0 0 0.98438 0 0] CT
0 GC
2 setlinecap
1 LJ
0.667 LW
N
76 152.286 M
80.53 152.286 L
S
GR
GS
[0.98462 0 0 0.98438 0 0] CT
0 GC
2 setlinecap
1 LJ
0.667 LW
N
76 128.714 M
80.53 128.714 L
S
GR
GS
[0.98462 0 0 0.98438 0 0] CT
0 GC
2 setlinecap
1 LJ
0.667 LW
N
76 105.143 M
80.53 105.143 L
S
GR
GS
[0.98462 0 0 0.98438 0 0] CT
0 GC
2 setlinecap
1 LJ
0.667 LW
N
76 81.571 M
80.53 81.571 L
S
GR
GS
[0.98462 0 0 0.98438 0 0] CT
0 GC
2 setlinecap
1 LJ
0.667 LW
N
76 58 M
80.53 58 L
S
GR
GS
[0.98462 0 0 0.98438 0 0] CT
0 GC
2 setlinecap
1 LJ
0.667 LW
N
529 223 M
524.47 223 L
S
GR
GS
[0.98462 0 0 0.98438 0 0] CT
0 GC
2 setlinecap
1 LJ
0.667 LW
N
529 199.429 M
524.47 199.429 L
S
GR
GS
[0.98462 0 0 0.98438 0 0] CT
0 GC
2 setlinecap
1 LJ
0.667 LW
N
529 175.857 M
524.47 175.857 L
S
GR
GS
[0.98462 0 0 0.98438 0 0] CT
0 GC
2 setlinecap
1 LJ
0.667 LW
N
529 152.286 M
524.47 152.286 L
S
GR
GS
[0.98462 0 0 0.98438 0 0] CT
0 GC
2 setlinecap
1 LJ
0.667 LW
N
529 128.714 M
524.47 128.714 L
S
GR
GS
[0.98462 0 0 0.98438 0 0] CT
0 GC
2 setlinecap
1 LJ
0.667 LW
N
529 105.143 M
524.47 105.143 L
S
GR
GS
[0.98462 0 0 0.98438 0 0] CT
0 GC
2 setlinecap
1 LJ
0.667 LW
N
529 81.571 M
524.47 81.571 L
S
GR
GS
[0.98462 0 0 0.98438 0 0] CT
0 GC
2 setlinecap
1 LJ
0.667 LW
N
529 58 M
524.47 58 L
S
GR
GS
[0.98462 0 0 0.98438 70.20464 219.51563] CT
0 GC
/Helvetica 10 F
GS
[1 0 0 1 0 0] CT
-17 3.5 moveto 
1 -1 scale
(-20) t 
GR
GR
GS
[0.98462 0 0 0.98438 70.20464 196.3125] CT
0 GC
/Helvetica 10 F
GS
[1 0 0 1 0 0] CT
-7 3.5 moveto 
1 -1 scale
(0) t 
GR
GR
GS
[0.98462 0 0 0.98438 70.20464 173.10938] CT
0 GC
/Helvetica 10 F
GS
[1 0 0 1 0 0] CT
-13 3.5 moveto 
1 -1 scale
(20) t 
GR
GR
GS
[0.98462 0 0 0.98438 70.20464 149.90626] CT
0 GC
/Helvetica 10 F
GS
[1 0 0 1 0 0] CT
-13 3.5 moveto 
1 -1 scale
(40) t 
GR
GR
GS
[0.98462 0 0 0.98438 70.20464 126.70312] CT
0 GC
/Helvetica 10 F
GS
[1 0 0 1 0 0] CT
-13 3.5 moveto 
1 -1 scale
(60) t 
GR
GR
GS
[0.98462 0 0 0.98438 70.20464 103.5] CT
0 GC
/Helvetica 10 F
GS
[1 0 0 1 0 0] CT
-13 3.5 moveto 
1 -1 scale
(80) t 
GR
GR
GS
[0.98462 0 0 0.98438 70.20464 80.29687] CT
0 GC
/Helvetica 10 F
GS
[1 0 0 1 0 0] CT
-20 3.5 moveto 
1 -1 scale
(100) t 
GR
GR
GS
[0.98462 0 0 0.98438 70.20464 57.09375] CT
0 GC
/Helvetica 10 F
GS
[1 0 0 1 0 0] CT
-20 3.5 moveto 
1 -1 scale
(120) t 
GR
GR
GS
[0.98462 0 0 0.98438 0 0] CT
0 GC
1 LJ
0.667 LW
N
76 199.429 M
529 199.429 L
S
GR
GS
[0.98462 0 0 0.98438 0 0] CT
0 GC
1 LJ
N
125.5 81.5 M
124.736 79.149 L
122.736 77.696 L
120.264 77.696 L
118.264 79.149 L
117.5 81.5 L
118.264 83.851 L
120.264 85.304 L
122.736 85.304 L
124.736 83.851 L
cp
S
GR
GS
[0.98462 0 0 0.98438 0 0] CT
0 GC
1 LJ
N
170.5 126.5 M
169.736 124.149 L
167.736 122.696 L
165.264 122.696 L
163.264 124.149 L
162.5 126.5 L
163.264 128.851 L
165.264 130.304 L
167.736 130.304 L
169.736 128.851 L
cp
S
GR
GS
[0.98462 0 0 0.98438 0 0] CT
0 GC
1 LJ
N
215.5 154.5 M
214.736 152.149 L
212.736 150.696 L
210.264 150.696 L
208.264 152.149 L
207.5 154.5 L
208.264 156.851 L
210.264 158.304 L
212.736 158.304 L
214.736 156.851 L
cp
S
GR
GS
[0.98462 0 0 0.98438 0 0] CT
0 GC
1 LJ
N
261.5 174.5 M
260.736 172.149 L
258.736 170.696 L
256.264 170.696 L
254.264 172.149 L
253.5 174.5 L
254.264 176.851 L
256.264 178.304 L
258.736 178.304 L
260.736 176.851 L
cp
S
GR
GS
[0.98462 0 0 0.98438 0 0] CT
0 GC
1 LJ
N
306.5 184.5 M
305.736 182.149 L
303.736 180.696 L
301.264 180.696 L
299.264 182.149 L
298.5 184.5 L
299.264 186.851 L
301.264 188.304 L
303.736 188.304 L
305.736 186.851 L
cp
S
GR
GS
[0.98462 0 0 0.98438 0 0] CT
0 GC
1 LJ
N
351.5 191.5 M
350.736 189.149 L
348.736 187.696 L
346.264 187.696 L
344.264 189.149 L
343.5 191.5 L
344.264 193.851 L
346.264 195.304 L
348.736 195.304 L
350.736 193.851 L
cp
S
GR
GS
[0.98462 0 0 0.98438 0 0] CT
0 GC
1 LJ
N
397.5 194.5 M
396.736 192.149 L
394.736 190.696 L
392.264 190.696 L
390.264 192.149 L
389.5 194.5 L
390.264 196.851 L
392.264 198.304 L
394.736 198.304 L
396.736 196.851 L
cp
S
GR
GS
[0.98462 0 0 0.98438 0 0] CT
0 GC
1 LJ
N
442.5 197.5 M
441.736 195.149 L
439.736 193.696 L
437.264 193.696 L
435.264 195.149 L
434.5 197.5 L
435.264 199.851 L
437.264 201.304 L
439.736 201.304 L
441.736 199.851 L
cp
S
GR
GS
[0.98462 0 0 0.98438 0 0] CT
0 GC
1 LJ
N
487.5 195.5 M
486.736 193.149 L
484.736 191.696 L
482.264 191.696 L
480.264 193.149 L
479.5 195.5 L
480.264 197.851 L
482.264 199.304 L
484.736 199.304 L
486.736 197.851 L
cp
S
GR
GS
[0.98462 0 0 0.98438 0 0] CT
0 GC
1 LJ
0.667 LW
N
121.3 199.429 M
121.3 81.571 L
S
GR
GS
[0.98462 0 0 0.98438 0 0] CT
0 GC
1 LJ
0.667 LW
N
166.6 199.429 M
166.6 126.357 L
S
GR
GS
[0.98462 0 0 0.98438 0 0] CT
0 GC
1 LJ
0.667 LW
N
211.9 199.429 M
211.9 154.643 L
S
GR
GS
[0.98462 0 0 0.98438 0 0] CT
0 GC
1 LJ
0.667 LW
N
257.2 199.429 M
257.2 174.679 L
S
GR
GS
[0.98462 0 0 0.98438 0 0] CT
0 GC
1 LJ
0.667 LW
N
302.5 199.429 M
302.5 184.107 L
S
GR
GS
[0.98462 0 0 0.98438 0 0] CT
0 GC
1 LJ
0.667 LW
N
347.8 199.429 M
347.8 191.179 L
S
GR
GS
[0.98462 0 0 0.98438 0 0] CT
0 GC
1 LJ
0.667 LW
N
393.1 199.429 M
393.1 194.714 L
S
GR
GS
[0.98462 0 0 0.98438 0 0] CT
0 GC
1 LJ
0.667 LW
N
438.4 199.429 M
438.4 197.071 L
S
GR
GS
[0.98462 0 0 0.98438 0 0] CT
0 GC
1 LJ
0.667 LW
N
483.7 199.429 M
483.7 195.893 L
S
GR
GS
[0.98462 0 0 0.98438 0 0] CT
0.997 GC
N
76 453 M
529 453 L
529 288 L
76 288 L
cp
f
GR
GS
[0.98462 0 0 0.98438 0 0] CT
0 GC
2 setlinecap
1 LJ
0.667 LW
N
76 453 M
529 453 L
S
GR
GS
[0.98462 0 0 0.98438 0 0] CT
0 GC
2 setlinecap
1 LJ
0.667 LW
N
76 288 M
529 288 L
S
GR
GS
[0.98462 0 0 0.98438 0 0] CT
0 GC
2 setlinecap
1 LJ
0.667 LW
N
76 453 M
76 448.47 L
S
GR
GS
[0.98462 0 0 0.98438 0 0] CT
0 GC
2 setlinecap
1 LJ
0.667 LW
N
121.3 453 M
121.3 448.47 L
S
GR
GS
[0.98462 0 0 0.98438 0 0] CT
0 GC
2 setlinecap
1 LJ
0.667 LW
N
166.6 453 M
166.6 448.47 L
S
GR
GS
[0.98462 0 0 0.98438 0 0] CT
0 GC
2 setlinecap
1 LJ
0.667 LW
N
211.9 453 M
211.9 448.47 L
S
GR
GS
[0.98462 0 0 0.98438 0 0] CT
0 GC
2 setlinecap
1 LJ
0.667 LW
N
257.2 453 M
257.2 448.47 L
S
GR
GS
[0.98462 0 0 0.98438 0 0] CT
0 GC
2 setlinecap
1 LJ
0.667 LW
N
302.5 453 M
302.5 448.47 L
S
GR
GS
[0.98462 0 0 0.98438 0 0] CT
0 GC
2 setlinecap
1 LJ
0.667 LW
N
347.8 453 M
347.8 448.47 L
S
GR
GS
[0.98462 0 0 0.98438 0 0] CT
0 GC
2 setlinecap
1 LJ
0.667 LW
N
393.1 453 M
393.1 448.47 L
S
GR
GS
[0.98462 0 0 0.98438 0 0] CT
0 GC
2 setlinecap
1 LJ
0.667 LW
N
438.4 453 M
438.4 448.47 L
S
GR
GS
[0.98462 0 0 0.98438 0 0] CT
0 GC
2 setlinecap
1 LJ
0.667 LW
N
483.7 453 M
483.7 448.47 L
S
GR
GS
[0.98462 0 0 0.98438 0 0] CT
0 GC
2 setlinecap
1 LJ
0.667 LW
N
529 453 M
529 448.47 L
S
GR
GS
[0.98462 0 0 0.98438 0 0] CT
0 GC
2 setlinecap
1 LJ
0.667 LW
N
76 288 M
76 292.53 L
S
GR
GS
[0.98462 0 0 0.98438 0 0] CT
0 GC
2 setlinecap
1 LJ
0.667 LW
N
121.3 288 M
121.3 292.53 L
S
GR
GS
[0.98462 0 0 0.98438 0 0] CT
0 GC
2 setlinecap
1 LJ
0.667 LW
N
166.6 288 M
166.6 292.53 L
S
GR
GS
[0.98462 0 0 0.98438 0 0] CT
0 GC
2 setlinecap
1 LJ
0.667 LW
N
211.9 288 M
211.9 292.53 L
S
GR
GS
[0.98462 0 0 0.98438 0 0] CT
0 GC
2 setlinecap
1 LJ
0.667 LW
N
257.2 288 M
257.2 292.53 L
S
GR
GS
[0.98462 0 0 0.98438 0 0] CT
0 GC
2 setlinecap
1 LJ
0.667 LW
N
302.5 288 M
302.5 292.53 L
S
GR
GS
[0.98462 0 0 0.98438 0 0] CT
0 GC
2 setlinecap
1 LJ
0.667 LW
N
347.8 288 M
347.8 292.53 L
S
GR
GS
[0.98462 0 0 0.98438 0 0] CT
0 GC
2 setlinecap
1 LJ
0.667 LW
N
393.1 288 M
393.1 292.53 L
S
GR
GS
[0.98462 0 0 0.98438 0 0] CT
0 GC
2 setlinecap
1 LJ
0.667 LW
N
438.4 288 M
438.4 292.53 L
S
GR
GS
[0.98462 0 0 0.98438 0 0] CT
0 GC
2 setlinecap
1 LJ
0.667 LW
N
483.7 288 M
483.7 292.53 L
S
GR
GS
[0.98462 0 0 0.98438 0 0] CT
0 GC
2 setlinecap
1 LJ
0.667 LW
N
529 288 M
529 292.53 L
S
GR
GS
[0.98462 0 0 0.98438 74.83077 450.54689] CT
0 GC
/Helvetica 10 F
GS
[1 0 0 1 0 0] CT
-10 10 moveto 
1 -1 scale
(-0.5) t 
GR
GR
GS
[0.98462 0 0 0.98438 119.43385 450.54689] CT
0 GC
/Helvetica 10 F
GS
[1 0 0 1 0 0] CT
-3.5 10 moveto 
1 -1 scale
(0) t 
GR
GR
GS
[0.98462 0 0 0.98438 164.03693 450.54689] CT
0 GC
/Helvetica 10 F
GS
[1 0 0 1 0 0] CT
-8 10 moveto 
1 -1 scale
(0.5) t 
GR
GR
GS
[0.98462 0 0 0.98438 208.63999 450.54689] CT
0 GC
/Helvetica 10 F
GS
[1 0 0 1 0 0] CT
-3.5 10 moveto 
1 -1 scale
(1) t 
GR
GR
GS
[0.98462 0 0 0.98438 253.24309 450.54689] CT
0 GC
/Helvetica 10 F
GS
[1 0 0 1 0 0] CT
-8 10 moveto 
1 -1 scale
(1.5) t 
GR
GR
GS
[0.98462 0 0 0.98438 297.84615 450.54689] CT
0 GC
/Helvetica 10 F
GS
[1 0 0 1 0 0] CT
-3.5 10 moveto 
1 -1 scale
(2) t 
GR
GR
GS
[0.98462 0 0 0.98438 342.44922 450.54689] CT
0 GC
/Helvetica 10 F
GS
[1 0 0 1 0 0] CT
-8 10 moveto 
1 -1 scale
(2.5) t 
GR
GR
GS
[0.98462 0 0 0.98438 387.05231 450.54689] CT
0 GC
/Helvetica 10 F
GS
[1 0 0 1 0 0] CT
-3.5 10 moveto 
1 -1 scale
(3) t 
GR
GR
GS
[0.98462 0 0 0.98438 431.65538 450.54689] CT
0 GC
/Helvetica 10 F
GS
[1 0 0 1 0 0] CT
-8 10 moveto 
1 -1 scale
(3.5) t 
GR
GR
GS
[0.98462 0 0 0.98438 476.25847 450.54689] CT
0 GC
/Helvetica 10 F
GS
[1 0 0 1 0 0] CT
-3.5 10 moveto 
1 -1 scale
(4) t 
GR
GR
GS
[0.98462 0 0 0.98438 520.86154 450.54689] CT
0 GC
/Helvetica 10 F
GS
[1 0 0 1 0 0] CT
-8 10 moveto 
1 -1 scale
(4.5) t 
GR
GR
GS
[0.98462 0 0 0.98438 0 0] CT
0 GC
2 setlinecap
1 LJ
0.667 LW
N
76 453 M
76 288 L
S
GR
GS
[0.98462 0 0 0.98438 0 0] CT
0 GC
2 setlinecap
1 LJ
0.667 LW
N
529 453 M
529 288 L
S
GR
GS
[0.98462 0 0 0.98438 0 0] CT
0 GC
2 setlinecap
1 LJ
0.667 LW
N
76 453 M
80.53 453 L
S
GR
GS
[0.98462 0 0 0.98438 0 0] CT
0 GC
2 setlinecap
1 LJ
0.667 LW
N
76 429.429 M
80.53 429.429 L
S
GR
GS
[0.98462 0 0 0.98438 0 0] CT
0 GC
2 setlinecap
1 LJ
0.667 LW
N
76 405.857 M
80.53 405.857 L
S
GR
GS
[0.98462 0 0 0.98438 0 0] CT
0 GC
2 setlinecap
1 LJ
0.667 LW
N
76 382.286 M
80.53 382.286 L
S
GR
GS
[0.98462 0 0 0.98438 0 0] CT
0 GC
2 setlinecap
1 LJ
0.667 LW
N
76 358.714 M
80.53 358.714 L
S
GR
GS
[0.98462 0 0 0.98438 0 0] CT
0 GC
2 setlinecap
1 LJ
0.667 LW
N
76 335.143 M
80.53 335.143 L
S
GR
GS
[0.98462 0 0 0.98438 0 0] CT
0 GC
2 setlinecap
1 LJ
0.667 LW
N
76 311.571 M
80.53 311.571 L
S
GR
GS
[0.98462 0 0 0.98438 0 0] CT
0 GC
2 setlinecap
1 LJ
0.667 LW
N
76 288 M
80.53 288 L
S
GR
GS
[0.98462 0 0 0.98438 0 0] CT
0 GC
2 setlinecap
1 LJ
0.667 LW
N
529 453 M
524.47 453 L
S
GR
GS
[0.98462 0 0 0.98438 0 0] CT
0 GC
2 setlinecap
1 LJ
0.667 LW
N
529 429.429 M
524.47 429.429 L
S
GR
GS
[0.98462 0 0 0.98438 0 0] CT
0 GC
2 setlinecap
1 LJ
0.667 LW
N
529 405.857 M
524.47 405.857 L
S
GR
GS
[0.98462 0 0 0.98438 0 0] CT
0 GC
2 setlinecap
1 LJ
0.667 LW
N
529 382.286 M
524.47 382.286 L
S
GR
GS
[0.98462 0 0 0.98438 0 0] CT
0 GC
2 setlinecap
1 LJ
0.667 LW
N
529 358.714 M
524.47 358.714 L
S
GR
GS
[0.98462 0 0 0.98438 0 0] CT
0 GC
2 setlinecap
1 LJ
0.667 LW
N
529 335.143 M
524.47 335.143 L
S
GR
GS
[0.98462 0 0 0.98438 0 0] CT
0 GC
2 setlinecap
1 LJ
0.667 LW
N
529 311.571 M
524.47 311.571 L
S
GR
GS
[0.98462 0 0 0.98438 0 0] CT
0 GC
2 setlinecap
1 LJ
0.667 LW
N
529 288 M
524.47 288 L
S
GR
GS
[0.98462 0 0 0.98438 70.20464 445.92188] CT
0 GC
/Helvetica 10 F
GS
[1 0 0 1 0 0] CT
-17 3.5 moveto 
1 -1 scale
(-20) t 
GR
GR
GS
[0.98462 0 0 0.98438 70.20464 422.71874] CT
0 GC
/Helvetica 10 F
GS
[1 0 0 1 0 0] CT
-7 3.5 moveto 
1 -1 scale
(0) t 
GR
GR
GS
[0.98462 0 0 0.98438 70.20464 399.51563] CT
0 GC
/Helvetica 10 F
GS
[1 0 0 1 0 0] CT
-13 3.5 moveto 
1 -1 scale
(20) t 
GR
GR
GS
[0.98462 0 0 0.98438 70.20464 376.31249] CT
0 GC
/Helvetica 10 F
GS
[1 0 0 1 0 0] CT
-13 3.5 moveto 
1 -1 scale
(40) t 
GR
GR
GS
[0.98462 0 0 0.98438 70.20464 353.10938] CT
0 GC
/Helvetica 10 F
GS
[1 0 0 1 0 0] CT
-13 3.5 moveto 
1 -1 scale
(60) t 
GR
GR
GS
[0.98462 0 0 0.98438 70.20464 329.90625] CT
0 GC
/Helvetica 10 F
GS
[1 0 0 1 0 0] CT
-13 3.5 moveto 
1 -1 scale
(80) t 
GR
GR
GS
[0.98462 0 0 0.98438 70.20464 306.70314] CT
0 GC
/Helvetica 10 F
GS
[1 0 0 1 0 0] CT
-20 3.5 moveto 
1 -1 scale
(100) t 
GR
GR
GS
[0.98462 0 0 0.98438 70.20464 283.5] CT
0 GC
/Helvetica 10 F
GS
[1 0 0 1 0 0] CT
-20 3.5 moveto 
1 -1 scale
(120) t 
GR
GR
GS
[0.98462 0 0 0.98438 0 0] CT
0 GC
1 LJ
0.667 LW
N
76 429.429 M
529 429.429 L
S
GR
GS
[0.98462 0 0 0.98438 0 0] CT
0.218 GC
N
103.18 429.429 M
139.42 429.429 L
139.42 311.571 L
103.18 311.571 L
cp
f
GR
GS
[0.98462 0 0 0.98438 0 0] CT
0.218 GC
N
148.48 429.429 M
184.72 429.429 L
184.72 356.357 L
148.48 356.357 L
cp
f
GR
GS
[0.98462 0 0 0.98438 0 0] CT
0.218 GC
N
193.78 429.429 M
230.02 429.429 L
230.02 384.643 L
193.78 384.643 L
cp
f
GR
GS
[0.98462 0 0 0.98438 0 0] CT
0.218 GC
N
239.08 429.429 M
275.32 429.429 L
275.32 404.679 L
239.08 404.679 L
cp
f
GR
GS
[0.98462 0 0 0.98438 0 0] CT
0.218 GC
N
284.38 429.429 M
320.62 429.429 L
320.62 414.107 L
284.38 414.107 L
cp
f
GR
GS
[0.98462 0 0 0.98438 0 0] CT
0.218 GC
N
329.68 429.429 M
365.92 429.429 L
365.92 421.179 L
329.68 421.179 L
cp
f
GR
GS
[0.98462 0 0 0.98438 0 0] CT
0.218 GC
N
374.98 429.429 M
411.22 429.429 L
411.22 424.714 L
374.98 424.714 L
cp
f
GR
GS
[0.98462 0 0 0.98438 0 0] CT
0.218 GC
N
420.28 429.429 M
456.52 429.429 L
456.52 427.071 L
420.28 427.071 L
cp
f
GR
GS
[0.98462 0 0 0.98438 0 0] CT
0.218 GC
N
465.58 429.429 M
501.82 429.429 L
501.82 425.893 L
465.58 425.893 L
cp
f
GR
GS
[0.98462 0 0 0.98438 0 0] CT
0 GC
10.0 ML
0.667 LW
N
103.18 429.429 M
103.18 311.571 L
139.42 311.571 L
139.42 429.429 L
cp
S
GR
GS
[0.98462 0 0 0.98438 0 0] CT
0 GC
10.0 ML
0.667 LW
N
148.48 429.429 M
148.48 356.357 L
184.72 356.357 L
184.72 429.429 L
cp
S
GR
GS
[0.98462 0 0 0.98438 0 0] CT
0 GC
10.0 ML
0.667 LW
N
193.78 429.429 M
193.78 384.643 L
230.02 384.643 L
230.02 429.429 L
cp
S
GR
GS
[0.98462 0 0 0.98438 0 0] CT
0 GC
10.0 ML
0.667 LW
N
239.08 429.429 M
239.08 404.679 L
275.32 404.679 L
275.32 429.429 L
cp
S
GR
GS
[0.98462 0 0 0.98438 0 0] CT
0 GC
10.0 ML
0.667 LW
N
284.38 429.429 M
284.38 414.107 L
320.62 414.107 L
320.62 429.429 L
cp
S
GR
GS
[0.98462 0 0 0.98438 0 0] CT
0 GC
10.0 ML
0.667 LW
N
329.68 429.429 M
329.68 421.179 L
365.92 421.179 L
365.92 429.429 L
cp
S
GR
GS
[0.98462 0 0 0.98438 0 0] CT
0 GC
10.0 ML
0.667 LW
N
374.98 429.429 M
374.98 424.714 L
411.22 424.714 L
411.22 429.429 L
cp
S
GR
GS
[0.98462 0 0 0.98438 0 0] CT
0 GC
10.0 ML
0.667 LW
N
420.28 429.429 M
420.28 427.071 L
456.52 427.071 L
456.52 429.429 L
cp
S
GR
GS
[0.98462 0 0 0.98438 0 0] CT
0 GC
10.0 ML
0.667 LW
N
465.58 429.429 M
465.58 425.893 L
501.82 425.893 L
501.82 429.429 L
cp
S
GR
GS
[0.98462 0 0 0.98438 0 0] CT
0.997 GC
N
76 684 M
529 684 L
529 518 L
76 518 L
cp
f
GR
GS
[0.98462 0 0 0.98438 0 0] CT
0 GC
2 setlinecap
1 LJ
0.667 LW
N
76 684 M
529 684 L
S
GR
GS
[0.98462 0 0 0.98438 0 0] CT
0 GC
2 setlinecap
1 LJ
0.667 LW
N
76 518 M
529 518 L
S
GR
GS
[0.98462 0 0 0.98438 0 0] CT
0 GC
2 setlinecap
1 LJ
0.667 LW
N
76 684 M
76 679.47 L
S
GR
GS
[0.98462 0 0 0.98438 0 0] CT
0 GC
2 setlinecap
1 LJ
0.667 LW
N
121.3 684 M
121.3 679.47 L
S
GR
GS
[0.98462 0 0 0.98438 0 0] CT
0 GC
2 setlinecap
1 LJ
0.667 LW
N
166.6 684 M
166.6 679.47 L
S
GR
GS
[0.98462 0 0 0.98438 0 0] CT
0 GC
2 setlinecap
1 LJ
0.667 LW
N
211.9 684 M
211.9 679.47 L
S
GR
GS
[0.98462 0 0 0.98438 0 0] CT
0 GC
2 setlinecap
1 LJ
0.667 LW
N
257.2 684 M
257.2 679.47 L
S
GR
GS
[0.98462 0 0 0.98438 0 0] CT
0 GC
2 setlinecap
1 LJ
0.667 LW
N
302.5 684 M
302.5 679.47 L
S
GR
GS
[0.98462 0 0 0.98438 0 0] CT
0 GC
2 setlinecap
1 LJ
0.667 LW
N
347.8 684 M
347.8 679.47 L
S
GR
GS
[0.98462 0 0 0.98438 0 0] CT
0 GC
2 setlinecap
1 LJ
0.667 LW
N
393.1 684 M
393.1 679.47 L
S
GR
GS
[0.98462 0 0 0.98438 0 0] CT
0 GC
2 setlinecap
1 LJ
0.667 LW
N
438.4 684 M
438.4 679.47 L
S
GR
GS
[0.98462 0 0 0.98438 0 0] CT
0 GC
2 setlinecap
1 LJ
0.667 LW
N
483.7 684 M
483.7 679.47 L
S
GR
GS
[0.98462 0 0 0.98438 0 0] CT
0 GC
2 setlinecap
1 LJ
0.667 LW
N
529 684 M
529 679.47 L
S
GR
GS
[0.98462 0 0 0.98438 0 0] CT
0 GC
2 setlinecap
1 LJ
0.667 LW
N
76 518 M
76 522.53 L
S
GR
GS
[0.98462 0 0 0.98438 0 0] CT
0 GC
2 setlinecap
1 LJ
0.667 LW
N
121.3 518 M
121.3 522.53 L
S
GR
GS
[0.98462 0 0 0.98438 0 0] CT
0 GC
2 setlinecap
1 LJ
0.667 LW
N
166.6 518 M
166.6 522.53 L
S
GR
GS
[0.98462 0 0 0.98438 0 0] CT
0 GC
2 setlinecap
1 LJ
0.667 LW
N
211.9 518 M
211.9 522.53 L
S
GR
GS
[0.98462 0 0 0.98438 0 0] CT
0 GC
2 setlinecap
1 LJ
0.667 LW
N
257.2 518 M
257.2 522.53 L
S
GR
GS
[0.98462 0 0 0.98438 0 0] CT
0 GC
2 setlinecap
1 LJ
0.667 LW
N
302.5 518 M
302.5 522.53 L
S
GR
GS
[0.98462 0 0 0.98438 0 0] CT
0 GC
2 setlinecap
1 LJ
0.667 LW
N
347.8 518 M
347.8 522.53 L
S
GR
GS
[0.98462 0 0 0.98438 0 0] CT
0 GC
2 setlinecap
1 LJ
0.667 LW
N
393.1 518 M
393.1 522.53 L
S
GR
GS
[0.98462 0 0 0.98438 0 0] CT
0 GC
2 setlinecap
1 LJ
0.667 LW
N
438.4 518 M
438.4 522.53 L
S
GR
GS
[0.98462 0 0 0.98438 0 0] CT
0 GC
2 setlinecap
1 LJ
0.667 LW
N
483.7 518 M
483.7 522.53 L
S
GR
GS
[0.98462 0 0 0.98438 0 0] CT
0 GC
2 setlinecap
1 LJ
0.667 LW
N
529 518 M
529 522.53 L
S
GR
GS
[0.98462 0 0 0.98438 74.83077 677.93751] CT
0 GC
/Helvetica 10 F
GS
[1 0 0 1 0 0] CT
-10 10 moveto 
1 -1 scale
(-0.5) t 
GR
GR
GS
[0.98462 0 0 0.98438 119.43385 677.93751] CT
0 GC
/Helvetica 10 F
GS
[1 0 0 1 0 0] CT
-3.5 10 moveto 
1 -1 scale
(0) t 
GR
GR
GS
[0.98462 0 0 0.98438 164.03693 677.93751] CT
0 GC
/Helvetica 10 F
GS
[1 0 0 1 0 0] CT
-8 10 moveto 
1 -1 scale
(0.5) t 
GR
GR
GS
[0.98462 0 0 0.98438 208.63999 677.93751] CT
0 GC
/Helvetica 10 F
GS
[1 0 0 1 0 0] CT
-3.5 10 moveto 
1 -1 scale
(1) t 
GR
GR
GS
[0.98462 0 0 0.98438 253.24309 677.93751] CT
0 GC
/Helvetica 10 F
GS
[1 0 0 1 0 0] CT
-8 10 moveto 
1 -1 scale
(1.5) t 
GR
GR
GS
[0.98462 0 0 0.98438 297.84615 677.93751] CT
0 GC
/Helvetica 10 F
GS
[1 0 0 1 0 0] CT
-3.5 10 moveto 
1 -1 scale
(2) t 
GR
GR
GS
[0.98462 0 0 0.98438 342.44922 677.93751] CT
0 GC
/Helvetica 10 F
GS
[1 0 0 1 0 0] CT
-8 10 moveto 
1 -1 scale
(2.5) t 
GR
GR
GS
[0.98462 0 0 0.98438 387.05231 677.93751] CT
0 GC
/Helvetica 10 F
GS
[1 0 0 1 0 0] CT
-3.5 10 moveto 
1 -1 scale
(3) t 
GR
GR
GS
[0.98462 0 0 0.98438 431.65538 677.93751] CT
0 GC
/Helvetica 10 F
GS
[1 0 0 1 0 0] CT
-8 10 moveto 
1 -1 scale
(3.5) t 
GR
GR
GS
[0.98462 0 0 0.98438 476.25847 677.93751] CT
0 GC
/Helvetica 10 F
GS
[1 0 0 1 0 0] CT
-3.5 10 moveto 
1 -1 scale
(4) t 
GR
GR
GS
[0.98462 0 0 0.98438 520.86154 677.93751] CT
0 GC
/Helvetica 10 F
GS
[1 0 0 1 0 0] CT
-8 10 moveto 
1 -1 scale
(4.5) t 
GR
GR
GS
[0.98462 0 0 0.98438 0 0] CT
0 GC
2 setlinecap
1 LJ
0.667 LW
N
76 684 M
76 518 L
S
GR
GS
[0.98462 0 0 0.98438 0 0] CT
0 GC
2 setlinecap
1 LJ
0.667 LW
N
529 684 M
529 518 L
S
GR
GS
[0.98462 0 0 0.98438 0 0] CT
0 GC
2 setlinecap
1 LJ
0.667 LW
N
76 684 M
80.53 684 L
S
GR
GS
[0.98462 0 0 0.98438 0 0] CT
0 GC
2 setlinecap
1 LJ
0.667 LW
N
76 660.286 M
80.53 660.286 L
S
GR
GS
[0.98462 0 0 0.98438 0 0] CT
0 GC
2 setlinecap
1 LJ
0.667 LW
N
76 636.571 M
80.53 636.571 L
S
GR
GS
[0.98462 0 0 0.98438 0 0] CT
0 GC
2 setlinecap
1 LJ
0.667 LW
N
76 612.857 M
80.53 612.857 L
S
GR
GS
[0.98462 0 0 0.98438 0 0] CT
0 GC
2 setlinecap
1 LJ
0.667 LW
N
76 589.143 M
80.53 589.143 L
S
GR
GS
[0.98462 0 0 0.98438 0 0] CT
0 GC
2 setlinecap
1 LJ
0.667 LW
N
76 565.429 M
80.53 565.429 L
S
GR
GS
[0.98462 0 0 0.98438 0 0] CT
0 GC
2 setlinecap
1 LJ
0.667 LW
N
76 541.714 M
80.53 541.714 L
S
GR
GS
[0.98462 0 0 0.98438 0 0] CT
0 GC
2 setlinecap
1 LJ
0.667 LW
N
76 518 M
80.53 518 L
S
GR
GS
[0.98462 0 0 0.98438 0 0] CT
0 GC
2 setlinecap
1 LJ
0.667 LW
N
529 684 M
524.47 684 L
S
GR
GS
[0.98462 0 0 0.98438 0 0] CT
0 GC
2 setlinecap
1 LJ
0.667 LW
N
529 660.286 M
524.47 660.286 L
S
GR
GS
[0.98462 0 0 0.98438 0 0] CT
0 GC
2 setlinecap
1 LJ
0.667 LW
N
529 636.571 M
524.47 636.571 L
S
GR
GS
[0.98462 0 0 0.98438 0 0] CT
0 GC
2 setlinecap
1 LJ
0.667 LW
N
529 612.857 M
524.47 612.857 L
S
GR
GS
[0.98462 0 0 0.98438 0 0] CT
0 GC
2 setlinecap
1 LJ
0.667 LW
N
529 589.143 M
524.47 589.143 L
S
GR
GS
[0.98462 0 0 0.98438 0 0] CT
0 GC
2 setlinecap
1 LJ
0.667 LW
N
529 565.429 M
524.47 565.429 L
S
GR
GS
[0.98462 0 0 0.98438 0 0] CT
0 GC
2 setlinecap
1 LJ
0.667 LW
N
529 541.714 M
524.47 541.714 L
S
GR
GS
[0.98462 0 0 0.98438 0 0] CT
0 GC
2 setlinecap
1 LJ
0.667 LW
N
529 518 M
524.47 518 L
S
GR
GS
[0.98462 0 0 0.98438 70.20464 673.3125] CT
0 GC
/Helvetica 10 F
GS
[1 0 0 1 0 0] CT
-17 3.5 moveto 
1 -1 scale
(-20) t 
GR
GR
GS
[0.98462 0 0 0.98438 70.20464 649.96874] CT
0 GC
/Helvetica 10 F
GS
[1 0 0 1 0 0] CT
-7 3.5 moveto 
1 -1 scale
(0) t 
GR
GR
GS
[0.98462 0 0 0.98438 70.20464 626.62498] CT
0 GC
/Helvetica 10 F
GS
[1 0 0 1 0 0] CT
-13 3.5 moveto 
1 -1 scale
(20) t 
GR
GR
GS
[0.98462 0 0 0.98438 70.20464 603.28122] CT
0 GC
/Helvetica 10 F
GS
[1 0 0 1 0 0] CT
-13 3.5 moveto 
1 -1 scale
(40) t 
GR
GR
GS
[0.98462 0 0 0.98438 70.20464 579.93753] CT
0 GC
/Helvetica 10 F
GS
[1 0 0 1 0 0] CT
-13 3.5 moveto 
1 -1 scale
(60) t 
GR
GR
GS
[0.98462 0 0 0.98438 70.20464 556.59377] CT
0 GC
/Helvetica 10 F
GS
[1 0 0 1 0 0] CT
-13 3.5 moveto 
1 -1 scale
(80) t 
GR
GR
GS
[0.98462 0 0 0.98438 70.20464 533.25001] CT
0 GC
/Helvetica 10 F
GS
[1 0 0 1 0 0] CT
-20 3.5 moveto 
1 -1 scale
(100) t 
GR
GR
GS
[0.98462 0 0 0.98438 70.20464 509.90625] CT
0 GC
/Helvetica 10 F
GS
[1 0 0 1 0 0] CT
-20 3.5 moveto 
1 -1 scale
(120) t 
GR
GR
GS
[0.98462 0 0 0.98438 0 0] CT
0 GC
10.0 ML
0.667 LW
N
121.3 541.714 M
166.6 541.714 L
166.6 586.771 L
211.9 586.771 L
211.9 615.229 L
257.2 615.229 L
257.2 635.386 L
302.5 635.386 L
302.5 644.871 L
347.8 644.871 L
347.8 651.986 L
393.1 651.986 L
393.1 655.543 L
438.4 655.543 L
438.4 657.914 L
483.7 657.914 L
483.7 656.729 L
S
GR
%%Trailer
%%Pages: 1
%%EOF
