%!PS-Adobe-3.0 EPSF-3.0
%%Creator: (MATLAB, The Mathworks, Inc. Version 8.6.0.267246 \(R2015b\). Operating System: Linux)
%%Title: ./CustomerMap4.eps
%%CreationDate: 2015-10-05T03:28:38
%%Pages: (atend)
%%BoundingBox:    84    16   481   416
%%LanguageLevel: 3
%%EndComments
%%BeginProlog
%%BeginResource: procset (Apache XML Graphics Std ProcSet) 1.2 0
%%Version: 1.2 0
%%Copyright: (Copyright 2001-2003,2010 The Apache Software Foundation. License terms: http://www.apache.org/licenses/LICENSE-2.0)
/bd{bind def}bind def
/ld{load def}bd
/GR/grestore ld
/M/moveto ld
/LJ/setlinejoin ld
/C/curveto ld
/f/fill ld
/LW/setlinewidth ld
/GC/setgray ld
/t/show ld
/N/newpath ld
/CT/concat ld
/cp/closepath ld
/S/stroke ld
/L/lineto ld
/CC/setcmykcolor ld
/A/ashow ld
/GS/gsave ld
/RC/setrgbcolor ld
/RM/rmoveto ld
/ML/setmiterlimit ld
/re {4 2 roll M
1 index 0 rlineto
0 exch rlineto
neg 0 rlineto
cp } bd
/_ctm matrix def
/_tm matrix def
/BT { _ctm currentmatrix pop matrix _tm copy pop 0 0 moveto } bd
/ET { _ctm setmatrix } bd
/iTm { _ctm setmatrix _tm concat } bd
/Tm { _tm astore pop iTm 0 0 moveto } bd
/ux 0.0 def
/uy 0.0 def
/F {
  /Tp exch def
  /Tf exch def
  Tf findfont Tp scalefont setfont
  /cf Tf def  /cs Tp def
} bd
/ULS {currentpoint /uy exch def /ux exch def} bd
/ULE {
  /Tcx currentpoint pop def
  gsave
  newpath
  cf findfont cs scalefont dup
  /FontMatrix get 0 get /Ts exch def /FontInfo get dup
  /UnderlinePosition get Ts mul /To exch def
  /UnderlineThickness get Ts mul /Tt exch def
  ux uy To add moveto  Tcx uy To add lineto
  Tt setlinewidth stroke
  grestore
} bd
/OLE {
  /Tcx currentpoint pop def
  gsave
  newpath
  cf findfont cs scalefont dup
  /FontMatrix get 0 get /Ts exch def /FontInfo get dup
  /UnderlinePosition get Ts mul /To exch def
  /UnderlineThickness get Ts mul /Tt exch def
  ux uy To add cs add moveto Tcx uy To add cs add lineto
  Tt setlinewidth stroke
  grestore
} bd
/SOE {
  /Tcx currentpoint pop def
  gsave
  newpath
  cf findfont cs scalefont dup
  /FontMatrix get 0 get /Ts exch def /FontInfo get dup
  /UnderlinePosition get Ts mul /To exch def
  /UnderlineThickness get Ts mul /Tt exch def
  ux uy To add cs 10 mul 26 idiv add moveto Tcx uy To add cs 10 mul 26 idiv add lineto
  Tt setlinewidth stroke
  grestore
} bd
/QT {
/Y22 exch store
/X22 exch store
/Y21 exch store
/X21 exch store
currentpoint
/Y21 load 2 mul add 3 div exch
/X21 load 2 mul add 3 div exch
/X21 load 2 mul /X22 load add 3 div
/Y21 load 2 mul /Y22 load add 3 div
/X22 load /Y22 load curveto
} bd
/SSPD {
dup length /d exch dict def
{
/v exch def
/k exch def
currentpagedevice k known {
/cpdv currentpagedevice k get def
v cpdv ne {
/upd false def
/nullv v type /nulltype eq def
/nullcpdv cpdv type /nulltype eq def
nullv nullcpdv or
{
/upd true def
} {
/sametype v type cpdv type eq def
sametype {
v type /arraytype eq {
/vlen v length def
/cpdvlen cpdv length def
vlen cpdvlen eq {
0 1 vlen 1 sub {
/i exch def
/obj v i get def
/cpdobj cpdv i get def
obj cpdobj ne {
/upd true def
exit
} if
} for
} {
/upd true def
} ifelse
} {
v type /dicttype eq {
v {
/dv exch def
/dk exch def
/cpddv cpdv dk get def
dv cpddv ne {
/upd true def
exit
} if
} forall
} {
/upd true def
} ifelse
} ifelse
} if
} ifelse
upd true eq {
d k v put
} if
} if
} if
} forall
d length 0 gt {
d setpagedevice
} if
} bd
%%EndResource
%%BeginResource: procset (Apache XML Graphics EPS ProcSet) 1.0 0
%%Version: 1.0 0
%%Copyright: (Copyright 2002-2003 The Apache Software Foundation. License terms: http://www.apache.org/licenses/LICENSE-2.0)
/BeginEPSF { %def
/b4_Inc_state save def         % Save state for cleanup
/dict_count countdictstack def % Count objects on dict stack
/op_count count 1 sub def      % Count objects on operand stack
userdict begin                 % Push userdict on dict stack
/showpage { } def              % Redefine showpage, { } = null proc
0 setgray 0 setlinecap         % Prepare graphics state
1 setlinewidth 0 setlinejoin
10 setmiterlimit [ ] 0 setdash newpath
/languagelevel where           % If level not equal to 1 then
{pop languagelevel             % set strokeadjust and
1 ne                           % overprint to their defaults.
{false setstrokeadjust false setoverprint
} if
} if
} bd
/EndEPSF { %def
count op_count sub {pop} repeat            % Clean up stacks
countdictstack dict_count sub {end} repeat
b4_Inc_state restore
} bd
%%EndResource
%FOPBeginFontDict
%%IncludeResource: font Courier-Bold
%%IncludeResource: font Helvetica
%%IncludeResource: font Courier-BoldOblique
%%IncludeResource: font Courier-Oblique
%%IncludeResource: font Times-Roman
%%IncludeResource: font Helvetica-BoldOblique
%%IncludeResource: font Helvetica-Bold
%%IncludeResource: font Helvetica-Oblique
%%IncludeResource: font Times-BoldItalic
%%IncludeResource: font Courier
%%IncludeResource: font Times-Italic
%%IncludeResource: font Times-Bold
%%IncludeResource: font Symbol
%%IncludeResource: font ZapfDingbats
%FOPEndFontDict
%%BeginResource: encoding WinAnsiEncoding
/WinAnsiEncoding [
/.notdef /.notdef /.notdef /.notdef /.notdef
/.notdef /.notdef /.notdef /.notdef /.notdef
/.notdef /.notdef /.notdef /.notdef /.notdef
/.notdef /.notdef /.notdef /.notdef /.notdef
/.notdef /.notdef /.notdef /.notdef /.notdef
/.notdef /.notdef /.notdef /.notdef /.notdef
/.notdef /.notdef /space /exclam /quotedbl
/numbersign /dollar /percent /ampersand /quotesingle
/parenleft /parenright /asterisk /plus /comma
/hyphen /period /slash /zero /one
/two /three /four /five /six
/seven /eight /nine /colon /semicolon
/less /equal /greater /question /at
/A /B /C /D /E
/F /G /H /I /J
/K /L /M /N /O
/P /Q /R /S /T
/U /V /W /X /Y
/Z /bracketleft /backslash /bracketright /asciicircum
/underscore /quoteleft /a /b /c
/d /e /f /g /h
/i /j /k /l /m
/n /o /p /q /r
/s /t /u /v /w
/x /y /z /braceleft /bar
/braceright /asciitilde /bullet /Euro /bullet
/quotesinglbase /florin /quotedblbase /ellipsis /dagger
/daggerdbl /circumflex /perthousand /Scaron /guilsinglleft
/OE /bullet /Zcaron /bullet /bullet
/quoteleft /quoteright /quotedblleft /quotedblright /bullet
/endash /emdash /asciitilde /trademark /scaron
/guilsinglright /oe /bullet /zcaron /Ydieresis
/space /exclamdown /cent /sterling /currency
/yen /brokenbar /section /dieresis /copyright
/ordfeminine /guillemotleft /logicalnot /sfthyphen /registered
/macron /degree /plusminus /twosuperior /threesuperior
/acute /mu /paragraph /middot /cedilla
/onesuperior /ordmasculine /guillemotright /onequarter /onehalf
/threequarters /questiondown /Agrave /Aacute /Acircumflex
/Atilde /Adieresis /Aring /AE /Ccedilla
/Egrave /Eacute /Ecircumflex /Edieresis /Igrave
/Iacute /Icircumflex /Idieresis /Eth /Ntilde
/Ograve /Oacute /Ocircumflex /Otilde /Odieresis
/multiply /Oslash /Ugrave /Uacute /Ucircumflex
/Udieresis /Yacute /Thorn /germandbls /agrave
/aacute /acircumflex /atilde /adieresis /aring
/ae /ccedilla /egrave /eacute /ecircumflex
/edieresis /igrave /iacute /icircumflex /idieresis
/eth /ntilde /ograve /oacute /ocircumflex
/otilde /odieresis /divide /oslash /ugrave
/uacute /ucircumflex /udieresis /yacute /thorn
/ydieresis
] def
%%EndResource
%FOPBeginFontReencode
/Courier-Bold findfont
dup length dict begin
  {1 index /FID ne {def} {pop pop} ifelse} forall
  /Encoding WinAnsiEncoding def
  currentdict
end
/Courier-Bold exch definefont pop
/Helvetica findfont
dup length dict begin
  {1 index /FID ne {def} {pop pop} ifelse} forall
  /Encoding WinAnsiEncoding def
  currentdict
end
/Helvetica exch definefont pop
/Courier-BoldOblique findfont
dup length dict begin
  {1 index /FID ne {def} {pop pop} ifelse} forall
  /Encoding WinAnsiEncoding def
  currentdict
end
/Courier-BoldOblique exch definefont pop
/Courier-Oblique findfont
dup length dict begin
  {1 index /FID ne {def} {pop pop} ifelse} forall
  /Encoding WinAnsiEncoding def
  currentdict
end
/Courier-Oblique exch definefont pop
/Times-Roman findfont
dup length dict begin
  {1 index /FID ne {def} {pop pop} ifelse} forall
  /Encoding WinAnsiEncoding def
  currentdict
end
/Times-Roman exch definefont pop
/Helvetica-BoldOblique findfont
dup length dict begin
  {1 index /FID ne {def} {pop pop} ifelse} forall
  /Encoding WinAnsiEncoding def
  currentdict
end
/Helvetica-BoldOblique exch definefont pop
/Helvetica-Bold findfont
dup length dict begin
  {1 index /FID ne {def} {pop pop} ifelse} forall
  /Encoding WinAnsiEncoding def
  currentdict
end
/Helvetica-Bold exch definefont pop
/Helvetica-Oblique findfont
dup length dict begin
  {1 index /FID ne {def} {pop pop} ifelse} forall
  /Encoding WinAnsiEncoding def
  currentdict
end
/Helvetica-Oblique exch definefont pop
/Times-BoldItalic findfont
dup length dict begin
  {1 index /FID ne {def} {pop pop} ifelse} forall
  /Encoding WinAnsiEncoding def
  currentdict
end
/Times-BoldItalic exch definefont pop
/Courier findfont
dup length dict begin
  {1 index /FID ne {def} {pop pop} ifelse} forall
  /Encoding WinAnsiEncoding def
  currentdict
end
/Courier exch definefont pop
/Times-Italic findfont
dup length dict begin
  {1 index /FID ne {def} {pop pop} ifelse} forall
  /Encoding WinAnsiEncoding def
  currentdict
end
/Times-Italic exch definefont pop
/Times-Bold findfont
dup length dict begin
  {1 index /FID ne {def} {pop pop} ifelse} forall
  /Encoding WinAnsiEncoding def
  currentdict
end
/Times-Bold exch definefont pop
%FOPEndFontReencode
%%EndProlog
%%Page: 1 1
%%PageBoundingBox: 0 0 576 432
%%BeginPageSetup
[1 0 0 -1 0 432] CT
%%EndPageSetup
GS
[0.75 0 0 0.75 0 0] CT
1 GC
N
0 0 768 576 re
f
GR
GS
[0.75 0 0 0.75 0 0] CT
1 GC
N
0 0 768 576 re
f
GR
GS
[0.75 0 0 0.75 0 0] CT
1 GC
N
162.5 513 M
632.5 513 L
632.5 43 L
162.5 43 L
cp
f
GR
GS
[0.75 0 0 0.75 298.12527 30.18749] CT
/Helvetica-Bold 15 F
GS
[1 0 0 1 0 0] CT
-209.5 -4 moveto 
1 -1 scale
(Total Costs to Deliver from each Location \(th174\)) t 
GR
GR
GS
[0.75 0 0 0.75 0 0] CT
1 LJ
0.667 LW
N
417.207 387.667 M
413.167 389.812 L
397.5 394.743 L
381.833 397.481 L
366.167 398.456 L
350.5 397.871 L
334.833 395.816 L
319.167 392.286 L
305.056 387.667 L
S
GR
GS
[0.75 0 0 0.75 0 0] CT
1 LJ
0.667 LW
N
305.056 387.667 M
303.5 387.102 L
287.833 379.402 L
276.327 372 L
S
GR
GS
[0.75 0 0 0.75 0 0] CT
1 LJ
0.667 LW
N
435.6 372 M
428.833 380.228 L
417.207 387.667 L
S
GR
GS
[0.75 0 0 0.75 0 0] CT
1 LJ
0.667 LW
N
276.327 372 M
272.167 369.004 L
258.726 356.333 L
S
GR
GS
[0.75 0 0 0.75 0 0] CT
1 LJ
0.667 LW
N
441.137 356.333 M
435.6 372 L
S
GR
GS
[0.75 0 0 0.75 0 0] CT
1 LJ
0.667 LW
N
258.726 356.333 M
256.5 353.816 L
247.315 340.667 L
S
GR
GS
[0.75 0 0 0.75 0 0] CT
1 LJ
0.667 LW
N
441.814 340.667 M
441.137 356.333 L
S
GR
GS
[0.75 0 0 0.75 0 0] CT
1 LJ
0.667 LW
N
247.315 340.667 M
240.833 327.848 L
239.589 325 L
S
GR
GS
[0.75 0 0 0.75 0 0] CT
1 LJ
0.667 LW
N
440.638 325 M
441.814 340.667 L
S
GR
GS
[0.75 0 0 0.75 0 0] CT
1 LJ
0.667 LW
N
239.589 325 M
235.01 309.333 L
S
GR
GS
[0.75 0 0 0.75 0 0] CT
1 LJ
0.667 LW
N
438.257 309.333 M
440.638 325 L
S
GR
GS
[0.75 0 0 0.75 0 0] CT
1 LJ
0.667 LW
N
235.01 309.333 M
232.479 293.667 L
S
GR
GS
[0.75 0 0 0.75 0 0] CT
1 LJ
0.667 LW
N
434.885 293.667 M
438.257 309.333 L
S
GR
GS
[0.75 0 0 0.75 0 0] CT
1 LJ
0.667 LW
N
232.479 293.667 M
231.65 278 L
S
GR
GS
[0.75 0 0 0.75 0 0] CT
1 LJ
0.667 LW
N
430.612 278 M
434.885 293.667 L
S
GR
GS
[0.75 0 0 0.75 0 0] CT
1 LJ
0.667 LW
N
231.65 278 M
232.363 262.333 L
S
GR
GS
[0.75 0 0 0.75 0 0] CT
1 LJ
0.667 LW
N
424.988 262.333 M
428.833 272.654 L
430.612 278 L
S
GR
GS
[0.75 0 0 0.75 0 0] CT
1 LJ
0.667 LW
N
232.363 262.333 M
234.606 246.667 L
S
GR
GS
[0.75 0 0 0.75 0 0] CT
1 LJ
0.667 LW
N
418.274 246.667 M
424.988 262.333 L
S
GR
GS
[0.75 0 0 0.75 0 0] CT
1 LJ
0.667 LW
N
234.606 246.667 M
238.534 231 L
S
GR
GS
[0.75 0 0 0.75 0 0] CT
1 LJ
0.667 LW
N
410.403 231 M
413.167 236.111 L
418.274 246.667 L
S
GR
GS
[0.75 0 0 0.75 0 0] CT
1 LJ
0.667 LW
N
238.534 231 M
240.833 224.963 L
245.152 215.333 L
S
GR
GS
[0.75 0 0 0.75 0 0] CT
1 LJ
0.667 LW
N
400.971 215.333 M
410.403 231 L
S
GR
GS
[0.75 0 0 0.75 0 0] CT
1 LJ
0.667 LW
N
245.152 215.333 M
254.816 199.667 L
S
GR
GS
[0.75 0 0 0.75 0 0] CT
1 LJ
0.667 LW
N
389.611 199.667 M
397.5 210.111 L
400.971 215.333 L
S
GR
GS
[0.75 0 0 0.75 0 0] CT
1 LJ
0.667 LW
N
254.816 199.667 M
256.5 197.608 L
269.179 184 L
S
GR
GS
[0.75 0 0 0.75 0 0] CT
1 LJ
0.667 LW
N
375.306 184 M
381.833 190.058 L
389.611 199.667 L
S
GR
GS
[0.75 0 0 0.75 0 0] CT
1 LJ
0.667 LW
N
269.179 184 M
272.167 181.645 L
287.833 172.634 L
303.5 169.36 L
319.167 168.511 L
334.833 169.523 L
350.5 172.242 L
366.167 177.277 L
375.306 184 L
S
GR
GS
[0.75 0 0 0.75 0 0] CT
0.137 0.086 0.055 RC
1 LJ
0.667 LW
N
425.077 434.667 M
413.167 438.129 L
397.5 441.148 L
381.833 442.867 L
366.167 443.419 L
350.5 442.873 L
334.833 441.255 L
319.167 438.55 L
303.5 434.703 L
303.386 434.667 L
S
GR
GS
[0.75 0 0 0.75 0 0] CT
0.137 0.086 0.055 RC
1 LJ
0.667 LW
N
303.386 434.667 M
287.833 429.167 L
272.167 422.073 L
266.693 419 L
S
GR
GS
[0.75 0 0 0.75 0 0] CT
0.137 0.086 0.055 RC
1 LJ
0.667 LW
N
454.104 419 M
444.5 425.829 L
428.833 433.417 L
425.077 434.667 L
S
GR
GS
[0.75 0 0 0.75 0 0] CT
0.137 0.086 0.055 RC
1 LJ
0.667 LW
N
266.693 419 M
256.5 412.639 L
244.255 403.333 L
S
GR
GS
[0.75 0 0 0.75 0 0] CT
0.137 0.086 0.055 RC
1 LJ
0.667 LW
N
468.287 403.333 M
460.167 413.761 L
454.104 419 L
S
GR
GS
[0.75 0 0 0.75 0 0] CT
0.137 0.086 0.055 RC
1 LJ
0.667 LW
N
244.255 403.333 M
240.833 400.39 L
228.365 387.667 L
S
GR
GS
[0.75 0 0 0.75 0 0] CT
0.137 0.086 0.055 RC
1 LJ
0.667 LW
N
475.469 387.667 M
468.287 403.333 L
S
GR
GS
[0.75 0 0 0.75 0 0] CT
0.137 0.086 0.055 RC
1 LJ
0.667 LW
N
228.365 387.667 M
225.167 383.83 L
216.686 372 L
S
GR
GS
[0.75 0 0 0.75 0 0] CT
0.137 0.086 0.055 RC
1 LJ
0.667 LW
N
479.385 372 M
475.833 386.421 L
475.469 387.667 L
S
GR
GS
[0.75 0 0 0.75 0 0] CT
0.137 0.086 0.055 RC
1 LJ
0.667 LW
N
216.686 372 M
209.5 359.661 L
207.796 356.333 L
S
GR
GS
[0.75 0 0 0.75 0 0] CT
0.137 0.086 0.055 RC
1 LJ
0.667 LW
N
481.735 356.333 M
479.385 372 L
S
GR
GS
[0.75 0 0 0.75 0 0] CT
0.137 0.086 0.055 RC
1 LJ
0.667 LW
N
207.796 356.333 M
201.304 340.667 L
S
GR
GS
[0.75 0 0 0.75 0 0] CT
0.137 0.086 0.055 RC
1 LJ
0.667 LW
N
482.634 340.667 M
481.735 356.333 L
S
GR
GS
[0.75 0 0 0.75 0 0] CT
0.137 0.086 0.055 RC
1 LJ
0.667 LW
N
201.304 340.667 M
196.347 325 L
S
GR
GS
[0.75 0 0 0.75 0 0] CT
0.137 0.086 0.055 RC
1 LJ
0.667 LW
N
482.243 325 M
482.634 340.667 L
S
GR
GS
[0.75 0 0 0.75 0 0] CT
0.137 0.086 0.055 RC
1 LJ
0.667 LW
N
196.347 325 M
193.833 314.009 L
192.847 309.333 L
S
GR
GS
[0.75 0 0 0.75 0 0] CT
0.137 0.086 0.055 RC
1 LJ
0.667 LW
N
480.716 309.333 M
482.243 325 L
S
GR
GS
[0.75 0 0 0.75 0 0] CT
0.137 0.086 0.055 RC
1 LJ
0.667 LW
N
192.847 309.333 M
190.706 293.667 L
S
GR
GS
[0.75 0 0 0.75 0 0] CT
0.137 0.086 0.055 RC
1 LJ
0.667 LW
N
478.172 293.667 M
480.716 309.333 L
S
GR
GS
[0.75 0 0 0.75 0 0] CT
0.137 0.086 0.055 RC
1 LJ
0.667 LW
N
190.706 293.667 M
189.689 278 L
S
GR
GS
[0.75 0 0 0.75 0 0] CT
0.137 0.086 0.055 RC
1 LJ
0.667 LW
N
474.588 278 M
475.833 283.137 L
478.172 293.667 L
S
GR
GS
[0.75 0 0 0.75 0 0] CT
0.137 0.086 0.055 RC
1 LJ
0.667 LW
N
189.689 278 M
189.756 262.333 L
S
GR
GS
[0.75 0 0 0.75 0 0] CT
0.137 0.086 0.055 RC
1 LJ
0.667 LW
N
469.862 262.333 M
474.588 278 L
S
GR
GS
[0.75 0 0 0.75 0 0] CT
0.137 0.086 0.055 RC
1 LJ
0.667 LW
N
189.756 262.333 M
190.895 246.667 L
S
GR
GS
[0.75 0 0 0.75 0 0] CT
0.137 0.086 0.055 RC
1 LJ
0.667 LW
N
464.253 246.667 M
469.862 262.333 L
S
GR
GS
[0.75 0 0 0.75 0 0] CT
0.137 0.086 0.055 RC
1 LJ
0.667 LW
N
190.895 246.667 M
193.141 231 L
S
GR
GS
[0.75 0 0 0.75 0 0] CT
0.137 0.086 0.055 RC
1 LJ
0.667 LW
N
457.563 231 M
460.167 236.836 L
464.253 246.667 L
S
GR
GS
[0.75 0 0 0.75 0 0] CT
0.137 0.086 0.055 RC
1 LJ
0.667 LW
N
193.141 231 M
193.833 227.876 L
196.925 215.333 L
S
GR
GS
[0.75 0 0 0.75 0 0] CT
0.137 0.086 0.055 RC
1 LJ
0.667 LW
N
449.616 215.333 M
457.563 231 L
S
GR
GS
[0.75 0 0 0.75 0 0] CT
0.137 0.086 0.055 RC
1 LJ
0.667 LW
N
196.925 215.333 M
202.68 199.667 L
S
GR
GS
[0.75 0 0 0.75 0 0] CT
0.137 0.086 0.055 RC
1 LJ
0.667 LW
N
440.392 199.667 M
444.5 206.406 L
449.616 215.333 L
S
GR
GS
[0.75 0 0 0.75 0 0] CT
0.137 0.086 0.055 RC
1 LJ
0.667 LW
N
202.68 199.667 M
209.5 186.788 L
211.209 184 L
S
GR
GS
[0.75 0 0 0.75 0 0] CT
0.137 0.086 0.055 RC
1 LJ
0.667 LW
N
429.621 184 M
440.392 199.667 L
S
GR
GS
[0.75 0 0 0.75 0 0] CT
0.137 0.086 0.055 RC
1 LJ
0.667 LW
N
211.209 184 M
223.725 168.333 L
S
GR
GS
[0.75 0 0 0.75 0 0] CT
0.137 0.086 0.055 RC
1 LJ
0.667 LW
N
416.483 168.333 M
428.833 183 L
429.621 184 L
S
GR
GS
[0.75 0 0 0.75 0 0] CT
0.137 0.086 0.055 RC
1 LJ
0.667 LW
N
223.725 168.333 M
225.167 166.846 L
240.831 152.667 L
S
GR
GS
[0.75 0 0 0.75 0 0] CT
0.137 0.086 0.055 RC
1 LJ
0.667 LW
N
399.56 152.667 M
413.167 164.979 L
416.483 168.333 L
S
GR
GS
[0.75 0 0 0.75 0 0] CT
0.137 0.086 0.055 RC
1 LJ
0.667 LW
N
240.831 152.667 M
240.833 152.665 L
256.5 142.449 L
267.719 137 L
S
GR
GS
[0.75 0 0 0.75 0 0] CT
0.137 0.086 0.055 RC
1 LJ
0.667 LW
N
370.959 137 M
381.833 141.544 L
397.5 151.111 L
399.56 152.667 L
S
GR
GS
[0.75 0 0 0.75 0 0] CT
0.137 0.086 0.055 RC
1 LJ
0.667 LW
N
267.719 137 M
272.167 135.067 L
287.833 130.504 L
303.5 128.099 L
319.167 127.526 L
334.833 128.542 L
350.5 131.039 L
366.167 135.126 L
370.959 137 L
S
GR
GS
[0.75 0 0 0.75 0 0] CT
0.275 0.173 0.11 RC
1 LJ
0.667 LW
N
443.286 466 M
428.833 470.341 L
413.167 473.983 L
397.5 476.592 L
381.833 478.208 L
366.167 478.869 L
350.5 478.6 L
334.833 477.416 L
319.167 475.322 L
303.5 472.312 L
287.833 468.361 L
280.312 466 L
S
GR
GS
[0.75 0 0 0.75 0 0] CT
0.275 0.173 0.11 RC
1 LJ
0.667 LW
N
280.312 466 M
272.167 463.196 L
256.5 456.507 L
245.055 450.333 L
S
GR
GS
[0.75 0 0 0.75 0 0] CT
0.275 0.173 0.11 RC
1 LJ
0.667 LW
N
474.193 450.333 M
460.167 458.883 L
444.5 465.597 L
443.286 466 L
S
GR
GS
[0.75 0 0 0.75 0 0] CT
0.275 0.173 0.11 RC
1 LJ
0.667 LW
N
245.055 450.333 M
240.833 447.815 L
225.167 436.477 L
222.999 434.667 L
S
GR
GS
[0.75 0 0 0.75 0 0] CT
0.275 0.173 0.11 RC
1 LJ
0.667 LW
N
486.696 434.667 M
475.833 448.943 L
474.193 450.333 L
S
GR
GS
[0.75 0 0 0.75 0 0] CT
0.275 0.173 0.11 RC
1 LJ
0.667 LW
N
222.999 434.667 M
209.5 422.421 L
206.087 419 L
S
GR
GS
[0.75 0 0 0.75 0 0] CT
0.275 0.173 0.11 RC
1 LJ
0.667 LW
N
496.32 419 M
491.5 427.507 L
486.696 434.667 L
S
GR
GS
[0.75 0 0 0.75 0 0] CT
0.275 0.173 0.11 RC
1 LJ
0.667 LW
N
206.087 419 M
193.833 404.968 L
192.542 403.333 L
S
GR
GS
[0.75 0 0 0.75 0 0] CT
0.275 0.173 0.11 RC
1 LJ
0.667 LW
N
503.414 403.333 M
496.32 419 L
S
GR
GS
[0.75 0 0 0.75 0 0] CT
0.275 0.173 0.11 RC
1 LJ
0.667 LW
N
192.542 403.333 M
182.696 387.667 L
S
GR
GS
[0.75 0 0 0.75 0 0] CT
0.275 0.173 0.11 RC
1 LJ
0.667 LW
N
508.575 387.667 M
507.167 392.126 L
503.414 403.333 L
S
GR
GS
[0.75 0 0 0.75 0 0] CT
0.275 0.173 0.11 RC
1 LJ
0.667 LW
N
182.696 387.667 M
178.167 378.766 L
175.122 372 L
S
GR
GS
[0.75 0 0 0.75 0 0] CT
0.275 0.173 0.11 RC
1 LJ
0.667 LW
N
512.085 372 M
508.575 387.667 L
S
GR
GS
[0.75 0 0 0.75 0 0] CT
0.275 0.173 0.11 RC
1 LJ
0.667 LW
N
175.122 372 M
169.12 356.333 L
S
GR
GS
[0.75 0 0 0.75 0 0] CT
0.275 0.173 0.11 RC
1 LJ
0.667 LW
N
514.335 356.333 M
512.085 372 L
S
GR
GS
[0.75 0 0 0.75 0 0] CT
0.275 0.173 0.11 RC
1 LJ
0.667 LW
N
169.12 356.333 M
164.191 340.667 L
S
GR
GS
[0.75 0 0 0.75 0 0] CT
0.275 0.173 0.11 RC
1 LJ
0.667 LW
N
515.432 340.667 M
514.335 356.333 L
S
GR
GS
[0.75 0 0 0.75 0 0] CT
0.275 0.173 0.11 RC
1 LJ
0.667 LW
N
164.191 340.667 M
162.5 333.88 L
S
GR
GS
[0.75 0 0 0.75 0 0] CT
0.275 0.173 0.11 RC
1 LJ
0.667 LW
N
515.452 325 M
515.432 340.667 L
S
GR
GS
[0.75 0 0 0.75 0 0] CT
0.275 0.173 0.11 RC
1 LJ
0.667 LW
N
514.454 309.333 M
515.452 325 L
S
GR
GS
[0.75 0 0 0.75 0 0] CT
0.275 0.173 0.11 RC
1 LJ
0.667 LW
N
512.489 293.667 M
514.454 309.333 L
S
GR
GS
[0.75 0 0 0.75 0 0] CT
0.275 0.173 0.11 RC
1 LJ
0.667 LW
N
509.597 278 M
512.489 293.667 L
S
GR
GS
[0.75 0 0 0.75 0 0] CT
0.275 0.173 0.11 RC
1 LJ
0.667 LW
N
505.729 262.333 M
507.167 267.935 L
509.597 278 L
S
GR
GS
[0.75 0 0 0.75 0 0] CT
0.275 0.173 0.11 RC
1 LJ
0.667 LW
N
500.805 246.667 M
505.729 262.333 L
S
GR
GS
[0.75 0 0 0.75 0 0] CT
0.275 0.173 0.11 RC
1 LJ
0.667 LW
N
494.971 231 M
500.805 246.667 L
S
GR
GS
[0.75 0 0 0.75 0 0] CT
0.275 0.173 0.11 RC
1 LJ
0.667 LW
N
488.028 215.333 M
491.5 222.953 L
494.971 231 L
S
GR
GS
[0.75 0 0 0.75 0 0] CT
0.275 0.173 0.11 RC
1 LJ
0.667 LW
N
162.5 209.541 M
165.133 199.667 L
S
GR
GS
[0.75 0 0 0.75 0 0] CT
0.275 0.173 0.11 RC
1 LJ
0.667 LW
N
479.904 199.667 M
488.028 215.333 L
S
GR
GS
[0.75 0 0 0.75 0 0] CT
0.275 0.173 0.11 RC
1 LJ
0.667 LW
N
165.133 199.667 M
170.468 184 L
S
GR
GS
[0.75 0 0 0.75 0 0] CT
0.275 0.173 0.11 RC
1 LJ
0.667 LW
N
470.436 184 M
475.833 192.722 L
479.904 199.667 L
S
GR
GS
[0.75 0 0 0.75 0 0] CT
0.275 0.173 0.11 RC
1 LJ
0.667 LW
N
170.468 184 M
178.167 168.373 L
178.191 168.333 L
S
GR
GS
[0.75 0 0 0.75 0 0] CT
0.275 0.173 0.11 RC
1 LJ
0.667 LW
N
459.476 168.333 M
460.167 169.266 L
470.436 184 L
S
GR
GS
[0.75 0 0 0.75 0 0] CT
0.275 0.173 0.11 RC
1 LJ
0.667 LW
N
178.191 168.333 M
190.745 152.667 L
S
GR
GS
[0.75 0 0 0.75 0 0] CT
0.275 0.173 0.11 RC
1 LJ
0.667 LW
N
446.39 152.667 M
459.476 168.333 L
S
GR
GS
[0.75 0 0 0.75 0 0] CT
0.275 0.173 0.11 RC
1 LJ
0.667 LW
N
190.745 152.667 M
193.833 149.123 L
205.725 137 L
S
GR
GS
[0.75 0 0 0.75 0 0] CT
0.275 0.173 0.11 RC
1 LJ
0.667 LW
N
430.447 137 M
444.5 150.652 L
446.39 152.667 L
S
GR
GS
[0.75 0 0 0.75 0 0] CT
0.275 0.173 0.11 RC
1 LJ
0.667 LW
N
205.725 137 M
209.5 133.45 L
224.168 121.333 L
S
GR
GS
[0.75 0 0 0.75 0 0] CT
0.275 0.173 0.11 RC
1 LJ
0.667 LW
N
409.338 121.333 M
413.167 123.764 L
428.833 135.604 L
430.447 137 L
S
GR
GS
[0.75 0 0 0.75 0 0] CT
0.275 0.173 0.11 RC
1 LJ
0.667 LW
N
224.168 121.333 M
225.167 120.565 L
240.833 110.375 L
250.127 105.667 L
S
GR
GS
[0.75 0 0 0.75 0 0] CT
0.275 0.173 0.11 RC
1 LJ
0.667 LW
N
377.286 105.667 M
381.833 107.305 L
397.5 114.552 L
409.338 121.333 L
S
GR
GS
[0.75 0 0 0.75 0 0] CT
0.275 0.173 0.11 RC
1 LJ
0.667 LW
N
250.127 105.667 M
256.5 102.646 L
272.167 97.593 L
287.833 94.705 L
303.5 93.504 L
319.167 93.702 L
334.833 95.169 L
350.5 97.874 L
366.167 101.86 L
377.286 105.667 L
S
GR
GS
[0.75 0 0 0.75 0 0] CT
0.416 0.259 0.165 RC
1 LJ
0.667 LW
N
441.257 497.333 M
428.833 501.042 L
413.167 504.642 L
397.5 507.275 L
381.833 508.994 L
366.167 509.833 L
350.5 509.816 L
334.833 508.96 L
319.167 507.277 L
303.5 504.773 L
287.833 501.456 L
272.167 497.335 L
272.161 497.333 L
S
GR
GS
[0.75 0 0 0.75 0 0] CT
0.416 0.259 0.165 RC
1 LJ
0.667 LW
N
272.161 497.333 M
256.5 492.089 L
240.833 485.985 L
232.415 481.667 L
S
GR
GS
[0.75 0 0 0.75 0 0] CT
0.416 0.259 0.165 RC
1 LJ
0.667 LW
N
476.89 481.667 M
475.833 482.367 L
460.167 490.22 L
444.5 496.336 L
441.257 497.333 L
S
GR
GS
[0.75 0 0 0.75 0 0] CT
0.416 0.259 0.165 RC
1 LJ
0.667 LW
N
232.415 481.667 M
225.167 477.29 L
209.949 466 L
S
GR
GS
[0.75 0 0 0.75 0 0] CT
0.416 0.259 0.165 RC
1 LJ
0.667 LW
N
496.615 466 M
491.5 470.872 L
476.89 481.667 L
S
GR
GS
[0.75 0 0 0.75 0 0] CT
0.416 0.259 0.165 RC
1 LJ
0.667 LW
N
209.949 466 M
209.5 465.645 L
193.833 452.019 L
192.051 450.333 L
S
GR
GS
[0.75 0 0 0.75 0 0] CT
0.416 0.259 0.165 RC
1 LJ
0.667 LW
N
509.493 450.333 M
507.167 453.387 L
496.615 466 L
S
GR
GS
[0.75 0 0 0.75 0 0] CT
0.416 0.259 0.165 RC
1 LJ
0.667 LW
N
192.051 450.333 M
178.167 436.311 L
176.697 434.667 L
S
GR
GS
[0.75 0 0 0.75 0 0] CT
0.416 0.259 0.165 RC
1 LJ
0.667 LW
N
519.275 434.667 M
509.493 450.333 L
S
GR
GS
[0.75 0 0 0.75 0 0] CT
0.416 0.259 0.165 RC
1 LJ
0.667 LW
N
176.697 434.667 M
163.895 419 L
S
GR
GS
[0.75 0 0 0.75 0 0] CT
0.416 0.259 0.165 RC
1 LJ
0.667 LW
N
527.057 419 M
522.833 427.708 L
519.275 434.667 L
S
GR
GS
[0.75 0 0 0.75 0 0] CT
0.416 0.259 0.165 RC
1 LJ
0.667 LW
N
163.895 419 M
162.5 416.898 L
S
GR
GS
[0.75 0 0 0.75 0 0] CT
0.416 0.259 0.165 RC
1 LJ
0.667 LW
N
533.165 403.333 M
527.057 419 L
S
GR
GS
[0.75 0 0 0.75 0 0] CT
0.416 0.259 0.165 RC
1 LJ
0.667 LW
N
537.912 387.667 M
533.165 403.333 L
S
GR
GS
[0.75 0 0 0.75 0 0] CT
0.416 0.259 0.165 RC
1 LJ
0.667 LW
N
541.339 372 M
538.5 385.042 L
537.912 387.667 L
S
GR
GS
[0.75 0 0 0.75 0 0] CT
0.416 0.259 0.165 RC
1 LJ
0.667 LW
N
543.648 356.333 M
541.339 372 L
S
GR
GS
[0.75 0 0 0.75 0 0] CT
0.416 0.259 0.165 RC
1 LJ
0.667 LW
N
544.932 340.667 M
543.648 356.333 L
S
GR
GS
[0.75 0 0 0.75 0 0] CT
0.416 0.259 0.165 RC
1 LJ
0.667 LW
N
545.245 325 M
544.932 340.667 L
S
GR
GS
[0.75 0 0 0.75 0 0] CT
0.416 0.259 0.165 RC
1 LJ
0.667 LW
N
544.626 309.333 M
545.245 325 L
S
GR
GS
[0.75 0 0 0.75 0 0] CT
0.416 0.259 0.165 RC
1 LJ
0.667 LW
N
543.107 293.667 M
544.626 309.333 L
S
GR
GS
[0.75 0 0 0.75 0 0] CT
0.416 0.259 0.165 RC
1 LJ
0.667 LW
N
540.707 278 M
543.107 293.667 L
S
GR
GS
[0.75 0 0 0.75 0 0] CT
0.416 0.259 0.165 RC
1 LJ
0.667 LW
N
537.402 262.333 M
538.5 267.377 L
540.707 278 L
S
GR
GS
[0.75 0 0 0.75 0 0] CT
0.416 0.259 0.165 RC
1 LJ
0.667 LW
N
533.123 246.667 M
537.402 262.333 L
S
GR
GS
[0.75 0 0 0.75 0 0] CT
0.416 0.259 0.165 RC
1 LJ
0.667 LW
N
527.956 231 M
533.123 246.667 L
S
GR
GS
[0.75 0 0 0.75 0 0] CT
0.416 0.259 0.165 RC
1 LJ
0.667 LW
N
521.851 215.333 M
522.833 217.757 L
527.956 231 L
S
GR
GS
[0.75 0 0 0.75 0 0] CT
0.416 0.259 0.165 RC
1 LJ
0.667 LW
N
514.583 199.667 M
521.851 215.333 L
S
GR
GS
[0.75 0 0 0.75 0 0] CT
0.416 0.259 0.165 RC
1 LJ
0.667 LW
N
506.284 184 M
507.167 185.595 L
514.583 199.667 L
S
GR
GS
[0.75 0 0 0.75 0 0] CT
0.416 0.259 0.165 RC
1 LJ
0.667 LW
N
496.577 168.333 M
506.284 184 L
S
GR
GS
[0.75 0 0 0.75 0 0] CT
0.416 0.259 0.165 RC
1 LJ
0.667 LW
N
485.412 152.667 M
491.5 160.997 L
496.577 168.333 L
S
GR
GS
[0.75 0 0 0.75 0 0] CT
0.416 0.259 0.165 RC
1 LJ
0.667 LW
N
162.5 141.042 M
165.562 137 L
S
GR
GS
[0.75 0 0 0.75 0 0] CT
0.416 0.259 0.165 RC
1 LJ
0.667 LW
N
472.465 137 M
475.833 140.885 L
485.412 152.667 L
S
GR
GS
[0.75 0 0 0.75 0 0] CT
0.416 0.259 0.165 RC
1 LJ
0.667 LW
N
165.562 137 M
178.167 122.088 L
178.881 121.333 L
S
GR
GS
[0.75 0 0 0.75 0 0] CT
0.416 0.259 0.165 RC
1 LJ
0.667 LW
N
457.183 121.333 M
460.167 124.198 L
472.465 137 L
S
GR
GS
[0.75 0 0 0.75 0 0] CT
0.416 0.259 0.165 RC
1 LJ
0.667 LW
N
178.881 121.333 M
193.833 106.702 L
195.016 105.667 L
S
GR
GS
[0.75 0 0 0.75 0 0] CT
0.416 0.259 0.165 RC
1 LJ
0.667 LW
N
438.493 105.667 M
444.5 110.282 L
457.183 121.333 L
S
GR
GS
[0.75 0 0 0.75 0 0] CT
0.416 0.259 0.165 RC
1 LJ
0.667 LW
N
195.016 105.667 M
209.5 93.792 L
214.715 90 L
S
GR
GS
[0.75 0 0 0.75 0 0] CT
0.416 0.259 0.165 RC
1 LJ
0.667 LW
N
413.486 90 M
428.833 99.016 L
438.493 105.667 L
S
GR
GS
[0.75 0 0 0.75 0 0] CT
0.416 0.259 0.165 RC
1 LJ
0.667 LW
N
214.715 90 M
225.167 82.821 L
239.362 74.333 L
S
GR
GS
[0.75 0 0 0.75 0 0] CT
0.416 0.259 0.165 RC
1 LJ
0.667 LW
N
375.914 74.333 M
381.833 76.216 L
397.5 82.385 L
413.167 89.824 L
413.486 90 L
S
GR
GS
[0.75 0 0 0.75 0 0] CT
0.416 0.259 0.165 RC
1 LJ
0.667 LW
N
239.362 74.333 M
240.833 73.503 L
256.5 67.444 L
272.167 64.637 L
287.833 63.19 L
303.5 62.805 L
319.167 63.425 L
334.833 65.042 L
350.5 67.675 L
366.167 71.361 L
375.914 74.333 L
S
GR
GS
[0.75 0 0 0.75 0 0] CT
0.553 0.345 0.22 RC
1 LJ
0.667 LW
N
232.74 513 M
225.167 509.444 L
209.5 500.414 L
204.885 497.333 L
S
GR
GS
[0.75 0 0 0.75 0 0] CT
0.553 0.345 0.22 RC
1 LJ
0.667 LW
N
497.503 497.333 M
491.5 501.722 L
475.833 511.126 L
471.956 513 L
S
GR
GS
[0.75 0 0 0.75 0 0] CT
0.553 0.345 0.22 RC
1 LJ
0.667 LW
N
204.885 497.333 M
193.833 489.283 L
184.404 481.667 L
S
GR
GS
[0.75 0 0 0.75 0 0] CT
0.553 0.345 0.22 RC
1 LJ
0.667 LW
N
515.477 481.667 M
507.167 489.557 L
497.503 497.333 L
S
GR
GS
[0.75 0 0 0.75 0 0] CT
0.553 0.345 0.22 RC
1 LJ
0.667 LW
N
184.404 481.667 M
178.167 476.201 L
167.496 466 L
S
GR
GS
[0.75 0 0 0.75 0 0] CT
0.553 0.345 0.22 RC
1 LJ
0.667 LW
N
529.014 466 M
522.833 473.545 L
515.477 481.667 L
S
GR
GS
[0.75 0 0 0.75 0 0] CT
0.553 0.345 0.22 RC
1 LJ
0.667 LW
N
167.496 466 M
162.5 460.829 L
S
GR
GS
[0.75 0 0 0.75 0 0] CT
0.553 0.345 0.22 RC
1 LJ
0.667 LW
N
539.744 450.333 M
538.5 452.249 L
529.014 466 L
S
GR
GS
[0.75 0 0 0.75 0 0] CT
0.553 0.345 0.22 RC
1 LJ
0.667 LW
N
548.366 434.667 M
539.744 450.333 L
S
GR
GS
[0.75 0 0 0.75 0 0] CT
0.553 0.345 0.22 RC
1 LJ
0.667 LW
N
555.432 419 M
554.167 421.884 L
548.366 434.667 L
S
GR
GS
[0.75 0 0 0.75 0 0] CT
0.553 0.345 0.22 RC
1 LJ
0.667 LW
N
561.067 403.333 M
555.432 419 L
S
GR
GS
[0.75 0 0 0.75 0 0] CT
0.553 0.345 0.22 RC
1 LJ
0.667 LW
N
565.529 387.667 M
561.067 403.333 L
S
GR
GS
[0.75 0 0 0.75 0 0] CT
0.553 0.345 0.22 RC
1 LJ
0.667 LW
N
568.917 372 M
565.529 387.667 L
S
GR
GS
[0.75 0 0 0.75 0 0] CT
0.553 0.345 0.22 RC
1 LJ
0.667 LW
N
571.274 356.333 M
569.833 365.974 L
568.917 372 L
S
GR
GS
[0.75 0 0 0.75 0 0] CT
0.553 0.345 0.22 RC
1 LJ
0.667 LW
N
572.679 340.667 M
571.274 356.333 L
S
GR
GS
[0.75 0 0 0.75 0 0] CT
0.553 0.345 0.22 RC
1 LJ
0.667 LW
N
573.192 325 M
572.679 340.667 L
S
GR
GS
[0.75 0 0 0.75 0 0] CT
0.553 0.345 0.22 RC
1 LJ
0.667 LW
N
572.844 309.333 M
573.192 325 L
S
GR
GS
[0.75 0 0 0.75 0 0] CT
0.553 0.345 0.22 RC
1 LJ
0.667 LW
N
571.656 293.667 M
572.844 309.333 L
S
GR
GS
[0.75 0 0 0.75 0 0] CT
0.553 0.345 0.22 RC
1 LJ
0.667 LW
N
569.638 278 M
569.833 279.47 L
571.656 293.667 L
S
GR
GS
[0.75 0 0 0.75 0 0] CT
0.553 0.345 0.22 RC
1 LJ
0.667 LW
N
566.729 262.333 M
569.638 278 L
S
GR
GS
[0.75 0 0 0.75 0 0] CT
0.553 0.345 0.22 RC
1 LJ
0.667 LW
N
562.983 246.667 M
566.729 262.333 L
S
GR
GS
[0.75 0 0 0.75 0 0] CT
0.553 0.345 0.22 RC
1 LJ
0.667 LW
N
558.394 231 M
562.983 246.667 L
S
GR
GS
[0.75 0 0 0.75 0 0] CT
0.553 0.345 0.22 RC
1 LJ
0.667 LW
N
552.915 215.333 M
554.167 218.805 L
558.394 231 L
S
GR
GS
[0.75 0 0 0.75 0 0] CT
0.553 0.345 0.22 RC
1 LJ
0.667 LW
N
546.41 199.667 M
552.915 215.333 L
S
GR
GS
[0.75 0 0 0.75 0 0] CT
0.553 0.345 0.22 RC
1 LJ
0.667 LW
N
538.977 184 M
546.41 199.667 L
S
GR
GS
[0.75 0 0 0.75 0 0] CT
0.553 0.345 0.22 RC
1 LJ
0.667 LW
N
530.315 168.333 M
538.5 183.102 L
538.977 184 L
S
GR
GS
[0.75 0 0 0.75 0 0] CT
0.553 0.345 0.22 RC
1 LJ
0.667 LW
N
520.495 152.667 M
522.833 156.264 L
530.315 168.333 L
S
GR
GS
[0.75 0 0 0.75 0 0] CT
0.553 0.345 0.22 RC
1 LJ
0.667 LW
N
509.223 137 M
520.495 152.667 L
S
GR
GS
[0.75 0 0 0.75 0 0] CT
0.553 0.345 0.22 RC
1 LJ
0.667 LW
N
496.227 121.333 M
507.167 134.401 L
509.223 137 L
S
GR
GS
[0.75 0 0 0.75 0 0] CT
0.553 0.345 0.22 RC
1 LJ
0.667 LW
N
481.16 105.667 M
491.5 116.189 L
496.227 121.333 L
S
GR
GS
[0.75 0 0 0.75 0 0] CT
0.553 0.345 0.22 RC
1 LJ
0.667 LW
N
162.5 98.845 M
171.382 90 L
S
GR
GS
[0.75 0 0 0.75 0 0] CT
0.553 0.345 0.22 RC
1 LJ
0.667 LW
N
463.317 90 M
475.833 100.709 L
481.16 105.667 L
S
GR
GS
[0.75 0 0 0.75 0 0] CT
0.553 0.345 0.22 RC
1 LJ
0.667 LW
N
171.382 90 M
178.167 83.774 L
189.422 74.333 L
S
GR
GS
[0.75 0 0 0.75 0 0] CT
0.553 0.345 0.22 RC
1 LJ
0.667 LW
N
441.131 74.333 M
444.5 76.429 L
460.167 87.521 L
463.317 90 L
S
GR
GS
[0.75 0 0 0.75 0 0] CT
0.553 0.345 0.22 RC
1 LJ
0.667 LW
N
189.422 74.333 M
193.833 70.917 L
209.5 59.904 L
211.442 58.667 L
S
GR
GS
[0.75 0 0 0.75 0 0] CT
0.553 0.345 0.22 RC
1 LJ
0.667 LW
N
411.919 58.667 M
413.167 59.21 L
428.833 67.132 L
441.131 74.333 L
S
GR
GS
[0.75 0 0 0.75 0 0] CT
0.553 0.345 0.22 RC
1 LJ
0.667 LW
N
211.442 58.667 M
225.167 50.829 L
240.833 43.572 L
242.747 43 L
S
GR
GS
[0.75 0 0 0.75 0 0] CT
0.553 0.345 0.22 RC
1 LJ
0.667 LW
N
366.889 43 M
381.833 47.217 L
397.5 52.664 L
411.919 58.667 L
S
GR
GS
[0.75 0 0 0.75 0 0] CT
0.694 0.431 0.275 RC
1 LJ
0.667 LW
N
181.169 513 M
178.167 510.79 L
162.5 498.032 L
S
GR
GS
[0.75 0 0 0.75 0 0] CT
0.694 0.431 0.275 RC
1 LJ
0.667 LW
N
533.945 497.333 M
522.833 507.915 L
516.765 513 L
S
GR
GS
[0.75 0 0 0.75 0 0] CT
0.694 0.431 0.275 RC
1 LJ
0.667 LW
N
547.692 481.667 M
538.5 492.457 L
533.945 497.333 L
S
GR
GS
[0.75 0 0 0.75 0 0] CT
0.694 0.431 0.275 RC
1 LJ
0.667 LW
N
558.988 466 M
554.167 472.93 L
547.692 481.667 L
S
GR
GS
[0.75 0 0 0.75 0 0] CT
0.694 0.431 0.275 RC
1 LJ
0.667 LW
N
568.383 450.333 M
558.988 466 L
S
GR
GS
[0.75 0 0 0.75 0 0] CT
0.694 0.431 0.275 RC
1 LJ
0.667 LW
N
576.176 434.667 M
569.833 447.502 L
568.383 450.333 L
S
GR
GS
[0.75 0 0 0.75 0 0] CT
0.694 0.431 0.275 RC
1 LJ
0.667 LW
N
582.667 419 M
576.176 434.667 L
S
GR
GS
[0.75 0 0 0.75 0 0] CT
0.694 0.431 0.275 RC
1 LJ
0.667 LW
N
587.976 403.333 M
585.5 410.726 L
582.667 419 L
S
GR
GS
[0.75 0 0 0.75 0 0] CT
0.694 0.431 0.275 RC
1 LJ
0.667 LW
N
592.208 387.667 M
587.976 403.333 L
S
GR
GS
[0.75 0 0 0.75 0 0] CT
0.694 0.431 0.275 RC
1 LJ
0.667 LW
N
595.476 372 M
592.208 387.667 L
S
GR
GS
[0.75 0 0 0.75 0 0] CT
0.694 0.431 0.275 RC
1 LJ
0.667 LW
N
597.836 356.333 M
595.476 372 L
S
GR
GS
[0.75 0 0 0.75 0 0] CT
0.694 0.431 0.275 RC
1 LJ
0.667 LW
N
599.329 340.667 M
597.836 356.333 L
S
GR
GS
[0.75 0 0 0.75 0 0] CT
0.694 0.431 0.275 RC
1 LJ
0.667 LW
N
599.987 325 M
599.329 340.667 L
S
GR
GS
[0.75 0 0 0.75 0 0] CT
0.694 0.431 0.275 RC
1 LJ
0.667 LW
N
599.831 309.333 M
599.987 325 L
S
GR
GS
[0.75 0 0 0.75 0 0] CT
0.694 0.431 0.275 RC
1 LJ
0.667 LW
N
598.876 293.667 M
599.831 309.333 L
S
GR
GS
[0.75 0 0 0.75 0 0] CT
0.694 0.431 0.275 RC
1 LJ
0.667 LW
N
597.13 278 M
598.876 293.667 L
S
GR
GS
[0.75 0 0 0.75 0 0] CT
0.694 0.431 0.275 RC
1 LJ
0.667 LW
N
594.599 262.333 M
597.13 278 L
S
GR
GS
[0.75 0 0 0.75 0 0] CT
0.694 0.431 0.275 RC
1 LJ
0.667 LW
N
591.283 246.667 M
594.599 262.333 L
S
GR
GS
[0.75 0 0 0.75 0 0] CT
0.694 0.431 0.275 RC
1 LJ
0.667 LW
N
587.175 231 M
591.283 246.667 L
S
GR
GS
[0.75 0 0 0.75 0 0] CT
0.694 0.431 0.275 RC
1 LJ
0.667 LW
N
582.192 215.333 M
585.5 225.617 L
587.175 231 L
S
GR
GS
[0.75 0 0 0.75 0 0] CT
0.694 0.431 0.275 RC
1 LJ
0.667 LW
N
576.333 199.667 M
582.192 215.333 L
S
GR
GS
[0.75 0 0 0.75 0 0] CT
0.694 0.431 0.275 RC
1 LJ
0.667 LW
N
569.607 184 M
569.833 184.509 L
576.333 199.667 L
S
GR
GS
[0.75 0 0 0.75 0 0] CT
0.694 0.431 0.275 RC
1 LJ
0.667 LW
N
561.797 168.333 M
569.607 184 L
S
GR
GS
[0.75 0 0 0.75 0 0] CT
0.694 0.431 0.275 RC
1 LJ
0.667 LW
N
552.992 152.667 M
554.167 154.682 L
561.797 168.333 L
S
GR
GS
[0.75 0 0 0.75 0 0] CT
0.694 0.431 0.275 RC
1 LJ
0.667 LW
N
542.923 137 M
552.992 152.667 L
S
GR
GS
[0.75 0 0 0.75 0 0] CT
0.694 0.431 0.275 RC
1 LJ
0.667 LW
N
531.511 121.333 M
538.5 130.747 L
542.923 137 L
S
GR
GS
[0.75 0 0 0.75 0 0] CT
0.694 0.431 0.275 RC
1 LJ
0.667 LW
N
518.537 105.667 M
522.833 110.663 L
531.511 121.333 L
S
GR
GS
[0.75 0 0 0.75 0 0] CT
0.694 0.431 0.275 RC
1 LJ
0.667 LW
N
503.638 90 M
507.167 93.527 L
518.537 105.667 L
S
GR
GS
[0.75 0 0 0.75 0 0] CT
0.694 0.431 0.275 RC
1 LJ
0.667 LW
N
486.262 74.333 M
491.5 78.797 L
503.638 90 L
S
GR
GS
[0.75 0 0 0.75 0 0] CT
0.694 0.431 0.275 RC
1 LJ
0.667 LW
N
162.5 62.938 M
167.577 58.667 L
S
GR
GS
[0.75 0 0 0.75 0 0] CT
0.694 0.431 0.275 RC
1 LJ
0.667 LW
N
465.543 58.667 M
475.833 66.067 L
486.262 74.333 L
S
GR
GS
[0.75 0 0 0.75 0 0] CT
0.694 0.431 0.275 RC
1 LJ
0.667 LW
N
167.577 58.667 M
178.167 50.437 L
188.762 43 L
S
GR
GS
[0.75 0 0 0.75 0 0] CT
0.694 0.431 0.275 RC
1 LJ
0.667 LW
N
439.798 43 M
444.5 45.527 L
460.167 55.032 L
465.543 58.667 L
S
GR
GS
[0.75 0 0 0.75 0 0] CT
0.831 0.518 0.329 RC
1 LJ
0.667 LW
N
565.996 497.333 M
554.167 510.886 L
552.162 513 L
S
GR
GS
[0.75 0 0 0.75 0 0] CT
0.831 0.518 0.329 RC
1 LJ
0.667 LW
N
577.667 481.667 M
569.833 492.394 L
565.996 497.333 L
S
GR
GS
[0.75 0 0 0.75 0 0] CT
0.831 0.518 0.329 RC
1 LJ
0.667 LW
N
587.607 466 M
585.5 469.442 L
577.667 481.667 L
S
GR
GS
[0.75 0 0 0.75 0 0] CT
0.831 0.518 0.329 RC
1 LJ
0.667 LW
N
596.032 450.333 M
587.607 466 L
S
GR
GS
[0.75 0 0 0.75 0 0] CT
0.831 0.518 0.329 RC
1 LJ
0.667 LW
N
603.203 434.667 M
601.167 439.207 L
596.032 450.333 L
S
GR
GS
[0.75 0 0 0.75 0 0] CT
0.831 0.518 0.329 RC
1 LJ
0.667 LW
N
609.212 419 M
603.203 434.667 L
S
GR
GS
[0.75 0 0 0.75 0 0] CT
0.831 0.518 0.329 RC
1 LJ
0.667 LW
N
614.215 403.333 M
609.212 419 L
S
GR
GS
[0.75 0 0 0.75 0 0] CT
0.831 0.518 0.329 RC
1 LJ
0.667 LW
N
618.265 387.667 M
616.833 393.258 L
614.215 403.333 L
S
GR
GS
[0.75 0 0 0.75 0 0] CT
0.831 0.518 0.329 RC
1 LJ
0.667 LW
N
621.413 372 M
618.265 387.667 L
S
GR
GS
[0.75 0 0 0.75 0 0] CT
0.831 0.518 0.329 RC
1 LJ
0.667 LW
N
623.729 356.333 M
621.413 372 L
S
GR
GS
[0.75 0 0 0.75 0 0] CT
0.831 0.518 0.329 RC
1 LJ
0.667 LW
N
625.246 340.667 M
623.729 356.333 L
S
GR
GS
[0.75 0 0 0.75 0 0] CT
0.831 0.518 0.329 RC
1 LJ
0.667 LW
N
625.988 325 M
625.246 340.667 L
S
GR
GS
[0.75 0 0 0.75 0 0] CT
0.831 0.518 0.329 RC
1 LJ
0.667 LW
N
625.974 309.333 M
625.988 325 L
S
GR
GS
[0.75 0 0 0.75 0 0] CT
0.831 0.518 0.329 RC
1 LJ
0.667 LW
N
625.215 293.667 M
625.974 309.333 L
S
GR
GS
[0.75 0 0 0.75 0 0] CT
0.831 0.518 0.329 RC
1 LJ
0.667 LW
N
623.719 278 M
625.215 293.667 L
S
GR
GS
[0.75 0 0 0.75 0 0] CT
0.831 0.518 0.329 RC
1 LJ
0.667 LW
N
621.488 262.333 M
623.719 278 L
S
GR
GS
[0.75 0 0 0.75 0 0] CT
0.831 0.518 0.329 RC
1 LJ
0.667 LW
N
618.521 246.667 M
621.488 262.333 L
S
GR
GS
[0.75 0 0 0.75 0 0] CT
0.831 0.518 0.329 RC
1 LJ
0.667 LW
N
614.779 231 M
616.833 239.499 L
618.521 246.667 L
S
GR
GS
[0.75 0 0 0.75 0 0] CT
0.831 0.518 0.329 RC
1 LJ
0.667 LW
N
610.241 215.333 M
614.779 231 L
S
GR
GS
[0.75 0 0 0.75 0 0] CT
0.831 0.518 0.329 RC
1 LJ
0.667 LW
N
604.924 199.667 M
610.241 215.333 L
S
GR
GS
[0.75 0 0 0.75 0 0] CT
0.831 0.518 0.329 RC
1 LJ
0.667 LW
N
598.759 184 M
601.167 190.002 L
604.924 199.667 L
S
GR
GS
[0.75 0 0 0.75 0 0] CT
0.831 0.518 0.329 RC
1 LJ
0.667 LW
N
591.674 168.333 M
598.759 184 L
S
GR
GS
[0.75 0 0 0.75 0 0] CT
0.831 0.518 0.329 RC
1 LJ
0.667 LW
N
583.671 152.667 M
585.5 156.148 L
591.674 168.333 L
S
GR
GS
[0.75 0 0 0.75 0 0] CT
0.831 0.518 0.329 RC
1 LJ
0.667 LW
N
574.585 137 M
583.671 152.667 L
S
GR
GS
[0.75 0 0 0.75 0 0] CT
0.831 0.518 0.329 RC
1 LJ
0.667 LW
N
564.363 121.333 M
569.833 129.553 L
574.585 137 L
S
GR
GS
[0.75 0 0 0.75 0 0] CT
0.831 0.518 0.329 RC
1 LJ
0.667 LW
N
552.885 105.667 M
554.167 107.343 L
564.363 121.333 L
S
GR
GS
[0.75 0 0 0.75 0 0] CT
0.831 0.518 0.329 RC
1 LJ
0.667 LW
N
539.885 90 M
552.885 105.667 L
S
GR
GS
[0.75 0 0 0.75 0 0] CT
0.831 0.518 0.329 RC
1 LJ
0.667 LW
N
525.104 74.333 M
538.5 88.453 L
539.885 90 L
S
GR
GS
[0.75 0 0 0.75 0 0] CT
0.831 0.518 0.329 RC
1 LJ
0.667 LW
N
508.174 58.667 M
522.833 72.107 L
525.104 74.333 L
S
GR
GS
[0.75 0 0 0.75 0 0] CT
0.831 0.518 0.329 RC
1 LJ
0.667 LW
N
488.344 43 M
491.5 45.309 L
507.167 57.802 L
508.174 58.667 L
S
GR
GS
[0.75 0 0 0.75 0 0] CT
0.969 0.604 0.384 RC
1 LJ
0.667 LW
N
596.008 497.333 M
585.5 511.223 L
584.074 513 L
S
GR
GS
[0.75 0 0 0.75 0 0] CT
0.969 0.604 0.384 RC
1 LJ
0.667 LW
N
606.346 481.667 M
601.167 489.695 L
596.008 497.333 L
S
GR
GS
[0.75 0 0 0.75 0 0] CT
0.969 0.604 0.384 RC
1 LJ
0.667 LW
N
615.302 466 M
606.346 481.667 L
S
GR
GS
[0.75 0 0 0.75 0 0] CT
0.969 0.604 0.384 RC
1 LJ
0.667 LW
N
623.007 450.333 M
616.833 462.962 L
615.302 466 L
S
GR
GS
[0.75 0 0 0.75 0 0] CT
0.969 0.604 0.384 RC
1 LJ
0.667 LW
N
629.641 434.667 M
623.007 450.333 L
S
GR
GS
[0.75 0 0 0.75 0 0] CT
0.969 0.604 0.384 RC
1 LJ
0.667 LW
N
632.5 426.792 M
629.641 434.667 L
S
GR
GS
[0.75 0 0 0.75 0 0] CT
0.969 0.604 0.384 RC
1 LJ
0.667 LW
N
626.847 184 M
632.5 199.548 L
S
GR
GS
[0.75 0 0 0.75 0 0] CT
0.969 0.604 0.384 RC
1 LJ
0.667 LW
N
620.371 168.333 M
626.847 184 L
S
GR
GS
[0.75 0 0 0.75 0 0] CT
0.969 0.604 0.384 RC
1 LJ
0.667 LW
N
613.021 152.667 M
616.833 160.669 L
620.371 168.333 L
S
GR
GS
[0.75 0 0 0.75 0 0] CT
0.969 0.604 0.384 RC
1 LJ
0.667 LW
N
604.749 137 M
613.021 152.667 L
S
GR
GS
[0.75 0 0 0.75 0 0] CT
0.969 0.604 0.384 RC
1 LJ
0.667 LW
N
595.461 121.333 M
601.167 130.822 L
604.749 137 L
S
GR
GS
[0.75 0 0 0.75 0 0] CT
0.969 0.604 0.384 RC
1 LJ
0.667 LW
N
585.118 105.667 M
585.5 106.223 L
595.461 121.333 L
S
GR
GS
[0.75 0 0 0.75 0 0] CT
0.969 0.604 0.384 RC
1 LJ
0.667 LW
N
573.476 90 M
585.118 105.667 L
S
GR
GS
[0.75 0 0 0.75 0 0] CT
0.969 0.604 0.384 RC
1 LJ
0.667 LW
N
560.441 74.333 M
569.833 85.466 L
573.476 90 L
S
GR
GS
[0.75 0 0 0.75 0 0] CT
0.969 0.604 0.384 RC
1 LJ
0.667 LW
N
545.774 58.667 M
554.167 67.417 L
560.441 74.333 L
S
GR
GS
[0.75 0 0 0.75 0 0] CT
0.969 0.604 0.384 RC
1 LJ
0.667 LW
N
529.13 43 M
538.5 51.573 L
545.774 58.667 L
S
GR
GS
[0.75 0 0 0.75 0 0] CT
1 0.694 0.439 RC
1 LJ
0.667 LW
N
624.774 497.333 M
616.833 509.146 L
614.123 513 L
S
GR
GS
[0.75 0 0 0.75 0 0] CT
1 0.694 0.439 RC
1 LJ
0.667 LW
N
632.5 484.499 M
624.774 497.333 L
S
GR
GS
[0.75 0 0 0.75 0 0] CT
1 0.694 0.439 RC
1 LJ
0.667 LW
N
625.247 121.333 M
632.5 134.588 L
S
GR
GS
[0.75 0 0 0.75 0 0] CT
1 0.694 0.439 RC
1 LJ
0.667 LW
N
615.801 105.667 M
616.833 107.325 L
625.247 121.333 L
S
GR
GS
[0.75 0 0 0.75 0 0] CT
1 0.694 0.439 RC
1 LJ
0.667 LW
N
605.248 90 M
615.801 105.667 L
S
GR
GS
[0.75 0 0 0.75 0 0] CT
1 0.694 0.439 RC
1 LJ
0.667 LW
N
593.527 74.333 M
601.167 84.394 L
605.248 90 L
S
GR
GS
[0.75 0 0 0.75 0 0] CT
1 0.694 0.439 RC
1 LJ
0.667 LW
N
580.493 58.667 M
585.5 64.51 L
593.527 74.333 L
S
GR
GS
[0.75 0 0 0.75 0 0] CT
1 0.694 0.439 RC
1 LJ
0.667 LW
N
565.926 43 M
569.833 47.04 L
580.493 58.667 L
S
GR
GS
[0.75 0 0 0.75 0 0] CT
1 0.78 0.494 RC
1 LJ
0.667 LW
N
624.965 74.333 M
632.5 85.258 L
S
GR
GS
[0.75 0 0 0.75 0 0] CT
1 0.78 0.494 RC
1 LJ
0.667 LW
N
613.177 58.667 M
616.833 63.39 L
624.965 74.333 L
S
GR
GS
[0.75 0 0 0.75 0 0] CT
1 0.78 0.494 RC
1 LJ
0.667 LW
N
600.141 43 M
601.167 44.182 L
613.177 58.667 L
S
GR
GS
[0.75 0 0 0.75 0 0] CT
0.149 GC
2 setlinecap
1 LJ
0.667 LW
N
162.5 513 M
632.5 513 L
S
GR
GS
[0.75 0 0 0.75 0 0] CT
0.149 GC
2 setlinecap
1 LJ
0.667 LW
N
162.5 43 M
632.5 43 L
S
GR
GS
[0.75 0 0 0.75 0 0] CT
0.149 GC
2 setlinecap
1 LJ
0.667 LW
N
162.5 513 M
162.5 508.3 L
S
GR
GS
[0.75 0 0 0.75 0 0] CT
0.149 GC
2 setlinecap
1 LJ
0.667 LW
N
240.833 513 M
240.833 508.3 L
S
GR
GS
[0.75 0 0 0.75 0 0] CT
0.149 GC
2 setlinecap
1 LJ
0.667 LW
N
319.167 513 M
319.167 508.3 L
S
GR
GS
[0.75 0 0 0.75 0 0] CT
0.149 GC
2 setlinecap
1 LJ
0.667 LW
N
397.5 513 M
397.5 508.3 L
S
GR
GS
[0.75 0 0 0.75 0 0] CT
0.149 GC
2 setlinecap
1 LJ
0.667 LW
N
475.833 513 M
475.833 508.3 L
S
GR
GS
[0.75 0 0 0.75 0 0] CT
0.149 GC
2 setlinecap
1 LJ
0.667 LW
N
554.167 513 M
554.167 508.3 L
S
GR
GS
[0.75 0 0 0.75 0 0] CT
0.149 GC
2 setlinecap
1 LJ
0.667 LW
N
632.5 513 M
632.5 508.3 L
S
GR
GS
[0.75 0 0 0.75 0 0] CT
0.149 GC
2 setlinecap
1 LJ
0.667 LW
N
162.5 43 M
162.5 47.7 L
S
GR
GS
[0.75 0 0 0.75 0 0] CT
0.149 GC
2 setlinecap
1 LJ
0.667 LW
N
240.833 43 M
240.833 47.7 L
S
GR
GS
[0.75 0 0 0.75 0 0] CT
0.149 GC
2 setlinecap
1 LJ
0.667 LW
N
319.167 43 M
319.167 47.7 L
S
GR
GS
[0.75 0 0 0.75 0 0] CT
0.149 GC
2 setlinecap
1 LJ
0.667 LW
N
397.5 43 M
397.5 47.7 L
S
GR
GS
[0.75 0 0 0.75 0 0] CT
0.149 GC
2 setlinecap
1 LJ
0.667 LW
N
475.833 43 M
475.833 47.7 L
S
GR
GS
[0.75 0 0 0.75 0 0] CT
0.149 GC
2 setlinecap
1 LJ
0.667 LW
N
554.167 43 M
554.167 47.7 L
S
GR
GS
[0.75 0 0 0.75 0 0] CT
0.149 GC
2 setlinecap
1 LJ
0.667 LW
N
632.5 43 M
632.5 47.7 L
S
GR
GS
[0.75 0 0 0.75 121.875 388.74998] CT
0.149 GC
/Helvetica 13 F
GS
[1 0 0 1 0 0] CT
-11 13 moveto 
1 -1 scale
(-30) t 
GR
GR
GS
[0.75 0 0 0.75 180.625 388.74998] CT
0.149 GC
/Helvetica 13 F
GS
[1 0 0 1 0 0] CT
-11 13 moveto 
1 -1 scale
(-20) t 
GR
GR
GS
[0.75 0 0 0.75 239.37499 388.74998] CT
0.149 GC
/Helvetica 13 F
GS
[1 0 0 1 0 0] CT
-11 13 moveto 
1 -1 scale
(-10) t 
GR
GR
GS
[0.75 0 0 0.75 298.125 388.74998] CT
0.149 GC
/Helvetica 13 F
GS
[1 0 0 1 0 0] CT
-4.5 13 moveto 
1 -1 scale
(0) t 
GR
GR
GS
[0.75 0 0 0.75 356.87501 388.74998] CT
0.149 GC
/Helvetica 13 F
GS
[1 0 0 1 0 0] CT
-8.5 13 moveto 
1 -1 scale
(10) t 
GR
GR
GS
[0.75 0 0 0.75 415.62502 388.74998] CT
0.149 GC
/Helvetica 13 F
GS
[1 0 0 1 0 0] CT
-8.5 13 moveto 
1 -1 scale
(20) t 
GR
GR
GS
[0.75 0 0 0.75 474.375 388.74998] CT
0.149 GC
/Helvetica 13 F
GS
[1 0 0 1 0 0] CT
-8.5 13 moveto 
1 -1 scale
(30) t 
GR
GR
GS
[0.75 0 0 0.75 298.12516 402.50002] CT
0.149 GC
/Helvetica 15 F
GS
[1 0 0 1 0 0] CT
-33 14 moveto 
1 -1 scale
(x \(miles\)) t 
GR
GR
GS
[0.75 0 0 0.75 0 0] CT
0.149 GC
2 setlinecap
1 LJ
0.667 LW
N
162.5 513 M
162.5 43 L
S
GR
GS
[0.75 0 0 0.75 0 0] CT
0.149 GC
2 setlinecap
1 LJ
0.667 LW
N
632.5 513 M
632.5 43 L
S
GR
GS
[0.75 0 0 0.75 0 0] CT
0.149 GC
2 setlinecap
1 LJ
0.667 LW
N
162.5 513 M
167.2 513 L
S
GR
GS
[0.75 0 0 0.75 0 0] CT
0.149 GC
2 setlinecap
1 LJ
0.667 LW
N
162.5 434.667 M
167.2 434.667 L
S
GR
GS
[0.75 0 0 0.75 0 0] CT
0.149 GC
2 setlinecap
1 LJ
0.667 LW
N
162.5 356.333 M
167.2 356.333 L
S
GR
GS
[0.75 0 0 0.75 0 0] CT
0.149 GC
2 setlinecap
1 LJ
0.667 LW
N
162.5 278 M
167.2 278 L
S
GR
GS
[0.75 0 0 0.75 0 0] CT
0.149 GC
2 setlinecap
1 LJ
0.667 LW
N
162.5 199.667 M
167.2 199.667 L
S
GR
GS
[0.75 0 0 0.75 0 0] CT
0.149 GC
2 setlinecap
1 LJ
0.667 LW
N
162.5 121.333 M
167.2 121.333 L
S
GR
GS
[0.75 0 0 0.75 0 0] CT
0.149 GC
2 setlinecap
1 LJ
0.667 LW
N
162.5 43 M
167.2 43 L
S
GR
GS
[0.75 0 0 0.75 0 0] CT
0.149 GC
2 setlinecap
1 LJ
0.667 LW
N
632.5 513 M
627.8 513 L
S
GR
GS
[0.75 0 0 0.75 0 0] CT
0.149 GC
2 setlinecap
1 LJ
0.667 LW
N
632.5 434.667 M
627.8 434.667 L
S
GR
GS
[0.75 0 0 0.75 0 0] CT
0.149 GC
2 setlinecap
1 LJ
0.667 LW
N
632.5 356.333 M
627.8 356.333 L
S
GR
GS
[0.75 0 0 0.75 0 0] CT
0.149 GC
2 setlinecap
1 LJ
0.667 LW
N
632.5 278 M
627.8 278 L
S
GR
GS
[0.75 0 0 0.75 0 0] CT
0.149 GC
2 setlinecap
1 LJ
0.667 LW
N
632.5 199.667 M
627.8 199.667 L
S
GR
GS
[0.75 0 0 0.75 0 0] CT
0.149 GC
2 setlinecap
1 LJ
0.667 LW
N
632.5 121.333 M
627.8 121.333 L
S
GR
GS
[0.75 0 0 0.75 0 0] CT
0.149 GC
2 setlinecap
1 LJ
0.667 LW
N
632.5 43 M
627.8 43 L
S
GR
GS
[0.75 0 0 0.75 117.875 384.75] CT
0.149 GC
/Helvetica 13 F
GS
[1 0 0 1 0 0] CT
-22 4.5 moveto 
1 -1 scale
(-30) t 
GR
GR
GS
[0.75 0 0 0.75 117.875 325.99999] CT
0.149 GC
/Helvetica 13 F
GS
[1 0 0 1 0 0] CT
-22 4.5 moveto 
1 -1 scale
(-20) t 
GR
GR
GS
[0.75 0 0 0.75 117.875 267.25001] CT
0.149 GC
/Helvetica 13 F
GS
[1 0 0 1 0 0] CT
-22 4.5 moveto 
1 -1 scale
(-10) t 
GR
GR
GS
[0.75 0 0 0.75 117.875 208.5] CT
0.149 GC
/Helvetica 13 F
GS
[1 0 0 1 0 0] CT
-9 4.5 moveto 
1 -1 scale
(0) t 
GR
GR
GS
[0.75 0 0 0.75 117.875 149.75] CT
0.149 GC
/Helvetica 13 F
GS
[1 0 0 1 0 0] CT
-17 4.5 moveto 
1 -1 scale
(10) t 
GR
GR
GS
[0.75 0 0 0.75 117.875 91] CT
0.149 GC
/Helvetica 13 F
GS
[1 0 0 1 0 0] CT
-17 4.5 moveto 
1 -1 scale
(20) t 
GR
GR
GS
[0.75 0 0 0.75 117.875 32.25] CT
0.149 GC
/Helvetica 13 F
GS
[1 0 0 1 0 0] CT
-17 4.5 moveto 
1 -1 scale
(30) t 
GR
GR
GS
[0 -0.75 0.75 0 98.375 208.49984] CT
0.149 GC
/Helvetica 15 F
GS
[1 0 0 1 0 0] CT
-33 -4 moveto 
1 -1 scale
(y \(miles\)) t 
GR
GR
%%Trailer
%%Pages: 1
%%EOF
