%!PS-Adobe-3.0 EPSF-3.0
%%Creator: (MATLAB, The Mathworks, Inc. Version 8.6.0.267246 \(R2015b\). Operating System: Linux)
%%Title: ./Oscillations2.eps
%%CreationDate: 2015-10-05T02:43:46
%%Pages: (atend)
%%BoundingBox:   148    16   415   406
%%LanguageLevel: 3
%%EndComments
%%BeginProlog
%%BeginResource: procset (Apache XML Graphics Std ProcSet) 1.2 0
%%Version: 1.2 0
%%Copyright: (Copyright 2001-2003,2010 The Apache Software Foundation. License terms: http://www.apache.org/licenses/LICENSE-2.0)
/bd{bind def}bind def
/ld{load def}bd
/GR/grestore ld
/M/moveto ld
/LJ/setlinejoin ld
/C/curveto ld
/f/fill ld
/LW/setlinewidth ld
/GC/setgray ld
/t/show ld
/N/newpath ld
/CT/concat ld
/cp/closepath ld
/S/stroke ld
/L/lineto ld
/CC/setcmykcolor ld
/A/ashow ld
/GS/gsave ld
/RC/setrgbcolor ld
/RM/rmoveto ld
/ML/setmiterlimit ld
/re {4 2 roll M
1 index 0 rlineto
0 exch rlineto
neg 0 rlineto
cp } bd
/_ctm matrix def
/_tm matrix def
/BT { _ctm currentmatrix pop matrix _tm copy pop 0 0 moveto } bd
/ET { _ctm setmatrix } bd
/iTm { _ctm setmatrix _tm concat } bd
/Tm { _tm astore pop iTm 0 0 moveto } bd
/ux 0.0 def
/uy 0.0 def
/F {
  /Tp exch def
  /Tf exch def
  Tf findfont Tp scalefont setfont
  /cf Tf def  /cs Tp def
} bd
/ULS {currentpoint /uy exch def /ux exch def} bd
/ULE {
  /Tcx currentpoint pop def
  gsave
  newpath
  cf findfont cs scalefont dup
  /FontMatrix get 0 get /Ts exch def /FontInfo get dup
  /UnderlinePosition get Ts mul /To exch def
  /UnderlineThickness get Ts mul /Tt exch def
  ux uy To add moveto  Tcx uy To add lineto
  Tt setlinewidth stroke
  grestore
} bd
/OLE {
  /Tcx currentpoint pop def
  gsave
  newpath
  cf findfont cs scalefont dup
  /FontMatrix get 0 get /Ts exch def /FontInfo get dup
  /UnderlinePosition get Ts mul /To exch def
  /UnderlineThickness get Ts mul /Tt exch def
  ux uy To add cs add moveto Tcx uy To add cs add lineto
  Tt setlinewidth stroke
  grestore
} bd
/SOE {
  /Tcx currentpoint pop def
  gsave
  newpath
  cf findfont cs scalefont dup
  /FontMatrix get 0 get /Ts exch def /FontInfo get dup
  /UnderlinePosition get Ts mul /To exch def
  /UnderlineThickness get Ts mul /Tt exch def
  ux uy To add cs 10 mul 26 idiv add moveto Tcx uy To add cs 10 mul 26 idiv add lineto
  Tt setlinewidth stroke
  grestore
} bd
/QT {
/Y22 exch store
/X22 exch store
/Y21 exch store
/X21 exch store
currentpoint
/Y21 load 2 mul add 3 div exch
/X21 load 2 mul add 3 div exch
/X21 load 2 mul /X22 load add 3 div
/Y21 load 2 mul /Y22 load add 3 div
/X22 load /Y22 load curveto
} bd
/SSPD {
dup length /d exch dict def
{
/v exch def
/k exch def
currentpagedevice k known {
/cpdv currentpagedevice k get def
v cpdv ne {
/upd false def
/nullv v type /nulltype eq def
/nullcpdv cpdv type /nulltype eq def
nullv nullcpdv or
{
/upd true def
} {
/sametype v type cpdv type eq def
sametype {
v type /arraytype eq {
/vlen v length def
/cpdvlen cpdv length def
vlen cpdvlen eq {
0 1 vlen 1 sub {
/i exch def
/obj v i get def
/cpdobj cpdv i get def
obj cpdobj ne {
/upd true def
exit
} if
} for
} {
/upd true def
} ifelse
} {
v type /dicttype eq {
v {
/dv exch def
/dk exch def
/cpddv cpdv dk get def
dv cpddv ne {
/upd true def
exit
} if
} forall
} {
/upd true def
} ifelse
} ifelse
} if
} ifelse
upd true eq {
d k v put
} if
} if
} if
} forall
d length 0 gt {
d setpagedevice
} if
} bd
%%EndResource
%%BeginResource: procset (Apache XML Graphics EPS ProcSet) 1.0 0
%%Version: 1.0 0
%%Copyright: (Copyright 2002-2003 The Apache Software Foundation. License terms: http://www.apache.org/licenses/LICENSE-2.0)
/BeginEPSF { %def
/b4_Inc_state save def         % Save state for cleanup
/dict_count countdictstack def % Count objects on dict stack
/op_count count 1 sub def      % Count objects on operand stack
userdict begin                 % Push userdict on dict stack
/showpage { } def              % Redefine showpage, { } = null proc
0 setgray 0 setlinecap         % Prepare graphics state
1 setlinewidth 0 setlinejoin
10 setmiterlimit [ ] 0 setdash newpath
/languagelevel where           % If level not equal to 1 then
{pop languagelevel             % set strokeadjust and
1 ne                           % overprint to their defaults.
{false setstrokeadjust false setoverprint
} if
} if
} bd
/EndEPSF { %def
count op_count sub {pop} repeat            % Clean up stacks
countdictstack dict_count sub {end} repeat
b4_Inc_state restore
} bd
%%EndResource
%FOPBeginFontDict
%%IncludeResource: font Courier-Bold
%%IncludeResource: font Helvetica
%%IncludeResource: font Courier-BoldOblique
%%IncludeResource: font Courier-Oblique
%%IncludeResource: font Times-Roman
%%IncludeResource: font Helvetica-BoldOblique
%%IncludeResource: font Helvetica-Bold
%%IncludeResource: font Helvetica-Oblique
%%IncludeResource: font Times-BoldItalic
%%IncludeResource: font Courier
%%IncludeResource: font Times-Italic
%%IncludeResource: font Times-Bold
%%IncludeResource: font Symbol
%%IncludeResource: font ZapfDingbats
%FOPEndFontDict
%%BeginResource: encoding WinAnsiEncoding
/WinAnsiEncoding [
/.notdef /.notdef /.notdef /.notdef /.notdef
/.notdef /.notdef /.notdef /.notdef /.notdef
/.notdef /.notdef /.notdef /.notdef /.notdef
/.notdef /.notdef /.notdef /.notdef /.notdef
/.notdef /.notdef /.notdef /.notdef /.notdef
/.notdef /.notdef /.notdef /.notdef /.notdef
/.notdef /.notdef /space /exclam /quotedbl
/numbersign /dollar /percent /ampersand /quotesingle
/parenleft /parenright /asterisk /plus /comma
/hyphen /period /slash /zero /one
/two /three /four /five /six
/seven /eight /nine /colon /semicolon
/less /equal /greater /question /at
/A /B /C /D /E
/F /G /H /I /J
/K /L /M /N /O
/P /Q /R /S /T
/U /V /W /X /Y
/Z /bracketleft /backslash /bracketright /asciicircum
/underscore /quoteleft /a /b /c
/d /e /f /g /h
/i /j /k /l /m
/n /o /p /q /r
/s /t /u /v /w
/x /y /z /braceleft /bar
/braceright /asciitilde /bullet /Euro /bullet
/quotesinglbase /florin /quotedblbase /ellipsis /dagger
/daggerdbl /circumflex /perthousand /Scaron /guilsinglleft
/OE /bullet /Zcaron /bullet /bullet
/quoteleft /quoteright /quotedblleft /quotedblright /bullet
/endash /emdash /asciitilde /trademark /scaron
/guilsinglright /oe /bullet /zcaron /Ydieresis
/space /exclamdown /cent /sterling /currency
/yen /brokenbar /section /dieresis /copyright
/ordfeminine /guillemotleft /logicalnot /sfthyphen /registered
/macron /degree /plusminus /twosuperior /threesuperior
/acute /mu /paragraph /middot /cedilla
/onesuperior /ordmasculine /guillemotright /onequarter /onehalf
/threequarters /questiondown /Agrave /Aacute /Acircumflex
/Atilde /Adieresis /Aring /AE /Ccedilla
/Egrave /Eacute /Ecircumflex /Edieresis /Igrave
/Iacute /Icircumflex /Idieresis /Eth /Ntilde
/Ograve /Oacute /Ocircumflex /Otilde /Odieresis
/multiply /Oslash /Ugrave /Uacute /Ucircumflex
/Udieresis /Yacute /Thorn /germandbls /agrave
/aacute /acircumflex /atilde /adieresis /aring
/ae /ccedilla /egrave /eacute /ecircumflex
/edieresis /igrave /iacute /icircumflex /idieresis
/eth /ntilde /ograve /oacute /ocircumflex
/otilde /odieresis /divide /oslash /ugrave
/uacute /ucircumflex /udieresis /yacute /thorn
/ydieresis
] def
%%EndResource
%FOPBeginFontReencode
/Courier-Bold findfont
dup length dict begin
  {1 index /FID ne {def} {pop pop} ifelse} forall
  /Encoding WinAnsiEncoding def
  currentdict
end
/Courier-Bold exch definefont pop
/Helvetica findfont
dup length dict begin
  {1 index /FID ne {def} {pop pop} ifelse} forall
  /Encoding WinAnsiEncoding def
  currentdict
end
/Helvetica exch definefont pop
/Courier-BoldOblique findfont
dup length dict begin
  {1 index /FID ne {def} {pop pop} ifelse} forall
  /Encoding WinAnsiEncoding def
  currentdict
end
/Courier-BoldOblique exch definefont pop
/Courier-Oblique findfont
dup length dict begin
  {1 index /FID ne {def} {pop pop} ifelse} forall
  /Encoding WinAnsiEncoding def
  currentdict
end
/Courier-Oblique exch definefont pop
/Times-Roman findfont
dup length dict begin
  {1 index /FID ne {def} {pop pop} ifelse} forall
  /Encoding WinAnsiEncoding def
  currentdict
end
/Times-Roman exch definefont pop
/Helvetica-BoldOblique findfont
dup length dict begin
  {1 index /FID ne {def} {pop pop} ifelse} forall
  /Encoding WinAnsiEncoding def
  currentdict
end
/Helvetica-BoldOblique exch definefont pop
/Helvetica-Bold findfont
dup length dict begin
  {1 index /FID ne {def} {pop pop} ifelse} forall
  /Encoding WinAnsiEncoding def
  currentdict
end
/Helvetica-Bold exch definefont pop
/Helvetica-Oblique findfont
dup length dict begin
  {1 index /FID ne {def} {pop pop} ifelse} forall
  /Encoding WinAnsiEncoding def
  currentdict
end
/Helvetica-Oblique exch definefont pop
/Times-BoldItalic findfont
dup length dict begin
  {1 index /FID ne {def} {pop pop} ifelse} forall
  /Encoding WinAnsiEncoding def
  currentdict
end
/Times-BoldItalic exch definefont pop
/Courier findfont
dup length dict begin
  {1 index /FID ne {def} {pop pop} ifelse} forall
  /Encoding WinAnsiEncoding def
  currentdict
end
/Courier exch definefont pop
/Times-Italic findfont
dup length dict begin
  {1 index /FID ne {def} {pop pop} ifelse} forall
  /Encoding WinAnsiEncoding def
  currentdict
end
/Times-Italic exch definefont pop
/Times-Bold findfont
dup length dict begin
  {1 index /FID ne {def} {pop pop} ifelse} forall
  /Encoding WinAnsiEncoding def
  currentdict
end
/Times-Bold exch definefont pop
%FOPEndFontReencode
%%EndProlog
%%Page: 1 1
%%PageBoundingBox: 0 0 576 432
%%BeginPageSetup
[1 0 0 -1 0 432] CT
%%EndPageSetup
GS
[0.75 0 0 0.75 0 0] CT
1 GC
N
0 0 768 576 re
f
GR
GS
[0.75 0 0 0.75 0 0] CT
1 GC
N
0 0 768 576 re
f
GR
GS
[0.75 0 0 0.75 0 0] CT
1 GC
N
242.074 513 M
552.926 513 L
552.926 43 L
242.074 43 L
cp
f
GR
GS
[0.75 0 0 0.75 0 0] CT
0 0 0.561 RC
1 LJ
0.667 LW
N
361.6 191.421 M
356.264 213.216 L
352.742 191.421 L
S
GR
GS
[0.75 0 0 0.75 0 0] CT
0 0 0.561 RC
1 LJ
0.667 LW
N
352.742 191.421 M
349.921 169.712 L
349.777 166.684 L
S
GR
GS
[0.75 0 0 0.75 0 0] CT
0 0 0.561 RC
1 LJ
0.667 LW
N
363.939 166.684 M
362.608 186.907 L
361.6 191.421 L
S
GR
GS
[0.75 0 0 0.75 0 0] CT
0 0 0.561 RC
1 LJ
0.667 LW
N
349.777 166.684 M
348.76 141.947 L
S
GR
GS
[0.75 0 0 0.75 0 0] CT
0 0 0.561 RC
1 LJ
0.667 LW
N
365.368 141.947 M
363.939 166.684 L
S
GR
GS
[0.75 0 0 0.75 0 0] CT
0 0 0.561 RC
1 LJ
0.667 LW
N
348.76 141.947 M
347.893 117.211 L
S
GR
GS
[0.75 0 0 0.75 0 0] CT
0 0 0.561 RC
1 LJ
0.667 LW
N
366.632 117.211 M
365.368 141.947 L
S
GR
GS
[0.75 0 0 0.75 0 0] CT
0 0 0.561 RC
1 LJ
0.667 LW
N
347.893 117.211 M
347.144 92.474 L
S
GR
GS
[0.75 0 0 0.75 0 0] CT
0 0 0.561 RC
1 LJ
0.667 LW
N
367.757 92.474 M
366.632 117.211 L
S
GR
GS
[0.75 0 0 0.75 0 0] CT
0 0 0.561 RC
1 LJ
0.667 LW
N
347.144 92.474 M
346.491 67.737 L
S
GR
GS
[0.75 0 0 0.75 0 0] CT
0 0 0.561 RC
1 LJ
0.667 LW
N
368.767 67.737 M
367.757 92.474 L
S
GR
GS
[0.75 0 0 0.75 0 0] CT
0 0 0.561 RC
1 LJ
0.667 LW
N
346.491 67.737 M
345.917 43 L
S
GR
GS
[0.75 0 0 0.75 0 0] CT
0 0 0.561 RC
1 LJ
0.667 LW
N
369.387 43 M
368.952 62.719 L
368.767 67.737 L
S
GR
GS
[0.75 0 0 0.75 0 0] CT
0 0 0.749 RC
1 LJ
0.667 LW
N
363.301 290.368 M
362.608 295.344 L
356.264 311.937 L
349.921 296.269 L
349.228 290.368 L
S
GR
GS
[0.75 0 0 0.75 0 0] CT
0 0 0.749 RC
1 LJ
0.667 LW
N
349.228 290.368 M
346.93 265.632 L
S
GR
GS
[0.75 0 0 0.75 0 0] CT
0 0 0.749 RC
1 LJ
0.667 LW
N
366.177 265.632 M
363.301 290.368 L
S
GR
GS
[0.75 0 0 0.75 0 0] CT
0 0 0.749 RC
1 LJ
0.667 LW
N
346.93 265.632 M
345.151 240.895 L
S
GR
GS
[0.75 0 0 0.75 0 0] CT
0 0 0.749 RC
1 LJ
0.667 LW
N
368.577 240.895 M
366.177 265.632 L
S
GR
GS
[0.75 0 0 0.75 0 0] CT
0 0 0.749 RC
1 LJ
0.667 LW
N
345.151 240.895 M
343.736 216.158 L
S
GR
GS
[0.75 0 0 0.75 0 0] CT
0 0 0.749 RC
1 LJ
0.667 LW
N
369.99 216.158 M
368.952 236.385 L
368.577 240.895 L
S
GR
GS
[0.75 0 0 0.75 0 0] CT
0 0 0.749 RC
1 LJ
0.667 LW
N
343.736 216.158 M
343.577 212.84 L
342.949 191.421 L
S
GR
GS
[0.75 0 0 0.75 0 0] CT
0 0 0.749 RC
1 LJ
0.667 LW
N
371.067 191.421 M
369.99 216.158 L
S
GR
GS
[0.75 0 0 0.75 0 0] CT
0 0 0.749 RC
1 LJ
0.667 LW
N
342.949 191.421 M
342.338 166.684 L
S
GR
GS
[0.75 0 0 0.75 0 0] CT
0 0 0.749 RC
1 LJ
0.667 LW
N
371.989 166.684 M
371.067 191.421 L
S
GR
GS
[0.75 0 0 0.75 0 0] CT
0 0 0.749 RC
1 LJ
0.667 LW
N
342.338 166.684 M
341.818 141.947 L
S
GR
GS
[0.75 0 0 0.75 0 0] CT
0 0 0.749 RC
1 LJ
0.667 LW
N
372.787 141.947 M
371.989 166.684 L
S
GR
GS
[0.75 0 0 0.75 0 0] CT
0 0 0.749 RC
1 LJ
0.667 LW
N
341.818 141.947 M
341.37 117.211 L
S
GR
GS
[0.75 0 0 0.75 0 0] CT
0 0 0.749 RC
1 LJ
0.667 LW
N
373.486 117.211 M
372.787 141.947 L
S
GR
GS
[0.75 0 0 0.75 0 0] CT
0 0 0.749 RC
1 LJ
0.667 LW
N
341.37 117.211 M
340.981 92.474 L
S
GR
GS
[0.75 0 0 0.75 0 0] CT
0 0 0.749 RC
1 LJ
0.667 LW
N
374.102 92.474 M
373.486 117.211 L
S
GR
GS
[0.75 0 0 0.75 0 0] CT
0 0 0.749 RC
1 LJ
0.667 LW
N
340.981 92.474 M
340.639 67.737 L
S
GR
GS
[0.75 0 0 0.75 0 0] CT
0 0 0.749 RC
1 LJ
0.667 LW
N
374.649 67.737 M
374.102 92.474 L
S
GR
GS
[0.75 0 0 0.75 0 0] CT
0 0 0.749 RC
1 LJ
0.667 LW
N
340.639 67.737 M
340.337 43 L
S
GR
GS
[0.75 0 0 0.75 0 0] CT
0 0 0.749 RC
1 LJ
0.667 LW
N
375.139 43 M
374.649 67.737 L
S
GR
GS
[0.75 0 0 0.75 0 0] CT
0 0 1 RC
1 LJ
0.667 LW
N
360.402 364.579 M
356.264 371.385 L
349.921 366.284 L
349.459 364.579 L
S
GR
GS
[0.75 0 0 0.75 0 0] CT
0 0 1 RC
1 LJ
0.667 LW
N
349.459 364.579 M
344.643 339.842 L
S
GR
GS
[0.75 0 0 0.75 0 0] CT
0 0 1 RC
1 LJ
0.667 LW
N
366.842 339.842 M
362.608 360.232 L
360.402 364.579 L
S
GR
GS
[0.75 0 0 0.75 0 0] CT
0 0 1 RC
1 LJ
0.667 LW
N
344.643 339.842 M
343.577 332.178 L
342.278 315.105 L
S
GR
GS
[0.75 0 0 0.75 0 0] CT
0 0 1 RC
1 LJ
0.667 LW
N
370.199 315.105 M
368.952 327.052 L
366.842 339.842 L
S
GR
GS
[0.75 0 0 0.75 0 0] CT
0 0 1 RC
1 LJ
0.667 LW
N
342.278 315.105 M
340.856 290.368 L
S
GR
GS
[0.75 0 0 0.75 0 0] CT
0 0 1 RC
1 LJ
0.667 LW
N
372.255 290.368 M
370.199 315.105 L
S
GR
GS
[0.75 0 0 0.75 0 0] CT
0 0 1 RC
1 LJ
0.667 LW
N
340.856 290.368 M
339.766 265.632 L
S
GR
GS
[0.75 0 0 0.75 0 0] CT
0 0 1 RC
1 LJ
0.667 LW
N
373.897 265.632 M
372.255 290.368 L
S
GR
GS
[0.75 0 0 0.75 0 0] CT
0 0 1 RC
1 LJ
0.667 LW
N
339.766 265.632 M
338.904 240.895 L
S
GR
GS
[0.75 0 0 0.75 0 0] CT
0 0 1 RC
1 LJ
0.667 LW
N
375.239 240.895 M
373.897 265.632 L
S
GR
GS
[0.75 0 0 0.75 0 0] CT
0 0 1 RC
1 LJ
0.667 LW
N
338.904 240.895 M
338.207 216.158 L
S
GR
GS
[0.75 0 0 0.75 0 0] CT
0 0 1 RC
1 LJ
0.667 LW
N
376.114 216.158 M
375.296 239.649 L
375.239 240.895 L
S
GR
GS
[0.75 0 0 0.75 0 0] CT
0 0 1 RC
1 LJ
0.667 LW
N
338.207 216.158 M
337.632 191.421 L
S
GR
GS
[0.75 0 0 0.75 0 0] CT
0 0 1 RC
1 LJ
0.667 LW
N
376.837 191.421 M
376.114 216.158 L
S
GR
GS
[0.75 0 0 0.75 0 0] CT
0 0 1 RC
1 LJ
0.667 LW
N
337.632 191.421 M
337.233 171.009 L
337.17 166.684 L
S
GR
GS
[0.75 0 0 0.75 0 0] CT
0 0 1 RC
1 LJ
0.667 LW
N
377.451 166.684 M
376.837 191.421 L
S
GR
GS
[0.75 0 0 0.75 0 0] CT
0 0 1 RC
1 LJ
0.667 LW
N
337.17 166.684 M
336.855 141.947 L
S
GR
GS
[0.75 0 0 0.75 0 0] CT
0 0 1 RC
1 LJ
0.667 LW
N
377.98 141.947 M
377.451 166.684 L
S
GR
GS
[0.75 0 0 0.75 0 0] CT
0 0 1 RC
1 LJ
0.667 LW
N
515.247 141.947 M
514.863 143.82 L
512.414 141.947 L
S
GR
GS
[0.75 0 0 0.75 0 0] CT
0 0 1 RC
1 LJ
0.667 LW
N
336.855 141.947 M
336.583 117.211 L
S
GR
GS
[0.75 0 0 0.75 0 0] CT
0 0 1 RC
1 LJ
0.667 LW
N
378.44 117.211 M
377.98 141.947 L
S
GR
GS
[0.75 0 0 0.75 0 0] CT
0 0 1 RC
1 LJ
0.667 LW
N
512.414 141.947 M
508.519 138.605 L
505.744 117.211 L
S
GR
GS
[0.75 0 0 0.75 0 0] CT
0 0 1 RC
1 LJ
0.667 LW
N
519.804 117.211 M
515.247 141.947 L
S
GR
GS
[0.75 0 0 0.75 0 0] CT
0 0 1 RC
1 LJ
0.667 LW
N
336.583 117.211 M
336.346 92.474 L
S
GR
GS
[0.75 0 0 0.75 0 0] CT
0 0 1 RC
1 LJ
0.667 LW
N
378.843 92.474 M
378.44 117.211 L
S
GR
GS
[0.75 0 0 0.75 0 0] CT
0 0 1 RC
1 LJ
0.667 LW
N
505.744 117.211 M
503.037 92.474 L
S
GR
GS
[0.75 0 0 0.75 0 0] CT
0 0 1 RC
1 LJ
0.667 LW
N
522.456 92.474 M
521.207 108.705 L
519.804 117.211 L
S
GR
GS
[0.75 0 0 0.75 0 0] CT
0 0 1 RC
1 LJ
0.667 LW
N
336.346 92.474 M
336.137 67.737 L
S
GR
GS
[0.75 0 0 0.75 0 0] CT
0 0 1 RC
1 LJ
0.667 LW
N
379.2 67.737 M
378.843 92.474 L
S
GR
GS
[0.75 0 0 0.75 0 0] CT
0 0 1 RC
1 LJ
0.667 LW
N
503.037 92.474 M
502.175 83.417 L
501.383 67.737 L
S
GR
GS
[0.75 0 0 0.75 0 0] CT
0 0 1 RC
1 LJ
0.667 LW
N
524.139 67.737 M
522.456 92.474 L
S
GR
GS
[0.75 0 0 0.75 0 0] CT
0 0 1 RC
1 LJ
0.667 LW
N
336.137 67.737 M
335.951 43 L
S
GR
GS
[0.75 0 0 0.75 0 0] CT
0 0 1 RC
1 LJ
0.667 LW
N
379.518 43 M
379.2 67.737 L
S
GR
GS
[0.75 0 0 0.75 0 0] CT
0 0 1 RC
1 LJ
0.667 LW
N
501.383 67.737 M
500.285 43 L
S
GR
GS
[0.75 0 0 0.75 0 0] CT
0 0 1 RC
1 LJ
0.667 LW
N
525.622 43 M
524.139 67.737 L
S
GR
GS
[0.75 0 0 0.75 0 0] CT
0 0.31 1 RC
1 LJ
0.667 LW
N
367.529 389.316 M
362.608 403.71 L
356.264 412.32 L
349.921 410.992 L
343.577 395.815 L
342.36 389.316 L
S
GR
GS
[0.75 0 0 0.75 0 0] CT
0 0.31 1 RC
1 LJ
0.667 LW
N
342.36 389.316 M
339.226 364.579 L
S
GR
GS
[0.75 0 0 0.75 0 0] CT
0 0.31 1 RC
1 LJ
0.667 LW
N
372.194 364.579 M
368.952 383.901 L
367.529 389.316 L
S
GR
GS
[0.75 0 0 0.75 0 0] CT
0 0.31 1 RC
1 LJ
0.667 LW
N
339.226 364.579 M
337.233 340.558 L
337.193 339.842 L
S
GR
GS
[0.75 0 0 0.75 0 0] CT
0 0.31 1 RC
1 LJ
0.667 LW
N
375.204 339.842 M
372.194 364.579 L
S
GR
GS
[0.75 0 0 0.75 0 0] CT
0 0.31 1 RC
1 LJ
0.667 LW
N
337.193 339.842 M
336.135 315.105 L
S
GR
GS
[0.75 0 0 0.75 0 0] CT
0 0.31 1 RC
1 LJ
0.667 LW
N
377.009 315.105 M
375.296 338.878 L
375.204 339.842 L
S
GR
GS
[0.75 0 0 0.75 0 0] CT
0 0.31 1 RC
1 LJ
0.667 LW
N
336.135 315.105 M
335.341 290.368 L
S
GR
GS
[0.75 0 0 0.75 0 0] CT
0 0.31 1 RC
1 LJ
0.667 LW
N
378.372 290.368 M
377.009 315.105 L
S
GR
GS
[0.75 0 0 0.75 0 0] CT
0 0.31 1 RC
1 LJ
0.667 LW
N
335.341 290.368 M
334.723 265.632 L
S
GR
GS
[0.75 0 0 0.75 0 0] CT
0 0.31 1 RC
1 LJ
0.667 LW
N
379.445 265.632 M
378.372 290.368 L
S
GR
GS
[0.75 0 0 0.75 0 0] CT
0 0.31 1 RC
1 LJ
0.667 LW
N
334.723 265.632 M
334.229 240.895 L
S
GR
GS
[0.75 0 0 0.75 0 0] CT
0 0.31 1 RC
1 LJ
0.667 LW
N
380.312 240.895 M
379.445 265.632 L
S
GR
GS
[0.75 0 0 0.75 0 0] CT
0 0.31 1 RC
1 LJ
0.667 LW
N
334.229 240.895 M
333.825 216.158 L
S
GR
GS
[0.75 0 0 0.75 0 0] CT
0 0.31 1 RC
1 LJ
0.667 LW
N
381.027 216.158 M
380.312 240.895 L
S
GR
GS
[0.75 0 0 0.75 0 0] CT
0 0.31 1 RC
1 LJ
0.667 LW
N
521.513 216.158 M
521.207 218.304 L
514.863 239.815 L
508.519 238.569 L
503.228 216.158 L
S
GR
GS
[0.75 0 0 0.75 0 0] CT
0 0.31 1 RC
1 LJ
0.667 LW
N
333.825 216.158 M
333.49 191.421 L
S
GR
GS
[0.75 0 0 0.75 0 0] CT
0 0.31 1 RC
1 LJ
0.667 LW
N
381.627 191.421 M
381.027 216.158 L
S
GR
GS
[0.75 0 0 0.75 0 0] CT
0 0.31 1 RC
1 LJ
0.667 LW
N
503.228 216.158 M
502.175 210.759 L
500.314 191.421 L
S
GR
GS
[0.75 0 0 0.75 0 0] CT
0 0.31 1 RC
1 LJ
0.667 LW
N
524.568 191.421 M
521.513 216.158 L
S
GR
GS
[0.75 0 0 0.75 0 0] CT
0 0.31 1 RC
1 LJ
0.667 LW
N
333.49 191.421 M
333.206 166.684 L
S
GR
GS
[0.75 0 0 0.75 0 0] CT
0 0.31 1 RC
1 LJ
0.667 LW
N
382.068 166.684 M
381.64 190.792 L
381.627 191.421 L
S
GR
GS
[0.75 0 0 0.75 0 0] CT
0 0.31 1 RC
1 LJ
0.667 LW
N
500.314 191.421 M
498.36 166.684 L
S
GR
GS
[0.75 0 0 0.75 0 0] CT
0 0.31 1 RC
1 LJ
0.667 LW
N
527.116 166.684 M
524.568 191.421 L
S
GR
GS
[0.75 0 0 0.75 0 0] CT
0 0.31 1 RC
1 LJ
0.667 LW
N
333.206 166.684 M
332.964 141.947 L
S
GR
GS
[0.75 0 0 0.75 0 0] CT
0 0.31 1 RC
1 LJ
0.667 LW
N
382.444 141.947 M
382.068 166.684 L
S
GR
GS
[0.75 0 0 0.75 0 0] CT
0 0.31 1 RC
1 LJ
0.667 LW
N
498.36 166.684 M
496.751 141.947 L
S
GR
GS
[0.75 0 0 0.75 0 0] CT
0 0.31 1 RC
1 LJ
0.667 LW
N
528.753 141.947 M
527.55 161.858 L
527.116 166.684 L
S
GR
GS
[0.75 0 0 0.75 0 0] CT
0 0.31 1 RC
1 LJ
0.667 LW
N
332.964 141.947 M
332.754 117.211 L
S
GR
GS
[0.75 0 0 0.75 0 0] CT
0 0.31 1 RC
1 LJ
0.667 LW
N
382.77 117.211 M
382.444 141.947 L
S
GR
GS
[0.75 0 0 0.75 0 0] CT
0 0.31 1 RC
1 LJ
0.667 LW
N
496.751 141.947 M
495.831 125.271 L
495.527 117.211 L
S
GR
GS
[0.75 0 0 0.75 0 0] CT
0 0.31 1 RC
1 LJ
0.667 LW
N
530.034 117.211 M
528.753 141.947 L
S
GR
GS
[0.75 0 0 0.75 0 0] CT
0 0.31 1 RC
1 LJ
0.667 LW
N
332.754 117.211 M
332.571 92.474 L
S
GR
GS
[0.75 0 0 0.75 0 0] CT
0 0.31 1 RC
1 LJ
0.667 LW
N
383.054 92.474 M
382.77 117.211 L
S
GR
GS
[0.75 0 0 0.75 0 0] CT
0 0.31 1 RC
1 LJ
0.667 LW
N
495.527 117.211 M
494.709 92.474 L
S
GR
GS
[0.75 0 0 0.75 0 0] CT
0 0.31 1 RC
1 LJ
0.667 LW
N
531.136 92.474 M
530.034 117.211 L
S
GR
GS
[0.75 0 0 0.75 0 0] CT
0 0.31 1 RC
1 LJ
0.667 LW
N
332.571 92.474 M
332.41 67.737 L
S
GR
GS
[0.75 0 0 0.75 0 0] CT
0 0.31 1 RC
1 LJ
0.667 LW
N
383.305 67.737 M
383.054 92.474 L
S
GR
GS
[0.75 0 0 0.75 0 0] CT
0 0.31 1 RC
1 LJ
0.667 LW
N
494.709 92.474 M
494.004 67.737 L
S
GR
GS
[0.75 0 0 0.75 0 0] CT
0 0.31 1 RC
1 LJ
0.667 LW
N
532.094 67.737 M
531.136 92.474 L
S
GR
GS
[0.75 0 0 0.75 0 0] CT
0 0.31 1 RC
1 LJ
0.667 LW
N
332.41 67.737 M
332.267 43 L
S
GR
GS
[0.75 0 0 0.75 0 0] CT
0 0.31 1 RC
1 LJ
0.667 LW
N
383.528 43 M
383.305 67.737 L
S
GR
GS
[0.75 0 0 0.75 0 0] CT
0 0.31 1 RC
1 LJ
0.667 LW
N
494.004 67.737 M
493.39 43 L
S
GR
GS
[0.75 0 0 0.75 0 0] CT
0 0.31 1 RC
1 LJ
0.667 LW
N
532.934 43 M
532.094 67.737 L
S
GR
GS
[0.75 0 0 0.75 0 0] CT
0 0.561 1 RC
1 LJ
0.667 LW
N
360.287 438.789 M
356.264 442.219 L
349.921 442.79 L
345.336 438.789 L
S
GR
GS
[0.75 0 0 0.75 0 0] CT
0 0.561 1 RC
1 LJ
0.667 LW
N
345.336 438.789 M
343.577 436.585 L
337.233 414.207 L
337.209 414.053 L
S
GR
GS
[0.75 0 0 0.75 0 0] CT
0 0.561 1 RC
1 LJ
0.667 LW
N
371.82 414.053 M
368.952 423.332 L
362.608 436.327 L
360.287 438.789 L
S
GR
GS
[0.75 0 0 0.75 0 0] CT
0 0.561 1 RC
1 LJ
0.667 LW
N
337.209 414.053 M
334.68 389.316 L
S
GR
GS
[0.75 0 0 0.75 0 0] CT
0 0.561 1 RC
1 LJ
0.667 LW
N
376.686 389.316 M
375.296 398.119 L
371.82 414.053 L
S
GR
GS
[0.75 0 0 0.75 0 0] CT
0 0.561 1 RC
1 LJ
0.667 LW
N
334.68 389.316 M
333.119 364.579 L
S
GR
GS
[0.75 0 0 0.75 0 0] CT
0 0.561 1 RC
1 LJ
0.667 LW
N
379.448 364.579 M
376.686 389.316 L
S
GR
GS
[0.75 0 0 0.75 0 0] CT
0 0.561 1 RC
1 LJ
0.667 LW
N
333.119 364.579 M
332.068 339.842 L
S
GR
GS
[0.75 0 0 0.75 0 0] CT
0 0.561 1 RC
1 LJ
0.667 LW
N
381.361 339.842 M
379.448 364.579 L
S
GR
GS
[0.75 0 0 0.75 0 0] CT
0 0.561 1 RC
1 LJ
0.667 LW
N
332.068 339.842 M
331.315 315.105 L
S
GR
GS
[0.75 0 0 0.75 0 0] CT
0 0.561 1 RC
1 LJ
0.667 LW
N
382.634 315.105 M
381.64 335.175 L
381.361 339.842 L
S
GR
GS
[0.75 0 0 0.75 0 0] CT
0 0.561 1 RC
1 LJ
0.667 LW
N
331.315 315.105 M
330.889 296.634 L
330.774 290.368 L
S
GR
GS
[0.75 0 0 0.75 0 0] CT
0 0.561 1 RC
1 LJ
0.667 LW
N
383.57 290.368 M
382.634 315.105 L
S
GR
GS
[0.75 0 0 0.75 0 0] CT
0 0.561 1 RC
1 LJ
0.667 LW
N
522.8 290.368 M
521.207 297.255 L
514.863 310.916 L
508.519 311.528 L
502.175 297.464 L
500.775 290.368 L
S
GR
GS
[0.75 0 0 0.75 0 0] CT
0 0.561 1 RC
1 LJ
0.667 LW
N
330.774 290.368 M
330.407 265.632 L
S
GR
GS
[0.75 0 0 0.75 0 0] CT
0 0.561 1 RC
1 LJ
0.667 LW
N
384.3 265.632 M
383.57 290.368 L
S
GR
GS
[0.75 0 0 0.75 0 0] CT
0 0.561 1 RC
1 LJ
0.667 LW
N
500.775 290.368 M
496.941 265.632 L
S
GR
GS
[0.75 0 0 0.75 0 0] CT
0 0.561 1 RC
1 LJ
0.667 LW
N
527.479 265.632 M
522.8 290.368 L
S
GR
GS
[0.75 0 0 0.75 0 0] CT
0 0.561 1 RC
1 LJ
0.667 LW
N
330.407 265.632 M
330.111 240.895 L
S
GR
GS
[0.75 0 0 0.75 0 0] CT
0 0.561 1 RC
1 LJ
0.667 LW
N
384.885 240.895 M
384.3 265.632 L
S
GR
GS
[0.75 0 0 0.75 0 0] CT
0 0.561 1 RC
1 LJ
0.667 LW
N
496.941 265.632 M
495.831 256.522 L
494.618 240.895 L
S
GR
GS
[0.75 0 0 0.75 0 0] CT
0 0.561 1 RC
1 LJ
0.667 LW
N
530.111 240.895 M
527.55 265.183 L
527.479 265.632 L
S
GR
GS
[0.75 0 0 0.75 0 0] CT
0 0.561 1 RC
1 LJ
0.667 LW
N
330.111 240.895 M
329.868 216.158 L
S
GR
GS
[0.75 0 0 0.75 0 0] CT
0 0.561 1 RC
1 LJ
0.667 LW
N
385.363 216.158 M
384.885 240.895 L
S
GR
GS
[0.75 0 0 0.75 0 0] CT
0 0.561 1 RC
1 LJ
0.667 LW
N
494.618 240.895 M
493.076 216.158 L
S
GR
GS
[0.75 0 0 0.75 0 0] CT
0 0.561 1 RC
1 LJ
0.667 LW
N
532.179 216.158 M
530.111 240.895 L
S
GR
GS
[0.75 0 0 0.75 0 0] CT
0 0.561 1 RC
1 LJ
0.667 LW
N
329.868 216.158 M
329.664 191.421 L
S
GR
GS
[0.75 0 0 0.75 0 0] CT
0 0.561 1 RC
1 LJ
0.667 LW
N
385.762 191.421 M
385.363 216.158 L
S
GR
GS
[0.75 0 0 0.75 0 0] CT
0 0.561 1 RC
1 LJ
0.667 LW
N
493.076 216.158 M
491.844 191.421 L
S
GR
GS
[0.75 0 0 0.75 0 0] CT
0 0.561 1 RC
1 LJ
0.667 LW
N
533.856 191.421 M
532.179 216.158 L
S
GR
GS
[0.75 0 0 0.75 0 0] CT
0 0.561 1 RC
1 LJ
0.667 LW
N
329.664 191.421 M
329.491 166.684 L
S
GR
GS
[0.75 0 0 0.75 0 0] CT
0 0.561 1 RC
1 LJ
0.667 LW
N
386.1 166.684 M
385.762 191.421 L
S
GR
GS
[0.75 0 0 0.75 0 0] CT
0 0.561 1 RC
1 LJ
0.667 LW
N
491.844 191.421 M
490.84 166.684 L
S
GR
GS
[0.75 0 0 0.75 0 0] CT
0 0.561 1 RC
1 LJ
0.667 LW
N
534.995 166.684 M
533.894 190.765 L
533.856 191.421 L
S
GR
GS
[0.75 0 0 0.75 0 0] CT
0 0.561 1 RC
1 LJ
0.667 LW
N
329.491 166.684 M
329.342 141.947 L
S
GR
GS
[0.75 0 0 0.75 0 0] CT
0 0.561 1 RC
1 LJ
0.667 LW
N
386.389 141.947 M
386.1 166.684 L
S
GR
GS
[0.75 0 0 0.75 0 0] CT
0 0.561 1 RC
1 LJ
0.667 LW
N
490.84 166.684 M
490.007 141.947 L
S
GR
GS
[0.75 0 0 0.75 0 0] CT
0 0.561 1 RC
1 LJ
0.667 LW
N
535.939 141.947 M
534.995 166.684 L
S
GR
GS
[0.75 0 0 0.75 0 0] CT
0 0.561 1 RC
1 LJ
0.667 LW
N
329.342 141.947 M
329.213 117.211 L
S
GR
GS
[0.75 0 0 0.75 0 0] CT
0 0.561 1 RC
1 LJ
0.667 LW
N
386.639 117.211 M
386.389 141.947 L
S
GR
GS
[0.75 0 0 0.75 0 0] CT
0 0.561 1 RC
1 LJ
0.667 LW
N
490.007 141.947 M
489.487 123.786 L
489.34 117.211 L
S
GR
GS
[0.75 0 0 0.75 0 0] CT
0 0.561 1 RC
1 LJ
0.667 LW
N
536.739 117.211 M
535.939 141.947 L
S
GR
GS
[0.75 0 0 0.75 0 0] CT
0 0.561 1 RC
1 LJ
0.667 LW
N
329.213 117.211 M
329.1 92.474 L
S
GR
GS
[0.75 0 0 0.75 0 0] CT
0 0.561 1 RC
1 LJ
0.667 LW
N
386.858 92.474 M
386.639 117.211 L
S
GR
GS
[0.75 0 0 0.75 0 0] CT
0 0.561 1 RC
1 LJ
0.667 LW
N
489.34 117.211 M
488.852 92.474 L
S
GR
GS
[0.75 0 0 0.75 0 0] CT
0 0.561 1 RC
1 LJ
0.667 LW
N
537.424 92.474 M
536.739 117.211 L
S
GR
GS
[0.75 0 0 0.75 0 0] CT
0 0.561 1 RC
1 LJ
0.667 LW
N
329.1 92.474 M
329 67.737 L
S
GR
GS
[0.75 0 0 0.75 0 0] CT
0 0.561 1 RC
1 LJ
0.667 LW
N
387.052 67.737 M
386.858 92.474 L
S
GR
GS
[0.75 0 0 0.75 0 0] CT
0 0.561 1 RC
1 LJ
0.667 LW
N
488.852 92.474 M
488.43 67.737 L
S
GR
GS
[0.75 0 0 0.75 0 0] CT
0 0.561 1 RC
1 LJ
0.667 LW
N
538.018 67.737 M
537.424 92.474 L
S
GR
GS
[0.75 0 0 0.75 0 0] CT
0 0.561 1 RC
1 LJ
0.667 LW
N
329 67.737 M
328.911 43 L
S
GR
GS
[0.75 0 0 0.75 0 0] CT
0 0.561 1 RC
1 LJ
0.667 LW
N
387.224 43 M
387.052 67.737 L
S
GR
GS
[0.75 0 0 0.75 0 0] CT
0 0.561 1 RC
1 LJ
0.667 LW
N
488.43 67.737 M
488.061 43 L
S
GR
GS
[0.75 0 0 0.75 0 0] CT
0 0.561 1 RC
1 LJ
0.667 LW
N
538.537 43 M
538.018 67.737 L
S
GR
GS
[0.75 0 0 0.75 0 0] CT
0 0.812 1 RC
1 LJ
0.667 LW
N
360.796 463.526 M
356.264 466.473 L
349.921 467.766 L
343.577 465.649 L
341.638 463.526 L
S
GR
GS
[0.75 0 0 0.75 0 0] CT
0 0.812 1 RC
1 LJ
0.667 LW
N
341.638 463.526 M
337.233 456.181 L
332.961 438.789 L
S
GR
GS
[0.75 0 0 0.75 0 0] CT
0 0.812 1 RC
1 LJ
0.667 LW
N
375.673 438.789 M
375.296 439.938 L
368.952 453.835 L
362.608 462.14 L
360.796 463.526 L
S
GR
GS
[0.75 0 0 0.75 0 0] CT
0 0.812 1 RC
1 LJ
0.667 LW
N
332.961 438.789 M
330.889 422.305 L
330.24 414.053 L
S
GR
GS
[0.75 0 0 0.75 0 0] CT
0 0.812 1 RC
1 LJ
0.667 LW
N
381.075 414.053 M
375.673 438.789 L
S
GR
GS
[0.75 0 0 0.75 0 0] CT
0 0.812 1 RC
1 LJ
0.667 LW
N
330.24 414.053 M
328.993 389.316 L
S
GR
GS
[0.75 0 0 0.75 0 0] CT
0 0.812 1 RC
1 LJ
0.667 LW
N
383.926 389.316 M
381.64 410.048 L
381.075 414.053 L
S
GR
GS
[0.75 0 0 0.75 0 0] CT
0 0.812 1 RC
1 LJ
0.667 LW
N
328.993 389.316 M
328.2 364.579 L
S
GR
GS
[0.75 0 0 0.75 0 0] CT
0 0.812 1 RC
1 LJ
0.667 LW
N
385.675 364.579 M
383.926 389.316 L
S
GR
GS
[0.75 0 0 0.75 0 0] CT
0 0.812 1 RC
1 LJ
0.667 LW
N
517.641 364.579 M
514.863 368.113 L
508.519 369.423 L
503.56 364.579 L
S
GR
GS
[0.75 0 0 0.75 0 0] CT
0 0.812 1 RC
1 LJ
0.667 LW
N
328.2 364.579 M
327.654 339.842 L
S
GR
GS
[0.75 0 0 0.75 0 0] CT
0 0.812 1 RC
1 LJ
0.667 LW
N
386.864 339.842 M
385.675 364.579 L
S
GR
GS
[0.75 0 0 0.75 0 0] CT
0 0.812 1 RC
1 LJ
0.667 LW
N
503.56 364.579 M
502.175 363.009 L
495.831 343.696 L
495.139 339.842 L
S
GR
GS
[0.75 0 0 0.75 0 0] CT
0 0.812 1 RC
1 LJ
0.667 LW
N
527.859 339.842 M
527.55 341.214 L
521.207 359.504 L
517.641 364.579 L
S
GR
GS
[0.75 0 0 0.75 0 0] CT
0 0.812 1 RC
1 LJ
0.667 LW
N
327.654 339.842 M
327.256 315.105 L
S
GR
GS
[0.75 0 0 0.75 0 0] CT
0 0.812 1 RC
1 LJ
0.667 LW
N
387.722 315.105 M
386.864 339.842 L
S
GR
GS
[0.75 0 0 0.75 0 0] CT
0 0.812 1 RC
1 LJ
0.667 LW
N
495.139 339.842 M
491.753 315.105 L
S
GR
GS
[0.75 0 0 0.75 0 0] CT
0 0.812 1 RC
1 LJ
0.667 LW
N
532.305 315.105 M
527.859 339.842 L
S
GR
GS
[0.75 0 0 0.75 0 0] CT
0 0.812 1 RC
1 LJ
0.667 LW
N
327.256 315.105 M
326.953 290.368 L
S
GR
GS
[0.75 0 0 0.75 0 0] CT
0 0.812 1 RC
1 LJ
0.667 LW
N
388.352 290.368 M
387.984 305.46 L
387.722 315.105 L
S
GR
GS
[0.75 0 0 0.75 0 0] CT
0 0.812 1 RC
1 LJ
0.667 LW
N
491.753 315.105 M
489.487 291.136 L
489.436 290.368 L
S
GR
GS
[0.75 0 0 0.75 0 0] CT
0 0.812 1 RC
1 LJ
0.667 LW
N
535.208 290.368 M
533.894 303.394 L
532.305 315.105 L
S
GR
GS
[0.75 0 0 0.75 0 0] CT
0 0.812 1 RC
1 LJ
0.667 LW
N
326.953 290.368 M
326.716 265.632 L
S
GR
GS
[0.75 0 0 0.75 0 0] CT
0 0.812 1 RC
1 LJ
0.667 LW
N
388.829 265.632 M
388.352 290.368 L
S
GR
GS
[0.75 0 0 0.75 0 0] CT
0 0.812 1 RC
1 LJ
0.667 LW
N
489.436 290.368 M
488.092 265.632 L
S
GR
GS
[0.75 0 0 0.75 0 0] CT
0 0.812 1 RC
1 LJ
0.667 LW
N
537.155 265.632 M
535.208 290.368 L
S
GR
GS
[0.75 0 0 0.75 0 0] CT
0 0.812 1 RC
1 LJ
0.667 LW
N
326.716 265.632 M
326.525 240.895 L
S
GR
GS
[0.75 0 0 0.75 0 0] CT
0 0.812 1 RC
1 LJ
0.667 LW
N
389.209 240.895 M
388.829 265.632 L
S
GR
GS
[0.75 0 0 0.75 0 0] CT
0 0.812 1 RC
1 LJ
0.667 LW
N
488.092 265.632 M
487.068 240.895 L
S
GR
GS
[0.75 0 0 0.75 0 0] CT
0 0.812 1 RC
1 LJ
0.667 LW
N
538.642 240.895 M
537.155 265.632 L
S
GR
GS
[0.75 0 0 0.75 0 0] CT
0 0.812 1 RC
1 LJ
0.667 LW
N
326.525 240.895 M
326.368 216.158 L
S
GR
GS
[0.75 0 0 0.75 0 0] CT
0 0.812 1 RC
1 LJ
0.667 LW
N
389.518 216.158 M
389.209 240.895 L
S
GR
GS
[0.75 0 0 0.75 0 0] CT
0 0.812 1 RC
1 LJ
0.667 LW
N
487.068 240.895 M
486.265 216.158 L
S
GR
GS
[0.75 0 0 0.75 0 0] CT
0 0.812 1 RC
1 LJ
0.667 LW
N
539.81 216.158 M
538.642 240.895 L
S
GR
GS
[0.75 0 0 0.75 0 0] CT
0 0.812 1 RC
1 LJ
0.667 LW
N
326.368 216.158 M
326.236 191.421 L
S
GR
GS
[0.75 0 0 0.75 0 0] CT
0 0.812 1 RC
1 LJ
0.667 LW
N
389.774 191.421 M
389.518 216.158 L
S
GR
GS
[0.75 0 0 0.75 0 0] CT
0 0.812 1 RC
1 LJ
0.667 LW
N
486.265 216.158 M
485.619 191.421 L
S
GR
GS
[0.75 0 0 0.75 0 0] CT
0 0.812 1 RC
1 LJ
0.667 LW
N
540.701 191.421 M
540.238 205.29 L
539.81 216.158 L
S
GR
GS
[0.75 0 0 0.75 0 0] CT
0 0.812 1 RC
1 LJ
0.667 LW
N
326.236 191.421 M
326.125 166.684 L
S
GR
GS
[0.75 0 0 0.75 0 0] CT
0 0.812 1 RC
1 LJ
0.667 LW
N
389.99 166.684 M
389.774 191.421 L
S
GR
GS
[0.75 0 0 0.75 0 0] CT
0 0.812 1 RC
1 LJ
0.667 LW
N
485.619 191.421 M
485.09 166.684 L
S
GR
GS
[0.75 0 0 0.75 0 0] CT
0 0.812 1 RC
1 LJ
0.667 LW
N
541.395 166.684 M
540.701 191.421 L
S
GR
GS
[0.75 0 0 0.75 0 0] CT
0 0.812 1 RC
1 LJ
0.667 LW
N
326.125 166.684 M
326.029 141.947 L
S
GR
GS
[0.75 0 0 0.75 0 0] CT
0 0.812 1 RC
1 LJ
0.667 LW
N
390.174 141.947 M
389.99 166.684 L
S
GR
GS
[0.75 0 0 0.75 0 0] CT
0 0.812 1 RC
1 LJ
0.667 LW
N
485.09 166.684 M
484.649 141.947 L
S
GR
GS
[0.75 0 0 0.75 0 0] CT
0 0.812 1 RC
1 LJ
0.667 LW
N
541.972 141.947 M
541.395 166.684 L
S
GR
GS
[0.75 0 0 0.75 0 0] CT
0 0.812 1 RC
1 LJ
0.667 LW
N
326.029 141.947 M
325.946 117.211 L
S
GR
GS
[0.75 0 0 0.75 0 0] CT
0 0.812 1 RC
1 LJ
0.667 LW
N
390.333 117.211 M
390.174 141.947 L
S
GR
GS
[0.75 0 0 0.75 0 0] CT
0 0.812 1 RC
1 LJ
0.667 LW
N
484.649 141.947 M
484.276 117.211 L
S
GR
GS
[0.75 0 0 0.75 0 0] CT
0 0.812 1 RC
1 LJ
0.667 LW
N
542.459 117.211 M
541.972 141.947 L
S
GR
GS
[0.75 0 0 0.75 0 0] CT
0 0.812 1 RC
1 LJ
0.667 LW
N
325.946 117.211 M
325.873 92.474 L
S
GR
GS
[0.75 0 0 0.75 0 0] CT
0 0.812 1 RC
1 LJ
0.667 LW
N
390.472 92.474 M
390.333 117.211 L
S
GR
GS
[0.75 0 0 0.75 0 0] CT
0 0.812 1 RC
1 LJ
0.667 LW
N
484.276 117.211 M
483.957 92.474 L
S
GR
GS
[0.75 0 0 0.75 0 0] CT
0 0.812 1 RC
1 LJ
0.667 LW
N
542.875 92.474 M
542.459 117.211 L
S
GR
GS
[0.75 0 0 0.75 0 0] CT
0 0.812 1 RC
1 LJ
0.667 LW
N
325.873 92.474 M
325.809 67.737 L
S
GR
GS
[0.75 0 0 0.75 0 0] CT
0 0.812 1 RC
1 LJ
0.667 LW
N
390.593 67.737 M
390.472 92.474 L
S
GR
GS
[0.75 0 0 0.75 0 0] CT
0 0.812 1 RC
1 LJ
0.667 LW
N
483.957 92.474 M
483.681 67.737 L
S
GR
GS
[0.75 0 0 0.75 0 0] CT
0 0.812 1 RC
1 LJ
0.667 LW
N
543.234 67.737 M
542.875 92.474 L
S
GR
GS
[0.75 0 0 0.75 0 0] CT
0 0.812 1 RC
1 LJ
0.667 LW
N
325.809 67.737 M
325.752 43 L
S
GR
GS
[0.75 0 0 0.75 0 0] CT
0 0.812 1 RC
1 LJ
0.667 LW
N
390.701 43 M
390.593 67.737 L
S
GR
GS
[0.75 0 0 0.75 0 0] CT
0 0.812 1 RC
1 LJ
0.667 LW
N
483.681 67.737 M
483.44 43 L
S
GR
GS
[0.75 0 0 0.75 0 0] CT
0 0.812 1 RC
1 LJ
0.667 LW
N
543.547 43 M
543.234 67.737 L
S
GR
GS
[0.75 0 0 0.75 0 0] CT
0.059 1 0.937 RC
1 LJ
0.667 LW
N
355.363 488.263 M
349.921 489.866 L
343.577 489.72 L
340.369 488.263 L
S
GR
GS
[0.75 0 0 0.75 0 0] CT
0.059 1 0.937 RC
1 LJ
0.667 LW
N
340.369 488.263 M
337.233 486.726 L
330.889 476.559 L
327.995 463.526 L
S
GR
GS
[0.75 0 0 0.75 0 0] CT
0.059 1 0.937 RC
1 LJ
0.667 LW
N
380.197 463.526 M
375.296 473.127 L
368.952 480.552 L
362.608 485.144 L
356.264 488.045 L
355.363 488.263 L
S
GR
GS
[0.75 0 0 0.75 0 0] CT
0.059 1 0.937 RC
1 LJ
0.667 LW
N
327.995 463.526 M
325.691 438.789 L
S
GR
GS
[0.75 0 0 0.75 0 0] CT
0.059 1 0.937 RC
1 LJ
0.667 LW
N
386.493 438.789 M
381.64 459.552 L
380.197 463.526 L
S
GR
GS
[0.75 0 0 0.75 0 0] CT
0.059 1 0.937 RC
1 LJ
0.667 LW
N
325.691 438.789 M
324.649 414.053 L
S
GR
GS
[0.75 0 0 0.75 0 0] CT
0.059 1 0.937 RC
1 LJ
0.667 LW
N
389.232 414.053 M
387.984 426.938 L
386.493 438.789 L
S
GR
GS
[0.75 0 0 0.75 0 0] CT
0.059 1 0.937 RC
1 LJ
0.667 LW
N
521.354 414.053 M
521.207 414.256 L
514.863 419.424 L
508.519 420.926 L
502.175 418.664 L
498.182 414.053 L
S
GR
GS
[0.75 0 0 0.75 0 0] CT
0.059 1 0.937 RC
1 LJ
0.667 LW
N
324.649 414.053 M
324.545 410.047 L
324.131 389.316 L
S
GR
GS
[0.75 0 0 0.75 0 0] CT
0.059 1 0.937 RC
1 LJ
0.667 LW
N
390.695 389.316 M
389.232 414.053 L
S
GR
GS
[0.75 0 0 0.75 0 0] CT
0.059 1 0.937 RC
1 LJ
0.667 LW
N
498.182 414.053 M
495.831 410.955 L
489.487 391.863 L
489.021 389.316 L
S
GR
GS
[0.75 0 0 0.75 0 0] CT
0.059 1 0.937 RC
1 LJ
0.667 LW
N
533.293 389.316 M
527.55 404.779 L
521.354 414.053 L
S
GR
GS
[0.75 0 0 0.75 0 0] CT
0.059 1 0.937 RC
1 LJ
0.667 LW
N
324.131 389.316 M
323.802 364.579 L
S
GR
GS
[0.75 0 0 0.75 0 0] CT
0.059 1 0.937 RC
1 LJ
0.667 LW
N
391.585 364.579 M
390.695 389.316 L
S
GR
GS
[0.75 0 0 0.75 0 0] CT
0.059 1 0.937 RC
1 LJ
0.667 LW
N
489.021 389.316 M
485.769 364.579 L
S
GR
GS
[0.75 0 0 0.75 0 0] CT
0.059 1 0.937 RC
1 LJ
0.667 LW
N
538.348 364.579 M
533.894 387.272 L
533.293 389.316 L
S
GR
GS
[0.75 0 0 0.75 0 0] CT
0.059 1 0.937 RC
1 LJ
0.667 LW
N
323.802 364.579 M
323.572 339.842 L
S
GR
GS
[0.75 0 0 0.75 0 0] CT
0.059 1 0.937 RC
1 LJ
0.667 LW
N
392.179 339.842 M
391.585 364.579 L
S
GR
GS
[0.75 0 0 0.75 0 0] CT
0.059 1 0.937 RC
1 LJ
0.667 LW
N
485.769 364.579 M
483.827 339.842 L
S
GR
GS
[0.75 0 0 0.75 0 0] CT
0.059 1 0.937 RC
1 LJ
0.667 LW
N
541.262 339.842 M
540.238 350.136 L
538.348 364.579 L
S
GR
GS
[0.75 0 0 0.75 0 0] CT
0.059 1 0.937 RC
1 LJ
0.667 LW
N
323.572 339.842 M
323.402 315.105 L
S
GR
GS
[0.75 0 0 0.75 0 0] CT
0.059 1 0.937 RC
1 LJ
0.667 LW
N
392.602 315.105 M
392.179 339.842 L
S
GR
GS
[0.75 0 0 0.75 0 0] CT
0.059 1 0.937 RC
1 LJ
0.667 LW
N
483.827 339.842 M
483.143 327.39 L
482.639 315.105 L
S
GR
GS
[0.75 0 0 0.75 0 0] CT
0.059 1 0.937 RC
1 LJ
0.667 LW
N
543.072 315.105 M
541.262 339.842 L
S
GR
GS
[0.75 0 0 0.75 0 0] CT
0.059 1 0.937 RC
1 LJ
0.667 LW
N
323.402 315.105 M
323.271 290.368 L
S
GR
GS
[0.75 0 0 0.75 0 0] CT
0.059 1 0.937 RC
1 LJ
0.667 LW
N
392.917 290.368 M
392.602 315.105 L
S
GR
GS
[0.75 0 0 0.75 0 0] CT
0.059 1 0.937 RC
1 LJ
0.667 LW
N
482.639 315.105 M
481.868 290.368 L
S
GR
GS
[0.75 0 0 0.75 0 0] CT
0.059 1 0.937 RC
1 LJ
0.667 LW
N
544.327 290.368 M
543.072 315.105 L
S
GR
GS
[0.75 0 0 0.75 0 0] CT
0.059 1 0.937 RC
1 LJ
0.667 LW
N
323.271 290.368 M
323.167 265.632 L
S
GR
GS
[0.75 0 0 0.75 0 0] CT
0.059 1 0.937 RC
1 LJ
0.667 LW
N
393.162 265.632 M
392.917 290.368 L
S
GR
GS
[0.75 0 0 0.75 0 0] CT
0.059 1 0.937 RC
1 LJ
0.667 LW
N
481.868 290.368 M
481.298 265.632 L
S
GR
GS
[0.75 0 0 0.75 0 0] CT
0.059 1 0.937 RC
1 LJ
0.667 LW
N
545.241 265.632 M
544.327 290.368 L
S
GR
GS
[0.75 0 0 0.75 0 0] CT
0.059 1 0.937 RC
1 LJ
0.667 LW
N
323.167 265.632 M
323.083 240.895 L
S
GR
GS
[0.75 0 0 0.75 0 0] CT
0.059 1 0.937 RC
1 LJ
0.667 LW
N
393.356 240.895 M
393.162 265.632 L
S
GR
GS
[0.75 0 0 0.75 0 0] CT
0.059 1 0.937 RC
1 LJ
0.667 LW
N
481.298 265.632 M
480.86 240.895 L
S
GR
GS
[0.75 0 0 0.75 0 0] CT
0.059 1 0.937 RC
1 LJ
0.667 LW
N
545.935 240.895 M
545.241 265.632 L
S
GR
GS
[0.75 0 0 0.75 0 0] CT
0.059 1 0.937 RC
1 LJ
0.667 LW
N
323.083 240.895 M
323.013 216.158 L
S
GR
GS
[0.75 0 0 0.75 0 0] CT
0.059 1 0.937 RC
1 LJ
0.667 LW
N
393.515 216.158 M
393.356 240.895 L
S
GR
GS
[0.75 0 0 0.75 0 0] CT
0.059 1 0.937 RC
1 LJ
0.667 LW
N
480.86 240.895 M
480.514 216.158 L
S
GR
GS
[0.75 0 0 0.75 0 0] CT
0.059 1 0.937 RC
1 LJ
0.667 LW
N
546.476 216.158 M
545.935 240.895 L
S
GR
GS
[0.75 0 0 0.75 0 0] CT
0.059 1 0.937 RC
1 LJ
0.667 LW
N
323.013 216.158 M
322.955 191.421 L
S
GR
GS
[0.75 0 0 0.75 0 0] CT
0.059 1 0.937 RC
1 LJ
0.667 LW
N
393.646 191.421 M
393.515 216.158 L
S
GR
GS
[0.75 0 0 0.75 0 0] CT
0.059 1 0.937 RC
1 LJ
0.667 LW
N
480.514 216.158 M
480.235 191.421 L
S
GR
GS
[0.75 0 0 0.75 0 0] CT
0.059 1 0.937 RC
1 LJ
0.667 LW
N
546.901 191.421 M
546.582 210.416 L
546.476 216.158 L
S
GR
GS
[0.75 0 0 0.75 0 0] CT
0.059 1 0.937 RC
1 LJ
0.667 LW
N
322.955 191.421 M
322.905 166.684 L
S
GR
GS
[0.75 0 0 0.75 0 0] CT
0.059 1 0.937 RC
1 LJ
0.667 LW
N
393.757 166.684 M
393.646 191.421 L
S
GR
GS
[0.75 0 0 0.75 0 0] CT
0.059 1 0.937 RC
1 LJ
0.667 LW
N
480.235 191.421 M
480.005 166.684 L
S
GR
GS
[0.75 0 0 0.75 0 0] CT
0.059 1 0.937 RC
1 LJ
0.667 LW
N
547.244 166.684 M
546.901 191.421 L
S
GR
GS
[0.75 0 0 0.75 0 0] CT
0.059 1 0.937 RC
1 LJ
0.667 LW
N
322.905 166.684 M
322.862 141.947 L
S
GR
GS
[0.75 0 0 0.75 0 0] CT
0.059 1 0.937 RC
1 LJ
0.667 LW
N
393.852 141.947 M
393.757 166.684 L
S
GR
GS
[0.75 0 0 0.75 0 0] CT
0.059 1 0.937 RC
1 LJ
0.667 LW
N
480.005 166.684 M
479.813 141.947 L
S
GR
GS
[0.75 0 0 0.75 0 0] CT
0.059 1 0.937 RC
1 LJ
0.667 LW
N
547.528 141.947 M
547.244 166.684 L
S
GR
GS
[0.75 0 0 0.75 0 0] CT
0.059 1 0.937 RC
1 LJ
0.667 LW
N
322.862 141.947 M
322.824 117.211 L
S
GR
GS
[0.75 0 0 0.75 0 0] CT
0.059 1 0.937 RC
1 LJ
0.667 LW
N
393.933 117.211 M
393.852 141.947 L
S
GR
GS
[0.75 0 0 0.75 0 0] CT
0.059 1 0.937 RC
1 LJ
0.667 LW
N
479.813 141.947 M
479.65 117.211 L
S
GR
GS
[0.75 0 0 0.75 0 0] CT
0.059 1 0.937 RC
1 LJ
0.667 LW
N
547.767 117.211 M
547.528 141.947 L
S
GR
GS
[0.75 0 0 0.75 0 0] CT
0.059 1 0.937 RC
1 LJ
0.667 LW
N
322.824 117.211 M
322.791 92.474 L
S
GR
GS
[0.75 0 0 0.75 0 0] CT
0.059 1 0.937 RC
1 LJ
0.667 LW
N
394.005 92.474 M
393.933 117.211 L
S
GR
GS
[0.75 0 0 0.75 0 0] CT
0.059 1 0.937 RC
1 LJ
0.667 LW
N
479.65 117.211 M
479.509 92.474 L
S
GR
GS
[0.75 0 0 0.75 0 0] CT
0.059 1 0.937 RC
1 LJ
0.667 LW
N
547.97 92.474 M
547.767 117.211 L
S
GR
GS
[0.75 0 0 0.75 0 0] CT
0.059 1 0.937 RC
1 LJ
0.667 LW
N
322.791 92.474 M
322.762 67.737 L
S
GR
GS
[0.75 0 0 0.75 0 0] CT
0.059 1 0.937 RC
1 LJ
0.667 LW
N
394.067 67.737 M
394.005 92.474 L
S
GR
GS
[0.75 0 0 0.75 0 0] CT
0.059 1 0.937 RC
1 LJ
0.667 LW
N
479.509 92.474 M
479.388 67.737 L
S
GR
GS
[0.75 0 0 0.75 0 0] CT
0.059 1 0.937 RC
1 LJ
0.667 LW
N
548.146 67.737 M
547.97 92.474 L
S
GR
GS
[0.75 0 0 0.75 0 0] CT
0.059 1 0.937 RC
1 LJ
0.667 LW
N
322.762 67.737 M
322.736 43 L
S
GR
GS
[0.75 0 0 0.75 0 0] CT
0.059 1 0.937 RC
1 LJ
0.667 LW
N
394.123 43 M
394.067 67.737 L
S
GR
GS
[0.75 0 0 0.75 0 0] CT
0.059 1 0.937 RC
1 LJ
0.667 LW
N
479.388 67.737 M
479.281 43 L
S
GR
GS
[0.75 0 0 0.75 0 0] CT
0.059 1 0.937 RC
1 LJ
0.667 LW
N
548.298 43 M
548.146 67.737 L
S
GR
GS
[0.75 0 0 0.75 0 0] CT
0.31 1 0.686 RC
1 LJ
0.667 LW
N
320.118 513 M
319.951 488.263 L
S
GR
GS
[0.75 0 0 0.75 0 0] CT
0.31 1 0.686 RC
1 LJ
0.667 LW
N
397.703 488.263 M
397.905 513 L
S
GR
GS
[0.75 0 0 0.75 0 0] CT
0.31 1 0.686 RC
1 LJ
0.667 LW
N
475.493 513 M
475.355 488.263 L
S
GR
GS
[0.75 0 0 0.75 0 0] CT
0.31 1 0.686 RC
1 LJ
0.667 LW
N
319.951 488.263 M
319.898 463.526 L
S
GR
GS
[0.75 0 0 0.75 0 0] CT
0.31 1 0.686 RC
1 LJ
0.667 LW
N
397.635 463.526 M
397.703 488.263 L
S
GR
GS
[0.75 0 0 0.75 0 0] CT
0.31 1 0.686 RC
1 LJ
0.667 LW
N
475.355 488.263 M
475.306 463.526 L
S
GR
GS
[0.75 0 0 0.75 0 0] CT
0.31 1 0.686 RC
1 LJ
0.667 LW
N
319.898 463.526 M
319.871 438.789 L
S
GR
GS
[0.75 0 0 0.75 0 0] CT
0.31 1 0.686 RC
1 LJ
0.667 LW
N
397.602 438.789 M
397.635 463.526 L
S
GR
GS
[0.75 0 0 0.75 0 0] CT
0.31 1 0.686 RC
1 LJ
0.667 LW
N
475.306 463.526 M
475.282 438.789 L
S
GR
GS
[0.75 0 0 0.75 0 0] CT
0.31 1 0.686 RC
1 LJ
0.667 LW
N
319.871 438.789 M
319.855 414.053 L
S
GR
GS
[0.75 0 0 0.75 0 0] CT
0.31 1 0.686 RC
1 LJ
0.667 LW
N
397.581 414.053 M
397.602 438.789 L
S
GR
GS
[0.75 0 0 0.75 0 0] CT
0.31 1 0.686 RC
1 LJ
0.667 LW
N
475.282 438.789 M
475.267 414.053 L
S
GR
GS
[0.75 0 0 0.75 0 0] CT
0.31 1 0.686 RC
1 LJ
0.667 LW
N
319.855 414.053 M
319.845 389.316 L
S
GR
GS
[0.75 0 0 0.75 0 0] CT
0.31 1 0.686 RC
1 LJ
0.667 LW
N
397.568 389.316 M
397.581 414.053 L
S
GR
GS
[0.75 0 0 0.75 0 0] CT
0.31 1 0.686 RC
1 LJ
0.667 LW
N
475.267 414.053 M
475.257 389.316 L
S
GR
GS
[0.75 0 0 0.75 0 0] CT
0.31 1 0.686 RC
1 LJ
0.667 LW
N
319.845 389.316 M
319.838 364.579 L
S
GR
GS
[0.75 0 0 0.75 0 0] CT
0.31 1 0.686 RC
1 LJ
0.667 LW
N
397.558 364.579 M
397.568 389.316 L
S
GR
GS
[0.75 0 0 0.75 0 0] CT
0.31 1 0.686 RC
1 LJ
0.667 LW
N
475.257 389.316 M
475.25 364.579 L
S
GR
GS
[0.75 0 0 0.75 0 0] CT
0.31 1 0.686 RC
1 LJ
0.667 LW
N
319.838 364.579 M
319.832 339.842 L
S
GR
GS
[0.75 0 0 0.75 0 0] CT
0.31 1 0.686 RC
1 LJ
0.667 LW
N
397.551 339.842 M
397.558 364.579 L
S
GR
GS
[0.75 0 0 0.75 0 0] CT
0.31 1 0.686 RC
1 LJ
0.667 LW
N
475.25 364.579 M
475.244 339.842 L
S
GR
GS
[0.75 0 0 0.75 0 0] CT
0.31 1 0.686 RC
1 LJ
0.667 LW
N
319.832 339.842 M
319.828 315.105 L
S
GR
GS
[0.75 0 0 0.75 0 0] CT
0.31 1 0.686 RC
1 LJ
0.667 LW
N
397.545 315.105 M
397.551 339.842 L
S
GR
GS
[0.75 0 0 0.75 0 0] CT
0.31 1 0.686 RC
1 LJ
0.667 LW
N
475.244 339.842 M
475.24 315.105 L
S
GR
GS
[0.75 0 0 0.75 0 0] CT
0.31 1 0.686 RC
1 LJ
0.667 LW
N
319.828 315.105 M
319.824 290.368 L
S
GR
GS
[0.75 0 0 0.75 0 0] CT
0.31 1 0.686 RC
1 LJ
0.667 LW
N
397.541 290.368 M
397.545 315.105 L
S
GR
GS
[0.75 0 0 0.75 0 0] CT
0.31 1 0.686 RC
1 LJ
0.667 LW
N
475.24 315.105 M
475.237 290.368 L
S
GR
GS
[0.75 0 0 0.75 0 0] CT
0.31 1 0.686 RC
1 LJ
0.667 LW
N
319.824 290.368 M
319.821 265.632 L
S
GR
GS
[0.75 0 0 0.75 0 0] CT
0.31 1 0.686 RC
1 LJ
0.667 LW
N
397.537 265.632 M
397.541 290.368 L
S
GR
GS
[0.75 0 0 0.75 0 0] CT
0.31 1 0.686 RC
1 LJ
0.667 LW
N
475.237 290.368 M
475.234 265.632 L
S
GR
GS
[0.75 0 0 0.75 0 0] CT
0.31 1 0.686 RC
1 LJ
0.667 LW
N
319.821 265.632 M
319.819 240.895 L
S
GR
GS
[0.75 0 0 0.75 0 0] CT
0.31 1 0.686 RC
1 LJ
0.667 LW
N
397.534 240.895 M
397.537 265.632 L
S
GR
GS
[0.75 0 0 0.75 0 0] CT
0.31 1 0.686 RC
1 LJ
0.667 LW
N
475.234 265.632 M
475.232 240.895 L
S
GR
GS
[0.75 0 0 0.75 0 0] CT
0.31 1 0.686 RC
1 LJ
0.667 LW
N
319.819 240.895 M
319.817 216.158 L
S
GR
GS
[0.75 0 0 0.75 0 0] CT
0.31 1 0.686 RC
1 LJ
0.667 LW
N
397.531 216.158 M
397.534 240.895 L
S
GR
GS
[0.75 0 0 0.75 0 0] CT
0.31 1 0.686 RC
1 LJ
0.667 LW
N
475.232 240.895 M
475.23 216.158 L
S
GR
GS
[0.75 0 0 0.75 0 0] CT
0.31 1 0.686 RC
1 LJ
0.667 LW
N
319.817 216.158 M
319.815 191.421 L
S
GR
GS
[0.75 0 0 0.75 0 0] CT
0.31 1 0.686 RC
1 LJ
0.667 LW
N
397.529 191.421 M
397.531 216.158 L
S
GR
GS
[0.75 0 0 0.75 0 0] CT
0.31 1 0.686 RC
1 LJ
0.667 LW
N
475.23 216.158 M
475.228 191.421 L
S
GR
GS
[0.75 0 0 0.75 0 0] CT
0.31 1 0.686 RC
1 LJ
0.667 LW
N
319.815 191.421 M
319.814 166.684 L
S
GR
GS
[0.75 0 0 0.75 0 0] CT
0.31 1 0.686 RC
1 LJ
0.667 LW
N
397.527 166.684 M
397.529 191.421 L
S
GR
GS
[0.75 0 0 0.75 0 0] CT
0.31 1 0.686 RC
1 LJ
0.667 LW
N
475.228 191.421 M
475.227 166.684 L
S
GR
GS
[0.75 0 0 0.75 0 0] CT
0.31 1 0.686 RC
1 LJ
0.667 LW
N
319.814 166.684 M
319.813 141.947 L
S
GR
GS
[0.75 0 0 0.75 0 0] CT
0.31 1 0.686 RC
1 LJ
0.667 LW
N
397.525 141.947 M
397.527 166.684 L
S
GR
GS
[0.75 0 0 0.75 0 0] CT
0.31 1 0.686 RC
1 LJ
0.667 LW
N
475.227 166.684 M
475.226 141.947 L
S
GR
GS
[0.75 0 0 0.75 0 0] CT
0.31 1 0.686 RC
1 LJ
0.667 LW
N
319.813 141.947 M
319.812 117.211 L
S
GR
GS
[0.75 0 0 0.75 0 0] CT
0.31 1 0.686 RC
1 LJ
0.667 LW
N
397.524 117.211 M
397.525 141.947 L
S
GR
GS
[0.75 0 0 0.75 0 0] CT
0.31 1 0.686 RC
1 LJ
0.667 LW
N
475.226 141.947 M
475.224 117.211 L
S
GR
GS
[0.75 0 0 0.75 0 0] CT
0.31 1 0.686 RC
1 LJ
0.667 LW
N
319.812 117.211 M
319.811 92.474 L
S
GR
GS
[0.75 0 0 0.75 0 0] CT
0.31 1 0.686 RC
1 LJ
0.667 LW
N
397.523 92.474 M
397.524 117.211 L
S
GR
GS
[0.75 0 0 0.75 0 0] CT
0.31 1 0.686 RC
1 LJ
0.667 LW
N
475.224 117.211 M
475.223 92.474 L
S
GR
GS
[0.75 0 0 0.75 0 0] CT
0.31 1 0.686 RC
1 LJ
0.667 LW
N
319.811 92.474 M
319.81 67.737 L
S
GR
GS
[0.75 0 0 0.75 0 0] CT
0.31 1 0.686 RC
1 LJ
0.667 LW
N
397.521 67.737 M
397.523 92.474 L
S
GR
GS
[0.75 0 0 0.75 0 0] CT
0.31 1 0.686 RC
1 LJ
0.667 LW
N
475.223 92.474 M
475.223 67.737 L
S
GR
GS
[0.75 0 0 0.75 0 0] CT
0.31 1 0.686 RC
1 LJ
0.667 LW
N
319.81 67.737 M
319.809 43 L
S
GR
GS
[0.75 0 0 0.75 0 0] CT
0.31 1 0.686 RC
1 LJ
0.667 LW
N
397.52 43 M
397.521 67.737 L
S
GR
GS
[0.75 0 0 0.75 0 0] CT
0.31 1 0.686 RC
1 LJ
0.667 LW
N
475.223 67.737 M
475.222 43 L
S
GR
GS
[0.75 0 0 0.75 0 0] CT
0.498 1 0.498 RC
1 LJ
0.667 LW
N
244.917 488.263 M
245.306 513 L
S
GR
GS
[0.75 0 0 0.75 0 0] CT
0.498 1 0.498 RC
1 LJ
0.667 LW
N
295.019 513 M
299.169 508.917 L
305.513 499.875 L
309.888 488.263 L
S
GR
GS
[0.75 0 0 0.75 0 0] CT
0.498 1 0.498 RC
1 LJ
0.667 LW
N
244.798 463.526 M
244.917 488.263 L
S
GR
GS
[0.75 0 0 0.75 0 0] CT
0.498 1 0.498 RC
1 LJ
0.667 LW
N
309.888 488.263 M
311.857 475.879 L
313.318 463.526 L
S
GR
GS
[0.75 0 0 0.75 0 0] CT
0.498 1 0.498 RC
1 LJ
0.667 LW
N
244.74 438.789 M
244.798 463.526 L
S
GR
GS
[0.75 0 0 0.75 0 0] CT
0.498 1 0.498 RC
1 LJ
0.667 LW
N
313.318 463.526 M
314.66 438.789 L
S
GR
GS
[0.75 0 0 0.75 0 0] CT
0.498 1 0.498 RC
1 LJ
0.667 LW
N
412.289 438.789 M
413.36 441.943 L
419.704 451.42 L
426.048 454.747 L
432.392 454.818 L
438.736 452.416 L
445.079 447.324 L
451.092 438.789 L
S
GR
GS
[0.75 0 0 0.75 0 0] CT
0.498 1 0.498 RC
1 LJ
0.667 LW
N
244.706 414.053 M
244.74 438.789 L
S
GR
GS
[0.75 0 0 0.75 0 0] CT
0.498 1 0.498 RC
1 LJ
0.667 LW
N
314.66 438.789 M
315.333 414.053 L
S
GR
GS
[0.75 0 0 0.75 0 0] CT
0.498 1 0.498 RC
1 LJ
0.667 LW
N
407.154 414.053 M
412.289 438.789 L
S
GR
GS
[0.75 0 0 0.75 0 0] CT
0.498 1 0.498 RC
1 LJ
0.667 LW
N
451.092 438.789 M
451.423 438.25 L
457.767 422.289 L
459.817 414.053 L
S
GR
GS
[0.75 0 0 0.75 0 0] CT
0.498 1 0.498 RC
1 LJ
0.667 LW
N
244.684 389.316 M
244.706 414.053 L
S
GR
GS
[0.75 0 0 0.75 0 0] CT
0.498 1 0.498 RC
1 LJ
0.667 LW
N
315.333 414.053 M
315.735 389.316 L
S
GR
GS
[0.75 0 0 0.75 0 0] CT
0.498 1 0.498 RC
1 LJ
0.667 LW
N
405.142 389.316 M
407.016 412.943 L
407.154 414.053 L
S
GR
GS
[0.75 0 0 0.75 0 0] CT
0.498 1 0.498 RC
1 LJ
0.667 LW
N
459.817 414.053 M
463.785 389.316 L
S
GR
GS
[0.75 0 0 0.75 0 0] CT
0.498 1 0.498 RC
1 LJ
0.667 LW
N
244.668 364.579 M
244.684 389.316 L
S
GR
GS
[0.75 0 0 0.75 0 0] CT
0.498 1 0.498 RC
1 LJ
0.667 LW
N
315.735 389.316 M
316.001 364.579 L
S
GR
GS
[0.75 0 0 0.75 0 0] CT
0.498 1 0.498 RC
1 LJ
0.667 LW
N
403.982 364.579 M
405.142 389.316 L
S
GR
GS
[0.75 0 0 0.75 0 0] CT
0.498 1 0.498 RC
1 LJ
0.667 LW
N
463.785 389.316 M
464.111 386.326 L
465.977 364.579 L
S
GR
GS
[0.75 0 0 0.75 0 0] CT
0.498 1 0.498 RC
1 LJ
0.667 LW
N
244.656 339.842 M
244.668 364.579 L
S
GR
GS
[0.75 0 0 0.75 0 0] CT
0.498 1 0.498 RC
1 LJ
0.667 LW
N
316.001 364.579 M
316.19 339.842 L
S
GR
GS
[0.75 0 0 0.75 0 0] CT
0.498 1 0.498 RC
1 LJ
0.667 LW
N
403.23 339.842 M
403.982 364.579 L
S
GR
GS
[0.75 0 0 0.75 0 0] CT
0.498 1 0.498 RC
1 LJ
0.667 LW
N
465.977 364.579 M
467.345 339.842 L
S
GR
GS
[0.75 0 0 0.75 0 0] CT
0.498 1 0.498 RC
1 LJ
0.667 LW
N
244.647 315.105 M
244.656 339.842 L
S
GR
GS
[0.75 0 0 0.75 0 0] CT
0.498 1 0.498 RC
1 LJ
0.667 LW
N
316.19 339.842 M
316.331 315.105 L
S
GR
GS
[0.75 0 0 0.75 0 0] CT
0.498 1 0.498 RC
1 LJ
0.667 LW
N
402.708 315.105 M
403.23 339.842 L
S
GR
GS
[0.75 0 0 0.75 0 0] CT
0.498 1 0.498 RC
1 LJ
0.667 LW
N
467.345 339.842 M
468.274 315.105 L
S
GR
GS
[0.75 0 0 0.75 0 0] CT
0.498 1 0.498 RC
1 LJ
0.667 LW
N
244.64 290.368 M
244.647 315.105 L
S
GR
GS
[0.75 0 0 0.75 0 0] CT
0.498 1 0.498 RC
1 LJ
0.667 LW
N
316.331 315.105 M
316.44 290.368 L
S
GR
GS
[0.75 0 0 0.75 0 0] CT
0.498 1 0.498 RC
1 LJ
0.667 LW
N
402.325 290.368 M
402.708 315.105 L
S
GR
GS
[0.75 0 0 0.75 0 0] CT
0.498 1 0.498 RC
1 LJ
0.667 LW
N
468.274 315.105 M
468.942 290.368 L
S
GR
GS
[0.75 0 0 0.75 0 0] CT
0.498 1 0.498 RC
1 LJ
0.667 LW
N
244.634 265.632 M
244.64 290.368 L
S
GR
GS
[0.75 0 0 0.75 0 0] CT
0.498 1 0.498 RC
1 LJ
0.667 LW
N
316.44 290.368 M
316.527 265.632 L
S
GR
GS
[0.75 0 0 0.75 0 0] CT
0.498 1 0.498 RC
1 LJ
0.667 LW
N
402.033 265.632 M
402.325 290.368 L
S
GR
GS
[0.75 0 0 0.75 0 0] CT
0.498 1 0.498 RC
1 LJ
0.667 LW
N
468.942 290.368 M
469.444 265.632 L
S
GR
GS
[0.75 0 0 0.75 0 0] CT
0.498 1 0.498 RC
1 LJ
0.667 LW
N
244.629 240.895 M
244.634 265.632 L
S
GR
GS
[0.75 0 0 0.75 0 0] CT
0.498 1 0.498 RC
1 LJ
0.667 LW
N
316.527 265.632 M
316.598 240.895 L
S
GR
GS
[0.75 0 0 0.75 0 0] CT
0.498 1 0.498 RC
1 LJ
0.667 LW
N
401.804 240.895 M
402.033 265.632 L
S
GR
GS
[0.75 0 0 0.75 0 0] CT
0.498 1 0.498 RC
1 LJ
0.667 LW
N
469.444 265.632 M
469.834 240.895 L
S
GR
GS
[0.75 0 0 0.75 0 0] CT
0.498 1 0.498 RC
1 LJ
0.667 LW
N
244.625 216.158 M
244.629 240.895 L
S
GR
GS
[0.75 0 0 0.75 0 0] CT
0.498 1 0.498 RC
1 LJ
0.667 LW
N
316.598 240.895 M
316.657 216.158 L
S
GR
GS
[0.75 0 0 0.75 0 0] CT
0.498 1 0.498 RC
1 LJ
0.667 LW
N
401.62 216.158 M
401.804 240.895 L
S
GR
GS
[0.75 0 0 0.75 0 0] CT
0.498 1 0.498 RC
1 LJ
0.667 LW
N
469.834 240.895 M
470.145 216.158 L
S
GR
GS
[0.75 0 0 0.75 0 0] CT
0.498 1 0.498 RC
1 LJ
0.667 LW
N
244.621 191.421 M
244.625 216.158 L
S
GR
GS
[0.75 0 0 0.75 0 0] CT
0.498 1 0.498 RC
1 LJ
0.667 LW
N
316.657 216.158 M
316.706 191.421 L
S
GR
GS
[0.75 0 0 0.75 0 0] CT
0.498 1 0.498 RC
1 LJ
0.667 LW
N
401.469 191.421 M
401.62 216.158 L
S
GR
GS
[0.75 0 0 0.75 0 0] CT
0.498 1 0.498 RC
1 LJ
0.667 LW
N
470.145 216.158 M
470.399 191.421 L
S
GR
GS
[0.75 0 0 0.75 0 0] CT
0.498 1 0.498 RC
1 LJ
0.667 LW
N
244.618 166.684 M
244.621 191.421 L
S
GR
GS
[0.75 0 0 0.75 0 0] CT
0.498 1 0.498 RC
1 LJ
0.667 LW
N
316.706 191.421 M
316.749 166.684 L
S
GR
GS
[0.75 0 0 0.75 0 0] CT
0.498 1 0.498 RC
1 LJ
0.667 LW
N
401.342 166.684 M
401.469 191.421 L
S
GR
GS
[0.75 0 0 0.75 0 0] CT
0.498 1 0.498 RC
1 LJ
0.667 LW
N
470.399 191.421 M
470.455 185.04 L
470.607 166.684 L
S
GR
GS
[0.75 0 0 0.75 0 0] CT
0.498 1 0.498 RC
1 LJ
0.667 LW
N
244.615 141.947 M
244.618 166.684 L
S
GR
GS
[0.75 0 0 0.75 0 0] CT
0.498 1 0.498 RC
1 LJ
0.667 LW
N
316.749 166.684 M
316.786 141.947 L
S
GR
GS
[0.75 0 0 0.75 0 0] CT
0.498 1 0.498 RC
1 LJ
0.667 LW
N
401.235 141.947 M
401.342 166.684 L
S
GR
GS
[0.75 0 0 0.75 0 0] CT
0.498 1 0.498 RC
1 LJ
0.667 LW
N
470.607 166.684 M
470.782 141.947 L
S
GR
GS
[0.75 0 0 0.75 0 0] CT
0.498 1 0.498 RC
1 LJ
0.667 LW
N
244.613 117.211 M
244.615 141.947 L
S
GR
GS
[0.75 0 0 0.75 0 0] CT
0.498 1 0.498 RC
1 LJ
0.667 LW
N
316.786 141.947 M
316.818 117.211 L
S
GR
GS
[0.75 0 0 0.75 0 0] CT
0.498 1 0.498 RC
1 LJ
0.667 LW
N
401.143 117.211 M
401.235 141.947 L
S
GR
GS
[0.75 0 0 0.75 0 0] CT
0.498 1 0.498 RC
1 LJ
0.667 LW
N
470.782 141.947 M
470.93 117.211 L
S
GR
GS
[0.75 0 0 0.75 0 0] CT
0.498 1 0.498 RC
1 LJ
0.667 LW
N
244.611 92.474 M
244.613 117.211 L
S
GR
GS
[0.75 0 0 0.75 0 0] CT
0.498 1 0.498 RC
1 LJ
0.667 LW
N
316.818 117.211 M
316.846 92.474 L
S
GR
GS
[0.75 0 0 0.75 0 0] CT
0.498 1 0.498 RC
1 LJ
0.667 LW
N
401.063 92.474 M
401.143 117.211 L
S
GR
GS
[0.75 0 0 0.75 0 0] CT
0.498 1 0.498 RC
1 LJ
0.667 LW
N
470.93 117.211 M
471.057 92.474 L
S
GR
GS
[0.75 0 0 0.75 0 0] CT
0.498 1 0.498 RC
1 LJ
0.667 LW
N
244.609 67.737 M
244.611 92.474 L
S
GR
GS
[0.75 0 0 0.75 0 0] CT
0.498 1 0.498 RC
1 LJ
0.667 LW
N
316.846 92.474 M
316.871 67.737 L
S
GR
GS
[0.75 0 0 0.75 0 0] CT
0.498 1 0.498 RC
1 LJ
0.667 LW
N
400.993 67.737 M
401.063 92.474 L
S
GR
GS
[0.75 0 0 0.75 0 0] CT
0.498 1 0.498 RC
1 LJ
0.667 LW
N
471.057 92.474 M
471.168 67.737 L
S
GR
GS
[0.75 0 0 0.75 0 0] CT
0.498 1 0.498 RC
1 LJ
0.667 LW
N
244.607 43 M
244.609 67.737 L
S
GR
GS
[0.75 0 0 0.75 0 0] CT
0.498 1 0.498 RC
1 LJ
0.667 LW
N
316.871 67.737 M
316.894 43 L
S
GR
GS
[0.75 0 0 0.75 0 0] CT
0.498 1 0.498 RC
1 LJ
0.667 LW
N
400.931 43 M
400.993 67.737 L
S
GR
GS
[0.75 0 0 0.75 0 0] CT
0.498 1 0.498 RC
1 LJ
0.667 LW
N
471.168 67.737 M
471.265 43 L
S
GR
GS
[0.75 0 0 0.75 0 0] CT
0.812 1 0.184 RC
1 LJ
0.667 LW
N
247.76 488.263 M
248.418 509.569 L
248.66 513 L
S
GR
GS
[0.75 0 0 0.75 0 0] CT
0.812 1 0.184 RC
1 LJ
0.667 LW
N
281.891 513 M
286.481 508.999 L
292.825 502.56 L
299.169 493.44 L
301.753 488.263 L
S
GR
GS
[0.75 0 0 0.75 0 0] CT
0.812 1 0.184 RC
1 LJ
0.667 LW
N
247.522 463.526 M
247.76 488.263 L
S
GR
GS
[0.75 0 0 0.75 0 0] CT
0.812 1 0.184 RC
1 LJ
0.667 LW
N
301.753 488.263 M
305.513 473.347 L
307.378 463.526 L
S
GR
GS
[0.75 0 0 0.75 0 0] CT
0.812 1 0.184 RC
1 LJ
0.667 LW
N
247.407 438.789 M
247.522 463.526 L
S
GR
GS
[0.75 0 0 0.75 0 0] CT
0.812 1 0.184 RC
1 LJ
0.667 LW
N
307.378 463.526 M
309.721 438.789 L
S
GR
GS
[0.75 0 0 0.75 0 0] CT
0.812 1 0.184 RC
1 LJ
0.667 LW
N
247.339 414.053 M
247.407 438.789 L
S
GR
GS
[0.75 0 0 0.75 0 0] CT
0.812 1 0.184 RC
1 LJ
0.667 LW
N
309.721 438.789 M
310.963 414.053 L
S
GR
GS
[0.75 0 0 0.75 0 0] CT
0.812 1 0.184 RC
1 LJ
0.667 LW
N
424.018 414.053 M
426.048 416.601 L
432.392 418.403 L
438.736 415.159 L
439.628 414.053 L
S
GR
GS
[0.75 0 0 0.75 0 0] CT
0.812 1 0.184 RC
1 LJ
0.667 LW
N
247.294 389.316 M
247.339 414.053 L
S
GR
GS
[0.75 0 0 0.75 0 0] CT
0.812 1 0.184 RC
1 LJ
0.667 LW
N
310.963 414.053 M
311.734 389.316 L
S
GR
GS
[0.75 0 0 0.75 0 0] CT
0.812 1 0.184 RC
1 LJ
0.667 LW
N
414.876 389.316 M
419.704 407.142 L
424.018 414.053 L
S
GR
GS
[0.75 0 0 0.75 0 0] CT
0.812 1 0.184 RC
1 LJ
0.667 LW
N
439.628 414.053 M
445.079 406.183 L
451.423 389.385 L
451.441 389.316 L
S
GR
GS
[0.75 0 0 0.75 0 0] CT
0.812 1 0.184 RC
1 LJ
0.667 LW
N
247.263 364.579 M
247.294 389.316 L
S
GR
GS
[0.75 0 0 0.75 0 0] CT
0.812 1 0.184 RC
1 LJ
0.667 LW
N
311.734 389.316 M
311.857 383.728 L
312.254 364.579 L
S
GR
GS
[0.75 0 0 0.75 0 0] CT
0.812 1 0.184 RC
1 LJ
0.667 LW
N
411.528 364.579 M
413.36 380.987 L
414.876 389.316 L
S
GR
GS
[0.75 0 0 0.75 0 0] CT
0.812 1 0.184 RC
1 LJ
0.667 LW
N
451.441 389.316 M
456.301 364.579 L
S
GR
GS
[0.75 0 0 0.75 0 0] CT
0.812 1 0.184 RC
1 LJ
0.667 LW
N
247.239 339.842 M
247.263 364.579 L
S
GR
GS
[0.75 0 0 0.75 0 0] CT
0.812 1 0.184 RC
1 LJ
0.667 LW
N
312.254 364.579 M
312.623 339.842 L
S
GR
GS
[0.75 0 0 0.75 0 0] CT
0.812 1 0.184 RC
1 LJ
0.667 LW
N
409.659 339.842 M
411.528 364.579 L
S
GR
GS
[0.75 0 0 0.75 0 0] CT
0.812 1 0.184 RC
1 LJ
0.667 LW
N
456.301 364.579 M
457.767 353.977 L
459.253 339.842 L
S
GR
GS
[0.75 0 0 0.75 0 0] CT
0.812 1 0.184 RC
1 LJ
0.667 LW
N
247.22 315.105 M
247.239 339.842 L
S
GR
GS
[0.75 0 0 0.75 0 0] CT
0.812 1 0.184 RC
1 LJ
0.667 LW
N
312.623 339.842 M
312.898 315.105 L
S
GR
GS
[0.75 0 0 0.75 0 0] CT
0.812 1 0.184 RC
1 LJ
0.667 LW
N
408.379 315.105 M
409.659 339.842 L
S
GR
GS
[0.75 0 0 0.75 0 0] CT
0.812 1 0.184 RC
1 LJ
0.667 LW
N
459.253 339.842 M
461.163 315.105 L
S
GR
GS
[0.75 0 0 0.75 0 0] CT
0.812 1 0.184 RC
1 LJ
0.667 LW
N
247.206 290.368 M
247.22 315.105 L
S
GR
GS
[0.75 0 0 0.75 0 0] CT
0.812 1 0.184 RC
1 LJ
0.667 LW
N
312.898 315.105 M
313.111 290.368 L
S
GR
GS
[0.75 0 0 0.75 0 0] CT
0.812 1 0.184 RC
1 LJ
0.667 LW
N
407.453 290.368 M
408.379 315.105 L
S
GR
GS
[0.75 0 0 0.75 0 0] CT
0.812 1 0.184 RC
1 LJ
0.667 LW
N
461.163 315.105 M
462.551 290.368 L
S
GR
GS
[0.75 0 0 0.75 0 0] CT
0.812 1 0.184 RC
1 LJ
0.667 LW
N
247.194 265.632 M
247.206 290.368 L
S
GR
GS
[0.75 0 0 0.75 0 0] CT
0.812 1 0.184 RC
1 LJ
0.667 LW
N
313.111 290.368 M
313.28 265.632 L
S
GR
GS
[0.75 0 0 0.75 0 0] CT
0.812 1 0.184 RC
1 LJ
0.667 LW
N
406.793 265.632 M
407.016 275.256 L
407.453 290.368 L
S
GR
GS
[0.75 0 0 0.75 0 0] CT
0.812 1 0.184 RC
1 LJ
0.667 LW
N
462.551 290.368 M
463.603 265.632 L
S
GR
GS
[0.75 0 0 0.75 0 0] CT
0.812 1 0.184 RC
1 LJ
0.667 LW
N
247.184 240.895 M
247.194 265.632 L
S
GR
GS
[0.75 0 0 0.75 0 0] CT
0.812 1 0.184 RC
1 LJ
0.667 LW
N
313.28 265.632 M
313.418 240.895 L
S
GR
GS
[0.75 0 0 0.75 0 0] CT
0.812 1 0.184 RC
1 LJ
0.667 LW
N
406.325 240.895 M
406.793 265.632 L
S
GR
GS
[0.75 0 0 0.75 0 0] CT
0.812 1 0.184 RC
1 LJ
0.667 LW
N
463.603 265.632 M
464.111 250.721 L
464.402 240.895 L
S
GR
GS
[0.75 0 0 0.75 0 0] CT
0.812 1 0.184 RC
1 LJ
0.667 LW
N
247.176 216.158 M
247.184 240.895 L
S
GR
GS
[0.75 0 0 0.75 0 0] CT
0.812 1 0.184 RC
1 LJ
0.667 LW
N
313.418 240.895 M
313.533 216.158 L
S
GR
GS
[0.75 0 0 0.75 0 0] CT
0.812 1 0.184 RC
1 LJ
0.667 LW
N
405.947 216.158 M
406.325 240.895 L
S
GR
GS
[0.75 0 0 0.75 0 0] CT
0.812 1 0.184 RC
1 LJ
0.667 LW
N
464.402 240.895 M
465.011 216.158 L
S
GR
GS
[0.75 0 0 0.75 0 0] CT
0.812 1 0.184 RC
1 LJ
0.667 LW
N
247.168 191.421 M
247.176 216.158 L
S
GR
GS
[0.75 0 0 0.75 0 0] CT
0.812 1 0.184 RC
1 LJ
0.667 LW
N
313.533 216.158 M
313.629 191.421 L
S
GR
GS
[0.75 0 0 0.75 0 0] CT
0.812 1 0.184 RC
1 LJ
0.667 LW
N
405.637 191.421 M
405.947 216.158 L
S
GR
GS
[0.75 0 0 0.75 0 0] CT
0.812 1 0.184 RC
1 LJ
0.667 LW
N
465.011 216.158 M
465.507 191.421 L
S
GR
GS
[0.75 0 0 0.75 0 0] CT
0.812 1 0.184 RC
1 LJ
0.667 LW
N
247.162 166.684 M
247.168 191.421 L
S
GR
GS
[0.75 0 0 0.75 0 0] CT
0.812 1 0.184 RC
1 LJ
0.667 LW
N
313.629 191.421 M
313.712 166.684 L
S
GR
GS
[0.75 0 0 0.75 0 0] CT
0.812 1 0.184 RC
1 LJ
0.667 LW
N
405.378 166.684 M
405.637 191.421 L
S
GR
GS
[0.75 0 0 0.75 0 0] CT
0.812 1 0.184 RC
1 LJ
0.667 LW
N
465.507 191.421 M
465.918 166.684 L
S
GR
GS
[0.75 0 0 0.75 0 0] CT
0.812 1 0.184 RC
1 LJ
0.667 LW
N
247.157 141.947 M
247.162 166.684 L
S
GR
GS
[0.75 0 0 0.75 0 0] CT
0.812 1 0.184 RC
1 LJ
0.667 LW
N
313.712 166.684 M
313.784 141.947 L
S
GR
GS
[0.75 0 0 0.75 0 0] CT
0.812 1 0.184 RC
1 LJ
0.667 LW
N
405.158 141.947 M
405.378 166.684 L
S
GR
GS
[0.75 0 0 0.75 0 0] CT
0.812 1 0.184 RC
1 LJ
0.667 LW
N
465.918 166.684 M
466.264 141.947 L
S
GR
GS
[0.75 0 0 0.75 0 0] CT
0.812 1 0.184 RC
1 LJ
0.667 LW
N
247.152 117.211 M
247.157 141.947 L
S
GR
GS
[0.75 0 0 0.75 0 0] CT
0.812 1 0.184 RC
1 LJ
0.667 LW
N
313.784 141.947 M
313.846 117.211 L
S
GR
GS
[0.75 0 0 0.75 0 0] CT
0.812 1 0.184 RC
1 LJ
0.667 LW
N
404.969 117.211 M
405.158 141.947 L
S
GR
GS
[0.75 0 0 0.75 0 0] CT
0.812 1 0.184 RC
1 LJ
0.667 LW
N
466.264 141.947 M
466.559 117.211 L
S
GR
GS
[0.75 0 0 0.75 0 0] CT
0.812 1 0.184 RC
1 LJ
0.667 LW
N
247.148 92.474 M
247.152 117.211 L
S
GR
GS
[0.75 0 0 0.75 0 0] CT
0.812 1 0.184 RC
1 LJ
0.667 LW
N
313.846 117.211 M
313.901 92.474 L
S
GR
GS
[0.75 0 0 0.75 0 0] CT
0.812 1 0.184 RC
1 LJ
0.667 LW
N
404.805 92.474 M
404.969 117.211 L
S
GR
GS
[0.75 0 0 0.75 0 0] CT
0.812 1 0.184 RC
1 LJ
0.667 LW
N
466.559 117.211 M
466.814 92.474 L
S
GR
GS
[0.75 0 0 0.75 0 0] CT
0.812 1 0.184 RC
1 LJ
0.667 LW
N
247.144 67.737 M
247.148 92.474 L
S
GR
GS
[0.75 0 0 0.75 0 0] CT
0.812 1 0.184 RC
1 LJ
0.667 LW
N
313.901 92.474 M
313.95 67.737 L
S
GR
GS
[0.75 0 0 0.75 0 0] CT
0.812 1 0.184 RC
1 LJ
0.667 LW
N
404.661 67.737 M
404.805 92.474 L
S
GR
GS
[0.75 0 0 0.75 0 0] CT
0.812 1 0.184 RC
1 LJ
0.667 LW
N
466.814 92.474 M
467.037 67.737 L
S
GR
GS
[0.75 0 0 0.75 0 0] CT
0.812 1 0.184 RC
1 LJ
0.667 LW
N
247.14 43 M
247.144 67.737 L
S
GR
GS
[0.75 0 0 0.75 0 0] CT
0.812 1 0.184 RC
1 LJ
0.667 LW
N
313.95 67.737 M
313.993 43 L
S
GR
GS
[0.75 0 0 0.75 0 0] CT
0.812 1 0.184 RC
1 LJ
0.667 LW
N
404.534 43 M
404.661 67.737 L
S
GR
GS
[0.75 0 0 0.75 0 0] CT
0.812 1 0.184 RC
1 LJ
0.667 LW
N
467.037 67.737 M
467.232 43 L
S
GR
GS
[0.75 0 0 0.75 0 0] CT
1 1 0 RC
1 LJ
0.667 LW
N
251.532 488.263 M
254.762 511.219 L
256.138 513 L
S
GR
GS
[0.75 0 0 0.75 0 0] CT
1 1 0 RC
1 LJ
0.667 LW
N
268.475 513 M
273.793 509.474 L
280.137 504.494 L
286.481 498.491 L
292.825 490.428 L
294.167 488.263 L
S
GR
GS
[0.75 0 0 0.75 0 0] CT
1 1 0 RC
1 LJ
0.667 LW
N
250.774 463.526 M
251.532 488.263 L
S
GR
GS
[0.75 0 0 0.75 0 0] CT
1 1 0 RC
1 LJ
0.667 LW
N
294.167 488.263 M
299.169 473.232 L
301.627 463.526 L
S
GR
GS
[0.75 0 0 0.75 0 0] CT
1 1 0 RC
1 LJ
0.667 LW
N
250.451 438.789 M
250.774 463.526 L
S
GR
GS
[0.75 0 0 0.75 0 0] CT
1 1 0 RC
1 LJ
0.667 LW
N
301.627 463.526 M
304.887 438.789 L
S
GR
GS
[0.75 0 0 0.75 0 0] CT
1 1 0 RC
1 LJ
0.667 LW
N
250.272 414.053 M
250.451 438.789 L
S
GR
GS
[0.75 0 0 0.75 0 0] CT
1 1 0 RC
1 LJ
0.667 LW
N
304.887 438.789 M
305.513 430.815 L
306.66 414.053 L
S
GR
GS
[0.75 0 0 0.75 0 0] CT
1 1 0 RC
1 LJ
0.667 LW
N
250.159 389.316 M
250.272 414.053 L
S
GR
GS
[0.75 0 0 0.75 0 0] CT
1 1 0 RC
1 LJ
0.667 LW
N
306.66 414.053 M
307.741 389.316 L
S
GR
GS
[0.75 0 0 0.75 0 0] CT
1 1 0 RC
1 LJ
0.667 LW
N
250.081 364.579 M
250.159 389.316 L
S
GR
GS
[0.75 0 0 0.75 0 0] CT
1 1 0 RC
1 LJ
0.667 LW
N
307.741 389.316 M
308.473 364.579 L
S
GR
GS
[0.75 0 0 0.75 0 0] CT
1 1 0 RC
1 LJ
0.667 LW
N
423.203 364.579 M
426.048 372.308 L
432.392 377.565 L
438.736 373.418 L
443.027 364.579 L
S
GR
GS
[0.75 0 0 0.75 0 0] CT
1 1 0 RC
1 LJ
0.667 LW
N
250.024 339.842 M
250.081 364.579 L
S
GR
GS
[0.75 0 0 0.75 0 0] CT
1 1 0 RC
1 LJ
0.667 LW
N
308.473 364.579 M
309.001 339.842 L
S
GR
GS
[0.75 0 0 0.75 0 0] CT
1 1 0 RC
1 LJ
0.667 LW
N
417.938 339.842 M
419.704 351.862 L
423.203 364.579 L
S
GR
GS
[0.75 0 0 0.75 0 0] CT
1 1 0 RC
1 LJ
0.667 LW
N
443.027 364.579 M
445.079 359.498 L
449.552 339.842 L
S
GR
GS
[0.75 0 0 0.75 0 0] CT
1 1 0 RC
1 LJ
0.667 LW
N
249.981 315.105 M
250.024 339.842 L
S
GR
GS
[0.75 0 0 0.75 0 0] CT
1 1 0 RC
1 LJ
0.667 LW
N
309.001 339.842 M
309.401 315.105 L
S
GR
GS
[0.75 0 0 0.75 0 0] CT
1 1 0 RC
1 LJ
0.667 LW
N
415.298 315.105 M
417.938 339.842 L
S
GR
GS
[0.75 0 0 0.75 0 0] CT
1 1 0 RC
1 LJ
0.667 LW
N
449.552 339.842 M
451.423 329.225 L
453.155 315.105 L
S
GR
GS
[0.75 0 0 0.75 0 0] CT
1 1 0 RC
1 LJ
0.667 LW
N
249.947 290.368 M
249.981 315.105 L
S
GR
GS
[0.75 0 0 0.75 0 0] CT
1 1 0 RC
1 LJ
0.667 LW
N
309.401 315.105 M
309.713 290.368 L
S
GR
GS
[0.75 0 0 0.75 0 0] CT
1 1 0 RC
1 LJ
0.667 LW
N
413.416 290.368 M
415.298 315.105 L
S
GR
GS
[0.75 0 0 0.75 0 0] CT
1 1 0 RC
1 LJ
0.667 LW
N
453.155 315.105 M
455.494 290.368 L
S
GR
GS
[0.75 0 0 0.75 0 0] CT
1 1 0 RC
1 LJ
0.667 LW
N
249.919 265.632 M
249.947 290.368 L
S
GR
GS
[0.75 0 0 0.75 0 0] CT
1 1 0 RC
1 LJ
0.667 LW
N
309.713 290.368 M
309.964 265.632 L
S
GR
GS
[0.75 0 0 0.75 0 0] CT
1 1 0 RC
1 LJ
0.667 LW
N
412.319 265.632 M
413.36 289.438 L
413.416 290.368 L
S
GR
GS
[0.75 0 0 0.75 0 0] CT
1 1 0 RC
1 LJ
0.667 LW
N
455.494 290.368 M
457.284 265.632 L
S
GR
GS
[0.75 0 0 0.75 0 0] CT
1 1 0 RC
1 LJ
0.667 LW
N
249.896 240.895 M
249.919 265.632 L
S
GR
GS
[0.75 0 0 0.75 0 0] CT
1 1 0 RC
1 LJ
0.667 LW
N
309.964 265.632 M
310.17 240.895 L
S
GR
GS
[0.75 0 0 0.75 0 0] CT
1 1 0 RC
1 LJ
0.667 LW
N
411.472 240.895 M
412.319 265.632 L
S
GR
GS
[0.75 0 0 0.75 0 0] CT
1 1 0 RC
1 LJ
0.667 LW
N
457.284 265.632 M
457.767 257.491 L
458.556 240.895 L
S
GR
GS
[0.75 0 0 0.75 0 0] CT
1 1 0 RC
1 LJ
0.667 LW
N
249.877 216.158 M
249.896 240.895 L
S
GR
GS
[0.75 0 0 0.75 0 0] CT
1 1 0 RC
1 LJ
0.667 LW
N
310.17 240.895 M
310.343 216.158 L
S
GR
GS
[0.75 0 0 0.75 0 0] CT
1 1 0 RC
1 LJ
0.667 LW
N
410.795 216.158 M
411.472 240.895 L
S
GR
GS
[0.75 0 0 0.75 0 0] CT
1 1 0 RC
1 LJ
0.667 LW
N
458.556 240.895 M
459.519 216.158 L
S
GR
GS
[0.75 0 0 0.75 0 0] CT
1 1 0 RC
1 LJ
0.667 LW
N
249.861 191.421 M
249.877 216.158 L
S
GR
GS
[0.75 0 0 0.75 0 0] CT
1 1 0 RC
1 LJ
0.667 LW
N
310.343 216.158 M
310.489 191.421 L
S
GR
GS
[0.75 0 0 0.75 0 0] CT
1 1 0 RC
1 LJ
0.667 LW
N
410.241 191.421 M
410.795 216.158 L
S
GR
GS
[0.75 0 0 0.75 0 0] CT
1 1 0 RC
1 LJ
0.667 LW
N
459.519 216.158 M
460.307 191.421 L
S
GR
GS
[0.75 0 0 0.75 0 0] CT
1 1 0 RC
1 LJ
0.667 LW
N
249.847 166.684 M
249.861 191.421 L
S
GR
GS
[0.75 0 0 0.75 0 0] CT
1 1 0 RC
1 LJ
0.667 LW
N
310.489 191.421 M
310.615 166.684 L
S
GR
GS
[0.75 0 0 0.75 0 0] CT
1 1 0 RC
1 LJ
0.667 LW
N
409.779 166.684 M
410.241 191.421 L
S
GR
GS
[0.75 0 0 0.75 0 0] CT
1 1 0 RC
1 LJ
0.667 LW
N
460.307 191.421 M
460.964 166.684 L
S
GR
GS
[0.75 0 0 0.75 0 0] CT
1 1 0 RC
1 LJ
0.667 LW
N
249.834 141.947 M
249.847 166.684 L
S
GR
GS
[0.75 0 0 0.75 0 0] CT
1 1 0 RC
1 LJ
0.667 LW
N
310.615 166.684 M
310.724 141.947 L
S
GR
GS
[0.75 0 0 0.75 0 0] CT
1 1 0 RC
1 LJ
0.667 LW
N
409.39 141.947 M
409.779 166.684 L
S
GR
GS
[0.75 0 0 0.75 0 0] CT
1 1 0 RC
1 LJ
0.667 LW
N
460.964 166.684 M
461.52 141.947 L
S
GR
GS
[0.75 0 0 0.75 0 0] CT
1 1 0 RC
1 LJ
0.667 LW
N
249.824 117.211 M
249.834 141.947 L
S
GR
GS
[0.75 0 0 0.75 0 0] CT
1 1 0 RC
1 LJ
0.667 LW
N
310.724 141.947 M
310.819 117.211 L
S
GR
GS
[0.75 0 0 0.75 0 0] CT
1 1 0 RC
1 LJ
0.667 LW
N
409.057 117.211 M
409.39 141.947 L
S
GR
GS
[0.75 0 0 0.75 0 0] CT
1 1 0 RC
1 LJ
0.667 LW
N
461.52 141.947 M
461.995 117.211 L
S
GR
GS
[0.75 0 0 0.75 0 0] CT
1 1 0 RC
1 LJ
0.667 LW
N
249.814 92.474 M
249.824 117.211 L
S
GR
GS
[0.75 0 0 0.75 0 0] CT
1 1 0 RC
1 LJ
0.667 LW
N
310.819 117.211 M
310.904 92.474 L
S
GR
GS
[0.75 0 0 0.75 0 0] CT
1 1 0 RC
1 LJ
0.667 LW
N
408.769 92.474 M
409.057 117.211 L
S
GR
GS
[0.75 0 0 0.75 0 0] CT
1 1 0 RC
1 LJ
0.667 LW
N
461.995 117.211 M
462.407 92.474 L
S
GR
GS
[0.75 0 0 0.75 0 0] CT
1 1 0 RC
1 LJ
0.667 LW
N
249.806 67.737 M
249.814 92.474 L
S
GR
GS
[0.75 0 0 0.75 0 0] CT
1 1 0 RC
1 LJ
0.667 LW
N
310.904 92.474 M
310.979 67.737 L
S
GR
GS
[0.75 0 0 0.75 0 0] CT
1 1 0 RC
1 LJ
0.667 LW
N
408.518 67.737 M
408.769 92.474 L
S
GR
GS
[0.75 0 0 0.75 0 0] CT
1 1 0 RC
1 LJ
0.667 LW
N
462.407 92.474 M
462.767 67.737 L
S
GR
GS
[0.75 0 0 0.75 0 0] CT
1 1 0 RC
1 LJ
0.667 LW
N
249.798 43 M
249.806 67.737 L
S
GR
GS
[0.75 0 0 0.75 0 0] CT
1 1 0 RC
1 LJ
0.667 LW
N
310.979 67.737 M
311.047 43 L
S
GR
GS
[0.75 0 0 0.75 0 0] CT
1 1 0 RC
1 LJ
0.667 LW
N
408.296 43 M
408.518 67.737 L
S
GR
GS
[0.75 0 0 0.75 0 0] CT
1 1 0 RC
1 LJ
0.667 LW
N
462.767 67.737 M
463.084 43 L
S
GR
GS
[0.75 0 0 0.75 0 0] CT
1 0.749 0 RC
1 LJ
0.667 LW
N
256.134 488.263 M
261.106 500.291 L
267.45 501.75 L
273.793 499.123 L
280.137 494.54 L
286.224 488.263 L
S
GR
GS
[0.75 0 0 0.75 0 0] CT
1 0.749 0 RC
1 LJ
0.667 LW
N
254.284 463.526 M
254.762 473.453 L
256.134 488.263 L
S
GR
GS
[0.75 0 0 0.75 0 0] CT
1 0.749 0 RC
1 LJ
0.667 LW
N
286.224 488.263 M
286.481 487.786 L
292.825 472.58 L
295.706 463.526 L
S
GR
GS
[0.75 0 0 0.75 0 0] CT
1 0.749 0 RC
1 LJ
0.667 LW
N
253.725 438.789 M
254.284 463.526 L
S
GR
GS
[0.75 0 0 0.75 0 0] CT
1 0.749 0 RC
1 LJ
0.667 LW
N
295.706 463.526 M
299.169 444.134 L
299.946 438.789 L
S
GR
GS
[0.75 0 0 0.75 0 0] CT
1 0.749 0 RC
1 LJ
0.667 LW
N
253.415 414.053 M
253.725 438.789 L
S
GR
GS
[0.75 0 0 0.75 0 0] CT
1 0.749 0 RC
1 LJ
0.667 LW
N
299.946 438.789 M
302.187 414.053 L
S
GR
GS
[0.75 0 0 0.75 0 0] CT
1 0.749 0 RC
1 LJ
0.667 LW
N
253.217 389.316 M
253.415 414.053 L
S
GR
GS
[0.75 0 0 0.75 0 0] CT
1 0.749 0 RC
1 LJ
0.667 LW
N
302.187 414.053 M
303.619 389.316 L
S
GR
GS
[0.75 0 0 0.75 0 0] CT
1 0.749 0 RC
1 LJ
0.667 LW
N
253.081 364.579 M
253.217 389.316 L
S
GR
GS
[0.75 0 0 0.75 0 0] CT
1 0.749 0 RC
1 LJ
0.667 LW
N
303.619 389.316 M
304.616 364.579 L
S
GR
GS
[0.75 0 0 0.75 0 0] CT
1 0.749 0 RC
1 LJ
0.667 LW
N
252.981 339.842 M
253.081 364.579 L
S
GR
GS
[0.75 0 0 0.75 0 0] CT
1 0.749 0 RC
1 LJ
0.667 LW
N
304.616 364.579 M
305.35 339.842 L
S
GR
GS
[0.75 0 0 0.75 0 0] CT
1 0.749 0 RC
1 LJ
0.667 LW
N
252.904 315.105 M
252.981 339.842 L
S
GR
GS
[0.75 0 0 0.75 0 0] CT
1 0.749 0 RC
1 LJ
0.667 LW
N
305.35 339.842 M
305.513 332.801 L
305.875 315.105 L
S
GR
GS
[0.75 0 0 0.75 0 0] CT
1 0.749 0 RC
1 LJ
0.667 LW
N
426.024 315.105 M
426.048 315.221 L
432.392 326.669 L
438.736 321.71 L
440.852 315.105 L
S
GR
GS
[0.75 0 0 0.75 0 0] CT
1 0.749 0 RC
1 LJ
0.667 LW
N
252.844 290.368 M
252.904 315.105 L
S
GR
GS
[0.75 0 0 0.75 0 0] CT
1 0.749 0 RC
1 LJ
0.667 LW
N
305.875 315.105 M
306.274 290.368 L
S
GR
GS
[0.75 0 0 0.75 0 0] CT
1 0.749 0 RC
1 LJ
0.667 LW
N
421.928 290.368 M
426.024 315.105 L
S
GR
GS
[0.75 0 0 0.75 0 0] CT
1 0.749 0 RC
1 LJ
0.667 LW
N
440.852 315.105 M
445.079 299.341 L
446.433 290.368 L
S
GR
GS
[0.75 0 0 0.75 0 0] CT
1 0.749 0 RC
1 LJ
0.667 LW
N
252.795 265.632 M
252.844 290.368 L
S
GR
GS
[0.75 0 0 0.75 0 0] CT
1 0.749 0 RC
1 LJ
0.667 LW
N
306.274 290.368 M
306.594 265.632 L
S
GR
GS
[0.75 0 0 0.75 0 0] CT
1 0.749 0 RC
1 LJ
0.667 LW
N
419.2 265.632 M
419.704 272.375 L
421.928 290.368 L
S
GR
GS
[0.75 0 0 0.75 0 0] CT
1 0.749 0 RC
1 LJ
0.667 LW
N
446.433 290.368 M
449.472 265.632 L
S
GR
GS
[0.75 0 0 0.75 0 0] CT
1 0.749 0 RC
1 LJ
0.667 LW
N
252.755 240.895 M
252.795 265.632 L
S
GR
GS
[0.75 0 0 0.75 0 0] CT
1 0.749 0 RC
1 LJ
0.667 LW
N
306.594 265.632 M
306.857 240.895 L
S
GR
GS
[0.75 0 0 0.75 0 0] CT
1 0.749 0 RC
1 LJ
0.667 LW
N
417.692 240.895 M
419.2 265.632 L
S
GR
GS
[0.75 0 0 0.75 0 0] CT
1 0.749 0 RC
1 LJ
0.667 LW
N
449.472 265.632 M
451.423 245.959 L
451.78 240.895 L
S
GR
GS
[0.75 0 0 0.75 0 0] CT
1 0.749 0 RC
1 LJ
0.667 LW
N
252.721 216.158 M
252.755 240.895 L
S
GR
GS
[0.75 0 0 0.75 0 0] CT
1 0.749 0 RC
1 LJ
0.667 LW
N
306.857 240.895 M
307.077 216.158 L
S
GR
GS
[0.75 0 0 0.75 0 0] CT
1 0.749 0 RC
1 LJ
0.667 LW
N
416.495 216.158 M
417.692 240.895 L
S
GR
GS
[0.75 0 0 0.75 0 0] CT
1 0.749 0 RC
1 LJ
0.667 LW
N
451.78 240.895 M
453.251 216.158 L
S
GR
GS
[0.75 0 0 0.75 0 0] CT
1 0.749 0 RC
1 LJ
0.667 LW
N
252.693 191.421 M
252.721 216.158 L
S
GR
GS
[0.75 0 0 0.75 0 0] CT
1 0.749 0 RC
1 LJ
0.667 LW
N
307.077 216.158 M
307.263 191.421 L
S
GR
GS
[0.75 0 0 0.75 0 0] CT
1 0.749 0 RC
1 LJ
0.667 LW
N
415.524 191.421 M
416.495 216.158 L
S
GR
GS
[0.75 0 0 0.75 0 0] CT
1 0.749 0 RC
1 LJ
0.667 LW
N
453.251 216.158 M
454.463 191.421 L
S
GR
GS
[0.75 0 0 0.75 0 0] CT
1 0.749 0 RC
1 LJ
0.667 LW
N
252.668 166.684 M
252.693 191.421 L
S
GR
GS
[0.75 0 0 0.75 0 0] CT
1 0.749 0 RC
1 LJ
0.667 LW
N
307.263 191.421 M
307.422 166.684 L
S
GR
GS
[0.75 0 0 0.75 0 0] CT
1 0.749 0 RC
1 LJ
0.667 LW
N
414.72 166.684 M
415.524 191.421 L
S
GR
GS
[0.75 0 0 0.75 0 0] CT
1 0.749 0 RC
1 LJ
0.667 LW
N
454.463 191.421 M
455.479 166.684 L
S
GR
GS
[0.75 0 0 0.75 0 0] CT
1 0.749 0 RC
1 LJ
0.667 LW
N
252.646 141.947 M
252.668 166.684 L
S
GR
GS
[0.75 0 0 0.75 0 0] CT
1 0.749 0 RC
1 LJ
0.667 LW
N
307.422 166.684 M
307.561 141.947 L
S
GR
GS
[0.75 0 0 0.75 0 0] CT
1 0.749 0 RC
1 LJ
0.667 LW
N
414.045 141.947 M
414.72 166.684 L
S
GR
GS
[0.75 0 0 0.75 0 0] CT
1 0.749 0 RC
1 LJ
0.667 LW
N
455.479 166.684 M
456.342 141.947 L
S
GR
GS
[0.75 0 0 0.75 0 0] CT
1 0.749 0 RC
1 LJ
0.667 LW
N
252.627 117.211 M
252.646 141.947 L
S
GR
GS
[0.75 0 0 0.75 0 0] CT
1 0.749 0 RC
1 LJ
0.667 LW
N
307.561 141.947 M
307.682 117.211 L
S
GR
GS
[0.75 0 0 0.75 0 0] CT
1 0.749 0 RC
1 LJ
0.667 LW
N
413.47 117.211 M
414.045 141.947 L
S
GR
GS
[0.75 0 0 0.75 0 0] CT
1 0.749 0 RC
1 LJ
0.667 LW
N
456.342 141.947 M
457.085 117.211 L
S
GR
GS
[0.75 0 0 0.75 0 0] CT
1 0.749 0 RC
1 LJ
0.667 LW
N
252.61 92.474 M
252.627 117.211 L
S
GR
GS
[0.75 0 0 0.75 0 0] CT
1 0.749 0 RC
1 LJ
0.667 LW
N
307.682 117.211 M
307.79 92.474 L
S
GR
GS
[0.75 0 0 0.75 0 0] CT
1 0.749 0 RC
1 LJ
0.667 LW
N
413.055 92.474 M
413.36 111.79 L
413.47 117.211 L
S
GR
GS
[0.75 0 0 0.75 0 0] CT
1 0.749 0 RC
1 LJ
0.667 LW
N
457.085 117.211 M
457.731 92.474 L
S
GR
GS
[0.75 0 0 0.75 0 0] CT
1 0.749 0 RC
1 LJ
0.667 LW
N
252.595 67.737 M
252.61 92.474 L
S
GR
GS
[0.75 0 0 0.75 0 0] CT
1 0.749 0 RC
1 LJ
0.667 LW
N
307.79 92.474 M
307.885 67.737 L
S
GR
GS
[0.75 0 0 0.75 0 0] CT
1 0.749 0 RC
1 LJ
0.667 LW
N
412.712 67.737 M
413.055 92.474 L
S
GR
GS
[0.75 0 0 0.75 0 0] CT
1 0.749 0 RC
1 LJ
0.667 LW
N
457.731 92.474 M
457.767 90.902 L
458.208 67.737 L
S
GR
GS
[0.75 0 0 0.75 0 0] CT
1 0.749 0 RC
1 LJ
0.667 LW
N
252.582 43 M
252.595 67.737 L
S
GR
GS
[0.75 0 0 0.75 0 0] CT
1 0.749 0 RC
1 LJ
0.667 LW
N
307.885 67.737 M
307.97 43 L
S
GR
GS
[0.75 0 0 0.75 0 0] CT
1 0.749 0 RC
1 LJ
0.667 LW
N
412.41 43 M
412.712 67.737 L
S
GR
GS
[0.75 0 0 0.75 0 0] CT
1 0.749 0 RC
1 LJ
0.667 LW
N
458.208 67.737 M
458.622 43 L
S
GR
GS
[0.75 0 0 0.75 0 0] CT
1 0.435 0 RC
1 LJ
0.667 LW
N
265.469 488.263 M
267.45 489.71 L
273.793 488.773 L
274.539 488.263 L
S
GR
GS
[0.75 0 0 0.75 0 0] CT
1 0.435 0 RC
1 LJ
0.667 LW
N
259.157 463.526 M
261.106 478.155 L
265.469 488.263 L
S
GR
GS
[0.75 0 0 0.75 0 0] CT
1 0.435 0 RC
1 LJ
0.667 LW
N
274.539 488.263 M
280.137 481.514 L
286.481 469.936 L
289.056 463.526 L
S
GR
GS
[0.75 0 0 0.75 0 0] CT
1 0.435 0 RC
1 LJ
0.667 LW
N
257.808 438.789 M
259.157 463.526 L
S
GR
GS
[0.75 0 0 0.75 0 0] CT
1 0.435 0 RC
1 LJ
0.667 LW
N
289.056 463.526 M
292.825 447.937 L
294.525 438.789 L
S
GR
GS
[0.75 0 0 0.75 0 0] CT
1 0.435 0 RC
1 LJ
0.667 LW
N
257.121 414.053 M
257.808 438.789 L
S
GR
GS
[0.75 0 0 0.75 0 0] CT
1 0.435 0 RC
1 LJ
0.667 LW
N
294.525 438.789 M
297.425 414.053 L
S
GR
GS
[0.75 0 0 0.75 0 0] CT
1 0.435 0 RC
1 LJ
0.667 LW
N
256.706 389.316 M
257.121 414.053 L
S
GR
GS
[0.75 0 0 0.75 0 0] CT
1 0.435 0 RC
1 LJ
0.667 LW
N
297.425 414.053 M
299.169 391.889 L
299.335 389.316 L
S
GR
GS
[0.75 0 0 0.75 0 0] CT
1 0.435 0 RC
1 LJ
0.667 LW
N
256.429 364.579 M
256.706 389.316 L
S
GR
GS
[0.75 0 0 0.75 0 0] CT
1 0.435 0 RC
1 LJ
0.667 LW
N
299.335 389.316 M
300.5 364.579 L
S
GR
GS
[0.75 0 0 0.75 0 0] CT
1 0.435 0 RC
1 LJ
0.667 LW
N
256.231 339.842 M
256.429 364.579 L
S
GR
GS
[0.75 0 0 0.75 0 0] CT
1 0.435 0 RC
1 LJ
0.667 LW
N
300.5 364.579 M
301.356 339.842 L
S
GR
GS
[0.75 0 0 0.75 0 0] CT
1 0.435 0 RC
1 LJ
0.667 LW
N
256.083 315.105 M
256.231 339.842 L
S
GR
GS
[0.75 0 0 0.75 0 0] CT
1 0.435 0 RC
1 LJ
0.667 LW
N
301.356 339.842 M
302.011 315.105 L
S
GR
GS
[0.75 0 0 0.75 0 0] CT
1 0.435 0 RC
1 LJ
0.667 LW
N
255.967 290.368 M
256.083 315.105 L
S
GR
GS
[0.75 0 0 0.75 0 0] CT
1 0.435 0 RC
1 LJ
0.667 LW
N
302.011 315.105 M
302.529 290.368 L
S
GR
GS
[0.75 0 0 0.75 0 0] CT
1 0.435 0 RC
1 LJ
0.667 LW
N
255.875 265.632 M
255.967 290.368 L
S
GR
GS
[0.75 0 0 0.75 0 0] CT
1 0.435 0 RC
1 LJ
0.667 LW
N
302.529 290.368 M
302.95 265.632 L
S
GR
GS
[0.75 0 0 0.75 0 0] CT
1 0.435 0 RC
1 LJ
0.667 LW
N
255.799 240.895 M
255.875 265.632 L
S
GR
GS
[0.75 0 0 0.75 0 0] CT
1 0.435 0 RC
1 LJ
0.667 LW
N
302.95 265.632 M
303.297 240.895 L
S
GR
GS
[0.75 0 0 0.75 0 0] CT
1 0.435 0 RC
1 LJ
0.667 LW
N
427.861 240.895 M
432.392 257.65 L
438.736 251.758 L
440.847 240.895 L
S
GR
GS
[0.75 0 0 0.75 0 0] CT
1 0.435 0 RC
1 LJ
0.667 LW
N
255.736 216.158 M
255.799 240.895 L
S
GR
GS
[0.75 0 0 0.75 0 0] CT
1 0.435 0 RC
1 LJ
0.667 LW
N
303.297 240.895 M
303.59 216.158 L
S
GR
GS
[0.75 0 0 0.75 0 0] CT
1 0.435 0 RC
1 LJ
0.667 LW
N
424.507 216.158 M
426.048 232.674 L
427.861 240.895 L
S
GR
GS
[0.75 0 0 0.75 0 0] CT
1 0.435 0 RC
1 LJ
0.667 LW
N
440.847 240.895 M
444.952 216.158 L
S
GR
GS
[0.75 0 0 0.75 0 0] CT
1 0.435 0 RC
1 LJ
0.667 LW
N
255.683 191.421 M
255.736 216.158 L
S
GR
GS
[0.75 0 0 0.75 0 0] CT
1 0.435 0 RC
1 LJ
0.667 LW
N
303.59 216.158 M
303.84 191.421 L
S
GR
GS
[0.75 0 0 0.75 0 0] CT
1 0.435 0 RC
1 LJ
0.667 LW
N
422.616 191.421 M
424.507 216.158 L
S
GR
GS
[0.75 0 0 0.75 0 0] CT
1 0.435 0 RC
1 LJ
0.667 LW
N
444.952 216.158 M
445.079 215.279 L
446.98 191.421 L
S
GR
GS
[0.75 0 0 0.75 0 0] CT
1 0.435 0 RC
1 LJ
0.667 LW
N
255.638 166.684 M
255.683 191.421 L
S
GR
GS
[0.75 0 0 0.75 0 0] CT
1 0.435 0 RC
1 LJ
0.667 LW
N
303.84 191.421 M
304.055 166.684 L
S
GR
GS
[0.75 0 0 0.75 0 0] CT
1 0.435 0 RC
1 LJ
0.667 LW
N
421.068 166.684 M
422.616 191.421 L
S
GR
GS
[0.75 0 0 0.75 0 0] CT
1 0.435 0 RC
1 LJ
0.667 LW
N
446.98 191.421 M
448.647 166.684 L
S
GR
GS
[0.75 0 0 0.75 0 0] CT
1 0.435 0 RC
1 LJ
0.667 LW
N
255.598 141.947 M
255.638 166.684 L
S
GR
GS
[0.75 0 0 0.75 0 0] CT
1 0.435 0 RC
1 LJ
0.667 LW
N
304.055 166.684 M
304.243 141.947 L
S
GR
GS
[0.75 0 0 0.75 0 0] CT
1 0.435 0 RC
1 LJ
0.667 LW
N
419.778 141.947 M
421.068 166.684 L
S
GR
GS
[0.75 0 0 0.75 0 0] CT
1 0.435 0 RC
1 LJ
0.667 LW
N
448.647 166.684 M
450.074 141.947 L
S
GR
GS
[0.75 0 0 0.75 0 0] CT
1 0.435 0 RC
1 LJ
0.667 LW
N
255.564 117.211 M
255.598 141.947 L
S
GR
GS
[0.75 0 0 0.75 0 0] CT
1 0.435 0 RC
1 LJ
0.667 LW
N
304.243 141.947 M
304.408 117.211 L
S
GR
GS
[0.75 0 0 0.75 0 0] CT
1 0.435 0 RC
1 LJ
0.667 LW
N
419.013 117.211 M
419.704 140.311 L
419.778 141.947 L
S
GR
GS
[0.75 0 0 0.75 0 0] CT
1 0.435 0 RC
1 LJ
0.667 LW
N
450.074 141.947 M
451.309 117.211 L
S
GR
GS
[0.75 0 0 0.75 0 0] CT
1 0.435 0 RC
1 LJ
0.667 LW
N
255.533 92.474 M
255.564 117.211 L
S
GR
GS
[0.75 0 0 0.75 0 0] CT
1 0.435 0 RC
1 LJ
0.667 LW
N
304.408 117.211 M
304.555 92.474 L
S
GR
GS
[0.75 0 0 0.75 0 0] CT
1 0.435 0 RC
1 LJ
0.667 LW
N
418.374 92.474 M
419.013 117.211 L
S
GR
GS
[0.75 0 0 0.75 0 0] CT
1 0.435 0 RC
1 LJ
0.667 LW
N
451.309 117.211 M
451.423 114.63 L
452.125 92.474 L
S
GR
GS
[0.75 0 0 0.75 0 0] CT
1 0.435 0 RC
1 LJ
0.667 LW
N
255.506 67.737 M
255.533 92.474 L
S
GR
GS
[0.75 0 0 0.75 0 0] CT
1 0.435 0 RC
1 LJ
0.667 LW
N
304.555 92.474 M
304.685 67.737 L
S
GR
GS
[0.75 0 0 0.75 0 0] CT
1 0.435 0 RC
1 LJ
0.667 LW
N
417.818 67.737 M
418.374 92.474 L
S
GR
GS
[0.75 0 0 0.75 0 0] CT
1 0.435 0 RC
1 LJ
0.667 LW
N
452.125 92.474 M
452.814 67.737 L
S
GR
GS
[0.75 0 0 0.75 0 0] CT
1 0.435 0 RC
1 LJ
0.667 LW
N
255.482 43 M
255.506 67.737 L
S
GR
GS
[0.75 0 0 0.75 0 0] CT
1 0.435 0 RC
1 LJ
0.667 LW
N
304.685 67.737 M
304.803 43 L
S
GR
GS
[0.75 0 0 0.75 0 0] CT
1 0.435 0 RC
1 LJ
0.667 LW
N
417.33 43 M
417.818 67.737 L
S
GR
GS
[0.75 0 0 0.75 0 0] CT
1 0.435 0 RC
1 LJ
0.667 LW
N
452.814 67.737 M
453.423 43 L
S
GR
GS
[0.75 0 0 0.75 0 0] CT
1 0.247 0 RC
1 LJ
0.667 LW
N
266.763 463.526 M
267.45 465.466 L
273.793 468.714 L
279.768 463.526 L
S
GR
GS
[0.75 0 0 0.75 0 0] CT
1 0.247 0 RC
1 LJ
0.667 LW
N
262.989 438.789 M
266.763 463.526 L
S
GR
GS
[0.75 0 0 0.75 0 0] CT
1 0.247 0 RC
1 LJ
0.667 LW
N
279.768 463.526 M
280.137 463.055 L
286.481 445.194 L
288.033 438.789 L
S
GR
GS
[0.75 0 0 0.75 0 0] CT
1 0.247 0 RC
1 LJ
0.667 LW
N
261.33 414.053 M
262.989 438.789 L
S
GR
GS
[0.75 0 0 0.75 0 0] CT
1 0.247 0 RC
1 LJ
0.667 LW
N
288.033 438.789 M
292.017 414.053 L
S
GR
GS
[0.75 0 0 0.75 0 0] CT
1 0.247 0 RC
1 LJ
0.667 LW
N
260.636 389.316 M
261.106 408.408 L
261.33 414.053 L
S
GR
GS
[0.75 0 0 0.75 0 0] CT
1 0.247 0 RC
1 LJ
0.667 LW
N
292.017 414.053 M
292.825 407.04 L
294.328 389.316 L
S
GR
GS
[0.75 0 0 0.75 0 0] CT
1 0.247 0 RC
1 LJ
0.667 LW
N
260.223 364.579 M
260.636 389.316 L
S
GR
GS
[0.75 0 0 0.75 0 0] CT
1 0.247 0 RC
1 LJ
0.667 LW
N
294.328 389.316 M
295.842 364.579 L
S
GR
GS
[0.75 0 0 0.75 0 0] CT
1 0.247 0 RC
1 LJ
0.667 LW
N
259.927 339.842 M
260.223 364.579 L
S
GR
GS
[0.75 0 0 0.75 0 0] CT
1 0.247 0 RC
1 LJ
0.667 LW
N
295.842 364.579 M
296.983 339.842 L
S
GR
GS
[0.75 0 0 0.75 0 0] CT
1 0.247 0 RC
1 LJ
0.667 LW
N
259.705 315.105 M
259.927 339.842 L
S
GR
GS
[0.75 0 0 0.75 0 0] CT
1 0.247 0 RC
1 LJ
0.667 LW
N
296.983 339.842 M
297.873 315.105 L
S
GR
GS
[0.75 0 0 0.75 0 0] CT
1 0.247 0 RC
1 LJ
0.667 LW
N
259.531 290.368 M
259.705 315.105 L
S
GR
GS
[0.75 0 0 0.75 0 0] CT
1 0.247 0 RC
1 LJ
0.667 LW
N
297.873 315.105 M
298.589 290.368 L
S
GR
GS
[0.75 0 0 0.75 0 0] CT
1 0.247 0 RC
1 LJ
0.667 LW
N
259.393 265.632 M
259.531 290.368 L
S
GR
GS
[0.75 0 0 0.75 0 0] CT
1 0.247 0 RC
1 LJ
0.667 LW
N
298.589 290.368 M
299.169 265.951 L
299.175 265.632 L
S
GR
GS
[0.75 0 0 0.75 0 0] CT
1 0.247 0 RC
1 LJ
0.667 LW
N
259.279 240.895 M
259.393 265.632 L
S
GR
GS
[0.75 0 0 0.75 0 0] CT
1 0.247 0 RC
1 LJ
0.667 LW
N
299.175 265.632 M
299.57 240.895 L
S
GR
GS
[0.75 0 0 0.75 0 0] CT
1 0.247 0 RC
1 LJ
0.667 LW
N
259.185 216.158 M
259.279 240.895 L
S
GR
GS
[0.75 0 0 0.75 0 0] CT
1 0.247 0 RC
1 LJ
0.667 LW
N
299.57 240.895 M
299.901 216.158 L
S
GR
GS
[0.75 0 0 0.75 0 0] CT
1 0.247 0 RC
1 LJ
0.667 LW
N
259.105 191.421 M
259.185 216.158 L
S
GR
GS
[0.75 0 0 0.75 0 0] CT
1 0.247 0 RC
1 LJ
0.667 LW
N
299.901 216.158 M
300.184 191.421 L
S
GR
GS
[0.75 0 0 0.75 0 0] CT
1 0.247 0 RC
1 LJ
0.667 LW
N
259.036 166.684 M
259.105 191.421 L
S
GR
GS
[0.75 0 0 0.75 0 0] CT
1 0.247 0 RC
1 LJ
0.667 LW
N
300.184 191.421 M
300.428 166.684 L
S
GR
GS
[0.75 0 0 0.75 0 0] CT
1 0.247 0 RC
1 LJ
0.667 LW
N
258.977 141.947 M
259.036 166.684 L
S
GR
GS
[0.75 0 0 0.75 0 0] CT
1 0.247 0 RC
1 LJ
0.667 LW
N
300.428 166.684 M
300.64 141.947 L
S
GR
GS
[0.75 0 0 0.75 0 0] CT
1 0.247 0 RC
1 LJ
0.667 LW
N
430.564 141.947 M
432.392 155.217 L
438.736 148.982 L
439.55 141.947 L
S
GR
GS
[0.75 0 0 0.75 0 0] CT
1 0.247 0 RC
1 LJ
0.667 LW
N
258.924 117.211 M
258.977 141.947 L
S
GR
GS
[0.75 0 0 0.75 0 0] CT
1 0.247 0 RC
1 LJ
0.667 LW
N
300.64 141.947 M
300.827 117.211 L
S
GR
GS
[0.75 0 0 0.75 0 0] CT
1 0.247 0 RC
1 LJ
0.667 LW
N
427.675 117.211 M
430.564 141.947 L
S
GR
GS
[0.75 0 0 0.75 0 0] CT
1 0.247 0 RC
1 LJ
0.667 LW
N
439.55 141.947 M
442.1 117.211 L
S
GR
GS
[0.75 0 0 0.75 0 0] CT
1 0.247 0 RC
1 LJ
0.667 LW
N
258.879 92.474 M
258.924 117.211 L
S
GR
GS
[0.75 0 0 0.75 0 0] CT
1 0.247 0 RC
1 LJ
0.667 LW
N
300.827 117.211 M
300.993 92.474 L
S
GR
GS
[0.75 0 0 0.75 0 0] CT
1 0.247 0 RC
1 LJ
0.667 LW
N
425.659 92.474 M
426.048 100.858 L
427.675 117.211 L
S
GR
GS
[0.75 0 0 0.75 0 0] CT
1 0.247 0 RC
1 LJ
0.667 LW
N
442.1 117.211 M
444.357 92.474 L
S
GR
GS
[0.75 0 0 0.75 0 0] CT
1 0.247 0 RC
1 LJ
0.667 LW
N
258.838 67.737 M
258.879 92.474 L
S
GR
GS
[0.75 0 0 0.75 0 0] CT
1 0.247 0 RC
1 LJ
0.667 LW
N
300.993 92.474 M
301.14 67.737 L
S
GR
GS
[0.75 0 0 0.75 0 0] CT
1 0.247 0 RC
1 LJ
0.667 LW
N
424.646 67.737 M
425.659 92.474 L
S
GR
GS
[0.75 0 0 0.75 0 0] CT
1 0.247 0 RC
1 LJ
0.667 LW
N
444.357 92.474 M
445.079 83.673 L
445.783 67.737 L
S
GR
GS
[0.75 0 0 0.75 0 0] CT
1 0.247 0 RC
1 LJ
0.667 LW
N
258.801 43 M
258.838 67.737 L
S
GR
GS
[0.75 0 0 0.75 0 0] CT
1 0.247 0 RC
1 LJ
0.667 LW
N
301.14 67.737 M
301.273 43 L
S
GR
GS
[0.75 0 0 0.75 0 0] CT
1 0.247 0 RC
1 LJ
0.667 LW
N
423.761 43 M
424.646 67.737 L
S
GR
GS
[0.75 0 0 0.75 0 0] CT
1 0.247 0 RC
1 LJ
0.667 LW
N
445.783 67.737 M
446.759 43 L
S
GR
GS
[0.75 0 0 0.75 0 0] CT
0.937 0 0 RC
1 LJ
0.667 LW
N
267.936 414.053 M
273.793 436.501 L
280.137 429.84 L
284.225 414.053 L
S
GR
GS
[0.75 0 0 0.75 0 0] CT
0.937 0 0 RC
1 LJ
0.667 LW
N
266.239 389.316 M
267.45 410.504 L
267.936 414.053 L
S
GR
GS
[0.75 0 0 0.75 0 0] CT
0.937 0 0 RC
1 LJ
0.667 LW
N
284.225 414.053 M
286.481 402.763 L
288.038 389.316 L
S
GR
GS
[0.75 0 0 0.75 0 0] CT
0.937 0 0 RC
1 LJ
0.667 LW
N
265.327 364.579 M
266.239 389.316 L
S
GR
GS
[0.75 0 0 0.75 0 0] CT
0.937 0 0 RC
1 LJ
0.667 LW
N
288.038 389.316 M
290.19 364.579 L
S
GR
GS
[0.75 0 0 0.75 0 0] CT
0.937 0 0 RC
1 LJ
0.667 LW
N
264.696 339.842 M
265.327 364.579 L
S
GR
GS
[0.75 0 0 0.75 0 0] CT
0.937 0 0 RC
1 LJ
0.667 LW
N
290.19 364.579 M
291.872 339.842 L
S
GR
GS
[0.75 0 0 0.75 0 0] CT
0.937 0 0 RC
1 LJ
0.667 LW
N
264.234 315.105 M
264.696 339.842 L
S
GR
GS
[0.75 0 0 0.75 0 0] CT
0.937 0 0 RC
1 LJ
0.667 LW
N
291.872 339.842 M
292.825 322.428 L
293.105 315.105 L
S
GR
GS
[0.75 0 0 0.75 0 0] CT
0.937 0 0 RC
1 LJ
0.667 LW
N
263.881 290.368 M
264.234 315.105 L
S
GR
GS
[0.75 0 0 0.75 0 0] CT
0.937 0 0 RC
1 LJ
0.667 LW
N
293.105 315.105 M
293.87 290.368 L
S
GR
GS
[0.75 0 0 0.75 0 0] CT
0.937 0 0 RC
1 LJ
0.667 LW
N
263.604 265.632 M
263.881 290.368 L
S
GR
GS
[0.75 0 0 0.75 0 0] CT
0.937 0 0 RC
1 LJ
0.667 LW
N
293.87 290.368 M
294.498 265.632 L
S
GR
GS
[0.75 0 0 0.75 0 0] CT
0.937 0 0 RC
1 LJ
0.667 LW
N
263.379 240.895 M
263.604 265.632 L
S
GR
GS
[0.75 0 0 0.75 0 0] CT
0.937 0 0 RC
1 LJ
0.667 LW
N
294.498 265.632 M
295.022 240.895 L
S
GR
GS
[0.75 0 0 0.75 0 0] CT
0.937 0 0 RC
1 LJ
0.667 LW
N
263.194 216.158 M
263.379 240.895 L
S
GR
GS
[0.75 0 0 0.75 0 0] CT
0.937 0 0 RC
1 LJ
0.667 LW
N
295.022 240.895 M
295.466 216.158 L
S
GR
GS
[0.75 0 0 0.75 0 0] CT
0.937 0 0 RC
1 LJ
0.667 LW
N
263.039 191.421 M
263.194 216.158 L
S
GR
GS
[0.75 0 0 0.75 0 0] CT
0.937 0 0 RC
1 LJ
0.667 LW
N
295.466 216.158 M
295.848 191.421 L
S
GR
GS
[0.75 0 0 0.75 0 0] CT
0.937 0 0 RC
1 LJ
0.667 LW
N
262.907 166.684 M
263.039 191.421 L
S
GR
GS
[0.75 0 0 0.75 0 0] CT
0.937 0 0 RC
1 LJ
0.667 LW
N
295.848 191.421 M
296.179 166.684 L
S
GR
GS
[0.75 0 0 0.75 0 0] CT
0.937 0 0 RC
1 LJ
0.667 LW
N
262.793 141.947 M
262.907 166.684 L
S
GR
GS
[0.75 0 0 0.75 0 0] CT
0.937 0 0 RC
1 LJ
0.667 LW
N
296.179 166.684 M
296.47 141.947 L
S
GR
GS
[0.75 0 0 0.75 0 0] CT
0.937 0 0 RC
1 LJ
0.667 LW
N
262.694 117.211 M
262.793 141.947 L
S
GR
GS
[0.75 0 0 0.75 0 0] CT
0.937 0 0 RC
1 LJ
0.667 LW
N
296.47 141.947 M
296.727 117.211 L
S
GR
GS
[0.75 0 0 0.75 0 0] CT
0.937 0 0 RC
1 LJ
0.667 LW
N
262.607 92.474 M
262.694 117.211 L
S
GR
GS
[0.75 0 0 0.75 0 0] CT
0.937 0 0 RC
1 LJ
0.667 LW
N
296.727 117.211 M
296.956 92.474 L
S
GR
GS
[0.75 0 0 0.75 0 0] CT
0.937 0 0 RC
1 LJ
0.667 LW
N
262.531 67.737 M
262.607 92.474 L
S
GR
GS
[0.75 0 0 0.75 0 0] CT
0.937 0 0 RC
1 LJ
0.667 LW
N
296.956 92.474 M
297.161 67.737 L
S
GR
GS
[0.75 0 0 0.75 0 0] CT
0.937 0 0 RC
1 LJ
0.667 LW
N
262.462 43 M
262.531 67.737 L
S
GR
GS
[0.75 0 0 0.75 0 0] CT
0.937 0 0 RC
1 LJ
0.667 LW
N
297.161 67.737 M
297.345 43 L
S
GR
GS
[0.75 0 0 0.75 0 0] CT
0.686 0 0 RC
1 LJ
0.667 LW
N
276.611 364.579 M
280.137 366.508 L
280.436 364.579 L
S
GR
GS
[0.75 0 0 0.75 0 0] CT
0.686 0 0 RC
1 LJ
0.667 LW
N
272.151 339.842 M
273.793 362.173 L
276.611 364.579 L
S
GR
GS
[0.75 0 0 0.75 0 0] CT
0.686 0 0 RC
1 LJ
0.667 LW
N
280.436 364.579 M
283.557 339.842 L
S
GR
GS
[0.75 0 0 0.75 0 0] CT
0.686 0 0 RC
1 LJ
0.667 LW
N
270.882 315.105 M
272.151 339.842 L
S
GR
GS
[0.75 0 0 0.75 0 0] CT
0.686 0 0 RC
1 LJ
0.667 LW
N
283.557 339.842 M
286.283 315.105 L
S
GR
GS
[0.75 0 0 0.75 0 0] CT
0.686 0 0 RC
1 LJ
0.667 LW
N
269.953 290.368 M
270.882 315.105 L
S
GR
GS
[0.75 0 0 0.75 0 0] CT
0.686 0 0 RC
1 LJ
0.667 LW
N
286.283 315.105 M
286.481 312.998 L
287.49 290.368 L
S
GR
GS
[0.75 0 0 0.75 0 0] CT
0.686 0 0 RC
1 LJ
0.667 LW
N
269.245 265.632 M
269.953 290.368 L
S
GR
GS
[0.75 0 0 0.75 0 0] CT
0.686 0 0 RC
1 LJ
0.667 LW
N
287.49 290.368 M
288.413 265.632 L
S
GR
GS
[0.75 0 0 0.75 0 0] CT
0.686 0 0 RC
1 LJ
0.667 LW
N
268.688 240.895 M
269.245 265.632 L
S
GR
GS
[0.75 0 0 0.75 0 0] CT
0.686 0 0 RC
1 LJ
0.667 LW
N
288.413 265.632 M
289.197 240.895 L
S
GR
GS
[0.75 0 0 0.75 0 0] CT
0.686 0 0 RC
1 LJ
0.667 LW
N
268.238 216.158 M
268.688 240.895 L
S
GR
GS
[0.75 0 0 0.75 0 0] CT
0.686 0 0 RC
1 LJ
0.667 LW
N
289.197 240.895 M
289.872 216.158 L
S
GR
GS
[0.75 0 0 0.75 0 0] CT
0.686 0 0 RC
1 LJ
0.667 LW
N
267.868 191.421 M
268.238 216.158 L
S
GR
GS
[0.75 0 0 0.75 0 0] CT
0.686 0 0 RC
1 LJ
0.667 LW
N
289.872 216.158 M
290.459 191.421 L
S
GR
GS
[0.75 0 0 0.75 0 0] CT
0.686 0 0 RC
1 LJ
0.667 LW
N
267.557 166.684 M
267.868 191.421 L
S
GR
GS
[0.75 0 0 0.75 0 0] CT
0.686 0 0 RC
1 LJ
0.667 LW
N
290.459 191.421 M
290.975 166.684 L
S
GR
GS
[0.75 0 0 0.75 0 0] CT
0.686 0 0 RC
1 LJ
0.667 LW
N
267.357 141.947 M
267.45 156.675 L
267.557 166.684 L
S
GR
GS
[0.75 0 0 0.75 0 0] CT
0.686 0 0 RC
1 LJ
0.667 LW
N
290.975 166.684 M
291.432 141.947 L
S
GR
GS
[0.75 0 0 0.75 0 0] CT
0.686 0 0 RC
1 LJ
0.667 LW
N
267.22 117.211 M
267.357 141.947 L
S
GR
GS
[0.75 0 0 0.75 0 0] CT
0.686 0 0 RC
1 LJ
0.667 LW
N
291.432 141.947 M
291.84 117.211 L
S
GR
GS
[0.75 0 0 0.75 0 0] CT
0.686 0 0 RC
1 LJ
0.667 LW
N
267.1 92.474 M
267.22 117.211 L
S
GR
GS
[0.75 0 0 0.75 0 0] CT
0.686 0 0 RC
1 LJ
0.667 LW
N
291.84 117.211 M
292.206 92.474 L
S
GR
GS
[0.75 0 0 0.75 0 0] CT
0.686 0 0 RC
1 LJ
0.667 LW
N
266.994 67.737 M
267.1 92.474 L
S
GR
GS
[0.75 0 0 0.75 0 0] CT
0.686 0 0 RC
1 LJ
0.667 LW
N
292.206 92.474 M
292.537 67.737 L
S
GR
GS
[0.75 0 0 0.75 0 0] CT
0.686 0 0 RC
1 LJ
0.667 LW
N
266.9 43 M
266.994 67.737 L
S
GR
GS
[0.75 0 0 0.75 0 0] CT
0.686 0 0 RC
1 LJ
0.667 LW
N
292.537 67.737 M
292.825 43.913 L
292.832 43 L
S
GR
GS
[0.75 0 0 0.75 0 0] CT
0.498 0 0 RC
1 LJ
0.667 LW
N
279.547 166.684 M
280.137 174.347 L
280.486 166.684 L
S
GR
GS
[0.75 0 0 0.75 0 0] CT
0.498 0 0 RC
1 LJ
0.667 LW
N
277.975 141.947 M
279.547 166.684 L
S
GR
GS
[0.75 0 0 0.75 0 0] CT
0.498 0 0 RC
1 LJ
0.667 LW
N
280.486 166.684 M
281.505 141.947 L
S
GR
GS
[0.75 0 0 0.75 0 0] CT
0.498 0 0 RC
1 LJ
0.667 LW
N
276.7 117.211 M
277.975 141.947 L
S
GR
GS
[0.75 0 0 0.75 0 0] CT
0.498 0 0 RC
1 LJ
0.667 LW
N
281.505 141.947 M
282.442 117.211 L
S
GR
GS
[0.75 0 0 0.75 0 0] CT
0.498 0 0 RC
1 LJ
0.667 LW
N
275.645 92.474 M
276.7 117.211 L
S
GR
GS
[0.75 0 0 0.75 0 0] CT
0.498 0 0 RC
1 LJ
0.667 LW
N
282.442 117.211 M
283.308 92.474 L
S
GR
GS
[0.75 0 0 0.75 0 0] CT
0.498 0 0 RC
1 LJ
0.667 LW
N
274.758 67.737 M
275.645 92.474 L
S
GR
GS
[0.75 0 0 0.75 0 0] CT
0.498 0 0 RC
1 LJ
0.667 LW
N
283.308 92.474 M
284.11 67.737 L
S
GR
GS
[0.75 0 0 0.75 0 0] CT
0.498 0 0 RC
1 LJ
0.667 LW
N
274.002 43 M
274.758 67.737 L
S
GR
GS
[0.75 0 0 0.75 0 0] CT
0.498 0 0 RC
1 LJ
0.667 LW
N
284.11 67.737 M
284.857 43 L
S
GR
GS
[0.75 0 0 0.75 0 0] CT
0.149 GC
2 setlinecap
1 LJ
0.667 LW
N
242.074 513 M
552.926 513 L
S
GR
GS
[0.75 0 0 0.75 0 0] CT
0.149 GC
2 setlinecap
1 LJ
0.667 LW
N
242.074 43 M
552.926 43 L
S
GR
GS
[0.75 0 0 0.75 0 0] CT
0.149 GC
2 setlinecap
1 LJ
0.667 LW
N
242.074 513 M
242.074 508.3 L
S
GR
GS
[0.75 0 0 0.75 0 0] CT
0.149 GC
2 setlinecap
1 LJ
0.667 LW
N
291.548 513 M
291.548 508.3 L
S
GR
GS
[0.75 0 0 0.75 0 0] CT
0.149 GC
2 setlinecap
1 LJ
0.667 LW
N
341.021 513 M
341.021 508.3 L
S
GR
GS
[0.75 0 0 0.75 0 0] CT
0.149 GC
2 setlinecap
1 LJ
0.667 LW
N
390.495 513 M
390.495 508.3 L
S
GR
GS
[0.75 0 0 0.75 0 0] CT
0.149 GC
2 setlinecap
1 LJ
0.667 LW
N
439.969 513 M
439.969 508.3 L
S
GR
GS
[0.75 0 0 0.75 0 0] CT
0.149 GC
2 setlinecap
1 LJ
0.667 LW
N
489.442 513 M
489.442 508.3 L
S
GR
GS
[0.75 0 0 0.75 0 0] CT
0.149 GC
2 setlinecap
1 LJ
0.667 LW
N
538.916 513 M
538.916 508.3 L
S
GR
GS
[0.75 0 0 0.75 0 0] CT
0.149 GC
2 setlinecap
1 LJ
0.667 LW
N
242.074 43 M
242.074 47.7 L
S
GR
GS
[0.75 0 0 0.75 0 0] CT
0.149 GC
2 setlinecap
1 LJ
0.667 LW
N
291.548 43 M
291.548 47.7 L
S
GR
GS
[0.75 0 0 0.75 0 0] CT
0.149 GC
2 setlinecap
1 LJ
0.667 LW
N
341.021 43 M
341.021 47.7 L
S
GR
GS
[0.75 0 0 0.75 0 0] CT
0.149 GC
2 setlinecap
1 LJ
0.667 LW
N
390.495 43 M
390.495 47.7 L
S
GR
GS
[0.75 0 0 0.75 0 0] CT
0.149 GC
2 setlinecap
1 LJ
0.667 LW
N
439.969 43 M
439.969 47.7 L
S
GR
GS
[0.75 0 0 0.75 0 0] CT
0.149 GC
2 setlinecap
1 LJ
0.667 LW
N
489.442 43 M
489.442 47.7 L
S
GR
GS
[0.75 0 0 0.75 0 0] CT
0.149 GC
2 setlinecap
1 LJ
0.667 LW
N
538.916 43 M
538.916 47.7 L
S
GR
GS
[0.75 0 0 0.75 181.55538 388.74998] CT
0.149 GC
/Helvetica 13 F
GS
[1 0 0 1 0 0] CT
-4.5 13 moveto 
1 -1 scale
(0) t 
GR
GR
GS
[0.75 0 0 0.75 218.66064 388.74998] CT
0.149 GC
/Helvetica 13 F
GS
[1 0 0 1 0 0] CT
-4.5 13 moveto 
1 -1 scale
(1) t 
GR
GR
GS
[0.75 0 0 0.75 255.76591 388.74998] CT
0.149 GC
/Helvetica 13 F
GS
[1 0 0 1 0 0] CT
-4.5 13 moveto 
1 -1 scale
(2) t 
GR
GR
GS
[0.75 0 0 0.75 292.87118 388.74998] CT
0.149 GC
/Helvetica 13 F
GS
[1 0 0 1 0 0] CT
-4.5 13 moveto 
1 -1 scale
(3) t 
GR
GR
GS
[0.75 0 0 0.75 329.97643 388.74998] CT
0.149 GC
/Helvetica 13 F
GS
[1 0 0 1 0 0] CT
-4.5 13 moveto 
1 -1 scale
(4) t 
GR
GR
GS
[0.75 0 0 0.75 367.0817 388.74998] CT
0.149 GC
/Helvetica 13 F
GS
[1 0 0 1 0 0] CT
-4.5 13 moveto 
1 -1 scale
(5) t 
GR
GR
GS
[0.75 0 0 0.75 404.18697 388.74998] CT
0.149 GC
/Helvetica 13 F
GS
[1 0 0 1 0 0] CT
-4.5 13 moveto 
1 -1 scale
(6) t 
GR
GR
GS
[0.75 0 0 0.75 298.12511 402.50002] CT
0.149 GC
/Helvetica 15 F
GS
[1 0 0 1 0 0] CT
-31 14 moveto 
1 -1 scale
(Time \(s\)) t 
GR
GR
GS
[0.75 0 0 0.75 0 0] CT
0.149 GC
2 setlinecap
1 LJ
0.667 LW
N
242.074 513 M
242.074 43 L
S
GR
GS
[0.75 0 0 0.75 0 0] CT
0.149 GC
2 setlinecap
1 LJ
0.667 LW
N
552.926 513 M
552.926 43 L
S
GR
GS
[0.75 0 0 0.75 0 0] CT
0.149 GC
2 setlinecap
1 LJ
0.667 LW
N
242.074 488.263 M
246.774 488.263 L
S
GR
GS
[0.75 0 0 0.75 0 0] CT
0.149 GC
2 setlinecap
1 LJ
0.667 LW
N
242.074 438.789 M
246.774 438.789 L
S
GR
GS
[0.75 0 0 0.75 0 0] CT
0.149 GC
2 setlinecap
1 LJ
0.667 LW
N
242.074 389.316 M
246.774 389.316 L
S
GR
GS
[0.75 0 0 0.75 0 0] CT
0.149 GC
2 setlinecap
1 LJ
0.667 LW
N
242.074 339.842 M
246.774 339.842 L
S
GR
GS
[0.75 0 0 0.75 0 0] CT
0.149 GC
2 setlinecap
1 LJ
0.667 LW
N
242.074 290.368 M
246.774 290.368 L
S
GR
GS
[0.75 0 0 0.75 0 0] CT
0.149 GC
2 setlinecap
1 LJ
0.667 LW
N
242.074 240.895 M
246.774 240.895 L
S
GR
GS
[0.75 0 0 0.75 0 0] CT
0.149 GC
2 setlinecap
1 LJ
0.667 LW
N
242.074 191.421 M
246.774 191.421 L
S
GR
GS
[0.75 0 0 0.75 0 0] CT
0.149 GC
2 setlinecap
1 LJ
0.667 LW
N
242.074 141.947 M
246.774 141.947 L
S
GR
GS
[0.75 0 0 0.75 0 0] CT
0.149 GC
2 setlinecap
1 LJ
0.667 LW
N
242.074 92.474 M
246.774 92.474 L
S
GR
GS
[0.75 0 0 0.75 0 0] CT
0.149 GC
2 setlinecap
1 LJ
0.667 LW
N
242.074 43 M
246.774 43 L
S
GR
GS
[0.75 0 0 0.75 0 0] CT
0.149 GC
2 setlinecap
1 LJ
0.667 LW
N
552.926 488.263 M
548.226 488.263 L
S
GR
GS
[0.75 0 0 0.75 0 0] CT
0.149 GC
2 setlinecap
1 LJ
0.667 LW
N
552.926 438.789 M
548.226 438.789 L
S
GR
GS
[0.75 0 0 0.75 0 0] CT
0.149 GC
2 setlinecap
1 LJ
0.667 LW
N
552.926 389.316 M
548.226 389.316 L
S
GR
GS
[0.75 0 0 0.75 0 0] CT
0.149 GC
2 setlinecap
1 LJ
0.667 LW
N
552.926 339.842 M
548.226 339.842 L
S
GR
GS
[0.75 0 0 0.75 0 0] CT
0.149 GC
2 setlinecap
1 LJ
0.667 LW
N
552.926 290.368 M
548.226 290.368 L
S
GR
GS
[0.75 0 0 0.75 0 0] CT
0.149 GC
2 setlinecap
1 LJ
0.667 LW
N
552.926 240.895 M
548.226 240.895 L
S
GR
GS
[0.75 0 0 0.75 0 0] CT
0.149 GC
2 setlinecap
1 LJ
0.667 LW
N
552.926 191.421 M
548.226 191.421 L
S
GR
GS
[0.75 0 0 0.75 0 0] CT
0.149 GC
2 setlinecap
1 LJ
0.667 LW
N
552.926 141.947 M
548.226 141.947 L
S
GR
GS
[0.75 0 0 0.75 0 0] CT
0.149 GC
2 setlinecap
1 LJ
0.667 LW
N
552.926 92.474 M
548.226 92.474 L
S
GR
GS
[0.75 0 0 0.75 0 0] CT
0.149 GC
2 setlinecap
1 LJ
0.667 LW
N
552.926 43 M
548.226 43 L
S
GR
GS
[0.75 0 0 0.75 177.55538 366.19736] CT
0.149 GC
/Helvetica 13 F
GS
[1 0 0 1 0 0] CT
-9 4.5 moveto 
1 -1 scale
(1) t 
GR
GR
GS
[0.75 0 0 0.75 177.55538 329.09209] CT
0.149 GC
/Helvetica 13 F
GS
[1 0 0 1 0 0] CT
-9 4.5 moveto 
1 -1 scale
(2) t 
GR
GR
GS
[0.75 0 0 0.75 177.55538 291.98685] CT
0.149 GC
/Helvetica 13 F
GS
[1 0 0 1 0 0] CT
-9 4.5 moveto 
1 -1 scale
(3) t 
GR
GR
GS
[0.75 0 0 0.75 177.55538 254.88158] CT
0.149 GC
/Helvetica 13 F
GS
[1 0 0 1 0 0] CT
-9 4.5 moveto 
1 -1 scale
(4) t 
GR
GR
GS
[0.75 0 0 0.75 177.55538 217.77631] CT
0.149 GC
/Helvetica 13 F
GS
[1 0 0 1 0 0] CT
-9 4.5 moveto 
1 -1 scale
(5) t 
GR
GR
GS
[0.75 0 0 0.75 177.55538 180.67105] CT
0.149 GC
/Helvetica 13 F
GS
[1 0 0 1 0 0] CT
-9 4.5 moveto 
1 -1 scale
(6) t 
GR
GR
GS
[0.75 0 0 0.75 177.55538 143.56579] CT
0.149 GC
/Helvetica 13 F
GS
[1 0 0 1 0 0] CT
-9 4.5 moveto 
1 -1 scale
(7) t 
GR
GR
GS
[0.75 0 0 0.75 177.55538 106.46053] CT
0.149 GC
/Helvetica 13 F
GS
[1 0 0 1 0 0] CT
-9 4.5 moveto 
1 -1 scale
(8) t 
GR
GR
GS
[0.75 0 0 0.75 177.55538 69.35526] CT
0.149 GC
/Helvetica 13 F
GS
[1 0 0 1 0 0] CT
-9 4.5 moveto 
1 -1 scale
(9) t 
GR
GR
GS
[0.75 0 0 0.75 177.55538 32.25] CT
0.149 GC
/Helvetica 13 F
GS
[1 0 0 1 0 0] CT
-17 4.5 moveto 
1 -1 scale
(10) t 
GR
GR
GS
[0 -0.75 0.75 0 161.80538 208.49982] CT
0.149 GC
/Helvetica 15 F
GS
[1 0 0 1 0 0] CT
-67 -4 moveto 
1 -1 scale
(Time Constant \(s\)) t 
GR
GR
%%Trailer
%%Pages: 1
%%EOF
