%!PS-Adobe-3.0 EPSF-3.0
%%Creator: (MATLAB, The Mathworks, Inc. Version 8.6.0.267246 \(R2015b\). Operating System: Linux)
%%Title: ./VoltagePlots.eps
%%CreationDate: 2015-10-05T02:36:13
%%Pages: (atend)
%%BoundingBox:    31   357   509   741
%%LanguageLevel: 3
%%EndComments
%%BeginProlog
%%BeginResource: procset (Apache XML Graphics Std ProcSet) 1.2 0
%%Version: 1.2 0
%%Copyright: (Copyright 2001-2003,2010 The Apache Software Foundation. License terms: http://www.apache.org/licenses/LICENSE-2.0)
/bd{bind def}bind def
/ld{load def}bd
/GR/grestore ld
/M/moveto ld
/LJ/setlinejoin ld
/C/curveto ld
/f/fill ld
/LW/setlinewidth ld
/GC/setgray ld
/t/show ld
/N/newpath ld
/CT/concat ld
/cp/closepath ld
/S/stroke ld
/L/lineto ld
/CC/setcmykcolor ld
/A/ashow ld
/GS/gsave ld
/RC/setrgbcolor ld
/RM/rmoveto ld
/ML/setmiterlimit ld
/re {4 2 roll M
1 index 0 rlineto
0 exch rlineto
neg 0 rlineto
cp } bd
/_ctm matrix def
/_tm matrix def
/BT { _ctm currentmatrix pop matrix _tm copy pop 0 0 moveto } bd
/ET { _ctm setmatrix } bd
/iTm { _ctm setmatrix _tm concat } bd
/Tm { _tm astore pop iTm 0 0 moveto } bd
/ux 0.0 def
/uy 0.0 def
/F {
  /Tp exch def
  /Tf exch def
  Tf findfont Tp scalefont setfont
  /cf Tf def  /cs Tp def
} bd
/ULS {currentpoint /uy exch def /ux exch def} bd
/ULE {
  /Tcx currentpoint pop def
  gsave
  newpath
  cf findfont cs scalefont dup
  /FontMatrix get 0 get /Ts exch def /FontInfo get dup
  /UnderlinePosition get Ts mul /To exch def
  /UnderlineThickness get Ts mul /Tt exch def
  ux uy To add moveto  Tcx uy To add lineto
  Tt setlinewidth stroke
  grestore
} bd
/OLE {
  /Tcx currentpoint pop def
  gsave
  newpath
  cf findfont cs scalefont dup
  /FontMatrix get 0 get /Ts exch def /FontInfo get dup
  /UnderlinePosition get Ts mul /To exch def
  /UnderlineThickness get Ts mul /Tt exch def
  ux uy To add cs add moveto Tcx uy To add cs add lineto
  Tt setlinewidth stroke
  grestore
} bd
/SOE {
  /Tcx currentpoint pop def
  gsave
  newpath
  cf findfont cs scalefont dup
  /FontMatrix get 0 get /Ts exch def /FontInfo get dup
  /UnderlinePosition get Ts mul /To exch def
  /UnderlineThickness get Ts mul /Tt exch def
  ux uy To add cs 10 mul 26 idiv add moveto Tcx uy To add cs 10 mul 26 idiv add lineto
  Tt setlinewidth stroke
  grestore
} bd
/QT {
/Y22 exch store
/X22 exch store
/Y21 exch store
/X21 exch store
currentpoint
/Y21 load 2 mul add 3 div exch
/X21 load 2 mul add 3 div exch
/X21 load 2 mul /X22 load add 3 div
/Y21 load 2 mul /Y22 load add 3 div
/X22 load /Y22 load curveto
} bd
/SSPD {
dup length /d exch dict def
{
/v exch def
/k exch def
currentpagedevice k known {
/cpdv currentpagedevice k get def
v cpdv ne {
/upd false def
/nullv v type /nulltype eq def
/nullcpdv cpdv type /nulltype eq def
nullv nullcpdv or
{
/upd true def
} {
/sametype v type cpdv type eq def
sametype {
v type /arraytype eq {
/vlen v length def
/cpdvlen cpdv length def
vlen cpdvlen eq {
0 1 vlen 1 sub {
/i exch def
/obj v i get def
/cpdobj cpdv i get def
obj cpdobj ne {
/upd true def
exit
} if
} for
} {
/upd true def
} ifelse
} {
v type /dicttype eq {
v {
/dv exch def
/dk exch def
/cpddv cpdv dk get def
dv cpddv ne {
/upd true def
exit
} if
} forall
} {
/upd true def
} ifelse
} ifelse
} if
} ifelse
upd true eq {
d k v put
} if
} if
} if
} forall
d length 0 gt {
d setpagedevice
} if
} bd
%%EndResource
%%BeginResource: procset (Apache XML Graphics EPS ProcSet) 1.0 0
%%Version: 1.0 0
%%Copyright: (Copyright 2002-2003 The Apache Software Foundation. License terms: http://www.apache.org/licenses/LICENSE-2.0)
/BeginEPSF { %def
/b4_Inc_state save def         % Save state for cleanup
/dict_count countdictstack def % Count objects on dict stack
/op_count count 1 sub def      % Count objects on operand stack
userdict begin                 % Push userdict on dict stack
/showpage { } def              % Redefine showpage, { } = null proc
0 setgray 0 setlinecap         % Prepare graphics state
1 setlinewidth 0 setlinejoin
10 setmiterlimit [ ] 0 setdash newpath
/languagelevel where           % If level not equal to 1 then
{pop languagelevel             % set strokeadjust and
1 ne                           % overprint to their defaults.
{false setstrokeadjust false setoverprint
} if
} if
} bd
/EndEPSF { %def
count op_count sub {pop} repeat            % Clean up stacks
countdictstack dict_count sub {end} repeat
b4_Inc_state restore
} bd
%%EndResource
%FOPBeginFontDict
%%IncludeResource: font Courier-Bold
%%IncludeResource: font Helvetica
%%IncludeResource: font Courier-BoldOblique
%%IncludeResource: font Courier-Oblique
%%IncludeResource: font Times-Roman
%%IncludeResource: font Helvetica-BoldOblique
%%IncludeResource: font Helvetica-Bold
%%IncludeResource: font Helvetica-Oblique
%%IncludeResource: font Times-BoldItalic
%%IncludeResource: font Courier
%%IncludeResource: font Times-Italic
%%IncludeResource: font Times-Bold
%%IncludeResource: font Symbol
%%IncludeResource: font ZapfDingbats
%FOPEndFontDict
%%BeginResource: encoding WinAnsiEncoding
/WinAnsiEncoding [
/.notdef /.notdef /.notdef /.notdef /.notdef
/.notdef /.notdef /.notdef /.notdef /.notdef
/.notdef /.notdef /.notdef /.notdef /.notdef
/.notdef /.notdef /.notdef /.notdef /.notdef
/.notdef /.notdef /.notdef /.notdef /.notdef
/.notdef /.notdef /.notdef /.notdef /.notdef
/.notdef /.notdef /space /exclam /quotedbl
/numbersign /dollar /percent /ampersand /quotesingle
/parenleft /parenright /asterisk /plus /comma
/hyphen /period /slash /zero /one
/two /three /four /five /six
/seven /eight /nine /colon /semicolon
/less /equal /greater /question /at
/A /B /C /D /E
/F /G /H /I /J
/K /L /M /N /O
/P /Q /R /S /T
/U /V /W /X /Y
/Z /bracketleft /backslash /bracketright /asciicircum
/underscore /quoteleft /a /b /c
/d /e /f /g /h
/i /j /k /l /m
/n /o /p /q /r
/s /t /u /v /w
/x /y /z /braceleft /bar
/braceright /asciitilde /bullet /Euro /bullet
/quotesinglbase /florin /quotedblbase /ellipsis /dagger
/daggerdbl /circumflex /perthousand /Scaron /guilsinglleft
/OE /bullet /Zcaron /bullet /bullet
/quoteleft /quoteright /quotedblleft /quotedblright /bullet
/endash /emdash /asciitilde /trademark /scaron
/guilsinglright /oe /bullet /zcaron /Ydieresis
/space /exclamdown /cent /sterling /currency
/yen /brokenbar /section /dieresis /copyright
/ordfeminine /guillemotleft /logicalnot /sfthyphen /registered
/macron /degree /plusminus /twosuperior /threesuperior
/acute /mu /paragraph /middot /cedilla
/onesuperior /ordmasculine /guillemotright /onequarter /onehalf
/threequarters /questiondown /Agrave /Aacute /Acircumflex
/Atilde /Adieresis /Aring /AE /Ccedilla
/Egrave /Eacute /Ecircumflex /Edieresis /Igrave
/Iacute /Icircumflex /Idieresis /Eth /Ntilde
/Ograve /Oacute /Ocircumflex /Otilde /Odieresis
/multiply /Oslash /Ugrave /Uacute /Ucircumflex
/Udieresis /Yacute /Thorn /germandbls /agrave
/aacute /acircumflex /atilde /adieresis /aring
/ae /ccedilla /egrave /eacute /ecircumflex
/edieresis /igrave /iacute /icircumflex /idieresis
/eth /ntilde /ograve /oacute /ocircumflex
/otilde /odieresis /divide /oslash /ugrave
/uacute /ucircumflex /udieresis /yacute /thorn
/ydieresis
] def
%%EndResource
%FOPBeginFontReencode
/Courier-Bold findfont
dup length dict begin
  {1 index /FID ne {def} {pop pop} ifelse} forall
  /Encoding WinAnsiEncoding def
  currentdict
end
/Courier-Bold exch definefont pop
/Helvetica findfont
dup length dict begin
  {1 index /FID ne {def} {pop pop} ifelse} forall
  /Encoding WinAnsiEncoding def
  currentdict
end
/Helvetica exch definefont pop
/Courier-BoldOblique findfont
dup length dict begin
  {1 index /FID ne {def} {pop pop} ifelse} forall
  /Encoding WinAnsiEncoding def
  currentdict
end
/Courier-BoldOblique exch definefont pop
/Courier-Oblique findfont
dup length dict begin
  {1 index /FID ne {def} {pop pop} ifelse} forall
  /Encoding WinAnsiEncoding def
  currentdict
end
/Courier-Oblique exch definefont pop
/Times-Roman findfont
dup length dict begin
  {1 index /FID ne {def} {pop pop} ifelse} forall
  /Encoding WinAnsiEncoding def
  currentdict
end
/Times-Roman exch definefont pop
/Helvetica-BoldOblique findfont
dup length dict begin
  {1 index /FID ne {def} {pop pop} ifelse} forall
  /Encoding WinAnsiEncoding def
  currentdict
end
/Helvetica-BoldOblique exch definefont pop
/Helvetica-Bold findfont
dup length dict begin
  {1 index /FID ne {def} {pop pop} ifelse} forall
  /Encoding WinAnsiEncoding def
  currentdict
end
/Helvetica-Bold exch definefont pop
/Helvetica-Oblique findfont
dup length dict begin
  {1 index /FID ne {def} {pop pop} ifelse} forall
  /Encoding WinAnsiEncoding def
  currentdict
end
/Helvetica-Oblique exch definefont pop
/Times-BoldItalic findfont
dup length dict begin
  {1 index /FID ne {def} {pop pop} ifelse} forall
  /Encoding WinAnsiEncoding def
  currentdict
end
/Times-BoldItalic exch definefont pop
/Courier findfont
dup length dict begin
  {1 index /FID ne {def} {pop pop} ifelse} forall
  /Encoding WinAnsiEncoding def
  currentdict
end
/Courier exch definefont pop
/Times-Italic findfont
dup length dict begin
  {1 index /FID ne {def} {pop pop} ifelse} forall
  /Encoding WinAnsiEncoding def
  currentdict
end
/Times-Italic exch definefont pop
/Times-Bold findfont
dup length dict begin
  {1 index /FID ne {def} {pop pop} ifelse} forall
  /Encoding WinAnsiEncoding def
  currentdict
end
/Times-Bold exch definefont pop
%FOPEndFontReencode
%%EndProlog
%%Page: 1 1
%%PageBoundingBox: 0 0 576 756
%%BeginPageSetup
[1 0 0 -1 0 756] CT
%%EndPageSetup
GS
[0.98462 0 0 0.98438 0 0] CT
0.997 GC
N
0 0 585 768 re
f
GR
GS
[0.98462 0 0 0.98438 0 0] CT
0.997 GC
N
0 0 585 768 re
f
GR
GS
[0.98462 0 0 0.98438 0 0] CT
0.997 GC
N
74 122 M
516 122 L
516 31 L
74 31 L
cp
f
GR
GS
[0.98462 0 0 0.98438 0 0] CT
0 GC
2 setlinecap
1 LJ
0.667 LW
N
74 122 M
516 122 L
S
GR
GS
[0.98462 0 0 0.98438 0 0] CT
0 GC
2 setlinecap
1 LJ
0.667 LW
N
74 31 M
516 31 L
S
GR
GS
[0.98462 0 0 0.98438 0 0] CT
0 GC
2 setlinecap
1 LJ
0.667 LW
N
110.833 122 M
110.833 117.58 L
S
GR
GS
[0.98462 0 0 0.98438 0 0] CT
0 GC
2 setlinecap
1 LJ
0.667 LW
N
156.875 122 M
156.875 117.58 L
S
GR
GS
[0.98462 0 0 0.98438 0 0] CT
0 GC
2 setlinecap
1 LJ
0.667 LW
N
202.917 122 M
202.917 117.58 L
S
GR
GS
[0.98462 0 0 0.98438 0 0] CT
0 GC
2 setlinecap
1 LJ
0.667 LW
N
248.958 122 M
248.958 117.58 L
S
GR
GS
[0.98462 0 0 0.98438 0 0] CT
0 GC
2 setlinecap
1 LJ
0.667 LW
N
295 122 M
295 117.58 L
S
GR
GS
[0.98462 0 0 0.98438 0 0] CT
0 GC
2 setlinecap
1 LJ
0.667 LW
N
341.042 122 M
341.042 117.58 L
S
GR
GS
[0.98462 0 0 0.98438 0 0] CT
0 GC
2 setlinecap
1 LJ
0.667 LW
N
387.083 122 M
387.083 117.58 L
S
GR
GS
[0.98462 0 0 0.98438 0 0] CT
0 GC
2 setlinecap
1 LJ
0.667 LW
N
433.125 122 M
433.125 117.58 L
S
GR
GS
[0.98462 0 0 0.98438 0 0] CT
0 GC
2 setlinecap
1 LJ
0.667 LW
N
479.167 122 M
479.167 117.58 L
S
GR
GS
[0.98462 0 0 0.98438 0 0] CT
0 GC
2 setlinecap
1 LJ
0.667 LW
N
110.833 31 M
110.833 35.42 L
S
GR
GS
[0.98462 0 0 0.98438 0 0] CT
0 GC
2 setlinecap
1 LJ
0.667 LW
N
156.875 31 M
156.875 35.42 L
S
GR
GS
[0.98462 0 0 0.98438 0 0] CT
0 GC
2 setlinecap
1 LJ
0.667 LW
N
202.917 31 M
202.917 35.42 L
S
GR
GS
[0.98462 0 0 0.98438 0 0] CT
0 GC
2 setlinecap
1 LJ
0.667 LW
N
248.958 31 M
248.958 35.42 L
S
GR
GS
[0.98462 0 0 0.98438 0 0] CT
0 GC
2 setlinecap
1 LJ
0.667 LW
N
295 31 M
295 35.42 L
S
GR
GS
[0.98462 0 0 0.98438 0 0] CT
0 GC
2 setlinecap
1 LJ
0.667 LW
N
341.042 31 M
341.042 35.42 L
S
GR
GS
[0.98462 0 0 0.98438 0 0] CT
0 GC
2 setlinecap
1 LJ
0.667 LW
N
387.083 31 M
387.083 35.42 L
S
GR
GS
[0.98462 0 0 0.98438 0 0] CT
0 GC
2 setlinecap
1 LJ
0.667 LW
N
433.125 31 M
433.125 35.42 L
S
GR
GS
[0.98462 0 0 0.98438 0 0] CT
0 GC
2 setlinecap
1 LJ
0.667 LW
N
479.167 31 M
479.167 35.42 L
S
GR
GS
[0.98462 0 0 0.98438 109.12821 124.71875] CT
0 GC
/Helvetica 10 F
GS
[1 0 0 1 0 0] CT
-3.5 10 moveto 
1 -1 scale
(0) t 
GR
GR
GS
[0.98462 0 0 0.98438 154.46154 124.71875] CT
0 GC
/Helvetica 10 F
GS
[1 0 0 1 0 0] CT
-8 10 moveto 
1 -1 scale
(0.5) t 
GR
GR
GS
[0.98462 0 0 0.98438 199.79488 124.71875] CT
0 GC
/Helvetica 10 F
GS
[1 0 0 1 0 0] CT
-3.5 10 moveto 
1 -1 scale
(1) t 
GR
GR
GS
[0.98462 0 0 0.98438 245.1282 124.71875] CT
0 GC
/Helvetica 10 F
GS
[1 0 0 1 0 0] CT
-8 10 moveto 
1 -1 scale
(1.5) t 
GR
GR
GS
[0.98462 0 0 0.98438 290.46154 124.71875] CT
0 GC
/Helvetica 10 F
GS
[1 0 0 1 0 0] CT
-3.5 10 moveto 
1 -1 scale
(2) t 
GR
GR
GS
[0.98462 0 0 0.98438 335.79486 124.71875] CT
0 GC
/Helvetica 10 F
GS
[1 0 0 1 0 0] CT
-8 10 moveto 
1 -1 scale
(2.5) t 
GR
GR
GS
[0.98462 0 0 0.98438 381.12822 124.71875] CT
0 GC
/Helvetica 10 F
GS
[1 0 0 1 0 0] CT
-3.5 10 moveto 
1 -1 scale
(3) t 
GR
GR
GS
[0.98462 0 0 0.98438 426.46154 124.71875] CT
0 GC
/Helvetica 10 F
GS
[1 0 0 1 0 0] CT
-8 10 moveto 
1 -1 scale
(3.5) t 
GR
GR
GS
[0.98462 0 0 0.98438 471.79486 124.71875] CT
0 GC
/Helvetica 10 F
GS
[1 0 0 1 0 0] CT
-3.5 10 moveto 
1 -1 scale
(4) t 
GR
GR
GS
[0.98462 0 0 0.98438 290.46175 138.82812] CT
0 GC
/Helvetica 11 F
GS
[1 0 0 1 0 0] CT
-14 11 moveto 
1 -1 scale
(Time) t 
GR
GR
GS
[0.98462 0 0 0.98438 0 0] CT
0 GC
2 setlinecap
1 LJ
0.667 LW
N
74 122 M
74 31 L
S
GR
GS
[0.98462 0 0 0.98438 0 0] CT
0 GC
2 setlinecap
1 LJ
0.667 LW
N
516 122 M
516 31 L
S
GR
GS
[0.98462 0 0 0.98438 0 0] CT
0 GC
2 setlinecap
1 LJ
0.667 LW
N
74 114.417 M
78.42 114.417 L
S
GR
GS
[0.98462 0 0 0.98438 0 0] CT
0 GC
2 setlinecap
1 LJ
0.667 LW
N
74 76.5 M
78.42 76.5 L
S
GR
GS
[0.98462 0 0 0.98438 0 0] CT
0 GC
2 setlinecap
1 LJ
0.667 LW
N
74 38.583 M
78.42 38.583 L
S
GR
GS
[0.98462 0 0 0.98438 0 0] CT
0 GC
2 setlinecap
1 LJ
0.667 LW
N
516 114.417 M
511.58 114.417 L
S
GR
GS
[0.98462 0 0 0.98438 0 0] CT
0 GC
2 setlinecap
1 LJ
0.667 LW
N
516 76.5 M
511.58 76.5 L
S
GR
GS
[0.98462 0 0 0.98438 0 0] CT
0 GC
2 setlinecap
1 LJ
0.667 LW
N
516 38.583 M
511.58 38.583 L
S
GR
GS
[0.98462 0 0 0.98438 68.23541 112.6289] CT
0 GC
/Helvetica 10 F
GS
[1 0 0 1 0 0] CT
-7 3.5 moveto 
1 -1 scale
(0) t 
GR
GR
GS
[0.98462 0 0 0.98438 68.23541 75.30469] CT
0 GC
/Helvetica 10 F
GS
[1 0 0 1 0 0] CT
-13 3.5 moveto 
1 -1 scale
(50) t 
GR
GR
GS
[0.98462 0 0 0.98438 68.23541 37.98047] CT
0 GC
/Helvetica 10 F
GS
[1 0 0 1 0 0] CT
-20 3.5 moveto 
1 -1 scale
(100) t 
GR
GR
GS
[0 -0.98437 0.98462 0 44.60464 75.30464] CT
0 GC
/Helvetica 11 F
GS
[1 0 0 1 0 0] CT
-21.5 -3 moveto 
1 -1 scale
(Voltage) t 
GR
GR
GS
[0.98462 0 0 0.98438 290.46181 28.45312] CT
0 GC
/Helvetica-Bold 11 F
GS
[1 0 0 1 0 0] CT
-101.5 -3 moveto 
1 -1 scale
(Voltage Decay over time \(th174\)) t 
GR
GR
GS
[0.98462 0 0 0.98438 0 0] CT
0 GC
1 LJ
0.667 LW
N
74 114.417 M
516 114.417 L
S
GR
GS
[0.98462 0 0 0.98438 0 0] CT
0 GC
1 LJ
N
114.5 38.5 M
113.736 36.149 L
111.736 34.696 L
109.264 34.696 L
107.264 36.149 L
106.5 38.5 L
107.264 40.851 L
109.264 42.304 L
111.736 42.304 L
113.736 40.851 L
cp
S
GR
GS
[0.98462 0 0 0.98438 0 0] CT
0 GC
1 LJ
N
160.5 67.5 M
159.736 65.149 L
157.736 63.696 L
155.264 63.696 L
153.264 65.149 L
152.5 67.5 L
153.264 69.851 L
155.264 71.304 L
157.736 71.304 L
159.736 69.851 L
cp
S
GR
GS
[0.98462 0 0 0.98438 0 0] CT
0 GC
1 LJ
N
206.5 85.5 M
205.736 83.149 L
203.736 81.696 L
201.264 81.696 L
199.264 83.149 L
198.5 85.5 L
199.264 87.851 L
201.264 89.304 L
203.736 89.304 L
205.736 87.851 L
cp
S
GR
GS
[0.98462 0 0 0.98438 0 0] CT
0 GC
1 LJ
N
252.5 98.5 M
251.736 96.149 L
249.736 94.696 L
247.264 94.696 L
245.264 96.149 L
244.5 98.5 L
245.264 100.851 L
247.264 102.304 L
249.736 102.304 L
251.736 100.851 L
cp
S
GR
GS
[0.98462 0 0 0.98438 0 0] CT
0 GC
1 LJ
N
299.5 104.5 M
298.736 102.149 L
296.736 100.696 L
294.264 100.696 L
292.264 102.149 L
291.5 104.5 L
292.264 106.851 L
294.264 108.304 L
296.736 108.304 L
298.736 106.851 L
cp
S
GR
GS
[0.98462 0 0 0.98438 0 0] CT
0 GC
1 LJ
N
345.5 109.5 M
344.736 107.149 L
342.736 105.696 L
340.264 105.696 L
338.264 107.149 L
337.5 109.5 L
338.264 111.851 L
340.264 113.304 L
342.736 113.304 L
344.736 111.851 L
cp
S
GR
GS
[0.98462 0 0 0.98438 0 0] CT
0 GC
1 LJ
N
391.5 111.5 M
390.736 109.149 L
388.736 107.696 L
386.264 107.696 L
384.264 109.149 L
383.5 111.5 L
384.264 113.851 L
386.264 115.304 L
388.736 115.304 L
390.736 113.851 L
cp
S
GR
GS
[0.98462 0 0 0.98438 0 0] CT
0 GC
1 LJ
N
437.5 112.5 M
436.736 110.149 L
434.736 108.696 L
432.264 108.696 L
430.264 110.149 L
429.5 112.5 L
430.264 114.851 L
432.264 116.304 L
434.736 116.304 L
436.736 114.851 L
cp
S
GR
GS
[0.98462 0 0 0.98438 0 0] CT
0 GC
1 LJ
N
483.5 112.5 M
482.736 110.149 L
480.736 108.696 L
478.264 108.696 L
476.264 110.149 L
475.5 112.5 L
476.264 114.851 L
478.264 116.304 L
480.736 116.304 L
482.736 114.851 L
cp
S
GR
GS
[0.98462 0 0 0.98438 0 0] CT
0 GC
1 LJ
0.667 LW
N
110.833 114.417 M
110.833 38.583 L
S
GR
GS
[0.98462 0 0 0.98438 0 0] CT
0 GC
1 LJ
0.667 LW
N
156.875 114.417 M
156.875 67.4 L
S
GR
GS
[0.98462 0 0 0.98438 0 0] CT
0 GC
1 LJ
0.667 LW
N
202.917 114.417 M
202.917 85.6 L
S
GR
GS
[0.98462 0 0 0.98438 0 0] CT
0 GC
1 LJ
0.667 LW
N
248.958 114.417 M
248.958 98.492 L
S
GR
GS
[0.98462 0 0 0.98438 0 0] CT
0 GC
1 LJ
0.667 LW
N
295 114.417 M
295 104.558 L
S
GR
GS
[0.98462 0 0 0.98438 0 0] CT
0 GC
1 LJ
0.667 LW
N
341.042 114.417 M
341.042 109.108 L
S
GR
GS
[0.98462 0 0 0.98438 0 0] CT
0 GC
1 LJ
0.667 LW
N
387.083 114.417 M
387.083 111.383 L
S
GR
GS
[0.98462 0 0 0.98438 0 0] CT
0 GC
1 LJ
0.667 LW
N
433.125 114.417 M
433.125 112.9 L
S
GR
GS
[0.98462 0 0 0.98438 0 0] CT
0 GC
1 LJ
0.667 LW
N
479.167 114.417 M
479.167 112.142 L
S
GR
GS
[0.98462 0 0 0.98438 0 0] CT
0.997 GC
N
74 247 M
516 247 L
516 157 L
74 157 L
cp
f
GR
GS
[0.98462 0 0 0.98438 0 0] CT
0 GC
2 setlinecap
1 LJ
0.667 LW
N
74 247 M
516 247 L
S
GR
GS
[0.98462 0 0 0.98438 0 0] CT
0 GC
2 setlinecap
1 LJ
0.667 LW
N
74 157 M
516 157 L
S
GR
GS
[0.98462 0 0 0.98438 0 0] CT
0 GC
2 setlinecap
1 LJ
0.667 LW
N
110.833 247 M
110.833 242.58 L
S
GR
GS
[0.98462 0 0 0.98438 0 0] CT
0 GC
2 setlinecap
1 LJ
0.667 LW
N
156.875 247 M
156.875 242.58 L
S
GR
GS
[0.98462 0 0 0.98438 0 0] CT
0 GC
2 setlinecap
1 LJ
0.667 LW
N
202.917 247 M
202.917 242.58 L
S
GR
GS
[0.98462 0 0 0.98438 0 0] CT
0 GC
2 setlinecap
1 LJ
0.667 LW
N
248.958 247 M
248.958 242.58 L
S
GR
GS
[0.98462 0 0 0.98438 0 0] CT
0 GC
2 setlinecap
1 LJ
0.667 LW
N
295 247 M
295 242.58 L
S
GR
GS
[0.98462 0 0 0.98438 0 0] CT
0 GC
2 setlinecap
1 LJ
0.667 LW
N
341.042 247 M
341.042 242.58 L
S
GR
GS
[0.98462 0 0 0.98438 0 0] CT
0 GC
2 setlinecap
1 LJ
0.667 LW
N
387.083 247 M
387.083 242.58 L
S
GR
GS
[0.98462 0 0 0.98438 0 0] CT
0 GC
2 setlinecap
1 LJ
0.667 LW
N
433.125 247 M
433.125 242.58 L
S
GR
GS
[0.98462 0 0 0.98438 0 0] CT
0 GC
2 setlinecap
1 LJ
0.667 LW
N
479.167 247 M
479.167 242.58 L
S
GR
GS
[0.98462 0 0 0.98438 0 0] CT
0 GC
2 setlinecap
1 LJ
0.667 LW
N
110.833 157 M
110.833 161.42 L
S
GR
GS
[0.98462 0 0 0.98438 0 0] CT
0 GC
2 setlinecap
1 LJ
0.667 LW
N
156.875 157 M
156.875 161.42 L
S
GR
GS
[0.98462 0 0 0.98438 0 0] CT
0 GC
2 setlinecap
1 LJ
0.667 LW
N
202.917 157 M
202.917 161.42 L
S
GR
GS
[0.98462 0 0 0.98438 0 0] CT
0 GC
2 setlinecap
1 LJ
0.667 LW
N
248.958 157 M
248.958 161.42 L
S
GR
GS
[0.98462 0 0 0.98438 0 0] CT
0 GC
2 setlinecap
1 LJ
0.667 LW
N
295 157 M
295 161.42 L
S
GR
GS
[0.98462 0 0 0.98438 0 0] CT
0 GC
2 setlinecap
1 LJ
0.667 LW
N
341.042 157 M
341.042 161.42 L
S
GR
GS
[0.98462 0 0 0.98438 0 0] CT
0 GC
2 setlinecap
1 LJ
0.667 LW
N
387.083 157 M
387.083 161.42 L
S
GR
GS
[0.98462 0 0 0.98438 0 0] CT
0 GC
2 setlinecap
1 LJ
0.667 LW
N
433.125 157 M
433.125 161.42 L
S
GR
GS
[0.98462 0 0 0.98438 0 0] CT
0 GC
2 setlinecap
1 LJ
0.667 LW
N
479.167 157 M
479.167 161.42 L
S
GR
GS
[0.98462 0 0 0.98438 109.12821 247.76562] CT
0 GC
/Helvetica 10 F
GS
[1 0 0 1 0 0] CT
-3.5 10 moveto 
1 -1 scale
(0) t 
GR
GR
GS
[0.98462 0 0 0.98438 154.46154 247.76562] CT
0 GC
/Helvetica 10 F
GS
[1 0 0 1 0 0] CT
-8 10 moveto 
1 -1 scale
(0.5) t 
GR
GR
GS
[0.98462 0 0 0.98438 199.79488 247.76562] CT
0 GC
/Helvetica 10 F
GS
[1 0 0 1 0 0] CT
-3.5 10 moveto 
1 -1 scale
(1) t 
GR
GR
GS
[0.98462 0 0 0.98438 245.1282 247.76562] CT
0 GC
/Helvetica 10 F
GS
[1 0 0 1 0 0] CT
-8 10 moveto 
1 -1 scale
(1.5) t 
GR
GR
GS
[0.98462 0 0 0.98438 290.46154 247.76562] CT
0 GC
/Helvetica 10 F
GS
[1 0 0 1 0 0] CT
-3.5 10 moveto 
1 -1 scale
(2) t 
GR
GR
GS
[0.98462 0 0 0.98438 335.79486 247.76562] CT
0 GC
/Helvetica 10 F
GS
[1 0 0 1 0 0] CT
-8 10 moveto 
1 -1 scale
(2.5) t 
GR
GR
GS
[0.98462 0 0 0.98438 381.12822 247.76562] CT
0 GC
/Helvetica 10 F
GS
[1 0 0 1 0 0] CT
-3.5 10 moveto 
1 -1 scale
(3) t 
GR
GR
GS
[0.98462 0 0 0.98438 426.46154 247.76562] CT
0 GC
/Helvetica 10 F
GS
[1 0 0 1 0 0] CT
-8 10 moveto 
1 -1 scale
(3.5) t 
GR
GR
GS
[0.98462 0 0 0.98438 471.79486 247.76562] CT
0 GC
/Helvetica 10 F
GS
[1 0 0 1 0 0] CT
-3.5 10 moveto 
1 -1 scale
(4) t 
GR
GR
GS
[0.98462 0 0 0.98438 290.46175 261.87499] CT
0 GC
/Helvetica 11 F
GS
[1 0 0 1 0 0] CT
-14 11 moveto 
1 -1 scale
(Time) t 
GR
GR
GS
[0.98462 0 0 0.98438 0 0] CT
0 GC
2 setlinecap
1 LJ
0.667 LW
N
74 247 M
74 157 L
S
GR
GS
[0.98462 0 0 0.98438 0 0] CT
0 GC
2 setlinecap
1 LJ
0.667 LW
N
516 247 M
516 157 L
S
GR
GS
[0.98462 0 0 0.98438 0 0] CT
0 GC
2 setlinecap
1 LJ
0.667 LW
N
74 239.5 M
78.42 239.5 L
S
GR
GS
[0.98462 0 0 0.98438 0 0] CT
0 GC
2 setlinecap
1 LJ
0.667 LW
N
74 202 M
78.42 202 L
S
GR
GS
[0.98462 0 0 0.98438 0 0] CT
0 GC
2 setlinecap
1 LJ
0.667 LW
N
74 164.5 M
78.42 164.5 L
S
GR
GS
[0.98462 0 0 0.98438 0 0] CT
0 GC
2 setlinecap
1 LJ
0.667 LW
N
516 239.5 M
511.58 239.5 L
S
GR
GS
[0.98462 0 0 0.98438 0 0] CT
0 GC
2 setlinecap
1 LJ
0.667 LW
N
516 202 M
511.58 202 L
S
GR
GS
[0.98462 0 0 0.98438 0 0] CT
0 GC
2 setlinecap
1 LJ
0.667 LW
N
516 164.5 M
511.58 164.5 L
S
GR
GS
[0.98462 0 0 0.98438 68.23541 235.75781] CT
0 GC
/Helvetica 10 F
GS
[1 0 0 1 0 0] CT
-7 3.5 moveto 
1 -1 scale
(0) t 
GR
GR
GS
[0.98462 0 0 0.98438 68.23541 198.84375] CT
0 GC
/Helvetica 10 F
GS
[1 0 0 1 0 0] CT
-13 3.5 moveto 
1 -1 scale
(50) t 
GR
GR
GS
[0.98462 0 0 0.98438 68.23541 161.92969] CT
0 GC
/Helvetica 10 F
GS
[1 0 0 1 0 0] CT
-20 3.5 moveto 
1 -1 scale
(100) t 
GR
GR
GS
[0 -0.98437 0.98462 0 44.60464 198.8437] CT
0 GC
/Helvetica 11 F
GS
[1 0 0 1 0 0] CT
-21.5 -3 moveto 
1 -1 scale
(Voltage) t 
GR
GR
GS
[0.98462 0 0 0.98438 0 0] CT
0 GC
1 LJ
0.667 LW
N
74 239.5 M
516 239.5 L
S
GR
GS
[0.98462 0 0 0.98438 0 0] CT
0 GC
N
92.417 239.5 M
129.25 239.5 L
129.25 164.5 L
92.417 164.5 L
cp
f
GR
GS
[0.98462 0 0 0.98438 0 0] CT
0 GC
N
138.458 239.5 M
175.292 239.5 L
175.292 193 L
138.458 193 L
cp
f
GR
GS
[0.98462 0 0 0.98438 0 0] CT
0 GC
N
184.5 239.5 M
221.333 239.5 L
221.333 211 L
184.5 211 L
cp
f
GR
GS
[0.98462 0 0 0.98438 0 0] CT
0 GC
N
230.542 239.5 M
267.375 239.5 L
267.375 223.75 L
230.542 223.75 L
cp
f
GR
GS
[0.98462 0 0 0.98438 0 0] CT
0 GC
N
276.583 239.5 M
313.417 239.5 L
313.417 229.75 L
276.583 229.75 L
cp
f
GR
GS
[0.98462 0 0 0.98438 0 0] CT
0 GC
N
322.625 239.5 M
359.458 239.5 L
359.458 234.25 L
322.625 234.25 L
cp
f
GR
GS
[0.98462 0 0 0.98438 0 0] CT
0 GC
N
368.667 239.5 M
405.5 239.5 L
405.5 236.5 L
368.667 236.5 L
cp
f
GR
GS
[0.98462 0 0 0.98438 0 0] CT
0 GC
N
414.708 239.5 M
451.542 239.5 L
451.542 238 L
414.708 238 L
cp
f
GR
GS
[0.98462 0 0 0.98438 0 0] CT
0 GC
N
460.75 239.5 M
497.583 239.5 L
497.583 237.25 L
460.75 237.25 L
cp
f
GR
GS
[0.98462 0 0 0.98438 0 0] CT
0 GC
10.0 ML
0.667 LW
N
92.417 239.5 M
92.417 164.5 L
129.25 164.5 L
129.25 239.5 L
cp
S
GR
GS
[0.98462 0 0 0.98438 0 0] CT
0 GC
10.0 ML
0.667 LW
N
138.458 239.5 M
138.458 193 L
175.292 193 L
175.292 239.5 L
cp
S
GR
GS
[0.98462 0 0 0.98438 0 0] CT
0 GC
10.0 ML
0.667 LW
N
184.5 239.5 M
184.5 211 L
221.333 211 L
221.333 239.5 L
cp
S
GR
GS
[0.98462 0 0 0.98438 0 0] CT
0 GC
10.0 ML
0.667 LW
N
230.542 239.5 M
230.542 223.75 L
267.375 223.75 L
267.375 239.5 L
cp
S
GR
GS
[0.98462 0 0 0.98438 0 0] CT
0 GC
10.0 ML
0.667 LW
N
276.583 239.5 M
276.583 229.75 L
313.417 229.75 L
313.417 239.5 L
cp
S
GR
GS
[0.98462 0 0 0.98438 0 0] CT
0 GC
10.0 ML
0.667 LW
N
322.625 239.5 M
322.625 234.25 L
359.458 234.25 L
359.458 239.5 L
cp
S
GR
GS
[0.98462 0 0 0.98438 0 0] CT
0 GC
10.0 ML
0.667 LW
N
368.667 239.5 M
368.667 236.5 L
405.5 236.5 L
405.5 239.5 L
cp
S
GR
GS
[0.98462 0 0 0.98438 0 0] CT
0 GC
10.0 ML
0.667 LW
N
414.708 239.5 M
414.708 238 L
451.542 238 L
451.542 239.5 L
cp
S
GR
GS
[0.98462 0 0 0.98438 0 0] CT
0 GC
10.0 ML
0.667 LW
N
460.75 239.5 M
460.75 237.25 L
497.583 237.25 L
497.583 239.5 L
cp
S
GR
GS
[0.98462 0 0 0.98438 0 0] CT
0.997 GC
N
74 372 M
516 372 L
516 282 L
74 282 L
cp
f
GR
GS
[0.98462 0 0 0.98438 0 0] CT
0 GC
2 setlinecap
1 LJ
0.667 LW
N
74 372 M
516 372 L
S
GR
GS
[0.98462 0 0 0.98438 0 0] CT
0 GC
2 setlinecap
1 LJ
0.667 LW
N
74 282 M
516 282 L
S
GR
GS
[0.98462 0 0 0.98438 0 0] CT
0 GC
2 setlinecap
1 LJ
0.667 LW
N
110.833 372 M
110.833 367.58 L
S
GR
GS
[0.98462 0 0 0.98438 0 0] CT
0 GC
2 setlinecap
1 LJ
0.667 LW
N
156.875 372 M
156.875 367.58 L
S
GR
GS
[0.98462 0 0 0.98438 0 0] CT
0 GC
2 setlinecap
1 LJ
0.667 LW
N
202.917 372 M
202.917 367.58 L
S
GR
GS
[0.98462 0 0 0.98438 0 0] CT
0 GC
2 setlinecap
1 LJ
0.667 LW
N
248.958 372 M
248.958 367.58 L
S
GR
GS
[0.98462 0 0 0.98438 0 0] CT
0 GC
2 setlinecap
1 LJ
0.667 LW
N
295 372 M
295 367.58 L
S
GR
GS
[0.98462 0 0 0.98438 0 0] CT
0 GC
2 setlinecap
1 LJ
0.667 LW
N
341.042 372 M
341.042 367.58 L
S
GR
GS
[0.98462 0 0 0.98438 0 0] CT
0 GC
2 setlinecap
1 LJ
0.667 LW
N
387.083 372 M
387.083 367.58 L
S
GR
GS
[0.98462 0 0 0.98438 0 0] CT
0 GC
2 setlinecap
1 LJ
0.667 LW
N
433.125 372 M
433.125 367.58 L
S
GR
GS
[0.98462 0 0 0.98438 0 0] CT
0 GC
2 setlinecap
1 LJ
0.667 LW
N
479.167 372 M
479.167 367.58 L
S
GR
GS
[0.98462 0 0 0.98438 0 0] CT
0 GC
2 setlinecap
1 LJ
0.667 LW
N
110.833 282 M
110.833 286.42 L
S
GR
GS
[0.98462 0 0 0.98438 0 0] CT
0 GC
2 setlinecap
1 LJ
0.667 LW
N
156.875 282 M
156.875 286.42 L
S
GR
GS
[0.98462 0 0 0.98438 0 0] CT
0 GC
2 setlinecap
1 LJ
0.667 LW
N
202.917 282 M
202.917 286.42 L
S
GR
GS
[0.98462 0 0 0.98438 0 0] CT
0 GC
2 setlinecap
1 LJ
0.667 LW
N
248.958 282 M
248.958 286.42 L
S
GR
GS
[0.98462 0 0 0.98438 0 0] CT
0 GC
2 setlinecap
1 LJ
0.667 LW
N
295 282 M
295 286.42 L
S
GR
GS
[0.98462 0 0 0.98438 0 0] CT
0 GC
2 setlinecap
1 LJ
0.667 LW
N
341.042 282 M
341.042 286.42 L
S
GR
GS
[0.98462 0 0 0.98438 0 0] CT
0 GC
2 setlinecap
1 LJ
0.667 LW
N
387.083 282 M
387.083 286.42 L
S
GR
GS
[0.98462 0 0 0.98438 0 0] CT
0 GC
2 setlinecap
1 LJ
0.667 LW
N
433.125 282 M
433.125 286.42 L
S
GR
GS
[0.98462 0 0 0.98438 0 0] CT
0 GC
2 setlinecap
1 LJ
0.667 LW
N
479.167 282 M
479.167 286.42 L
S
GR
GS
[0.98462 0 0 0.98438 109.12821 370.81251] CT
0 GC
/Helvetica 10 F
GS
[1 0 0 1 0 0] CT
-3.5 10 moveto 
1 -1 scale
(0) t 
GR
GR
GS
[0.98462 0 0 0.98438 154.46154 370.81251] CT
0 GC
/Helvetica 10 F
GS
[1 0 0 1 0 0] CT
-8 10 moveto 
1 -1 scale
(0.5) t 
GR
GR
GS
[0.98462 0 0 0.98438 199.79488 370.81251] CT
0 GC
/Helvetica 10 F
GS
[1 0 0 1 0 0] CT
-3.5 10 moveto 
1 -1 scale
(1) t 
GR
GR
GS
[0.98462 0 0 0.98438 245.1282 370.81251] CT
0 GC
/Helvetica 10 F
GS
[1 0 0 1 0 0] CT
-8 10 moveto 
1 -1 scale
(1.5) t 
GR
GR
GS
[0.98462 0 0 0.98438 290.46154 370.81251] CT
0 GC
/Helvetica 10 F
GS
[1 0 0 1 0 0] CT
-3.5 10 moveto 
1 -1 scale
(2) t 
GR
GR
GS
[0.98462 0 0 0.98438 335.79486 370.81251] CT
0 GC
/Helvetica 10 F
GS
[1 0 0 1 0 0] CT
-8 10 moveto 
1 -1 scale
(2.5) t 
GR
GR
GS
[0.98462 0 0 0.98438 381.12822 370.81251] CT
0 GC
/Helvetica 10 F
GS
[1 0 0 1 0 0] CT
-3.5 10 moveto 
1 -1 scale
(3) t 
GR
GR
GS
[0.98462 0 0 0.98438 426.46154 370.81251] CT
0 GC
/Helvetica 10 F
GS
[1 0 0 1 0 0] CT
-8 10 moveto 
1 -1 scale
(3.5) t 
GR
GR
GS
[0.98462 0 0 0.98438 471.79486 370.81251] CT
0 GC
/Helvetica 10 F
GS
[1 0 0 1 0 0] CT
-3.5 10 moveto 
1 -1 scale
(4) t 
GR
GR
GS
[0.98462 0 0 0.98438 290.46175 384.92187] CT
0 GC
/Helvetica 11 F
GS
[1 0 0 1 0 0] CT
-14 11 moveto 
1 -1 scale
(Time) t 
GR
GR
GS
[0.98462 0 0 0.98438 0 0] CT
0 GC
2 setlinecap
1 LJ
0.667 LW
N
74 372 M
74 282 L
S
GR
GS
[0.98462 0 0 0.98438 0 0] CT
0 GC
2 setlinecap
1 LJ
0.667 LW
N
516 372 M
516 282 L
S
GR
GS
[0.98462 0 0 0.98438 0 0] CT
0 GC
2 setlinecap
1 LJ
0.667 LW
N
74 364.5 M
78.42 364.5 L
S
GR
GS
[0.98462 0 0 0.98438 0 0] CT
0 GC
2 setlinecap
1 LJ
0.667 LW
N
74 327 M
78.42 327 L
S
GR
GS
[0.98462 0 0 0.98438 0 0] CT
0 GC
2 setlinecap
1 LJ
0.667 LW
N
74 289.5 M
78.42 289.5 L
S
GR
GS
[0.98462 0 0 0.98438 0 0] CT
0 GC
2 setlinecap
1 LJ
0.667 LW
N
516 364.5 M
511.58 364.5 L
S
GR
GS
[0.98462 0 0 0.98438 0 0] CT
0 GC
2 setlinecap
1 LJ
0.667 LW
N
516 327 M
511.58 327 L
S
GR
GS
[0.98462 0 0 0.98438 0 0] CT
0 GC
2 setlinecap
1 LJ
0.667 LW
N
516 289.5 M
511.58 289.5 L
S
GR
GS
[0.98462 0 0 0.98438 68.23541 358.80469] CT
0 GC
/Helvetica 10 F
GS
[1 0 0 1 0 0] CT
-7 3.5 moveto 
1 -1 scale
(0) t 
GR
GR
GS
[0.98462 0 0 0.98438 68.23541 321.89063] CT
0 GC
/Helvetica 10 F
GS
[1 0 0 1 0 0] CT
-13 3.5 moveto 
1 -1 scale
(50) t 
GR
GR
GS
[0.98462 0 0 0.98438 68.23541 284.97656] CT
0 GC
/Helvetica 10 F
GS
[1 0 0 1 0 0] CT
-20 3.5 moveto 
1 -1 scale
(100) t 
GR
GR
GS
[0 -0.98437 0.98462 0 44.60464 321.89059] CT
0 GC
/Helvetica 11 F
GS
[1 0 0 1 0 0] CT
-21.5 -3 moveto 
1 -1 scale
(Voltage) t 
GR
GR
GS
[0.98462 0 0 0.98438 0 0] CT
0 GC
10.0 ML
0.667 LW
N
110.833 289.5 M
156.875 289.5 L
156.875 318 L
202.917 318 L
202.917 336 L
248.958 336 L
248.958 348.75 L
295 348.75 L
295 354.75 L
341.042 354.75 L
341.042 359.25 L
387.083 359.25 L
387.083 361.5 L
433.125 361.5 L
433.125 363 L
479.167 363 L
479.167 362.25 L
S
GR
%%Trailer
%%Pages: 1
%%EOF
