%!PS-Adobe-3.0 EPSF-3.0
%%Creator: (MATLAB, The Mathworks, Inc. Version 8.6.0.267246 \(R2015b\). Operating System: Linux)
%%Title: (/media/th174/Windows 10/Users/th174/OneDrive/Documents/Duke 2015/EGR 103/lab2/Beam2Plot.eps)
%%CreationDate: 2015-09-10T23:20:31
%%Pages: (atend)
%%BoundingBox: 0 0 420 315
%%LanguageLevel: 2
%%EndComments
%%BeginProlog
%%BeginResource: procset (Apache XML Graphics Std ProcSet) 1.2 0
%%Version: 1.2 0
%%Copyright: (Copyright 2001-2003,2010 The Apache Software Foundation. License terms: http://www.apache.org/licenses/LICENSE-2.0)
/bd{bind def}bind def
/ld{load def}bd
/GR/grestore ld
/M/moveto ld
/LJ/setlinejoin ld
/C/curveto ld
/f/fill ld
/LW/setlinewidth ld
/GC/setgray ld
/t/show ld
/N/newpath ld
/CT/concat ld
/cp/closepath ld
/S/stroke ld
/L/lineto ld
/CC/setcmykcolor ld
/A/ashow ld
/GS/gsave ld
/RC/setrgbcolor ld
/RM/rmoveto ld
/ML/setmiterlimit ld
/re {4 2 roll M
1 index 0 rlineto
0 exch rlineto
neg 0 rlineto
cp } bd
/_ctm matrix def
/_tm matrix def
/BT { _ctm currentmatrix pop matrix _tm copy pop 0 0 moveto } bd
/ET { _ctm setmatrix } bd
/iTm { _ctm setmatrix _tm concat } bd
/Tm { _tm astore pop iTm 0 0 moveto } bd
/ux 0.0 def
/uy 0.0 def
/F {
  /Tp exch def
  /Tf exch def
  Tf findfont Tp scalefont setfont
  /cf Tf def  /cs Tp def
} bd
/ULS {currentpoint /uy exch def /ux exch def} bd
/ULE {
  /Tcx currentpoint pop def
  gsave
  newpath
  cf findfont cs scalefont dup
  /FontMatrix get 0 get /Ts exch def /FontInfo get dup
  /UnderlinePosition get Ts mul /To exch def
  /UnderlineThickness get Ts mul /Tt exch def
  ux uy To add moveto  Tcx uy To add lineto
  Tt setlinewidth stroke
  grestore
} bd
/OLE {
  /Tcx currentpoint pop def
  gsave
  newpath
  cf findfont cs scalefont dup
  /FontMatrix get 0 get /Ts exch def /FontInfo get dup
  /UnderlinePosition get Ts mul /To exch def
  /UnderlineThickness get Ts mul /Tt exch def
  ux uy To add cs add moveto Tcx uy To add cs add lineto
  Tt setlinewidth stroke
  grestore
} bd
/SOE {
  /Tcx currentpoint pop def
  gsave
  newpath
  cf findfont cs scalefont dup
  /FontMatrix get 0 get /Ts exch def /FontInfo get dup
  /UnderlinePosition get Ts mul /To exch def
  /UnderlineThickness get Ts mul /Tt exch def
  ux uy To add cs 10 mul 26 idiv add moveto Tcx uy To add cs 10 mul 26 idiv add lineto
  Tt setlinewidth stroke
  grestore
} bd
/QT {
/Y22 exch store
/X22 exch store
/Y21 exch store
/X21 exch store
currentpoint
/Y21 load 2 mul add 3 div exch
/X21 load 2 mul add 3 div exch
/X21 load 2 mul /X22 load add 3 div
/Y21 load 2 mul /Y22 load add 3 div
/X22 load /Y22 load curveto
} bd
/SSPD {
dup length /d exch dict def
{
/v exch def
/k exch def
currentpagedevice k known {
/cpdv currentpagedevice k get def
v cpdv ne {
/upd false def
/nullv v type /nulltype eq def
/nullcpdv cpdv type /nulltype eq def
nullv nullcpdv or
{
/upd true def
} {
/sametype v type cpdv type eq def
sametype {
v type /arraytype eq {
/vlen v length def
/cpdvlen cpdv length def
vlen cpdvlen eq {
0 1 vlen 1 sub {
/i exch def
/obj v i get def
/cpdobj cpdv i get def
obj cpdobj ne {
/upd true def
exit
} if
} for
} {
/upd true def
} ifelse
} {
v type /dicttype eq {
v {
/dv exch def
/dk exch def
/cpddv cpdv dk get def
dv cpddv ne {
/upd true def
exit
} if
} forall
} {
/upd true def
} ifelse
} ifelse
} if
} ifelse
upd true eq {
d k v put
} if
} if
} if
} forall
d length 0 gt {
d setpagedevice
} if
} bd
%%EndResource
%%BeginResource: procset (Apache XML Graphics EPS ProcSet) 1.0 0
%%Version: 1.0 0
%%Copyright: (Copyright 2002-2003 The Apache Software Foundation. License terms: http://www.apache.org/licenses/LICENSE-2.0)
/BeginEPSF { %def
/b4_Inc_state save def         % Save state for cleanup
/dict_count countdictstack def % Count objects on dict stack
/op_count count 1 sub def      % Count objects on operand stack
userdict begin                 % Push userdict on dict stack
/showpage { } def              % Redefine showpage, { } = null proc
0 setgray 0 setlinecap         % Prepare graphics state
1 setlinewidth 0 setlinejoin
10 setmiterlimit [ ] 0 setdash newpath
/languagelevel where           % If level not equal to 1 then
{pop languagelevel             % set strokeadjust and
1 ne                           % overprint to their defaults.
{false setstrokeadjust false setoverprint
} if
} if
} bd
/EndEPSF { %def
count op_count sub {pop} repeat            % Clean up stacks
countdictstack dict_count sub {end} repeat
b4_Inc_state restore
} bd
%%EndResource
%FOPBeginFontDict
%%IncludeResource: font Courier-Bold
%%IncludeResource: font Helvetica
%%IncludeResource: font Courier-BoldOblique
%%IncludeResource: font Courier-Oblique
%%IncludeResource: font Times-Roman
%%IncludeResource: font Helvetica-BoldOblique
%%IncludeResource: font Helvetica-Bold
%%IncludeResource: font Helvetica-Oblique
%%IncludeResource: font Times-BoldItalic
%%IncludeResource: font Courier
%%IncludeResource: font Times-Italic
%%IncludeResource: font Times-Bold
%%IncludeResource: font Symbol
%%IncludeResource: font ZapfDingbats
%FOPEndFontDict
%%BeginResource: encoding WinAnsiEncoding
/WinAnsiEncoding [
/.notdef /.notdef /.notdef /.notdef /.notdef
/.notdef /.notdef /.notdef /.notdef /.notdef
/.notdef /.notdef /.notdef /.notdef /.notdef
/.notdef /.notdef /.notdef /.notdef /.notdef
/.notdef /.notdef /.notdef /.notdef /.notdef
/.notdef /.notdef /.notdef /.notdef /.notdef
/.notdef /.notdef /space /exclam /quotedbl
/numbersign /dollar /percent /ampersand /quotesingle
/parenleft /parenright /asterisk /plus /comma
/hyphen /period /slash /zero /one
/two /three /four /five /six
/seven /eight /nine /colon /semicolon
/less /equal /greater /question /at
/A /B /C /D /E
/F /G /H /I /J
/K /L /M /N /O
/P /Q /R /S /T
/U /V /W /X /Y
/Z /bracketleft /backslash /bracketright /asciicircum
/underscore /quoteleft /a /b /c
/d /e /f /g /h
/i /j /k /l /m
/n /o /p /q /r
/s /t /u /v /w
/x /y /z /braceleft /bar
/braceright /asciitilde /bullet /Euro /bullet
/quotesinglbase /florin /quotedblbase /ellipsis /dagger
/daggerdbl /circumflex /perthousand /Scaron /guilsinglleft
/OE /bullet /Zcaron /bullet /bullet
/quoteleft /quoteright /quotedblleft /quotedblright /bullet
/endash /emdash /asciitilde /trademark /scaron
/guilsinglright /oe /bullet /zcaron /Ydieresis
/space /exclamdown /cent /sterling /currency
/yen /brokenbar /section /dieresis /copyright
/ordfeminine /guillemotleft /logicalnot /sfthyphen /registered
/macron /degree /plusminus /twosuperior /threesuperior
/acute /mu /paragraph /middot /cedilla
/onesuperior /ordmasculine /guillemotright /onequarter /onehalf
/threequarters /questiondown /Agrave /Aacute /Acircumflex
/Atilde /Adieresis /Aring /AE /Ccedilla
/Egrave /Eacute /Ecircumflex /Edieresis /Igrave
/Iacute /Icircumflex /Idieresis /Eth /Ntilde
/Ograve /Oacute /Ocircumflex /Otilde /Odieresis
/multiply /Oslash /Ugrave /Uacute /Ucircumflex
/Udieresis /Yacute /Thorn /germandbls /agrave
/aacute /acircumflex /atilde /adieresis /aring
/ae /ccedilla /egrave /eacute /ecircumflex
/edieresis /igrave /iacute /icircumflex /idieresis
/eth /ntilde /ograve /oacute /ocircumflex
/otilde /odieresis /divide /oslash /ugrave
/uacute /ucircumflex /udieresis /yacute /thorn
/ydieresis
] def
%%EndResource
%FOPBeginFontReencode
/Courier-Bold findfont
dup length dict begin
  {1 index /FID ne {def} {pop pop} ifelse} forall
  /Encoding WinAnsiEncoding def
  currentdict
end
/Courier-Bold exch definefont pop
/Helvetica findfont
dup length dict begin
  {1 index /FID ne {def} {pop pop} ifelse} forall
  /Encoding WinAnsiEncoding def
  currentdict
end
/Helvetica exch definefont pop
/Courier-BoldOblique findfont
dup length dict begin
  {1 index /FID ne {def} {pop pop} ifelse} forall
  /Encoding WinAnsiEncoding def
  currentdict
end
/Courier-BoldOblique exch definefont pop
/Courier-Oblique findfont
dup length dict begin
  {1 index /FID ne {def} {pop pop} ifelse} forall
  /Encoding WinAnsiEncoding def
  currentdict
end
/Courier-Oblique exch definefont pop
/Times-Roman findfont
dup length dict begin
  {1 index /FID ne {def} {pop pop} ifelse} forall
  /Encoding WinAnsiEncoding def
  currentdict
end
/Times-Roman exch definefont pop
/Helvetica-BoldOblique findfont
dup length dict begin
  {1 index /FID ne {def} {pop pop} ifelse} forall
  /Encoding WinAnsiEncoding def
  currentdict
end
/Helvetica-BoldOblique exch definefont pop
/Helvetica-Bold findfont
dup length dict begin
  {1 index /FID ne {def} {pop pop} ifelse} forall
  /Encoding WinAnsiEncoding def
  currentdict
end
/Helvetica-Bold exch definefont pop
/Helvetica-Oblique findfont
dup length dict begin
  {1 index /FID ne {def} {pop pop} ifelse} forall
  /Encoding WinAnsiEncoding def
  currentdict
end
/Helvetica-Oblique exch definefont pop
/Times-BoldItalic findfont
dup length dict begin
  {1 index /FID ne {def} {pop pop} ifelse} forall
  /Encoding WinAnsiEncoding def
  currentdict
end
/Times-BoldItalic exch definefont pop
/Courier findfont
dup length dict begin
  {1 index /FID ne {def} {pop pop} ifelse} forall
  /Encoding WinAnsiEncoding def
  currentdict
end
/Courier exch definefont pop
/Times-Italic findfont
dup length dict begin
  {1 index /FID ne {def} {pop pop} ifelse} forall
  /Encoding WinAnsiEncoding def
  currentdict
end
/Times-Italic exch definefont pop
/Times-Bold findfont
dup length dict begin
  {1 index /FID ne {def} {pop pop} ifelse} forall
  /Encoding WinAnsiEncoding def
  currentdict
end
/Times-Bold exch definefont pop
%FOPEndFontReencode
%%EndProlog
%%Page: 1 1
%%PageBoundingBox: 0 0 420 315
%%BeginPageSetup
[1 0 0 -1 0 315] CT
%%EndPageSetup
GS
[0.75 0 0 0.75 0 0] CT
1 GC
N
0 0 560 420 re
f
GR
GS
[0.75 0 0 0.75 0 0] CT
1 GC
N
0 0 560 420 re
f
GR
GS
[0.75 0 0 0.75 0 0] CT
1 GC
N
73 374 M
507 374 L
507 31 L
73 31 L
cp
f
GR
GS
[0.75 0 0 0.75 0 0] CT
0.873 GC
1 LJ
0.667 LW
N
73 374 M
73 31 L
S
GR
GS
[0.75 0 0 0.75 0 0] CT
0.873 GC
1 LJ
0.667 LW
N
159.8 374 M
159.8 31 L
S
GR
GS
[0.75 0 0 0.75 0 0] CT
0.873 GC
1 LJ
0.667 LW
N
246.6 374 M
246.6 31 L
S
GR
GS
[0.75 0 0 0.75 0 0] CT
0.873 GC
1 LJ
0.667 LW
N
333.4 374 M
333.4 31 L
S
GR
GS
[0.75 0 0 0.75 0 0] CT
0.873 GC
1 LJ
0.667 LW
N
420.2 374 M
420.2 31 L
S
GR
GS
[0.75 0 0 0.75 0 0] CT
0.873 GC
1 LJ
0.667 LW
N
507 374 M
507 31 L
S
GR
GS
[0.75 0 0 0.75 0 0] CT
0.873 GC
1 LJ
0.667 LW
N
507 374 M
73 374 L
S
GR
GS
[0.75 0 0 0.75 0 0] CT
0.873 GC
1 LJ
0.667 LW
N
507 335.889 M
73 335.889 L
S
GR
GS
[0.75 0 0 0.75 0 0] CT
0.873 GC
1 LJ
0.667 LW
N
507 297.778 M
73 297.778 L
S
GR
GS
[0.75 0 0 0.75 0 0] CT
0.873 GC
1 LJ
0.667 LW
N
507 259.667 M
73 259.667 L
S
GR
GS
[0.75 0 0 0.75 0 0] CT
0.873 GC
1 LJ
0.667 LW
N
507 221.556 M
73 221.556 L
S
GR
GS
[0.75 0 0 0.75 0 0] CT
0.873 GC
1 LJ
0.667 LW
N
507 183.444 M
73 183.444 L
S
GR
GS
[0.75 0 0 0.75 0 0] CT
0.873 GC
1 LJ
0.667 LW
N
507 145.333 M
73 145.333 L
S
GR
GS
[0.75 0 0 0.75 0 0] CT
0.873 GC
1 LJ
0.667 LW
N
507 107.222 M
73 107.222 L
S
GR
GS
[0.75 0 0 0.75 0 0] CT
0.873 GC
1 LJ
0.667 LW
N
507 69.111 M
73 69.111 L
S
GR
GS
[0.75 0 0 0.75 0 0] CT
0.873 GC
1 LJ
0.667 LW
N
507 31 M
73 31 L
S
GR
GS
[0.75 0 0 0.75 0 0] CT
0.149 GC
2 setlinecap
1 LJ
0.667 LW
N
73 374 M
507 374 L
S
GR
GS
[0.75 0 0 0.75 0 0] CT
0.149 GC
2 setlinecap
1 LJ
0.667 LW
N
73 31 M
507 31 L
S
GR
GS
[0.75 0 0 0.75 0 0] CT
0.149 GC
2 setlinecap
1 LJ
0.667 LW
N
73 374 M
73 369.66 L
S
GR
GS
[0.75 0 0 0.75 0 0] CT
0.149 GC
2 setlinecap
1 LJ
0.667 LW
N
159.8 374 M
159.8 369.66 L
S
GR
GS
[0.75 0 0 0.75 0 0] CT
0.149 GC
2 setlinecap
1 LJ
0.667 LW
N
246.6 374 M
246.6 369.66 L
S
GR
GS
[0.75 0 0 0.75 0 0] CT
0.149 GC
2 setlinecap
1 LJ
0.667 LW
N
333.4 374 M
333.4 369.66 L
S
GR
GS
[0.75 0 0 0.75 0 0] CT
0.149 GC
2 setlinecap
1 LJ
0.667 LW
N
420.2 374 M
420.2 369.66 L
S
GR
GS
[0.75 0 0 0.75 0 0] CT
0.149 GC
2 setlinecap
1 LJ
0.667 LW
N
507 374 M
507 369.66 L
S
GR
GS
[0.75 0 0 0.75 0 0] CT
0.149 GC
2 setlinecap
1 LJ
0.667 LW
N
73 31 M
73 35.34 L
S
GR
GS
[0.75 0 0 0.75 0 0] CT
0.149 GC
2 setlinecap
1 LJ
0.667 LW
N
159.8 31 M
159.8 35.34 L
S
GR
GS
[0.75 0 0 0.75 0 0] CT
0.149 GC
2 setlinecap
1 LJ
0.667 LW
N
246.6 31 M
246.6 35.34 L
S
GR
GS
[0.75 0 0 0.75 0 0] CT
0.149 GC
2 setlinecap
1 LJ
0.667 LW
N
333.4 31 M
333.4 35.34 L
S
GR
GS
[0.75 0 0 0.75 0 0] CT
0.149 GC
2 setlinecap
1 LJ
0.667 LW
N
420.2 31 M
420.2 35.34 L
S
GR
GS
[0.75 0 0 0.75 0 0] CT
0.149 GC
2 setlinecap
1 LJ
0.667 LW
N
507 31 M
507 35.34 L
S
GR
GS
[0.75 0 0 0.75 54.75 284.50001] CT
0.149 GC
/Helvetica 13 F
GS
[1 0 0 1 0 0] CT
-4.5 13 moveto 
1 -1 scale
(0) t 
GR
GR
GS
[0.75 0 0 0.75 119.85 284.50001] CT
0.149 GC
/Helvetica 13 F
GS
[1 0 0 1 0 0] CT
-4.5 13 moveto 
1 -1 scale
(5) t 
GR
GR
GS
[0.75 0 0 0.75 184.95 284.50001] CT
0.149 GC
/Helvetica 13 F
GS
[1 0 0 1 0 0] CT
-8.5 13 moveto 
1 -1 scale
(10) t 
GR
GR
GS
[0.75 0 0 0.75 250.05 284.50001] CT
0.149 GC
/Helvetica 13 F
GS
[1 0 0 1 0 0] CT
-8.5 13 moveto 
1 -1 scale
(15) t 
GR
GR
GS
[0.75 0 0 0.75 315.15001 284.50001] CT
0.149 GC
/Helvetica 13 F
GS
[1 0 0 1 0 0] CT
-8.5 13 moveto 
1 -1 scale
(20) t 
GR
GR
GS
[0.75 0 0 0.75 380.25 284.50001] CT
0.149 GC
/Helvetica 13 F
GS
[1 0 0 1 0 0] CT
-8.5 13 moveto 
1 -1 scale
(25) t 
GR
GR
GS
[0.75 0 0 0.75 217.50016 298.24999] CT
/Helvetica 15 F
GS
[1 0 0 1 0 0] CT
-62 14 moveto 
1 -1 scale
(Force \(Newtons\)) t 
GR
GR
GS
[0.75 0 0 0.75 0 0] CT
0.149 GC
2 setlinecap
1 LJ
0.667 LW
N
73 374 M
73 31 L
S
GR
GS
[0.75 0 0 0.75 0 0] CT
0.149 GC
2 setlinecap
1 LJ
0.667 LW
N
507 374 M
507 31 L
S
GR
GS
[0.75 0 0 0.75 0 0] CT
0.149 GC
2 setlinecap
1 LJ
0.667 LW
N
73 374 M
77.34 374 L
S
GR
GS
[0.75 0 0 0.75 0 0] CT
0.149 GC
2 setlinecap
1 LJ
0.667 LW
N
73 335.889 M
77.34 335.889 L
S
GR
GS
[0.75 0 0 0.75 0 0] CT
0.149 GC
2 setlinecap
1 LJ
0.667 LW
N
73 297.778 M
77.34 297.778 L
S
GR
GS
[0.75 0 0 0.75 0 0] CT
0.149 GC
2 setlinecap
1 LJ
0.667 LW
N
73 259.667 M
77.34 259.667 L
S
GR
GS
[0.75 0 0 0.75 0 0] CT
0.149 GC
2 setlinecap
1 LJ
0.667 LW
N
73 221.556 M
77.34 221.556 L
S
GR
GS
[0.75 0 0 0.75 0 0] CT
0.149 GC
2 setlinecap
1 LJ
0.667 LW
N
73 183.444 M
77.34 183.444 L
S
GR
GS
[0.75 0 0 0.75 0 0] CT
0.149 GC
2 setlinecap
1 LJ
0.667 LW
N
73 145.333 M
77.34 145.333 L
S
GR
GS
[0.75 0 0 0.75 0 0] CT
0.149 GC
2 setlinecap
1 LJ
0.667 LW
N
73 107.222 M
77.34 107.222 L
S
GR
GS
[0.75 0 0 0.75 0 0] CT
0.149 GC
2 setlinecap
1 LJ
0.667 LW
N
73 69.111 M
77.34 69.111 L
S
GR
GS
[0.75 0 0 0.75 0 0] CT
0.149 GC
2 setlinecap
1 LJ
0.667 LW
N
73 31 M
77.34 31 L
S
GR
GS
[0.75 0 0 0.75 0 0] CT
0.149 GC
2 setlinecap
1 LJ
0.667 LW
N
507 374 M
502.66 374 L
S
GR
GS
[0.75 0 0 0.75 0 0] CT
0.149 GC
2 setlinecap
1 LJ
0.667 LW
N
507 335.889 M
502.66 335.889 L
S
GR
GS
[0.75 0 0 0.75 0 0] CT
0.149 GC
2 setlinecap
1 LJ
0.667 LW
N
507 297.778 M
502.66 297.778 L
S
GR
GS
[0.75 0 0 0.75 0 0] CT
0.149 GC
2 setlinecap
1 LJ
0.667 LW
N
507 259.667 M
502.66 259.667 L
S
GR
GS
[0.75 0 0 0.75 0 0] CT
0.149 GC
2 setlinecap
1 LJ
0.667 LW
N
507 221.556 M
502.66 221.556 L
S
GR
GS
[0.75 0 0 0.75 0 0] CT
0.149 GC
2 setlinecap
1 LJ
0.667 LW
N
507 183.444 M
502.66 183.444 L
S
GR
GS
[0.75 0 0 0.75 0 0] CT
0.149 GC
2 setlinecap
1 LJ
0.667 LW
N
507 145.333 M
502.66 145.333 L
S
GR
GS
[0.75 0 0 0.75 0 0] CT
0.149 GC
2 setlinecap
1 LJ
0.667 LW
N
507 107.222 M
502.66 107.222 L
S
GR
GS
[0.75 0 0 0.75 0 0] CT
0.149 GC
2 setlinecap
1 LJ
0.667 LW
N
507 69.111 M
502.66 69.111 L
S
GR
GS
[0.75 0 0 0.75 0 0] CT
0.149 GC
2 setlinecap
1 LJ
0.667 LW
N
507 31 M
502.66 31 L
S
GR
GS
[0.75 0 0 0.75 50.75 280.5] CT
0.149 GC
/Helvetica 13 F
GS
[1 0 0 1 0 0] CT
-34 4.5 moveto 
1 -1 scale
(-0.04) t 
GR
GR
GS
[0.75 0 0 0.75 50.75 251.91666] CT
0.149 GC
/Helvetica 13 F
GS
[1 0 0 1 0 0] CT
-34 4.5 moveto 
1 -1 scale
(-0.02) t 
GR
GR
GS
[0.75 0 0 0.75 50.75 223.33333] CT
0.149 GC
/Helvetica 13 F
GS
[1 0 0 1 0 0] CT
-9 4.5 moveto 
1 -1 scale
(0) t 
GR
GR
GS
[0.75 0 0 0.75 50.75 194.74999] CT
0.149 GC
/Helvetica 13 F
GS
[1 0 0 1 0 0] CT
-29 4.5 moveto 
1 -1 scale
(0.02) t 
GR
GR
GS
[0.75 0 0 0.75 50.75 166.16667] CT
0.149 GC
/Helvetica 13 F
GS
[1 0 0 1 0 0] CT
-29 4.5 moveto 
1 -1 scale
(0.04) t 
GR
GR
GS
[0.75 0 0 0.75 50.75 137.58333] CT
0.149 GC
/Helvetica 13 F
GS
[1 0 0 1 0 0] CT
-29 4.5 moveto 
1 -1 scale
(0.06) t 
GR
GR
GS
[0.75 0 0 0.75 50.75 109.00001] CT
0.149 GC
/Helvetica 13 F
GS
[1 0 0 1 0 0] CT
-29 4.5 moveto 
1 -1 scale
(0.08) t 
GR
GR
GS
[0.75 0 0 0.75 50.75 80.41667] CT
0.149 GC
/Helvetica 13 F
GS
[1 0 0 1 0 0] CT
-21 4.5 moveto 
1 -1 scale
(0.1) t 
GR
GR
GS
[0.75 0 0 0.75 50.75 51.83334] CT
0.149 GC
/Helvetica 13 F
GS
[1 0 0 1 0 0] CT
-29 4.5 moveto 
1 -1 scale
(0.12) t 
GR
GR
GS
[0.75 0 0 0.75 50.75 23.25] CT
0.149 GC
/Helvetica 13 F
GS
[1 0 0 1 0 0] CT
-29 4.5 moveto 
1 -1 scale
(0.14) t 
GR
GR
GS
[0 -0.75 0.75 0 22.25 151.87487] CT
/Helvetica 15 F
GS
[1 0 0 1 0 0] CT
-86.5 -4 moveto 
1 -1 scale
(Displacement \(meters\)) t 
GR
GR
GS
[0.75 0 0 0.75 217.50021 21.1875] CT
/Helvetica-Bold 15 F
GS
[1 0 0 1 0 0] CT
-196 -4 moveto 
1 -1 scale
(Displacement vs. Force for Beam2.dat \(th174\)) t 
GR
GR
GS
[0.75 0 0 0.75 0 0] CT
1 LJ
N
77.5 297.5 M
76.736 295.149 L
74.736 293.696 L
72.264 293.696 L
70.264 295.149 L
69.5 297.5 L
70.264 299.851 L
72.264 301.304 L
74.736 301.304 L
76.736 299.851 L
cp
S
GR
GS
[0.75 0 0 0.75 0 0] CT
1 LJ
N
119.5 294.5 M
118.736 292.149 L
116.736 290.696 L
114.264 290.696 L
112.264 292.149 L
111.5 294.5 L
112.264 296.851 L
114.264 298.304 L
116.736 298.304 L
118.736 296.851 L
cp
S
GR
GS
[0.75 0 0 0.75 0 0] CT
1 LJ
N
162.5 292.5 M
161.736 290.149 L
159.736 288.696 L
157.264 288.696 L
155.264 290.149 L
154.5 292.5 L
155.264 294.851 L
157.264 296.304 L
159.736 296.304 L
161.736 294.851 L
cp
S
GR
GS
[0.75 0 0 0.75 0 0] CT
1 LJ
N
204.5 285.5 M
203.736 283.149 L
201.736 281.696 L
199.264 281.696 L
197.264 283.149 L
196.5 285.5 L
197.264 287.851 L
199.264 289.304 L
201.736 289.304 L
203.736 287.851 L
cp
S
GR
GS
[0.75 0 0 0.75 0 0] CT
1 LJ
N
247.5 276.5 M
246.736 274.149 L
244.736 272.696 L
242.264 272.696 L
240.264 274.149 L
239.5 276.5 L
240.264 278.851 L
242.264 280.304 L
244.736 280.304 L
246.736 278.851 L
cp
S
GR
GS
[0.75 0 0 0.75 0 0] CT
1 LJ
N
289.5 265.5 M
288.736 263.149 L
286.736 261.696 L
284.264 261.696 L
282.264 263.149 L
281.5 265.5 L
282.264 267.851 L
284.264 269.304 L
286.736 269.304 L
288.736 267.851 L
cp
S
GR
GS
[0.75 0 0 0.75 0 0] CT
1 LJ
N
332.5 241.5 M
331.736 239.149 L
329.736 237.696 L
327.264 237.696 L
325.264 239.149 L
324.5 241.5 L
325.264 243.851 L
327.264 245.304 L
329.736 245.304 L
331.736 243.851 L
cp
S
GR
GS
[0.75 0 0 0.75 0 0] CT
1 LJ
N
374.5 210.5 M
373.736 208.149 L
371.736 206.696 L
369.264 206.696 L
367.264 208.149 L
366.5 210.5 L
367.264 212.851 L
369.264 214.304 L
371.736 214.304 L
373.736 212.851 L
cp
S
GR
GS
[0.75 0 0 0.75 0 0] CT
1 LJ
N
417.5 167.5 M
416.736 165.149 L
414.736 163.696 L
412.264 163.696 L
410.264 165.149 L
409.5 167.5 L
410.264 169.851 L
412.264 171.304 L
414.736 171.304 L
416.736 169.851 L
cp
S
GR
GS
[0.75 0 0 0.75 0 0] CT
1 LJ
N
459.5 114.5 M
458.736 112.149 L
456.736 110.696 L
454.264 110.696 L
452.264 112.149 L
451.5 114.5 L
452.264 116.851 L
454.264 118.304 L
456.736 118.304 L
458.736 116.851 L
cp
S
GR
GS
[0.75 0 0 0.75 0 0] CT
1 LJ
N
502.5 48.5 M
501.736 46.149 L
499.736 44.696 L
497.264 44.696 L
495.264 46.149 L
494.5 48.5 L
495.264 50.851 L
497.264 52.304 L
499.736 52.304 L
501.736 50.851 L
cp
S
GR
GS
[0.75 0 0 0.75 0 0] CT
1 LJ
0.667 LW
N
73 341.484 M
77.295 339.166 L
81.591 336.848 L
85.886 334.53 L
90.181 332.212 L
94.476 329.894 L
98.772 327.575 L
103.067 325.257 L
107.362 322.939 L
111.657 320.621 L
115.953 318.303 L
120.248 315.984 L
124.543 313.666 L
128.838 311.348 L
133.134 309.03 L
137.429 306.712 L
141.724 304.393 L
146.02 302.075 L
150.315 299.757 L
154.61 297.439 L
158.905 295.121 L
163.201 292.802 L
167.496 290.484 L
171.791 288.166 L
176.086 285.848 L
180.382 283.53 L
184.677 281.212 L
188.972 278.893 L
193.267 276.575 L
197.563 274.257 L
201.858 271.939 L
206.153 269.621 L
210.449 267.302 L
214.744 264.984 L
219.039 262.666 L
223.334 260.348 L
227.63 258.03 L
231.925 255.711 L
236.22 253.393 L
240.515 251.075 L
244.811 248.757 L
249.106 246.439 L
253.401 244.121 L
257.696 241.802 L
261.992 239.484 L
266.287 237.166 L
270.582 234.848 L
274.878 232.53 L
279.173 230.211 L
283.468 227.893 L
S
GR
GS
[0.75 0 0 0.75 0 0] CT
1 LJ
0.667 LW
N
279.173 230.211 M
283.468 227.893 L
287.763 225.575 L
292.059 223.257 L
296.354 220.939 L
300.649 218.62 L
304.944 216.302 L
309.24 213.984 L
313.535 211.666 L
317.83 209.348 L
322.125 207.029 L
326.421 204.711 L
330.716 202.393 L
335.011 200.075 L
339.307 197.757 L
343.602 195.439 L
347.897 193.12 L
352.192 190.802 L
356.488 188.484 L
360.783 186.166 L
365.078 183.848 L
369.373 181.529 L
373.669 179.211 L
377.964 176.893 L
382.259 174.575 L
386.554 172.257 L
390.85 169.938 L
395.145 167.62 L
399.44 165.302 L
403.736 162.984 L
408.031 160.666 L
412.326 158.348 L
416.621 156.029 L
420.917 153.711 L
425.212 151.393 L
429.507 149.075 L
433.802 146.757 L
438.098 144.438 L
442.393 142.12 L
446.688 139.802 L
450.983 137.484 L
455.279 135.166 L
459.574 132.847 L
463.869 130.529 L
468.165 128.211 L
472.46 125.893 L
476.755 123.575 L
481.05 121.256 L
485.346 118.938 L
489.641 116.62 L
493.936 114.302 L
498.231 111.984 L
S
GR
GS
[0.75 0 0 0.75 0 0] CT
1 LJ
0.667 LW
N
493.936 114.302 M
498.231 111.984 L
S
GR
%%Trailer
%%Pages: 1
%%EOF
