%!PS-Adobe-3.0 EPSF-3.0
%%Creator: (MATLAB, The Mathworks, Inc. Version 8.6.0.267246 \(R2015b\). Operating System: Linux)
%%Title: ./RunCanPlot.eps
%%CreationDate: 2015-09-11T00:25:36
%%Pages: (atend)
%%BoundingBox:    32    16   528   416
%%LanguageLevel: 3
%%EndComments
%%BeginProlog
%%BeginResource: procset (Apache XML Graphics Std ProcSet) 1.2 0
%%Version: 1.2 0
%%Copyright: (Copyright 2001-2003,2010 The Apache Software Foundation. License terms: http://www.apache.org/licenses/LICENSE-2.0)
/bd{bind def}bind def
/ld{load def}bd
/GR/grestore ld
/M/moveto ld
/LJ/setlinejoin ld
/C/curveto ld
/f/fill ld
/LW/setlinewidth ld
/GC/setgray ld
/t/show ld
/N/newpath ld
/CT/concat ld
/cp/closepath ld
/S/stroke ld
/L/lineto ld
/CC/setcmykcolor ld
/A/ashow ld
/GS/gsave ld
/RC/setrgbcolor ld
/RM/rmoveto ld
/ML/setmiterlimit ld
/re {4 2 roll M
1 index 0 rlineto
0 exch rlineto
neg 0 rlineto
cp } bd
/_ctm matrix def
/_tm matrix def
/BT { _ctm currentmatrix pop matrix _tm copy pop 0 0 moveto } bd
/ET { _ctm setmatrix } bd
/iTm { _ctm setmatrix _tm concat } bd
/Tm { _tm astore pop iTm 0 0 moveto } bd
/ux 0.0 def
/uy 0.0 def
/F {
  /Tp exch def
  /Tf exch def
  Tf findfont Tp scalefont setfont
  /cf Tf def  /cs Tp def
} bd
/ULS {currentpoint /uy exch def /ux exch def} bd
/ULE {
  /Tcx currentpoint pop def
  gsave
  newpath
  cf findfont cs scalefont dup
  /FontMatrix get 0 get /Ts exch def /FontInfo get dup
  /UnderlinePosition get Ts mul /To exch def
  /UnderlineThickness get Ts mul /Tt exch def
  ux uy To add moveto  Tcx uy To add lineto
  Tt setlinewidth stroke
  grestore
} bd
/OLE {
  /Tcx currentpoint pop def
  gsave
  newpath
  cf findfont cs scalefont dup
  /FontMatrix get 0 get /Ts exch def /FontInfo get dup
  /UnderlinePosition get Ts mul /To exch def
  /UnderlineThickness get Ts mul /Tt exch def
  ux uy To add cs add moveto Tcx uy To add cs add lineto
  Tt setlinewidth stroke
  grestore
} bd
/SOE {
  /Tcx currentpoint pop def
  gsave
  newpath
  cf findfont cs scalefont dup
  /FontMatrix get 0 get /Ts exch def /FontInfo get dup
  /UnderlinePosition get Ts mul /To exch def
  /UnderlineThickness get Ts mul /Tt exch def
  ux uy To add cs 10 mul 26 idiv add moveto Tcx uy To add cs 10 mul 26 idiv add lineto
  Tt setlinewidth stroke
  grestore
} bd
/QT {
/Y22 exch store
/X22 exch store
/Y21 exch store
/X21 exch store
currentpoint
/Y21 load 2 mul add 3 div exch
/X21 load 2 mul add 3 div exch
/X21 load 2 mul /X22 load add 3 div
/Y21 load 2 mul /Y22 load add 3 div
/X22 load /Y22 load curveto
} bd
/SSPD {
dup length /d exch dict def
{
/v exch def
/k exch def
currentpagedevice k known {
/cpdv currentpagedevice k get def
v cpdv ne {
/upd false def
/nullv v type /nulltype eq def
/nullcpdv cpdv type /nulltype eq def
nullv nullcpdv or
{
/upd true def
} {
/sametype v type cpdv type eq def
sametype {
v type /arraytype eq {
/vlen v length def
/cpdvlen cpdv length def
vlen cpdvlen eq {
0 1 vlen 1 sub {
/i exch def
/obj v i get def
/cpdobj cpdv i get def
obj cpdobj ne {
/upd true def
exit
} if
} for
} {
/upd true def
} ifelse
} {
v type /dicttype eq {
v {
/dv exch def
/dk exch def
/cpddv cpdv dk get def
dv cpddv ne {
/upd true def
exit
} if
} forall
} {
/upd true def
} ifelse
} ifelse
} if
} ifelse
upd true eq {
d k v put
} if
} if
} if
} forall
d length 0 gt {
d setpagedevice
} if
} bd
%%EndResource
%%BeginResource: procset (Apache XML Graphics EPS ProcSet) 1.0 0
%%Version: 1.0 0
%%Copyright: (Copyright 2002-2003 The Apache Software Foundation. License terms: http://www.apache.org/licenses/LICENSE-2.0)
/BeginEPSF { %def
/b4_Inc_state save def         % Save state for cleanup
/dict_count countdictstack def % Count objects on dict stack
/op_count count 1 sub def      % Count objects on operand stack
userdict begin                 % Push userdict on dict stack
/showpage { } def              % Redefine showpage, { } = null proc
0 setgray 0 setlinecap         % Prepare graphics state
1 setlinewidth 0 setlinejoin
10 setmiterlimit [ ] 0 setdash newpath
/languagelevel where           % If level not equal to 1 then
{pop languagelevel             % set strokeadjust and
1 ne                           % overprint to their defaults.
{false setstrokeadjust false setoverprint
} if
} if
} bd
/EndEPSF { %def
count op_count sub {pop} repeat            % Clean up stacks
countdictstack dict_count sub {end} repeat
b4_Inc_state restore
} bd
%%EndResource
%FOPBeginFontDict
%%IncludeResource: font Courier-Bold
%%IncludeResource: font Helvetica
%%IncludeResource: font Courier-BoldOblique
%%IncludeResource: font Courier-Oblique
%%IncludeResource: font Times-Roman
%%IncludeResource: font Helvetica-BoldOblique
%%IncludeResource: font Helvetica-Bold
%%IncludeResource: font Helvetica-Oblique
%%IncludeResource: font Times-BoldItalic
%%IncludeResource: font Courier
%%IncludeResource: font Times-Italic
%%IncludeResource: font Times-Bold
%%IncludeResource: font Symbol
%%IncludeResource: font ZapfDingbats
%FOPEndFontDict
%%BeginResource: encoding WinAnsiEncoding
/WinAnsiEncoding [
/.notdef /.notdef /.notdef /.notdef /.notdef
/.notdef /.notdef /.notdef /.notdef /.notdef
/.notdef /.notdef /.notdef /.notdef /.notdef
/.notdef /.notdef /.notdef /.notdef /.notdef
/.notdef /.notdef /.notdef /.notdef /.notdef
/.notdef /.notdef /.notdef /.notdef /.notdef
/.notdef /.notdef /space /exclam /quotedbl
/numbersign /dollar /percent /ampersand /quotesingle
/parenleft /parenright /asterisk /plus /comma
/hyphen /period /slash /zero /one
/two /three /four /five /six
/seven /eight /nine /colon /semicolon
/less /equal /greater /question /at
/A /B /C /D /E
/F /G /H /I /J
/K /L /M /N /O
/P /Q /R /S /T
/U /V /W /X /Y
/Z /bracketleft /backslash /bracketright /asciicircum
/underscore /quoteleft /a /b /c
/d /e /f /g /h
/i /j /k /l /m
/n /o /p /q /r
/s /t /u /v /w
/x /y /z /braceleft /bar
/braceright /asciitilde /bullet /Euro /bullet
/quotesinglbase /florin /quotedblbase /ellipsis /dagger
/daggerdbl /circumflex /perthousand /Scaron /guilsinglleft
/OE /bullet /Zcaron /bullet /bullet
/quoteleft /quoteright /quotedblleft /quotedblright /bullet
/endash /emdash /asciitilde /trademark /scaron
/guilsinglright /oe /bullet /zcaron /Ydieresis
/space /exclamdown /cent /sterling /currency
/yen /brokenbar /section /dieresis /copyright
/ordfeminine /guillemotleft /logicalnot /sfthyphen /registered
/macron /degree /plusminus /twosuperior /threesuperior
/acute /mu /paragraph /middot /cedilla
/onesuperior /ordmasculine /guillemotright /onequarter /onehalf
/threequarters /questiondown /Agrave /Aacute /Acircumflex
/Atilde /Adieresis /Aring /AE /Ccedilla
/Egrave /Eacute /Ecircumflex /Edieresis /Igrave
/Iacute /Icircumflex /Idieresis /Eth /Ntilde
/Ograve /Oacute /Ocircumflex /Otilde /Odieresis
/multiply /Oslash /Ugrave /Uacute /Ucircumflex
/Udieresis /Yacute /Thorn /germandbls /agrave
/aacute /acircumflex /atilde /adieresis /aring
/ae /ccedilla /egrave /eacute /ecircumflex
/edieresis /igrave /iacute /icircumflex /idieresis
/eth /ntilde /ograve /oacute /ocircumflex
/otilde /odieresis /divide /oslash /ugrave
/uacute /ucircumflex /udieresis /yacute /thorn
/ydieresis
] def
%%EndResource
%FOPBeginFontReencode
/Courier-Bold findfont
dup length dict begin
  {1 index /FID ne {def} {pop pop} ifelse} forall
  /Encoding WinAnsiEncoding def
  currentdict
end
/Courier-Bold exch definefont pop
/Helvetica findfont
dup length dict begin
  {1 index /FID ne {def} {pop pop} ifelse} forall
  /Encoding WinAnsiEncoding def
  currentdict
end
/Helvetica exch definefont pop
/Courier-BoldOblique findfont
dup length dict begin
  {1 index /FID ne {def} {pop pop} ifelse} forall
  /Encoding WinAnsiEncoding def
  currentdict
end
/Courier-BoldOblique exch definefont pop
/Courier-Oblique findfont
dup length dict begin
  {1 index /FID ne {def} {pop pop} ifelse} forall
  /Encoding WinAnsiEncoding def
  currentdict
end
/Courier-Oblique exch definefont pop
/Times-Roman findfont
dup length dict begin
  {1 index /FID ne {def} {pop pop} ifelse} forall
  /Encoding WinAnsiEncoding def
  currentdict
end
/Times-Roman exch definefont pop
/Helvetica-BoldOblique findfont
dup length dict begin
  {1 index /FID ne {def} {pop pop} ifelse} forall
  /Encoding WinAnsiEncoding def
  currentdict
end
/Helvetica-BoldOblique exch definefont pop
/Helvetica-Bold findfont
dup length dict begin
  {1 index /FID ne {def} {pop pop} ifelse} forall
  /Encoding WinAnsiEncoding def
  currentdict
end
/Helvetica-Bold exch definefont pop
/Helvetica-Oblique findfont
dup length dict begin
  {1 index /FID ne {def} {pop pop} ifelse} forall
  /Encoding WinAnsiEncoding def
  currentdict
end
/Helvetica-Oblique exch definefont pop
/Times-BoldItalic findfont
dup length dict begin
  {1 index /FID ne {def} {pop pop} ifelse} forall
  /Encoding WinAnsiEncoding def
  currentdict
end
/Times-BoldItalic exch definefont pop
/Courier findfont
dup length dict begin
  {1 index /FID ne {def} {pop pop} ifelse} forall
  /Encoding WinAnsiEncoding def
  currentdict
end
/Courier exch definefont pop
/Times-Italic findfont
dup length dict begin
  {1 index /FID ne {def} {pop pop} ifelse} forall
  /Encoding WinAnsiEncoding def
  currentdict
end
/Times-Italic exch definefont pop
/Times-Bold findfont
dup length dict begin
  {1 index /FID ne {def} {pop pop} ifelse} forall
  /Encoding WinAnsiEncoding def
  currentdict
end
/Times-Bold exch definefont pop
%FOPEndFontReencode
%%EndProlog
%%Page: 1 1
%%PageBoundingBox: 0 0 576 432
%%BeginPageSetup
[1 0 0 -1 0 432] CT
%%EndPageSetup
GS
[0.75 0 0 0.75 0 0] CT
0.997 GC
N
0 0 768 576 re
f
GR
GS
[0.75 0 0 0.75 0 0] CT
0.997 GC
N
0 0 768 576 re
f
GR
GS
[0.75 0 0 0.75 0 0] CT
0.997 GC
N
100 513 M
695 513 L
695 43 L
100 43 L
cp
f
GR
GS
[0.75 0 0 0.75 0 0] CT
0.846 GC
1 LJ
0.667 LW
N
100 513 M
100 43 L
S
GR
GS
[0.75 0 0 0.75 0 0] CT
0.846 GC
1 LJ
0.667 LW
N
219 513 M
219 43 L
S
GR
GS
[0.75 0 0 0.75 0 0] CT
0.846 GC
1 LJ
0.667 LW
N
338 513 M
338 43 L
S
GR
GS
[0.75 0 0 0.75 0 0] CT
0.846 GC
1 LJ
0.667 LW
N
457 513 M
457 43 L
S
GR
GS
[0.75 0 0 0.75 0 0] CT
0.846 GC
1 LJ
0.667 LW
N
576 513 M
576 43 L
S
GR
GS
[0.75 0 0 0.75 0 0] CT
0.846 GC
1 LJ
0.667 LW
N
695 513 M
695 43 L
S
GR
GS
[0.75 0 0 0.75 0 0] CT
0.846 GC
1 LJ
0.667 LW
N
695 513 M
100 513 L
S
GR
GS
[0.75 0 0 0.75 0 0] CT
0.846 GC
1 LJ
0.667 LW
N
695 434.667 M
100 434.667 L
S
GR
GS
[0.75 0 0 0.75 0 0] CT
0.846 GC
1 LJ
0.667 LW
N
695 356.333 M
100 356.333 L
S
GR
GS
[0.75 0 0 0.75 0 0] CT
0.846 GC
1 LJ
0.667 LW
N
695 278 M
100 278 L
S
GR
GS
[0.75 0 0 0.75 0 0] CT
0.846 GC
1 LJ
0.667 LW
N
695 199.667 M
100 199.667 L
S
GR
GS
[0.75 0 0 0.75 0 0] CT
0.846 GC
1 LJ
0.667 LW
N
695 121.333 M
100 121.333 L
S
GR
GS
[0.75 0 0 0.75 0 0] CT
0.846 GC
1 LJ
0.667 LW
N
695 43 M
100 43 L
S
GR
GS
[0.75 0 0 0.75 0 0] CT
0 GC
2 setlinecap
1 LJ
0.667 LW
N
100 513 M
695 513 L
S
GR
GS
[0.75 0 0 0.75 0 0] CT
0 GC
2 setlinecap
1 LJ
0.667 LW
N
100 43 M
695 43 L
S
GR
GS
[0.75 0 0 0.75 0 0] CT
0 GC
2 setlinecap
1 LJ
0.667 LW
N
100 513 M
100 507.05 L
S
GR
GS
[0.75 0 0 0.75 0 0] CT
0 GC
2 setlinecap
1 LJ
0.667 LW
N
219 513 M
219 507.05 L
S
GR
GS
[0.75 0 0 0.75 0 0] CT
0 GC
2 setlinecap
1 LJ
0.667 LW
N
338 513 M
338 507.05 L
S
GR
GS
[0.75 0 0 0.75 0 0] CT
0 GC
2 setlinecap
1 LJ
0.667 LW
N
457 513 M
457 507.05 L
S
GR
GS
[0.75 0 0 0.75 0 0] CT
0 GC
2 setlinecap
1 LJ
0.667 LW
N
576 513 M
576 507.05 L
S
GR
GS
[0.75 0 0 0.75 0 0] CT
0 GC
2 setlinecap
1 LJ
0.667 LW
N
695 513 M
695 507.05 L
S
GR
GS
[0.75 0 0 0.75 0 0] CT
0 GC
2 setlinecap
1 LJ
0.667 LW
N
100 43 M
100 48.95 L
S
GR
GS
[0.75 0 0 0.75 0 0] CT
0 GC
2 setlinecap
1 LJ
0.667 LW
N
219 43 M
219 48.95 L
S
GR
GS
[0.75 0 0 0.75 0 0] CT
0 GC
2 setlinecap
1 LJ
0.667 LW
N
338 43 M
338 48.95 L
S
GR
GS
[0.75 0 0 0.75 0 0] CT
0 GC
2 setlinecap
1 LJ
0.667 LW
N
457 43 M
457 48.95 L
S
GR
GS
[0.75 0 0 0.75 0 0] CT
0 GC
2 setlinecap
1 LJ
0.667 LW
N
576 43 M
576 48.95 L
S
GR
GS
[0.75 0 0 0.75 0 0] CT
0 GC
2 setlinecap
1 LJ
0.667 LW
N
695 43 M
695 48.95 L
S
GR
GS
[0.75 0 0 0.75 75 388.74998] CT
0 GC
/Helvetica 13 F
GS
[1 0 0 1 0 0] CT
-4.5 13 moveto 
1 -1 scale
(0) t 
GR
GR
GS
[0.75 0 0 0.75 164.25 388.74998] CT
0 GC
/Helvetica 13 F
GS
[1 0 0 1 0 0] CT
-4.5 13 moveto 
1 -1 scale
(5) t 
GR
GR
GS
[0.75 0 0 0.75 253.5 388.74998] CT
0 GC
/Helvetica 13 F
GS
[1 0 0 1 0 0] CT
-8.5 13 moveto 
1 -1 scale
(10) t 
GR
GR
GS
[0.75 0 0 0.75 342.75 388.74998] CT
0 GC
/Helvetica 13 F
GS
[1 0 0 1 0 0] CT
-8.5 13 moveto 
1 -1 scale
(15) t 
GR
GR
GS
[0.75 0 0 0.75 432 388.74998] CT
0 GC
/Helvetica 13 F
GS
[1 0 0 1 0 0] CT
-8.5 13 moveto 
1 -1 scale
(20) t 
GR
GR
GS
[0.75 0 0 0.75 521.25 388.74998] CT
0 GC
/Helvetica 13 F
GS
[1 0 0 1 0 0] CT
-8.5 13 moveto 
1 -1 scale
(25) t 
GR
GR
GS
[0.75 0 0 0.75 298.12523 402.50002] CT
0 GC
/Helvetica 15 F
GS
[1 0 0 1 0 0] CT
-62 14 moveto 
1 -1 scale
(Force \(Newtons\)) t 
GR
GR
GS
[0.75 0 0 0.75 0 0] CT
0 GC
2 setlinecap
1 LJ
0.667 LW
N
100 513 M
100 43 L
S
GR
GS
[0.75 0 0 0.75 0 0] CT
0 GC
2 setlinecap
1 LJ
0.667 LW
N
695 513 M
695 43 L
S
GR
GS
[0.75 0 0 0.75 0 0] CT
0 GC
2 setlinecap
1 LJ
0.667 LW
N
100 513 M
105.95 513 L
S
GR
GS
[0.75 0 0 0.75 0 0] CT
0 GC
2 setlinecap
1 LJ
0.667 LW
N
100 434.667 M
105.95 434.667 L
S
GR
GS
[0.75 0 0 0.75 0 0] CT
0 GC
2 setlinecap
1 LJ
0.667 LW
N
100 356.333 M
105.95 356.333 L
S
GR
GS
[0.75 0 0 0.75 0 0] CT
0 GC
2 setlinecap
1 LJ
0.667 LW
N
100 278 M
105.95 278 L
S
GR
GS
[0.75 0 0 0.75 0 0] CT
0 GC
2 setlinecap
1 LJ
0.667 LW
N
100 199.667 M
105.95 199.667 L
S
GR
GS
[0.75 0 0 0.75 0 0] CT
0 GC
2 setlinecap
1 LJ
0.667 LW
N
100 121.333 M
105.95 121.333 L
S
GR
GS
[0.75 0 0 0.75 0 0] CT
0 GC
2 setlinecap
1 LJ
0.667 LW
N
100 43 M
105.95 43 L
S
GR
GS
[0.75 0 0 0.75 0 0] CT
0 GC
2 setlinecap
1 LJ
0.667 LW
N
695 513 M
689.05 513 L
S
GR
GS
[0.75 0 0 0.75 0 0] CT
0 GC
2 setlinecap
1 LJ
0.667 LW
N
695 434.667 M
689.05 434.667 L
S
GR
GS
[0.75 0 0 0.75 0 0] CT
0 GC
2 setlinecap
1 LJ
0.667 LW
N
695 356.333 M
689.05 356.333 L
S
GR
GS
[0.75 0 0 0.75 0 0] CT
0 GC
2 setlinecap
1 LJ
0.667 LW
N
695 278 M
689.05 278 L
S
GR
GS
[0.75 0 0 0.75 0 0] CT
0 GC
2 setlinecap
1 LJ
0.667 LW
N
695 199.667 M
689.05 199.667 L
S
GR
GS
[0.75 0 0 0.75 0 0] CT
0 GC
2 setlinecap
1 LJ
0.667 LW
N
695 121.333 M
689.05 121.333 L
S
GR
GS
[0.75 0 0 0.75 0 0] CT
0 GC
2 setlinecap
1 LJ
0.667 LW
N
695 43 M
689.05 43 L
S
GR
GS
[0.75 0 0 0.75 71 384.75] CT
0 GC
/Helvetica 13 F
GS
[1 0 0 1 0 0] CT
-9 4.5 moveto 
1 -1 scale
(0) t 
GR
GR
GS
[0.75 0 0 0.75 71 325.99999] CT
0 GC
/Helvetica 13 F
GS
[1 0 0 1 0 0] CT
-29 4.5 moveto 
1 -1 scale
(0.02) t 
GR
GR
GS
[0.75 0 0 0.75 71 267.25001] CT
0 GC
/Helvetica 13 F
GS
[1 0 0 1 0 0] CT
-29 4.5 moveto 
1 -1 scale
(0.04) t 
GR
GR
GS
[0.75 0 0 0.75 71 208.5] CT
0 GC
/Helvetica 13 F
GS
[1 0 0 1 0 0] CT
-29 4.5 moveto 
1 -1 scale
(0.06) t 
GR
GR
GS
[0.75 0 0 0.75 71 149.75] CT
0 GC
/Helvetica 13 F
GS
[1 0 0 1 0 0] CT
-29 4.5 moveto 
1 -1 scale
(0.08) t 
GR
GR
GS
[0.75 0 0 0.75 71 91] CT
0 GC
/Helvetica 13 F
GS
[1 0 0 1 0 0] CT
-21 4.5 moveto 
1 -1 scale
(0.1) t 
GR
GR
GS
[0.75 0 0 0.75 71 32.25001] CT
0 GC
/Helvetica 13 F
GS
[1 0 0 1 0 0] CT
-29 4.5 moveto 
1 -1 scale
(0.12) t 
GR
GR
GS
[0 -0.75 0.75 0 46.25 208.49984] CT
0 GC
/Helvetica 15 F
GS
[1 0 0 1 0 0] CT
-86.5 -4 moveto 
1 -1 scale
(Displacement \(meters\)) t 
GR
GR
GS
[0.75 0 0 0.75 298.1253 30.18751] CT
0 GC
/Helvetica-Bold 15 F
GS
[1 0 0 1 0 0] CT
-196 -4 moveto 
1 -1 scale
(Displacement vs. Force for Beam3.dat \(th174\)) t 
GR
GR
GS
[0.75 0 0 0.75 0 0] CT
0 GC
1 LJ
N
104.5 500.5 M
103.736 498.149 L
101.736 496.696 L
99.264 496.696 L
97.264 498.149 L
96.5 500.5 L
97.264 502.851 L
99.264 504.304 L
101.736 504.304 L
103.736 502.851 L
cp
S
GR
GS
[0.75 0 0 0.75 0 0] CT
0 GC
1 LJ
N
160.5 434.5 M
159.736 432.149 L
157.736 430.696 L
155.264 430.696 L
153.264 432.149 L
152.5 434.5 L
153.264 436.851 L
155.264 438.304 L
157.736 438.304 L
159.736 436.851 L
cp
S
GR
GS
[0.75 0 0 0.75 0 0] CT
0 GC
1 LJ
N
216.5 389.5 M
215.736 387.149 L
213.736 385.696 L
211.264 385.696 L
209.264 387.149 L
208.5 389.5 L
209.264 391.851 L
211.264 393.304 L
213.736 393.304 L
215.736 391.851 L
cp
S
GR
GS
[0.75 0 0 0.75 0 0] CT
0 GC
1 LJ
N
272.5 366.5 M
271.736 364.149 L
269.736 362.696 L
267.264 362.696 L
265.264 364.149 L
264.5 366.5 L
265.264 368.851 L
267.264 370.304 L
269.736 370.304 L
271.736 368.851 L
cp
S
GR
GS
[0.75 0 0 0.75 0 0] CT
0 GC
1 LJ
N
328.5 322.5 M
327.736 320.149 L
325.736 318.696 L
323.264 318.696 L
321.264 320.149 L
320.5 322.5 L
321.264 324.851 L
323.264 326.304 L
325.736 326.304 L
327.736 324.851 L
cp
S
GR
GS
[0.75 0 0 0.75 0 0] CT
0 GC
1 LJ
N
384.5 258.5 M
383.736 256.149 L
381.736 254.696 L
379.264 254.696 L
377.264 256.149 L
376.5 258.5 L
377.264 260.851 L
379.264 262.304 L
381.736 262.304 L
383.736 260.851 L
cp
S
GR
GS
[0.75 0 0 0.75 0 0] CT
0 GC
1 LJ
N
440.5 191.5 M
439.736 189.149 L
437.736 187.696 L
435.264 187.696 L
433.264 189.149 L
432.5 191.5 L
433.264 193.851 L
435.264 195.304 L
437.736 195.304 L
439.736 193.851 L
cp
S
GR
GS
[0.75 0 0 0.75 0 0] CT
0 GC
1 LJ
N
496.5 174.5 M
495.736 172.149 L
493.736 170.696 L
491.264 170.696 L
489.264 172.149 L
488.5 174.5 L
489.264 176.851 L
491.264 178.304 L
493.736 178.304 L
495.736 176.851 L
cp
S
GR
GS
[0.75 0 0 0.75 0 0] CT
0 GC
1 LJ
N
552.5 116.5 M
551.736 114.149 L
549.736 112.696 L
547.264 112.696 L
545.264 114.149 L
544.5 116.5 L
545.264 118.851 L
547.264 120.304 L
549.736 120.304 L
551.736 118.851 L
cp
S
GR
GS
[0.75 0 0 0.75 0 0] CT
0 GC
1 LJ
N
608.5 87.5 M
607.736 85.149 L
605.736 83.696 L
603.264 83.696 L
601.264 85.149 L
600.5 87.5 L
601.264 89.851 L
603.264 91.304 L
605.736 91.304 L
607.736 89.851 L
cp
S
GR
GS
[0.75 0 0 0.75 0 0] CT
0 GC
1 LJ
0.667 LW
N
100 491.935 M
105.098 487.738 L
110.196 483.542 L
115.294 479.345 L
120.392 475.149 L
125.49 470.953 L
130.588 466.756 L
135.686 462.56 L
140.784 458.363 L
145.882 454.167 L
150.979 449.97 L
156.077 445.774 L
161.175 441.577 L
166.273 437.381 L
171.371 433.184 L
176.469 428.988 L
181.567 424.792 L
186.665 420.595 L
191.763 416.399 L
196.861 412.202 L
201.959 408.006 L
207.057 403.809 L
212.155 399.613 L
217.253 395.416 L
222.351 391.22 L
227.449 387.023 L
232.547 382.827 L
237.645 378.631 L
242.743 374.434 L
247.84 370.238 L
252.938 366.041 L
258.036 361.845 L
263.134 357.648 L
268.232 353.452 L
273.33 349.255 L
278.428 345.059 L
283.526 340.862 L
288.624 336.666 L
293.722 332.47 L
298.82 328.273 L
303.918 324.077 L
309.016 319.88 L
314.114 315.684 L
319.212 311.487 L
324.31 307.291 L
329.408 303.094 L
334.506 298.898 L
339.604 294.701 L
344.702 290.505 L
349.799 286.309 L
S
GR
GS
[0.75 0 0 0.75 0 0] CT
0 GC
1 LJ
0.667 LW
N
344.702 290.505 M
349.799 286.309 L
354.897 282.112 L
359.995 277.916 L
365.093 273.719 L
370.191 269.523 L
375.289 265.326 L
380.387 261.13 L
385.485 256.933 L
390.583 252.737 L
395.681 248.54 L
400.779 244.344 L
405.877 240.148 L
410.975 235.951 L
416.073 231.755 L
421.171 227.558 L
426.269 223.362 L
431.367 219.165 L
436.465 214.969 L
441.563 210.772 L
446.66 206.576 L
451.758 202.379 L
456.856 198.183 L
461.954 193.987 L
467.052 189.79 L
472.15 185.594 L
477.248 181.397 L
482.346 177.201 L
487.444 173.004 L
492.542 168.808 L
497.64 164.611 L
502.738 160.415 L
507.836 156.218 L
512.934 152.022 L
518.032 147.826 L
523.13 143.629 L
528.228 139.433 L
533.326 135.236 L
538.424 131.04 L
543.521 126.843 L
548.619 122.647 L
553.717 118.45 L
558.815 114.254 L
563.913 110.057 L
569.011 105.861 L
574.109 101.665 L
579.207 97.468 L
584.305 93.272 L
589.403 89.075 L
594.501 84.879 L
599.599 80.682 L
604.697 76.486 L
S
GR
GS
[0.75 0 0 0.75 0 0] CT
0 GC
1 LJ
0.667 LW
N
599.599 80.682 M
604.697 76.486 L
S
GR
%%Trailer
%%Pages: 1
%%EOF
