%!PS-Adobe-3.0 EPSF-3.0
%%Creator: (MATLAB, The Mathworks, Inc. Version 8.6.0.267246 \(R2015b\). Operating System: Linux)
%%Title: ./ButterflyPlot.eps
%%CreationDate: 2015-09-18T21:27:12
%%Pages: (atend)
%%BoundingBox:    44    16   525   416
%%LanguageLevel: 3
%%EndComments
%%BeginProlog
%%BeginResource: procset (Apache XML Graphics Std ProcSet) 1.2 0
%%Version: 1.2 0
%%Copyright: (Copyright 2001-2003,2010 The Apache Software Foundation. License terms: http://www.apache.org/licenses/LICENSE-2.0)
/bd{bind def}bind def
/ld{load def}bd
/GR/grestore ld
/M/moveto ld
/LJ/setlinejoin ld
/C/curveto ld
/f/fill ld
/LW/setlinewidth ld
/GC/setgray ld
/t/show ld
/N/newpath ld
/CT/concat ld
/cp/closepath ld
/S/stroke ld
/L/lineto ld
/CC/setcmykcolor ld
/A/ashow ld
/GS/gsave ld
/RC/setrgbcolor ld
/RM/rmoveto ld
/ML/setmiterlimit ld
/re {4 2 roll M
1 index 0 rlineto
0 exch rlineto
neg 0 rlineto
cp } bd
/_ctm matrix def
/_tm matrix def
/BT { _ctm currentmatrix pop matrix _tm copy pop 0 0 moveto } bd
/ET { _ctm setmatrix } bd
/iTm { _ctm setmatrix _tm concat } bd
/Tm { _tm astore pop iTm 0 0 moveto } bd
/ux 0.0 def
/uy 0.0 def
/F {
  /Tp exch def
  /Tf exch def
  Tf findfont Tp scalefont setfont
  /cf Tf def  /cs Tp def
} bd
/ULS {currentpoint /uy exch def /ux exch def} bd
/ULE {
  /Tcx currentpoint pop def
  gsave
  newpath
  cf findfont cs scalefont dup
  /FontMatrix get 0 get /Ts exch def /FontInfo get dup
  /UnderlinePosition get Ts mul /To exch def
  /UnderlineThickness get Ts mul /Tt exch def
  ux uy To add moveto  Tcx uy To add lineto
  Tt setlinewidth stroke
  grestore
} bd
/OLE {
  /Tcx currentpoint pop def
  gsave
  newpath
  cf findfont cs scalefont dup
  /FontMatrix get 0 get /Ts exch def /FontInfo get dup
  /UnderlinePosition get Ts mul /To exch def
  /UnderlineThickness get Ts mul /Tt exch def
  ux uy To add cs add moveto Tcx uy To add cs add lineto
  Tt setlinewidth stroke
  grestore
} bd
/SOE {
  /Tcx currentpoint pop def
  gsave
  newpath
  cf findfont cs scalefont dup
  /FontMatrix get 0 get /Ts exch def /FontInfo get dup
  /UnderlinePosition get Ts mul /To exch def
  /UnderlineThickness get Ts mul /Tt exch def
  ux uy To add cs 10 mul 26 idiv add moveto Tcx uy To add cs 10 mul 26 idiv add lineto
  Tt setlinewidth stroke
  grestore
} bd
/QT {
/Y22 exch store
/X22 exch store
/Y21 exch store
/X21 exch store
currentpoint
/Y21 load 2 mul add 3 div exch
/X21 load 2 mul add 3 div exch
/X21 load 2 mul /X22 load add 3 div
/Y21 load 2 mul /Y22 load add 3 div
/X22 load /Y22 load curveto
} bd
/SSPD {
dup length /d exch dict def
{
/v exch def
/k exch def
currentpagedevice k known {
/cpdv currentpagedevice k get def
v cpdv ne {
/upd false def
/nullv v type /nulltype eq def
/nullcpdv cpdv type /nulltype eq def
nullv nullcpdv or
{
/upd true def
} {
/sametype v type cpdv type eq def
sametype {
v type /arraytype eq {
/vlen v length def
/cpdvlen cpdv length def
vlen cpdvlen eq {
0 1 vlen 1 sub {
/i exch def
/obj v i get def
/cpdobj cpdv i get def
obj cpdobj ne {
/upd true def
exit
} if
} for
} {
/upd true def
} ifelse
} {
v type /dicttype eq {
v {
/dv exch def
/dk exch def
/cpddv cpdv dk get def
dv cpddv ne {
/upd true def
exit
} if
} forall
} {
/upd true def
} ifelse
} ifelse
} if
} ifelse
upd true eq {
d k v put
} if
} if
} if
} forall
d length 0 gt {
d setpagedevice
} if
} bd
%%EndResource
%%BeginResource: procset (Apache XML Graphics EPS ProcSet) 1.0 0
%%Version: 1.0 0
%%Copyright: (Copyright 2002-2003 The Apache Software Foundation. License terms: http://www.apache.org/licenses/LICENSE-2.0)
/BeginEPSF { %def
/b4_Inc_state save def         % Save state for cleanup
/dict_count countdictstack def % Count objects on dict stack
/op_count count 1 sub def      % Count objects on operand stack
userdict begin                 % Push userdict on dict stack
/showpage { } def              % Redefine showpage, { } = null proc
0 setgray 0 setlinecap         % Prepare graphics state
1 setlinewidth 0 setlinejoin
10 setmiterlimit [ ] 0 setdash newpath
/languagelevel where           % If level not equal to 1 then
{pop languagelevel             % set strokeadjust and
1 ne                           % overprint to their defaults.
{false setstrokeadjust false setoverprint
} if
} if
} bd
/EndEPSF { %def
count op_count sub {pop} repeat            % Clean up stacks
countdictstack dict_count sub {end} repeat
b4_Inc_state restore
} bd
%%EndResource
%FOPBeginFontDict
%%IncludeResource: font Courier-Bold
%%IncludeResource: font Helvetica
%%IncludeResource: font Courier-BoldOblique
%%IncludeResource: font Courier-Oblique
%%IncludeResource: font Times-Roman
%%IncludeResource: font Helvetica-BoldOblique
%%IncludeResource: font Helvetica-Bold
%%IncludeResource: font Helvetica-Oblique
%%IncludeResource: font Times-BoldItalic
%%IncludeResource: font Courier
%%IncludeResource: font Times-Italic
%%IncludeResource: font Times-Bold
%%IncludeResource: font Symbol
%%IncludeResource: font ZapfDingbats
%FOPEndFontDict
%%BeginResource: encoding WinAnsiEncoding
/WinAnsiEncoding [
/.notdef /.notdef /.notdef /.notdef /.notdef
/.notdef /.notdef /.notdef /.notdef /.notdef
/.notdef /.notdef /.notdef /.notdef /.notdef
/.notdef /.notdef /.notdef /.notdef /.notdef
/.notdef /.notdef /.notdef /.notdef /.notdef
/.notdef /.notdef /.notdef /.notdef /.notdef
/.notdef /.notdef /space /exclam /quotedbl
/numbersign /dollar /percent /ampersand /quotesingle
/parenleft /parenright /asterisk /plus /comma
/hyphen /period /slash /zero /one
/two /three /four /five /six
/seven /eight /nine /colon /semicolon
/less /equal /greater /question /at
/A /B /C /D /E
/F /G /H /I /J
/K /L /M /N /O
/P /Q /R /S /T
/U /V /W /X /Y
/Z /bracketleft /backslash /bracketright /asciicircum
/underscore /quoteleft /a /b /c
/d /e /f /g /h
/i /j /k /l /m
/n /o /p /q /r
/s /t /u /v /w
/x /y /z /braceleft /bar
/braceright /asciitilde /bullet /Euro /bullet
/quotesinglbase /florin /quotedblbase /ellipsis /dagger
/daggerdbl /circumflex /perthousand /Scaron /guilsinglleft
/OE /bullet /Zcaron /bullet /bullet
/quoteleft /quoteright /quotedblleft /quotedblright /bullet
/endash /emdash /asciitilde /trademark /scaron
/guilsinglright /oe /bullet /zcaron /Ydieresis
/space /exclamdown /cent /sterling /currency
/yen /brokenbar /section /dieresis /copyright
/ordfeminine /guillemotleft /logicalnot /sfthyphen /registered
/macron /degree /plusminus /twosuperior /threesuperior
/acute /mu /paragraph /middot /cedilla
/onesuperior /ordmasculine /guillemotright /onequarter /onehalf
/threequarters /questiondown /Agrave /Aacute /Acircumflex
/Atilde /Adieresis /Aring /AE /Ccedilla
/Egrave /Eacute /Ecircumflex /Edieresis /Igrave
/Iacute /Icircumflex /Idieresis /Eth /Ntilde
/Ograve /Oacute /Ocircumflex /Otilde /Odieresis
/multiply /Oslash /Ugrave /Uacute /Ucircumflex
/Udieresis /Yacute /Thorn /germandbls /agrave
/aacute /acircumflex /atilde /adieresis /aring
/ae /ccedilla /egrave /eacute /ecircumflex
/edieresis /igrave /iacute /icircumflex /idieresis
/eth /ntilde /ograve /oacute /ocircumflex
/otilde /odieresis /divide /oslash /ugrave
/uacute /ucircumflex /udieresis /yacute /thorn
/ydieresis
] def
%%EndResource
%FOPBeginFontReencode
/Courier-Bold findfont
dup length dict begin
  {1 index /FID ne {def} {pop pop} ifelse} forall
  /Encoding WinAnsiEncoding def
  currentdict
end
/Courier-Bold exch definefont pop
/Helvetica findfont
dup length dict begin
  {1 index /FID ne {def} {pop pop} ifelse} forall
  /Encoding WinAnsiEncoding def
  currentdict
end
/Helvetica exch definefont pop
/Courier-BoldOblique findfont
dup length dict begin
  {1 index /FID ne {def} {pop pop} ifelse} forall
  /Encoding WinAnsiEncoding def
  currentdict
end
/Courier-BoldOblique exch definefont pop
/Courier-Oblique findfont
dup length dict begin
  {1 index /FID ne {def} {pop pop} ifelse} forall
  /Encoding WinAnsiEncoding def
  currentdict
end
/Courier-Oblique exch definefont pop
/Times-Roman findfont
dup length dict begin
  {1 index /FID ne {def} {pop pop} ifelse} forall
  /Encoding WinAnsiEncoding def
  currentdict
end
/Times-Roman exch definefont pop
/Helvetica-BoldOblique findfont
dup length dict begin
  {1 index /FID ne {def} {pop pop} ifelse} forall
  /Encoding WinAnsiEncoding def
  currentdict
end
/Helvetica-BoldOblique exch definefont pop
/Helvetica-Bold findfont
dup length dict begin
  {1 index /FID ne {def} {pop pop} ifelse} forall
  /Encoding WinAnsiEncoding def
  currentdict
end
/Helvetica-Bold exch definefont pop
/Helvetica-Oblique findfont
dup length dict begin
  {1 index /FID ne {def} {pop pop} ifelse} forall
  /Encoding WinAnsiEncoding def
  currentdict
end
/Helvetica-Oblique exch definefont pop
/Times-BoldItalic findfont
dup length dict begin
  {1 index /FID ne {def} {pop pop} ifelse} forall
  /Encoding WinAnsiEncoding def
  currentdict
end
/Times-BoldItalic exch definefont pop
/Courier findfont
dup length dict begin
  {1 index /FID ne {def} {pop pop} ifelse} forall
  /Encoding WinAnsiEncoding def
  currentdict
end
/Courier exch definefont pop
/Times-Italic findfont
dup length dict begin
  {1 index /FID ne {def} {pop pop} ifelse} forall
  /Encoding WinAnsiEncoding def
  currentdict
end
/Times-Italic exch definefont pop
/Times-Bold findfont
dup length dict begin
  {1 index /FID ne {def} {pop pop} ifelse} forall
  /Encoding WinAnsiEncoding def
  currentdict
end
/Times-Bold exch definefont pop
%FOPEndFontReencode
%%EndProlog
%%Page: 1 1
%%PageBoundingBox: 0 0 576 432
%%BeginPageSetup
[1 0 0 -1 0 432] CT
%%EndPageSetup
GS
[0.75 0 0 0.75 0 0] CT
0.997 GC
N
0 0 768 576 re
f
GR
GS
[0.75 0 0 0.75 0 0] CT
0.997 GC
N
0 0 768 576 re
f
GR
GS
[0.75 0 0 0.75 0 0] CT
0.997 GC
N
100 513 M
695 513 L
695 43 L
100 43 L
cp
f
GR
GS
[0.75 0 0 0.75 0 0] CT
0.846 GC
1 LJ
0.667 LW
N
100 513 M
100 43 L
S
GR
GS
[0.75 0 0 0.75 0 0] CT
0.846 GC
1 LJ
0.667 LW
N
174.375 513 M
174.375 43 L
S
GR
GS
[0.75 0 0 0.75 0 0] CT
0.846 GC
1 LJ
0.667 LW
N
248.75 513 M
248.75 43 L
S
GR
GS
[0.75 0 0 0.75 0 0] CT
0.846 GC
1 LJ
0.667 LW
N
323.125 513 M
323.125 43 L
S
GR
GS
[0.75 0 0 0.75 0 0] CT
0.846 GC
1 LJ
0.667 LW
N
397.5 513 M
397.5 43 L
S
GR
GS
[0.75 0 0 0.75 0 0] CT
0.846 GC
1 LJ
0.667 LW
N
471.875 513 M
471.875 43 L
S
GR
GS
[0.75 0 0 0.75 0 0] CT
0.846 GC
1 LJ
0.667 LW
N
546.25 513 M
546.25 43 L
S
GR
GS
[0.75 0 0 0.75 0 0] CT
0.846 GC
1 LJ
0.667 LW
N
620.625 513 M
620.625 43 L
S
GR
GS
[0.75 0 0 0.75 0 0] CT
0.846 GC
1 LJ
0.667 LW
N
695 513 M
695 43 L
S
GR
GS
[0.75 0 0 0.75 0 0] CT
0.846 GC
1 LJ
0.667 LW
N
695 513 M
100 513 L
S
GR
GS
[0.75 0 0 0.75 0 0] CT
0.846 GC
1 LJ
0.667 LW
N
695 445.857 M
100 445.857 L
S
GR
GS
[0.75 0 0 0.75 0 0] CT
0.846 GC
1 LJ
0.667 LW
N
695 378.714 M
100 378.714 L
S
GR
GS
[0.75 0 0 0.75 0 0] CT
0.846 GC
1 LJ
0.667 LW
N
695 311.571 M
100 311.571 L
S
GR
GS
[0.75 0 0 0.75 0 0] CT
0.846 GC
1 LJ
0.667 LW
N
695 244.429 M
100 244.429 L
S
GR
GS
[0.75 0 0 0.75 0 0] CT
0.846 GC
1 LJ
0.667 LW
N
695 177.286 M
100 177.286 L
S
GR
GS
[0.75 0 0 0.75 0 0] CT
0.846 GC
1 LJ
0.667 LW
N
695 110.143 M
100 110.143 L
S
GR
GS
[0.75 0 0 0.75 0 0] CT
0.846 GC
1 LJ
0.667 LW
N
695 43 M
100 43 L
S
GR
GS
[0.75 0 0 0.75 0 0] CT
0 GC
2 setlinecap
1 LJ
0.667 LW
N
100 513 M
695 513 L
S
GR
GS
[0.75 0 0 0.75 0 0] CT
0 GC
2 setlinecap
1 LJ
0.667 LW
N
100 43 M
695 43 L
S
GR
GS
[0.75 0 0 0.75 0 0] CT
0 GC
2 setlinecap
1 LJ
0.667 LW
N
100 513 M
100 507.05 L
S
GR
GS
[0.75 0 0 0.75 0 0] CT
0 GC
2 setlinecap
1 LJ
0.667 LW
N
174.375 513 M
174.375 507.05 L
S
GR
GS
[0.75 0 0 0.75 0 0] CT
0 GC
2 setlinecap
1 LJ
0.667 LW
N
248.75 513 M
248.75 507.05 L
S
GR
GS
[0.75 0 0 0.75 0 0] CT
0 GC
2 setlinecap
1 LJ
0.667 LW
N
323.125 513 M
323.125 507.05 L
S
GR
GS
[0.75 0 0 0.75 0 0] CT
0 GC
2 setlinecap
1 LJ
0.667 LW
N
397.5 513 M
397.5 507.05 L
S
GR
GS
[0.75 0 0 0.75 0 0] CT
0 GC
2 setlinecap
1 LJ
0.667 LW
N
471.875 513 M
471.875 507.05 L
S
GR
GS
[0.75 0 0 0.75 0 0] CT
0 GC
2 setlinecap
1 LJ
0.667 LW
N
546.25 513 M
546.25 507.05 L
S
GR
GS
[0.75 0 0 0.75 0 0] CT
0 GC
2 setlinecap
1 LJ
0.667 LW
N
620.625 513 M
620.625 507.05 L
S
GR
GS
[0.75 0 0 0.75 0 0] CT
0 GC
2 setlinecap
1 LJ
0.667 LW
N
695 513 M
695 507.05 L
S
GR
GS
[0.75 0 0 0.75 0 0] CT
0 GC
2 setlinecap
1 LJ
0.667 LW
N
100 43 M
100 48.95 L
S
GR
GS
[0.75 0 0 0.75 0 0] CT
0 GC
2 setlinecap
1 LJ
0.667 LW
N
174.375 43 M
174.375 48.95 L
S
GR
GS
[0.75 0 0 0.75 0 0] CT
0 GC
2 setlinecap
1 LJ
0.667 LW
N
248.75 43 M
248.75 48.95 L
S
GR
GS
[0.75 0 0 0.75 0 0] CT
0 GC
2 setlinecap
1 LJ
0.667 LW
N
323.125 43 M
323.125 48.95 L
S
GR
GS
[0.75 0 0 0.75 0 0] CT
0 GC
2 setlinecap
1 LJ
0.667 LW
N
397.5 43 M
397.5 48.95 L
S
GR
GS
[0.75 0 0 0.75 0 0] CT
0 GC
2 setlinecap
1 LJ
0.667 LW
N
471.875 43 M
471.875 48.95 L
S
GR
GS
[0.75 0 0 0.75 0 0] CT
0 GC
2 setlinecap
1 LJ
0.667 LW
N
546.25 43 M
546.25 48.95 L
S
GR
GS
[0.75 0 0 0.75 0 0] CT
0 GC
2 setlinecap
1 LJ
0.667 LW
N
620.625 43 M
620.625 48.95 L
S
GR
GS
[0.75 0 0 0.75 0 0] CT
0 GC
2 setlinecap
1 LJ
0.667 LW
N
695 43 M
695 48.95 L
S
GR
GS
[0.75 0 0 0.75 75 388.74998] CT
0 GC
/Helvetica 13 F
GS
[1 0 0 1 0 0] CT
-6.5 13 moveto 
1 -1 scale
(-4) t 
GR
GR
GS
[0.75 0 0 0.75 130.78125 388.74998] CT
0 GC
/Helvetica 13 F
GS
[1 0 0 1 0 0] CT
-6.5 13 moveto 
1 -1 scale
(-3) t 
GR
GR
GS
[0.75 0 0 0.75 186.5625 388.74998] CT
0 GC
/Helvetica 13 F
GS
[1 0 0 1 0 0] CT
-6.5 13 moveto 
1 -1 scale
(-2) t 
GR
GR
GS
[0.75 0 0 0.75 242.34375 388.74998] CT
0 GC
/Helvetica 13 F
GS
[1 0 0 1 0 0] CT
-6.5 13 moveto 
1 -1 scale
(-1) t 
GR
GR
GS
[0.75 0 0 0.75 298.125 388.74998] CT
0 GC
/Helvetica 13 F
GS
[1 0 0 1 0 0] CT
-4.5 13 moveto 
1 -1 scale
(0) t 
GR
GR
GS
[0.75 0 0 0.75 353.90625 388.74998] CT
0 GC
/Helvetica 13 F
GS
[1 0 0 1 0 0] CT
-4.5 13 moveto 
1 -1 scale
(1) t 
GR
GR
GS
[0.75 0 0 0.75 409.6875 388.74998] CT
0 GC
/Helvetica 13 F
GS
[1 0 0 1 0 0] CT
-4.5 13 moveto 
1 -1 scale
(2) t 
GR
GR
GS
[0.75 0 0 0.75 465.46875 388.74998] CT
0 GC
/Helvetica 13 F
GS
[1 0 0 1 0 0] CT
-4.5 13 moveto 
1 -1 scale
(3) t 
GR
GR
GS
[0.75 0 0 0.75 521.25 388.74998] CT
0 GC
/Helvetica 13 F
GS
[1 0 0 1 0 0] CT
-4.5 13 moveto 
1 -1 scale
(4) t 
GR
GR
GS
[0.75 0 0 0.75 298.12521 402.50002] CT
0 GC
/Helvetica 15 F
GS
[1 0 0 1 0 0] CT
-13.5 14 moveto 
1 -1 scale
(x\(t\)) t 
GR
GR
GS
[0.75 0 0 0.75 0 0] CT
0 GC
2 setlinecap
1 LJ
0.667 LW
N
100 513 M
100 43 L
S
GR
GS
[0.75 0 0 0.75 0 0] CT
0 GC
2 setlinecap
1 LJ
0.667 LW
N
695 513 M
695 43 L
S
GR
GS
[0.75 0 0 0.75 0 0] CT
0 GC
2 setlinecap
1 LJ
0.667 LW
N
100 513 M
105.95 513 L
S
GR
GS
[0.75 0 0 0.75 0 0] CT
0 GC
2 setlinecap
1 LJ
0.667 LW
N
100 445.857 M
105.95 445.857 L
S
GR
GS
[0.75 0 0 0.75 0 0] CT
0 GC
2 setlinecap
1 LJ
0.667 LW
N
100 378.714 M
105.95 378.714 L
S
GR
GS
[0.75 0 0 0.75 0 0] CT
0 GC
2 setlinecap
1 LJ
0.667 LW
N
100 311.571 M
105.95 311.571 L
S
GR
GS
[0.75 0 0 0.75 0 0] CT
0 GC
2 setlinecap
1 LJ
0.667 LW
N
100 244.429 M
105.95 244.429 L
S
GR
GS
[0.75 0 0 0.75 0 0] CT
0 GC
2 setlinecap
1 LJ
0.667 LW
N
100 177.286 M
105.95 177.286 L
S
GR
GS
[0.75 0 0 0.75 0 0] CT
0 GC
2 setlinecap
1 LJ
0.667 LW
N
100 110.143 M
105.95 110.143 L
S
GR
GS
[0.75 0 0 0.75 0 0] CT
0 GC
2 setlinecap
1 LJ
0.667 LW
N
100 43 M
105.95 43 L
S
GR
GS
[0.75 0 0 0.75 0 0] CT
0 GC
2 setlinecap
1 LJ
0.667 LW
N
695 513 M
689.05 513 L
S
GR
GS
[0.75 0 0 0.75 0 0] CT
0 GC
2 setlinecap
1 LJ
0.667 LW
N
695 445.857 M
689.05 445.857 L
S
GR
GS
[0.75 0 0 0.75 0 0] CT
0 GC
2 setlinecap
1 LJ
0.667 LW
N
695 378.714 M
689.05 378.714 L
S
GR
GS
[0.75 0 0 0.75 0 0] CT
0 GC
2 setlinecap
1 LJ
0.667 LW
N
695 311.571 M
689.05 311.571 L
S
GR
GS
[0.75 0 0 0.75 0 0] CT
0 GC
2 setlinecap
1 LJ
0.667 LW
N
695 244.429 M
689.05 244.429 L
S
GR
GS
[0.75 0 0 0.75 0 0] CT
0 GC
2 setlinecap
1 LJ
0.667 LW
N
695 177.286 M
689.05 177.286 L
S
GR
GS
[0.75 0 0 0.75 0 0] CT
0 GC
2 setlinecap
1 LJ
0.667 LW
N
695 110.143 M
689.05 110.143 L
S
GR
GS
[0.75 0 0 0.75 0 0] CT
0 GC
2 setlinecap
1 LJ
0.667 LW
N
695 43 M
689.05 43 L
S
GR
GS
[0.75 0 0 0.75 71 384.75] CT
0 GC
/Helvetica 13 F
GS
[1 0 0 1 0 0] CT
-13 4.5 moveto 
1 -1 scale
(-3) t 
GR
GR
GS
[0.75 0 0 0.75 71 334.39286] CT
0 GC
/Helvetica 13 F
GS
[1 0 0 1 0 0] CT
-13 4.5 moveto 
1 -1 scale
(-2) t 
GR
GR
GS
[0.75 0 0 0.75 71 284.03572] CT
0 GC
/Helvetica 13 F
GS
[1 0 0 1 0 0] CT
-13 4.5 moveto 
1 -1 scale
(-1) t 
GR
GR
GS
[0.75 0 0 0.75 71 233.67858] CT
0 GC
/Helvetica 13 F
GS
[1 0 0 1 0 0] CT
-9 4.5 moveto 
1 -1 scale
(0) t 
GR
GR
GS
[0.75 0 0 0.75 71 183.32143] CT
0 GC
/Helvetica 13 F
GS
[1 0 0 1 0 0] CT
-9 4.5 moveto 
1 -1 scale
(1) t 
GR
GR
GS
[0.75 0 0 0.75 71 132.96429] CT
0 GC
/Helvetica 13 F
GS
[1 0 0 1 0 0] CT
-9 4.5 moveto 
1 -1 scale
(2) t 
GR
GR
GS
[0.75 0 0 0.75 71 82.60715] CT
0 GC
/Helvetica 13 F
GS
[1 0 0 1 0 0] CT
-9 4.5 moveto 
1 -1 scale
(3) t 
GR
GR
GS
[0.75 0 0 0.75 71 32.25] CT
0 GC
/Helvetica 13 F
GS
[1 0 0 1 0 0] CT
-9 4.5 moveto 
1 -1 scale
(4) t 
GR
GR
GS
[0 -0.75 0.75 0 58.25 208.49984] CT
0 GC
/Helvetica 15 F
GS
[1 0 0 1 0 0] CT
-13.5 -4 moveto 
1 -1 scale
(y\(t\)) t 
GR
GR
GS
[0.75 0 0 0.75 298.12527 30.1875] CT
0 GC
/Helvetica-Bold 15 F
GS
[1 0 0 1 0 0] CT
-140.5 -4 moveto 
1 -1 scale
(Parametric Butterfly Plot \(th174\)) t 
GR
GR
GS
[0.75 0 0 0.75 0 0] CT
0 GC
1 LJ
0.667 LW
N
397.5 263.344 M
400.307 260.956 L
403.909 253.933 L
409.038 242.689 L
416.301 227.887 L
426.131 210.398 L
438.75 191.254 L
454.135 171.581 L
472.021 152.541 L
491.898 135.256 L
513.043 120.75 L
534.557 109.888 L
555.416 103.326 L
574.536 101.478 L
590.843 104.495 L
603.334 112.258 L
611.154 124.395 L
613.647 140.301 L
610.41 159.186 L
601.323 180.12 L
586.569 202.097 L
566.632 224.094 L
542.281 245.138 L
514.531 264.362 L
484.595 281.058 L
453.818 294.713 L
423.607 305.045 L
395.355 312.005 L
370.361 315.779 L
349.763 316.771 L
334.47 315.564 L
325.118 312.88 L
322.028 309.527 L
325.196 306.336 L
334.291 304.108 L
348.676 303.547 L
367.449 305.216 L
389.49 309.491 L
413.532 316.531 L
438.231 326.266 L
462.244 338.391 L
484.301 352.389 L
503.28 367.555 L
518.264 383.042 L
528.59 397.912 L
533.879 411.199 L
534.053 421.971 L
529.326 429.391 L
520.187 432.775 L
507.357 431.644 L
S
GR
GS
[0.75 0 0 0.75 0 0] CT
0 GC
1 LJ
0.667 LW
N
520.187 432.775 M
507.357 431.644 L
491.741 425.757 L
474.364 415.136 L
456.305 400.075 L
438.622 381.126 L
422.292 359.082 L
408.141 334.928 L
396.804 309.795 L
388.678 284.898 L
383.909 261.465 L
382.387 240.673 L
383.755 223.575 L
387.444 211.049 L
392.715 203.738 L
398.711 202.021 L
404.527 205.985 L
409.266 215.427 L
412.113 229.857 L
412.389 248.534 L
409.607 270.503 L
403.505 294.655 L
394.074 319.784 L
381.563 344.658 L
366.466 368.089 L
349.5 388.996 L
331.559 406.467 L
313.658 419.801 L
296.873 428.545 L
282.27 432.516 L
270.833 431.796 L
263.401 426.728 L
260.609 417.876 L
262.838 405.991 L
270.189 391.957 L
282.461 376.727 L
299.161 361.263 L
319.519 346.473 L
342.529 333.154 L
367.003 321.941 L
391.633 313.269 L
415.065 307.35 L
435.978 304.163 L
453.154 303.458 L
465.554 304.781 L
472.375 307.507 L
473.098 310.886 L
467.522 314.1 L
455.773 316.319 L
438.3 316.763 L
415.852 314.759 L
389.438 309.79 L
S
GR
GS
[0.75 0 0 0.75 0 0] CT
0 GC
1 LJ
0.667 LW
N
415.852 314.759 M
389.438 309.79 L
360.268 301.537 L
329.686 289.906 L
299.1 275.04 L
269.9 257.315 L
243.388 237.325 L
220.705 215.849 L
202.771 193.801 L
190.244 172.182 L
183.491 152.016 L
182.571 134.285 L
187.249 119.871 L
197.015 109.495 L
211.126 103.673 L
228.661 102.679 L
248.58 106.523 L
269.796 114.949 L
291.241 127.441 L
311.933 143.255 L
331.039 161.456 L
347.915 180.974 L
362.147 200.66 L
373.567 219.361 L
382.251 235.978 L
388.509 249.538 L
392.848 259.245 L
395.933 264.531 L
398.528 265.09 L
401.436 260.892 L
405.433 252.189 L
411.208 239.497 L
419.306 223.566 L
430.079 205.339 L
443.653 185.892 L
459.909 166.373 L
478.483 147.935 L
498.776 131.669 L
519.989 118.539 L
541.167 109.334 L
561.256 104.614 L
579.166 104.69 L
593.845 109.604 L
604.342 119.133 L
609.874 132.809 L
609.884 149.945 L
604.077 169.689 L
592.455 191.073 L
575.323 213.076 L
553.283 234.686 L
527.208 254.967 L
498.2 273.109 L
S
GR
GS
[0.75 0 0 0.75 0 0] CT
0 GC
1 LJ
0.667 LW
N
527.208 254.967 M
498.2 273.109 L
467.534 288.477 L
436.589 300.648 L
406.778 309.431 L
379.466 314.874 L
355.897 317.253 L
337.126 317.046 L
323.959 314.899 L
316.911 311.575 L
316.176 307.9 L
321.619 304.699 L
332.784 302.74 L
348.925 302.68 L
369.047 305.011 L
391.963 310.025 L
416.37 317.792 L
440.914 328.148 L
464.274 340.703 L
485.232 354.859 L
502.744 369.851 L
515.989 384.79 L
524.416 398.72 L
527.766 410.683 L
526.08 419.778 L
519.686 425.224 L
509.172 426.417 L
495.341 422.968 L
479.152 414.742 L
461.663 401.871 L
443.951 384.755 L
427.051 364.05 L
411.885 340.63 L
399.21 315.55 L
389.569 289.982 L
383.259 265.156 L
380.325 242.291 L
380.553 222.524 L
383.497 206.847 L
388.515 196.05 L
394.811 190.678 L
401.501 190.996 L
407.673 196.977 L
412.455 208.301 L
415.078 224.379 L
414.931 244.378 L
411.613 267.277 L
404.958 291.92 L
395.059 317.086 L
382.263 341.553 L
367.154 364.171 L
350.523 383.919 L
S
GR
GS
[0.75 0 0 0.75 0 0] CT
0 GC
1 LJ
0.667 LW
N
367.154 364.171 M
350.523 383.919 L
333.317 399.966 L
316.583 411.707 L
301.396 418.798 L
288.796 421.162 L
279.714 418.989 L
274.91 412.713 L
274.921 402.981 L
280.015 390.604 L
290.171 376.499 L
305.066 361.631 L
324.09 346.947 L
346.371 333.318 L
370.819 321.48 L
396.187 311.991 L
421.137 305.199 L
444.315 301.22 L
464.43 299.94 L
480.323 301.024 L
491.041 303.94 L
495.886 308.008 L
494.461 312.441 L
486.69 316.405 L
472.83 319.081 L
453.451 319.723 L
429.408 317.712 L
401.796 312.603 L
371.884 304.162 L
341.05 292.384 L
310.703 277.503 L
282.205 259.983 L
256.799 240.492 L
235.544 219.865 L
219.26 199.055 L
208.49 179.075 L
203.478 160.936 L
204.165 145.583 L
210.201 133.837 L
220.98 126.338 L
235.68 123.505 L
253.326 125.504 L
272.852 132.234 L
293.172 143.33 L
313.247 158.176 L
332.151 175.944 L
349.121 195.634 L
363.607 216.131 L
375.293 236.276 L
384.113 254.923 L
390.242 271.014 L
394.078 283.637 L
S
GR
GS
[0.75 0 0 0.75 0 0] CT
0 GC
1 LJ
0.667 LW
N
390.242 271.014 M
394.078 283.637 L
396.2 292.08 L
397.324 295.873 L
398.242 294.816 L
399.756 288.989 L
402.623 278.751 L
407.483 264.714 L
414.814 247.709 L
424.887 228.738 L
437.737 208.911 L
453.151 189.387 L
470.675 171.301 L
489.631 155.699 L
509.156 143.483 L
528.255 135.353 L
545.858 131.775 L
560.885 132.953 L
572.324 138.823 L
579.289 149.063 L
581.086 163.115 L
577.264 180.221 L
567.65 199.479 L
552.372 219.893 L
531.86 240.444 L
506.833 260.144 L
478.267 278.104 L
447.345 293.584 L
415.396 306.033 L
383.826 315.124 L
354.042 320.766 L
327.374 323.104 L
305 322.503 L
287.886 319.519 L
276.73 314.856 L
271.922 309.314 L
273.527 303.731 L
281.283 298.925 L
294.614 295.629 L
312.669 294.445 L
334.371 295.797 L
358.477 299.895 L
383.655 306.722 L
408.555 316.029 L
431.887 327.346 L
452.494 340.008 L
469.412 353.2 L
481.924 366.006 L
489.59 377.468 L
492.269 386.648 L
490.115 392.691 L
483.561 394.887 L
S
GR
GS
[0.75 0 0 0.75 0 0] CT
0 GC
1 LJ
0.667 LW
N
490.115 392.691 M
483.561 394.887 L
473.282 392.718 L
460.147 385.899 L
445.158 374.404 L
429.384 358.478 L
413.889 338.631 L
399.665 315.614 L
387.568 290.382 L
378.268 264.05 L
372.206 237.823 L
369.575 212.938 L
370.305 190.591 L
374.083 171.872 L
380.371 157.7 L
388.452 148.774 L
397.48 145.53 L
406.545 148.119 L
414.736 156.396 L
421.207 169.931 L
425.239 188.031 L
426.292 209.783 L
424.049 234.101 L
418.44 259.796 L
409.65 285.634 L
398.12 310.413 L
384.514 333.023 L
369.685 352.512 L
354.62 368.131 L
340.38 379.373 L
328.028 385.995 L
318.564 388.024 L
312.852 385.746 L
311.563 379.681 L
315.126 370.541 L
323.693 359.183 L
337.117 346.543 L
354.954 333.582 L
376.483 321.218 L
400.736 310.266 L
426.549 301.391 L
452.628 295.064 L
477.619 291.534 L
500.181 290.82 L
519.068 292.709 L
533.194 296.778 L
541.704 302.423 L
544.014 308.909 L
539.856 315.414 L
529.288 321.1 L
512.696 325.162 L
490.771 326.891 L
S
GR
GS
[0.75 0 0 0.75 0 0] CT
0 GC
1 LJ
0.667 LW
N
512.696 325.162 M
490.771 326.891 L
464.473 325.728 L
434.977 321.301 L
403.609 313.461 L
371.771 302.292 L
340.866 288.118 L
312.223 271.481 L
287.024 253.116 L
266.242 233.908 L
250.596 214.837 L
240.517 196.918 L
236.134 181.14 L
237.274 168.402 L
243.488 159.455 L
254.083 154.852 L
268.176 154.913 L
284.754 159.696 L
302.742 168.993 L
321.071 182.333 L
338.747 199.011 L
354.91 218.123 L
368.886 238.616 L
380.221 259.35 L
388.706 279.165 L
394.38 296.942 L
397.516 311.676 L
398.598 322.531 L
398.271 328.89 L
397.294 330.39 L
396.479 326.946 L
396.622 318.754 L
398.445 306.281 L
402.537 290.235 L
409.3 271.526 L
418.919 251.211 L
431.335 230.433 L
446.241 210.352 L
463.094 192.083 L
481.139 176.624 L
499.458 164.808 L
517.019 157.252 L
532.743 154.322 L
545.57 156.124 L
554.532 162.493 L
558.813 173.015 L
557.812 187.052 L
551.184 203.789 L
538.876 222.284 L
521.134 241.53 L
498.507 260.518 L
471.819 278.299 L
S
GR
GS
[0.75 0 0 0.75 0 0] CT
0 GC
1 LJ
0.667 LW
N
498.507 260.518 M
471.819 278.299 L
442.133 294.042 L
410.696 307.083 L
378.874 316.963 L
348.079 323.453 L
319.694 326.561 L
294.993 326.526 L
275.072 323.8 L
260.792 319.007 L
252.726 312.898 L
251.133 306.299 L
255.941 300.051 L
266.753 294.947 L
282.875 291.675 L
303.353 290.774 L
327.03 292.587 L
352.613 297.236 L
378.747 304.611 L
404.093 314.374 L
427.399 325.972 L
447.574 338.676 L
463.741 351.624 L
475.284 363.873 L
481.876 374.464 L
483.49 382.486 L
480.39 387.131 L
473.104 387.759 L
462.388 383.937 L
449.166 375.48 L
434.472 362.466 L
419.376 345.245 L
404.918 324.422 L
392.039 300.832 L
381.523 275.495 L
373.95 249.567 L
369.661 224.269 L
368.742 200.826 L
371.022 180.395 L
376.092 163.999 L
383.337 152.47 L
391.979 146.403 L
401.14 146.115 L
409.901 151.637 L
417.369 162.701 L
422.742 178.765 L
425.37 199.037 L
424.798 222.523 L
420.806 248.084 L
413.429 274.5 L
402.958 300.539 L
389.93 325.021 L
S
GR
GS
[0.75 0 0 0.75 0 0] CT
0 GC
1 LJ
0.667 LW
N
402.958 300.539 M
389.93 325.021 L
375.093 346.891 L
359.364 365.267 L
343.771 379.49 L
329.389 389.154 L
317.268 394.12 L
308.365 394.518 L
303.479 390.729 L
303.196 383.354 L
307.841 373.165 L
317.454 361.058 L
331.774 347.986 L
350.249 334.898 L
372.059 322.677 L
396.157 312.085 L
421.325 303.712 L
446.242 297.945 L
469.555 294.942 L
489.958 294.629 L
506.266 296.707 L
517.483 300.68 L
522.863 305.887 L
521.95 311.553 L
514.61 316.847 L
501.037 320.939 L
481.748 323.059 L
457.551 322.557 L
429.501 318.947 L
398.848 311.948 L
366.959 301.507 L
335.25 287.809 L
305.105 271.273 L
277.805 252.528 L
254.458 232.38 L
235.941 211.762 L
222.864 191.682 L
215.539 173.158 L
213.972 157.157 L
217.877 144.53 L
226.703 135.96 L
239.672 131.918 L
255.843 132.625 L
274.166 138.039 L
293.558 147.851 L
312.972 161.5 L
331.456 178.199 L
348.216 196.984 L
362.659 216.766 L
374.425 236.392 L
383.398 254.715 L
389.709 270.66 L
S
GR
GS
[0.75 0 0 0.75 0 0] CT
0 GC
1 LJ
0.667 LW
N
383.398 254.715 M
389.709 270.66 L
393.715 283.286 L
395.963 291.842 L
397.148 295.814 L
398.05 294.95 L
399.476 289.283 L
402.196 279.119 L
406.877 265.03 L
414.033 247.811 L
423.976 228.44 L
436.789 208.017 L
452.307 187.701 L
470.119 168.642 L
489.586 151.916 L
509.876 138.462 L
530.011 129.029 L
548.925 124.138 L
565.532 124.05 L
578.793 128.759 L
587.787 137.998 L
591.77 151.255 L
590.234 167.814 L
582.94 186.797 L
569.947 207.227 L
551.62 228.084 L
528.614 248.372 L
501.849 267.176 L
472.465 283.723 L
441.758 297.422 L
411.12 307.898 L
381.956 315.01 L
355.609 318.856 L
333.288 319.755 L
316 318.228 L
304.493 314.949 L
299.216 310.7 L
300.293 306.314 L
307.521 302.611 L
320.38 300.344 L
338.067 300.14 L
359.538 302.457 L
383.575 307.545 L
408.852 315.429 L
434.014 325.899 L
457.748 338.522 L
478.862 352.663 L
496.347 367.529 L
509.429 382.212 L
517.608 395.749 L
520.682 407.187 L
518.744 415.643 L
S
GR
GS
[0.75 0 0 0.75 0 0] CT
0 GC
1 LJ
0.667 LW
N
520.682 407.187 M
518.744 415.643 L
512.174 420.366 L
501.602 420.787 L
487.862 416.566 L
471.936 407.615 L
454.887 394.117 L
437.788 376.524 L
421.652 355.532 L
407.372 332.054 L
395.662 307.168 L
387.016 282.061 L
381.682 257.962 L
379.649 236.076 L
380.656 217.513 L
384.214 203.225 L
389.644 193.953 L
396.128 190.186 L
402.772 192.127 L
408.665 199.689 L
412.952 212.491 L
414.891 229.89 L
413.912 251.008 L
409.656 274.789 L
402.012 300.055 L
391.123 325.576 L
377.388 350.135 L
361.437 372.601 L
344.099 391.982 L
326.347 407.487 L
309.242 418.557 L
293.861 424.898 L
281.232 426.484 L
272.26 423.553 L
267.668 416.583 L
267.946 406.255 L
273.312 393.404 L
283.689 378.96 L
298.699 363.888 L
317.683 349.125 L
339.725 335.518 L
363.705 323.771 L
388.356 314.402 L
412.335 307.715 L
434.3 303.782 L
452.982 302.442 L
467.265 303.32 L
476.246 305.854 L
479.287 309.339 L
476.057 312.976 L
466.553 315.931 L
451.095 317.398 L
S
GR
GS
[0.75 0 0 0.75 0 0] CT
0 GC
1 LJ
0.667 LW
N
466.553 315.931 M
451.095 317.398 L
430.319 316.653 L
405.134 313.112 L
376.678 306.371 L
346.253 296.242 L
315.249 282.773 L
285.077 266.248 L
257.082 247.175 L
232.48 226.264 L
212.288 204.382 L
197.275 182.501 L
187.929 161.644 L
184.435 142.819 L
186.676 126.955 L
194.248 114.845 L
206.5 107.094 L
222.575 104.078 L
241.475 105.915 L
262.123 112.458 L
283.437 123.293 L
304.393 137.765 L
324.093 155.013 L
341.81 174.013 L
357.038 193.642 L
369.507 212.742 L
379.195 230.185 L
386.323 244.94 L
391.322 256.136 L
394.8 263.108 L
397.489 265.442 L
400.182 262.998 L
403.675 255.915 L
408.7 244.606 L
415.865 229.733 L
425.605 212.169 L
438.139 192.943 L
453.449 173.184 L
471.268 154.052 L
491.088 136.672 L
512.187 122.067 L
533.664 111.103 L
554.499 104.438 L
573.605 102.488 L
589.908 105.404 L
602.405 113.071 L
610.239 125.115 L
612.754 140.934 L
609.543 159.739 L
600.487 180.599 L
585.766 202.51 L
565.863 224.448 L
S
GR
GS
[0.75 0 0 0.75 0 0] CT
0 GC
1 LJ
0.667 LW
N
585.766 202.51 M
565.863 224.448 L
541.544 245.441 L
513.825 264.62 L
483.916 281.276 L
453.163 294.897 L
422.971 305.198 L
394.734 312.131 L
369.751 315.88 L
349.161 316.846 L
333.874 315.614 L
324.525 312.905 L
321.439 309.526 L
324.611 306.309 L
333.713 304.053 L
348.109 303.464 L
366.895 305.106 L
388.956 309.354 L
413.022 316.37 L
437.751 326.083 L
461.799 338.192 L
483.895 352.177 L
502.917 367.336 L
517.946 382.82 L
528.319 397.694 L
533.655 410.991 L
533.874 421.777 L
529.189 429.216 L
520.088 432.624 L
507.291 431.519 L
491.703 425.659 L
474.349 415.066 L
456.305 400.031 L
438.633 381.107 L
422.307 359.084 L
408.157 334.947 L
396.815 309.826 L
388.683 284.936 L
383.907 261.506 L
382.377 240.711 L
383.738 223.607 L
387.421 211.071 L
392.689 203.748 L
398.685 202.018 L
404.502 205.97 L
409.246 215.401 L
412.099 229.822 L
412.383 248.494 L
409.608 270.464 L
403.513 294.619 L
394.088 319.757 L
381.578 344.645 L
S
GR
GS
[0.75 0 0 0.75 0 0] CT
0 GC
1 LJ
0.667 LW
N
394.088 319.757 M
381.578 344.645 L
366.48 368.095 L
349.507 389.025 L
331.554 406.521 L
313.635 419.882 L
296.826 428.654 L
282.192 432.651 L
270.72 431.957 L
263.248 426.91 L
260.412 418.076 L
262.595 406.204 L
269.899 392.177 L
282.126 376.949 L
298.781 361.481 L
319.097 346.681 L
342.07 333.348 L
366.511 322.115 L
391.113 313.421 L
414.523 307.477 L
435.419 304.263 L
452.582 303.53 L
464.973 304.825 L
471.788 307.524 L
472.508 310.877 L
466.928 314.065 L
455.174 316.259 L
437.695 316.678 L
415.239 314.649 L
388.812 309.653 L
359.625 301.372 L
329.022 289.709 L
298.41 274.807 L
269.182 257.04 L
242.639 237.003 L
219.922 215.472 L
201.954 193.363 L
189.396 171.675 L
182.613 151.433 L
181.669 133.619 L
186.328 119.115 L
196.082 108.645 L
210.192 102.724 L
227.734 101.629 L
247.672 105.371 L
268.917 113.694 L
290.401 126.085 L
311.144 141.801 L
330.311 159.908 L
347.257 179.336 L
361.569 198.938 L
373.075 217.56 L
S
GR
GS
[0.75 0 0 0.75 0 0] CT
0 GC
1 LJ
0.667 LW
N
361.569 198.938 M
373.075 217.56 L
381.854 234.104 L
388.211 247.595 L
392.657 257.239 L
395.853 262.466 L
398.563 262.97 L
401.591 258.72 L
405.714 249.967 L
411.621 237.227 L
419.857 221.25 L
430.775 202.977 L
444.502 183.486 L
460.92 163.925 L
479.665 145.448 L
500.14 129.146 L
521.547 115.986 L
542.929 106.755 L
563.232 102.019 L
581.368 102.088 L
596.281 107.008 L
607.021 116.556 L
612.803 130.264 L
613.068 147.449 L
607.519 167.26 L
596.156 188.728 L
579.282 210.833 L
557.496 232.566 L
531.67 252.988 L
502.904 271.288 L
472.47 286.832 L
441.748 299.196 L
412.148 308.189 L
385.035 313.857 L
361.652 316.474 L
343.054 316.519 L
330.048 314.637 L
323.148 311.59 L
322.549 308.202 L
328.115 305.301 L
339.391 303.654 L
355.631 303.916 L
375.838 306.581 L
398.828 311.942 L
423.293 320.069 L
447.881 330.797 L
471.268 343.737 L
492.236 358.291 L
509.736 373.693 L
522.947 389.054 L
531.315 403.417 L
534.58 415.821 L
S
GR
GS
[0.75 0 0 0.75 0 0] CT
0 GC
1 LJ
0.667 LW
N
531.315 403.417 M
534.58 415.821 L
532.78 425.366 L
526.24 431.268 L
515.548 432.92 L
501.503 429.931 L
485.066 422.163 L
467.292 409.745 L
449.258 393.076 L
432 372.806 L
416.44 349.809 L
403.336 325.136 L
393.23 299.958 L
386.424 275.503 L
382.961 252.987 L
382.631 233.546 L
384.989 218.171 L
389.392 207.652 L
395.048 202.531 L
401.074 203.075 L
406.559 209.255 L
410.63 220.752 L
412.52 236.972 L
411.621 257.086 L
407.529 280.07 L
400.081 304.767 L
389.369 329.953 L
375.743 354.407 L
359.787 376.975 L
342.294 396.635 L
324.213 412.553 L
306.591 424.124 L
290.509 430.998 L
277.009 433.099 L
267.024 430.614 L
261.319 423.975 L
260.435 413.829 L
264.645 400.984 L
273.931 386.358 L
287.976 370.915 L
306.174 355.604 L
327.656 341.295 L
351.338 328.725 L
375.977 318.455 L
400.237 310.833 L
422.768 305.979 L
442.282 303.78 L
457.623 303.902 L
467.84 305.819 L
472.236 308.85 L
470.417 312.211 L
462.31 315.071 L
S
GR
GS
[0.75 0 0 0.75 0 0] CT
0 GC
1 LJ
0.667 LW
N
470.417 312.211 M
462.31 315.071 L
448.17 316.612 L
428.571 316.092 L
404.369 312.892 L
376.66 306.57 L
346.716 296.893 L
315.917 283.859 L
285.673 267.705 L
257.349 248.896 L
232.191 228.104 L
211.26 206.166 L
195.378 184.039 L
185.092 162.74 L
180.647 143.284 L
181.986 126.622 L
188.761 113.578 L
200.365 104.798 L
215.981 100.706 L
234.631 101.474 L
255.249 107.008 L
276.749 116.946 L
298.09 130.68 L
318.343 147.385 L
336.743 166.067 L
352.737 185.618 L
366.005 204.879 L
376.478 222.713 L
384.327 238.062 L
389.945 250.018 L
393.907 257.873 L
396.924 261.159 L
399.784 259.679 L
403.287 253.515 L
408.181 243.028 L
415.106 228.832 L
424.535 211.76 L
436.732 192.816 L
451.73 173.114 L
469.31 153.812 L
489.013 136.048 L
510.156 120.873 L
531.872 109.187 L
553.157 101.694 L
572.935 98.862 L
590.123 100.896 L
603.696 107.734 L
612.765 119.053 L
616.626 134.297 L
614.821 152.708 L
607.168 173.381 L
593.786 195.322 L
S
GR
GS
[0.75 0 0 0.75 0 0] CT
0 GC
1 LJ
0.667 LW
N
607.168 173.381 M
593.786 195.322 L
575.098 217.507 L
551.816 238.946 L
524.906 258.748 L
495.544 276.167 L
465.052 290.65 L
434.832 301.864 L
406.282 309.712 L
380.727 314.333 L
359.342 316.088 L
343.087 315.527 L
332.655 313.348 L
328.434 310.343 L
330.487 307.347 L
338.546 305.168 L
352.035 304.536 L
370.1 306.046 L
391.661 310.114 L
415.474 316.946 L
440.203 326.518 L
464.498 338.574 L
487.066 352.635 L
506.748 368.033 L
522.58 383.943 L
533.843 399.441 L
540.095 413.562 L
541.197 425.358 L
537.301 433.967 L
528.842 438.669 L
516.496 438.936 L
501.136 434.475 L
483.765 425.251 L
465.457 411.499 L
447.281 393.721 L
430.233 372.658 L
415.177 349.26 L
402.788 324.629 L
393.517 299.967 L
387.562 276.504 L
384.866 255.428 L
385.12 237.825 L
387.798 224.609 L
392.191 216.475 L
397.465 213.854 L
402.716 216.895 L
407.045 225.45 L
409.614 239.087 L
409.715 257.11 L
406.817 278.603 L
400.613 302.482 L
391.041 327.554 L
S
GR
GS
[0.75 0 0 0.75 0 0] CT
0 GC
1 LJ
0.667 LW
N
400.613 302.482 M
391.041 327.554 L
378.299 352.584 L
362.836 376.37 L
345.327 397.803 L
326.636 415.927 L
307.761 429.995 L
289.773 439.5 L
273.749 444.201 L
260.698 444.126 L
251.498 439.564 L
246.831 431.037 L
247.138 419.262 L
252.583 405.097 L
263.03 389.488 L
278.049 373.4 L
296.927 357.757 L
318.706 343.384 L
342.235 330.952 L
366.228 320.943 L
389.338 313.615 L
410.232 308.996 L
427.671 306.884 L
440.575 306.867 L
448.093 308.352 L
449.646 310.613 L
444.97 312.844 L
434.125 314.212 L
417.499 313.927 L
395.786 311.29 L
369.945 305.753 L
341.155 296.956 L
310.739 284.759 L
280.101 269.259 L
250.645 250.789 L
223.696 229.905 L
200.435 207.353 L
181.836 184.028 L
168.614 160.922 L
161.197 139.063 L
159.71 119.452 L
163.977 102.999 L
173.543 90.467 L
187.708 82.424 L
205.584 79.198 L
226.148 80.86 L
248.317 87.212 L
271.012 97.797 L
293.228 111.917 L
314.094 128.678 L
332.922 147.036 L
349.247 165.861 L
S
GR
GS
[0.75 0 0 0.75 0 0] CT
0 GC
1 LJ
0.667 LW
N
332.922 147.036 M
349.247 165.861 L
362.847 183.995 L
373.745 200.33 L
382.201 213.864 L
388.684 223.766 L
393.824 229.422 L
398.367 230.472 L
403.109 226.833 L
408.831 218.703 L
416.242 206.548 L
425.914 191.078 L
438.238 173.201 L
453.383 153.975 L
471.275 134.539 L
491.594 116.054 L
513.782 99.63 L
537.071 86.265 L
560.528 76.787 L
583.107 71.808 L
603.715 71.694 L
621.277 76.541 L
634.811 86.182 L
643.487 100.194 L
646.689 117.933 L
644.061 138.575 L
635.534 161.169 L
621.344 184.698 L
602.026 208.143 L
578.393 230.543 L
551.497 251.054 L
522.577 269 L
492.991 283.908 L
464.143 295.535 L
437.408 303.875 L
414.057 309.153 L
395.181 311.803 L
381.639 312.437 L
374.001 311.791 L
372.525 310.677 L
377.139 309.918 L
387.448 310.295 L
402.757 312.483 L
422.116 317.004 L
444.37 324.188 L
468.23 334.145 L
492.344 346.75 L
515.378 361.651 L
536.084 378.284 L
553.376 395.905 L
566.385 413.639 L
574.5 430.531 L
S
GR
GS
[0.75 0 0 0.75 0 0] CT
0 GC
1 LJ
0.667 LW
N
566.385 413.639 M
574.5 430.531 L
577.402 445.609 L
575.072 457.947 L
567.782 466.728 L
556.072 471.297 L
540.707 471.21 L
522.623 466.271 L
502.866 456.547 L
482.52 442.377 L
462.639 424.356 L
444.178 403.312 L
427.938 380.256 L
414.515 356.337 L
404.266 332.772 L
397.294 310.779 L
393.446 291.512 L
392.33 275.992 L
393.347 265.049 L
395.739 259.277 L
398.644 258.996 L
401.159 264.234 L
402.408 274.728 L
401.607 289.937 L
398.118 309.073 L
391.504 331.147 L
381.561 355.024 L
368.337 379.488 L
352.139 403.311 L
333.516 425.322 L
313.232 444.471 L
292.218 459.882 L
271.515 470.904 L
252.211 477.139 L
235.369 478.456 L
221.961 474.994 L
212.796 467.145 L
208.474 455.518 L
209.33 440.899 L
215.415 424.194 L
226.479 406.369 L
241.979 388.387 L
261.102 371.145 L
282.811 355.417 L
305.892 341.812 L
329.03 330.728 L
350.875 322.342 L
370.125 316.593 L
385.595 313.201 L
396.29 311.681 L
401.464 311.391 L
400.657 311.57 L
S
GR
GS
[0.75 0 0 0.75 0 0] CT
0 GC
1 LJ
0.667 LW
N
401.464 311.391 M
400.657 311.57 L
393.734 311.403 L
380.886 310.072 L
362.623 306.823 L
339.749 301.018 L
313.315 292.187 L
284.562 280.059 L
254.852 264.594 L
225.593 245.991 L
198.163 224.679 L
173.832 201.298 L
153.702 176.665 L
138.64 151.725 L
129.248 127.496 L
125.825 105.008 L
128.37 85.234 L
136.585 69.038 L
149.906 57.112 L
167.545 49.934 L
188.545 47.734 L
211.845 50.479 L
236.347 57.865 L
260.987 69.337 L
284.801 84.115 L
306.977 101.238 L
326.906 119.619 L
344.212 138.108 L
358.764 155.561 L
370.675 170.9 L
380.286 183.185 L
388.13 191.663 L
394.883 195.817 L
401.313 195.392 L
408.212 190.414 L
416.334 181.188 L
426.334 168.278 L
438.712 152.473 L
453.77 134.746 L
471.577 116.189 L
491.956 97.954 L
514.486 81.185 L
538.518 66.949 L
563.209 56.177 L
587.571 49.612 L
610.529 47.763 L
630.988 50.885 L
647.899 58.964 L
660.332 71.719 L
667.537 88.633 L
668.997 108.975 L
664.465 131.86 L
S
GR
GS
[0.75 0 0 0.75 0 0] CT
0 GC
1 LJ
0.667 LW
N
668.997 108.975 M
664.465 131.86 L
653.996 156.298 L
637.948 181.256 L
616.97 205.726 L
591.98 228.783 L
564.113 249.638 L
534.665 267.689 L
505.026 282.546 L
476.601 294.057 L
450.734 302.304 L
428.638 307.597 L
411.32 310.44 L
399.535 311.497 L
393.734 311.539 L
394.05 311.385 L
400.284 311.848 L
411.923 313.668 L
428.171 317.464 L
447.992 323.684 L
470.176 332.57 L
493.405 344.138 L
516.33 358.171 L
537.649 374.229 L
556.177 391.67 L
570.913 409.694 L
581.092 427.385 L
586.223 443.778 L
586.113 457.911 L
580.864 468.896 L
570.866 475.977 L
556.758 478.58 L
539.386 476.359 L
519.743 469.225 L
498.901 457.356 L
477.946 441.2 L
457.902 421.453 L
439.675 399.024 L
423.991 374.992 L
411.356 350.543 L
402.03 326.909 L
396.014 305.295 L
393.06 286.813 L
392.69 272.42 L
394.235 262.862 L
396.889 258.63 L
399.767 259.934 L
401.968 266.691 L
402.645 278.529 L
401.065 294.808 L
396.664 314.659 L
389.092 337.032 L
S
GR
GS
[0.75 0 0 0.75 0 0] CT
0 GC
1 LJ
0.667 LW
N
396.664 314.659 M
389.092 337.032 L
378.243 360.755 L
364.266 384.605 L
347.566 407.373 L
328.778 427.931 L
308.735 445.298 L
288.417 458.686 L
268.887 467.546 L
251.228 471.588 L
236.47 470.795 L
225.523 465.41 L
219.114 455.919 L
217.736 443.01 L
221.609 427.526 L
230.659 410.406 L
244.51 392.623 L
262.504 375.121 L
283.727 358.756 L
307.057 344.241 L
331.226 332.104 L
354.89 322.656 L
376.705 315.978 L
395.399 311.918 L
409.852 310.108 L
419.155 309.995 L
422.667 310.88 L
420.052 311.97 L
411.297 312.44 L
396.72 311.487 L
376.947 308.393 L
352.884 302.578 L
325.661 293.643 L
296.571 281.404 L
267.002 265.911 L
238.356 247.45 L
211.973 226.534 L
189.063 203.875 L
170.636 180.339 L
157.458 156.905 L
150.009 134.595 L
148.469 114.42 L
152.716 97.31 L
162.34 84.061 L
176.684 75.279 L
194.885 71.341 L
215.938 72.367 L
238.76 78.21 L
262.262 88.457 L
285.415 102.454 L
307.31 119.337 L
327.217 138.083 L
S
GR
GS
[0.75 0 0 0.75 0 0] CT
0 GC
1 LJ
0.667 LW
N
307.31 119.337 M
327.217 138.083 L
344.62 157.567 L
359.243 176.63 L
371.058 194.139 L
380.279 209.061 L
387.331 220.521 L
392.816 227.851 L
397.461 230.632 L
402.055 228.719 L
407.389 222.246 L
414.192 211.621 L
423.069 197.503 L
434.452 180.757 L
448.559 162.41 L
465.37 143.584 L
484.615 125.437 L
505.788 109.088 L
528.162 95.557 L
550.839 85.707 L
572.794 80.191 L
592.944 79.423 L
610.209 83.55 L
623.589 92.453 L
632.224 105.756 L
635.457 122.853 L
632.883 142.951 L
624.378 165.117 L
610.124 188.34 L
590.603 211.595 L
566.583 233.903 L
539.078 254.393 L
509.301 272.351 L
478.598 287.26 L
448.377 298.831 L
420.034 307.01 L
394.872 311.98 L
374.031 314.137 L
358.427 314.062 L
348.699 312.473 L
345.175 310.174 L
347.857 307.997 L
356.419 306.737 L
370.231 307.101 L
388.393 309.649 L
409.793 314.759 L
433.167 322.59 L
457.174 333.072 L
480.475 345.904 L
501.801 360.567 L
520.033 376.357 L
534.255 392.429 L
S
GR
GS
[0.75 0 0 0.75 0 0] CT
0 GC
1 LJ
0.667 LW
N
520.033 376.357 M
534.255 392.429 L
543.805 407.845 L
548.304 421.638 L
547.674 432.876 L
542.13 440.721 L
532.162 444.489 L
518.493 443.698 L
502.028 438.106 L
483.796 427.734 L
464.875 412.873 L
446.33 394.076 L
429.138 372.133 L
414.132 348.031 L
401.948 322.9 L
392.989 297.956 L
387.406 274.429 L
385.091 253.498 L
385.693 236.22 L
388.644 223.475 L
393.208 215.912 L
398.533 213.912 L
403.71 217.568 L
407.847 226.68 L
410.127 240.764 L
409.871 259.081 L
406.59 280.682 L
400.021 304.458 L
390.153 329.206 L
377.232 353.698 L
361.752 376.745 L
344.427 397.269 L
326.148 414.354 L
307.931 427.301 L
290.852 435.657 L
275.974 439.237 L
264.284 438.123 L
256.622 432.655 L
253.622 423.4 L
255.67 411.107 L
262.865 396.66 L
275.011 381.014 L
291.615 365.131 L
311.908 349.922 L
334.886 336.185 L
359.36 324.557 L
384.023 315.477 L
407.52 309.159 L
428.526 305.585 L
445.823 304.507 L
458.368 305.473 L
465.355 307.861 L
S
GR
GS
[0.75 0 0 0.75 0 0] CT
0 GC
1 LJ
0.667 LW
N
458.368 305.473 M
465.355 307.861 L
466.262 310.921 L
460.883 313.836 L
449.339 315.775 L
432.078 315.958 L
409.845 313.71 L
383.645 308.515 L
354.684 300.051 L
324.308 288.22 L
293.921 273.165 L
264.914 255.259 L
238.59 235.094 L
216.088 213.446 L
198.333 191.231 L
185.984 169.447 L
179.409 149.117 L
178.67 131.225 L
183.533 116.653 L
193.49 106.124 L
207.802 100.154 L
225.546 99.02 L
245.684 102.735 L
267.129 111.043 L
288.811 123.431 L
309.749 139.157 L
329.106 157.286 L
346.238 176.749 L
360.728 196.398 L
372.406 215.078 L
381.346 231.691 L
387.856 245.261 L
392.442 254.99 L
395.768 260.31 L
398.596 260.91 L
401.73 256.759 L
405.947 248.106 L
411.937 235.464 L
420.246 219.584 L
431.228 201.405 L
445.012 182.003 L
461.48 162.526 L
480.27 144.127 L
500.786 127.899 L
522.23 114.808 L
543.648 105.643 L
563.986 100.968 L
582.155 101.097 L
597.101 106.073 L
607.872 115.678 L
613.683 129.443 L
613.974 146.686 L
S
GR
GS
[0.75 0 0 0.75 0 0] CT
0 GC
1 LJ
0.667 LW
N
613.683 129.443 M
613.974 146.686 L
608.448 166.556 L
597.104 188.084 L
580.242 210.252 L
558.462 232.048 L
532.635 252.533 L
503.859 270.898 L
473.408 286.505 L
442.661 298.931 L
413.027 307.983 L
385.873 313.706 L
362.443 316.373 L
343.793 316.463 L
330.731 314.619 L
323.773 311.604 L
323.114 308.242 L
328.622 305.36 L
339.844 303.727 L
356.032 303.998 L
376.194 306.668 L
399.143 312.03 L
423.575 320.156 L
448.136 330.883 L
471.503 343.821 L
492.455 358.375 L
509.946 373.778 L
523.151 389.143 L
531.517 403.513 L
534.78 415.927 L
532.979 425.484 L
526.438 431.4 L
515.742 433.066 L
501.691 430.092 L
485.245 422.338 L
467.458 409.932 L
449.409 393.272 L
432.132 373.007 L
416.551 350.01 L
403.424 325.332 L
393.295 300.142 L
386.466 275.67 L
382.982 253.132 L
382.634 233.663 L
384.977 218.257 L
389.371 207.703 L
395.022 202.547 L
401.049 203.053 L
406.539 209.197 L
410.621 220.659 L
412.526 236.849 L
411.646 256.936 L
S
GR
GS
[0.75 0 0 0.75 0 0] CT
0 GC
1 LJ
0.667 LW
N
412.526 236.849 M
411.646 256.936 L
407.575 279.898 L
400.15 304.579 L
389.462 329.756 L
375.857 354.206 L
359.922 376.774 L
342.448 396.44 L
324.382 412.368 L
306.773 423.951 L
290.699 430.84 L
277.204 432.956 L
267.222 430.485 L
261.519 423.86 L
260.636 413.725 L
264.847 400.889 L
274.136 386.269 L
288.187 370.83 L
306.395 355.521 L
327.893 341.211 L
351.598 328.639 L
376.264 318.368 L
400.559 310.745 L
423.132 305.893 L
442.692 303.699 L
458.086 303.831 L
468.358 305.763 L
472.813 308.814 L
471.053 312.202 L
463.003 315.095 L
448.919 316.677 L
429.371 316.202 L
405.215 313.053 L
377.546 306.787 L
347.634 297.169 L
316.859 284.197 L
286.631 268.107 L
258.315 249.362 L
233.156 228.634 L
212.218 206.759 L
196.323 184.694 L
186.018 163.455 L
181.549 144.058 L
182.861 127.454 L
189.606 114.466 L
201.18 105.743 L
216.762 101.709 L
235.379 102.536 L
255.962 108.132 L
277.426 118.136 L
298.728 131.94 L
318.939 148.72 L
S
GR
GS
[0.75 0 0 0.75 0 0] CT
0 GC
1 LJ
0.667 LW
N
298.728 131.94 M
318.939 148.72 L
337.294 167.482 L
353.237 187.118 L
366.447 206.469 L
376.854 224.396 L
384.628 239.843 L
390.161 251.898 L
394.027 259.853 L
396.936 263.238 L
399.676 261.853 L
403.047 255.78 L
407.799 245.377 L
414.57 231.258 L
423.834 214.253 L
435.859 195.366 L
450.676 175.708 L
468.07 156.439 L
487.582 138.696 L
508.529 123.527 L
530.047 111.836 L
551.133 104.326 L
570.71 101.464 L
587.695 103.457 L
601.067 110.245 L
609.932 121.504 L
613.589 136.677 L
611.578 155.008 L
603.718 175.593 L
590.126 197.435 L
571.225 219.512 L
547.727 240.833 L
520.597 260.505 L
491.013 277.782 L
460.297 292.109 L
429.849 303.152 L
401.073 310.814 L
375.292 315.233 L
353.684 316.767 L
337.212 315.966 L
326.572 313.528 L
322.153 310.247 L
324.021 306.954 L
331.911 304.46 L
345.25 303.496 L
363.185 304.658 L
384.64 308.363 L
408.371 314.82 L
433.045 324.004 L
457.311 335.663 L
479.879 349.32 L
499.59 364.306 L
S
GR
GS
[0.75 0 0 0.75 0 0] CT
0 GC
1 LJ
0.667 LW
N
479.879 349.32 M
499.59 364.306 L
515.479 379.801 L
526.826 394.881 L
533.193 408.581 L
534.435 419.956 L
530.708 428.144 L
522.445 432.425 L
510.321 432.273 L
495.21 427.394 L
478.115 417.755 L
460.109 403.59 L
442.263 385.402 L
425.573 363.933 L
410.904 340.133 L
398.933 315.107 L
390.11 290.058 L
384.636 266.216 L
382.451 244.775 L
383.252 226.821 L
386.509 213.27 L
391.515 204.821 L
397.434 201.909 L
403.363 204.685 L
408.4 213.005 L
411.707 226.438 L
412.572 244.294 L
410.463 265.659 L
405.07 289.449 L
396.328 314.474 L
384.431 339.503 L
369.826 363.332 L
353.185 384.853 L
335.368 403.114 L
317.37 417.364 L
300.26 427.099 L
285.112 432.076 L
272.933 432.324 L
264.598 428.131 L
260.788 420.018 L
261.942 408.703 L
268.221 395.043 L
279.489 379.984 L
295.312 364.491 L
314.976 349.489 L
337.522 335.801 L
361.793 324.102 L
386.502 314.869 L
410.299 308.365 L
431.848 304.616 L
449.904 303.419 L
463.385 304.362 L
S
GR
GS
[0.75 0 0 0.75 0 0] CT
0 GC
1 LJ
0.667 LW
N
449.904 303.419 M
463.385 304.362 L
471.433 306.852 L
473.468 310.161 L
469.218 313.479 L
458.741 315.975 L
442.42 316.853 L
420.944 315.413 L
395.271 311.101 L
366.572 303.555 L
336.171 292.632 L
305.468 278.423 L
275.865 261.257 L
248.686 241.685 L
225.112 220.449 L
206.114 198.44 L
192.409 176.646 L
184.425 156.09 L
182.288 137.769 L
185.821 122.591 L
194.57 111.315 L
207.838 104.503 L
224.736 102.483 L
244.243 105.321 L
265.276 112.816 L
286.758 124.507 L
307.684 139.694 L
327.184 157.478 L
344.572 176.812 L
359.383 196.56 L
371.397 215.563 L
380.638 232.704 L
387.371 246.98 L
392.063 257.553 L
395.351 263.805 L
397.983 265.371 L
400.758 262.163 L
404.465 254.374 L
409.815 242.466 L
417.388 227.144 L
427.579 209.315 L
440.565 190.031 L
456.279 170.43 L
474.407 151.671 L
494.398 134.862 L
515.493 121 L
536.763 110.914 L
557.172 105.215 L
575.63 104.269 L
591.073 108.174 L
602.521 116.764 L
609.154 129.617 L
S
GR
GS
[0.75 0 0 0.75 0 0] CT
0 GC
1 LJ
0.667 LW
N
602.521 116.764 M
609.154 129.617 L
610.359 146.091 L
605.787 165.363 L
595.374 186.486 L
579.362 208.444 L
558.291 230.218 L
532.981 250.851 L
504.489 269.502 L
474.059 285.497 L
443.056 298.364 L
412.89 307.865 L
384.943 313.996 L
360.491 316.986 L
340.634 317.274 L
326.235 315.476 L
317.872 312.332 L
315.808 308.661 L
319.978 305.294 L
329.991 303.015 L
345.16 302.508 L
364.537 304.304 L
386.971 308.739 L
411.176 315.933 L
435.803 325.769 L
459.517 337.904 L
481.075 351.782 L
499.389 366.669 L
513.587 381.697 L
523.059 395.92 L
527.485 408.374 L
526.841 418.143 L
521.398 424.414 L
511.691 426.542 L
498.482 424.09 L
482.704 416.868 L
465.399 404.95 L
447.645 388.682 L
430.492 368.666 L
414.893 345.735 L
401.641 320.91 L
391.328 295.343 L
384.305 270.259 L
380.669 246.883 L
380.261 226.376 L
382.681 209.764 L
387.324 197.886 L
393.423 191.341 L
400.106 190.453 L
406.462 195.259 L
411.605 205.499 L
414.738 220.638 L
S
GR
GS
[0.75 0 0 0.75 0 0] CT
0 GC
1 LJ
0.667 LW
N
411.605 205.499 M
414.738 220.638 L
415.216 239.891 L
412.587 262.271 L
406.636 286.648 L
397.399 311.807 L
385.171 336.52 L
370.49 359.617 L
354.105 380.045 L
336.936 396.929 L
320.013 409.615 L
304.412 417.7 L
291.185 421.052 L
281.292 419.805 L
275.536 414.346 L
274.501 405.279 L
278.517 393.385 L
287.624 379.564 L
301.563 364.776 L
319.782 349.978 L
341.462 336.06 L
365.553 323.792 L
390.837 313.772 L
415.988 306.395 L
439.649 301.826 L
460.51 299.999 L
477.379 300.623 L
489.254 303.206 L
495.378 307.094 L
495.29 311.518 L
488.845 315.65 L
476.23 318.663 L
457.95 319.79 L
434.805 318.381 L
407.844 313.951 L
378.304 306.219 L
347.547 295.132 L
316.981 280.873 L
287.986 263.86 L
261.834 244.719 L
239.628 224.255 L
222.243 203.401 L
210.282 183.161 L
204.053 164.552 L
203.56 148.54 L
208.513 135.975 L
218.355 127.54 L
232.306 123.702 L
249.419 124.682 L
268.64 130.438 L
288.882 140.658 L
309.09 154.778 L
S
GR
GS
[0.75 0 0 0.75 0 0] CT
0 GC
1 LJ
0.667 LW
N
288.882 140.658 M
309.09 154.778 L
328.31 172.009 L
345.74 191.383 L
360.783 211.807 L
373.073 232.122 L
382.489 251.177 L
389.159 267.888 L
393.435 281.307 L
395.862 290.678 L
397.132 295.475 L
398.026 295.442 L
399.349 290.598 L
401.873 281.246 L
406.268 267.946 L
413.049 251.487 L
422.533 232.84 L
434.808 213.098 L
449.713 193.415 L
466.842 174.935 L
485.562 158.73 L
505.047 145.735 L
524.323 136.698 L
542.331 132.136 L
557.988 132.309 L
570.261 137.21 L
578.232 146.569 L
581.163 159.875 L
578.548 176.41 L
570.153 195.295 L
556.041 215.551 L
536.581 236.156 L
512.431 256.114 L
484.518 274.508 L
453.985 290.562 L
422.137 303.684 L
390.369 313.498 L
360.095 319.861 L
332.667 322.871 L
309.301 322.848 L
291.013 320.312 L
278.559 315.938 L
272.398 310.512 L
272.665 304.869 L
279.163 299.834 L
291.383 296.165 L
308.526 294.495 L
329.559 295.288 L
353.268 298.801 L
378.334 305.067 L
403.402 313.885 L
427.166 324.827 L
S
GR
GS
[0.75 0 0 0.75 0 0] CT
0 GC
1 LJ
0.667 LW
N
403.402 313.885 M
427.166 324.827 L
448.434 337.269 L
466.197 350.423 L
479.683 363.39 L
488.391 375.214 L
492.116 384.949 L
490.953 391.718 L
485.276 394.774 L
475.714 393.555 L
463.1 387.726 L
448.414 377.204 L
432.716 362.177 L
417.077 343.101 L
402.508 320.677 L
389.901 295.824 L
379.967 269.625 L
373.2 243.273 L
369.843 218.004 L
369.884 195.028 L
373.058 175.462 L
378.872 160.267 L
386.642 150.191 L
395.545 145.729 L
404.68 147.092 L
413.128 154.198 L
420.026 166.676 L
424.623 183.884 L
426.338 204.952 L
424.803 228.827 L
419.895 254.334 L
411.747 280.244 L
400.745 305.342 L
387.511 328.494 L
372.86 348.71 L
357.759 365.194 L
343.255 377.386 L
330.42 384.987 L
320.271 387.968 L
313.706 386.561 L
311.441 381.239 L
313.961 372.68 L
321.477 361.712 L
333.905 349.262 L
350.865 336.29 L
371.69 323.728 L
395.46 312.418 L
421.048 303.06 L
447.183 296.168 L
472.516 292.04 L
495.697 290.744 L
515.454 292.114 L
S
GR
GS
[0.75 0 0 0.75 0 0] CT
0 GC
1 LJ
0.667 LW
N
495.697 290.744 M
515.454 292.114 L
530.663 295.768 L
540.413 301.139 L
544.061 307.514 L
541.271 314.085 L
532.031 320.012 L
516.659 324.479 L
495.785 326.751 L
470.316 326.234 L
441.387 322.515 L
410.298 315.394 L
378.441 304.907 L
347.226 291.327 L
318.003 275.154 L
291.99 257.083 L
270.209 237.974 L
253.436 218.79 L
242.165 200.544 L
236.587 184.237 L
236.593 170.79 L
241.789 160.992 L
251.53 155.44 L
264.967 154.506 L
281.111 158.304 L
298.892 166.681 L
317.236 179.221 L
335.126 195.265 L
351.671 213.948 L
366.152 234.243 L
378.068 255.024 L
387.158 275.127 L
393.409 293.421 L
397.046 308.872 L
398.511 320.603 L
398.42 327.947 L
397.514 330.486 L
396.597 328.076 L
396.475 320.854 L
397.89 309.23 L
401.464 293.867 L
407.642 275.635 L
416.657 255.565 L
428.501 234.787 L
442.921 214.465 L
459.419 195.726 L
477.285 179.6 L
495.629 166.959 L
513.439 158.466 L
529.639 154.545 L
543.161 155.356 L
553.01 160.79 L
S
GR
GS
[0.75 0 0 0.75 0 0] CT
0 GC
1 LJ
0.667 LW
N
543.161 155.356 M
553.01 160.79 L
558.334 170.484 L
558.483 183.844 L
553.054 200.087 L
541.931 218.295 L
525.297 237.467 L
503.639 256.591 L
477.725 274.7 L
448.571 290.934 L
417.392 304.589 L
385.534 315.161 L
354.406 322.372 L
325.404 326.179 L
299.829 326.775 L
278.821 324.569 L
263.296 320.152 L
253.89 314.253 L
250.929 307.687 L
254.412 301.297 L
264.008 295.89 L
279.084 292.182 L
298.735 290.747 L
321.843 291.97 L
347.136 296.023 L
373.267 302.846 L
398.887 312.145 L
422.72 323.412 L
443.635 335.952 L
460.706 348.924 L
473.259 361.4 L
480.906 372.419 L
483.555 381.053 L
481.411 386.468 L
474.951 387.985 L
464.885 385.124 L
452.107 377.645 L
437.634 365.571 L
422.534 349.193 L
407.859 329.066 L
394.577 305.979 L
383.508 280.918 L
375.279 255.014 L
370.283 229.48 L
368.66 205.548 L
370.293 184.392 L
374.821 167.07 L
381.668 154.459 L
390.086 147.206 L
399.214 145.69 L
408.135 150.001 L
415.946 159.935 L
S
GR
GS
[0.75 0 0 0.75 0 0] CT
0 GC
1 LJ
0.667 LW
N
408.135 150.001 M
415.946 159.935 L
421.82 175.004 L
425.071 194.467 L
425.199 217.367 L
421.932 242.591 L
415.252 268.931 L
405.396 295.149 L
392.851 320.052 L
378.323 342.552 L
362.699 361.726 L
346.989 376.866 L
332.263 387.509 L
319.582 393.462 L
309.929 394.798 L
304.141 391.848 L
302.853 385.168 L
306.448 375.501 L
315.026 363.719 L
328.392 350.77 L
346.052 337.609 L
367.24 325.137 L
390.953 314.147 L
416.003 305.267 L
441.086 298.931 L
464.848 295.344 L
485.967 294.483 L
503.227 296.093 L
515.586 299.717 L
522.243 304.725 L
522.677 310.363 L
516.684 315.805 L
504.391 320.217 L
486.247 322.811 L
463.003 322.908 L
435.666 319.982 L
405.45 313.709 L
373.704 303.985 L
341.839 290.946 L
311.255 274.962 L
283.257 256.62 L
258.996 236.692 L
239.403 216.091 L
225.145 195.813 L
216.598 176.879 L
213.833 160.271 L
216.624 146.871 L
224.472 137.4 L
236.643 132.378 L
252.224 132.079 L
270.184 136.52 L
289.441 145.445 L
S
GR
GS
[0.75 0 0 0.75 0 0] CT
0 GC
1 LJ
0.667 LW
N
270.184 136.52 M
289.441 145.445 L
S
GR
%%Trailer
%%Pages: 1
%%EOF
