%!PS-Adobe-3.0 EPSF-3.0
%%Creator: (MATLAB, The Mathworks, Inc. Version 8.6.0.267246 \(R2015b\). Operating System: Linux)
%%Title: ./ConcPlot.eps
%%CreationDate: 2015-09-18T16:16:10
%%Pages: (atend)
%%BoundingBox:    38    16   528   416
%%LanguageLevel: 3
%%EndComments
%%BeginProlog
%%BeginResource: procset (Apache XML Graphics Std ProcSet) 1.2 0
%%Version: 1.2 0
%%Copyright: (Copyright 2001-2003,2010 The Apache Software Foundation. License terms: http://www.apache.org/licenses/LICENSE-2.0)
/bd{bind def}bind def
/ld{load def}bd
/GR/grestore ld
/M/moveto ld
/LJ/setlinejoin ld
/C/curveto ld
/f/fill ld
/LW/setlinewidth ld
/GC/setgray ld
/t/show ld
/N/newpath ld
/CT/concat ld
/cp/closepath ld
/S/stroke ld
/L/lineto ld
/CC/setcmykcolor ld
/A/ashow ld
/GS/gsave ld
/RC/setrgbcolor ld
/RM/rmoveto ld
/ML/setmiterlimit ld
/re {4 2 roll M
1 index 0 rlineto
0 exch rlineto
neg 0 rlineto
cp } bd
/_ctm matrix def
/_tm matrix def
/BT { _ctm currentmatrix pop matrix _tm copy pop 0 0 moveto } bd
/ET { _ctm setmatrix } bd
/iTm { _ctm setmatrix _tm concat } bd
/Tm { _tm astore pop iTm 0 0 moveto } bd
/ux 0.0 def
/uy 0.0 def
/F {
  /Tp exch def
  /Tf exch def
  Tf findfont Tp scalefont setfont
  /cf Tf def  /cs Tp def
} bd
/ULS {currentpoint /uy exch def /ux exch def} bd
/ULE {
  /Tcx currentpoint pop def
  gsave
  newpath
  cf findfont cs scalefont dup
  /FontMatrix get 0 get /Ts exch def /FontInfo get dup
  /UnderlinePosition get Ts mul /To exch def
  /UnderlineThickness get Ts mul /Tt exch def
  ux uy To add moveto  Tcx uy To add lineto
  Tt setlinewidth stroke
  grestore
} bd
/OLE {
  /Tcx currentpoint pop def
  gsave
  newpath
  cf findfont cs scalefont dup
  /FontMatrix get 0 get /Ts exch def /FontInfo get dup
  /UnderlinePosition get Ts mul /To exch def
  /UnderlineThickness get Ts mul /Tt exch def
  ux uy To add cs add moveto Tcx uy To add cs add lineto
  Tt setlinewidth stroke
  grestore
} bd
/SOE {
  /Tcx currentpoint pop def
  gsave
  newpath
  cf findfont cs scalefont dup
  /FontMatrix get 0 get /Ts exch def /FontInfo get dup
  /UnderlinePosition get Ts mul /To exch def
  /UnderlineThickness get Ts mul /Tt exch def
  ux uy To add cs 10 mul 26 idiv add moveto Tcx uy To add cs 10 mul 26 idiv add lineto
  Tt setlinewidth stroke
  grestore
} bd
/QT {
/Y22 exch store
/X22 exch store
/Y21 exch store
/X21 exch store
currentpoint
/Y21 load 2 mul add 3 div exch
/X21 load 2 mul add 3 div exch
/X21 load 2 mul /X22 load add 3 div
/Y21 load 2 mul /Y22 load add 3 div
/X22 load /Y22 load curveto
} bd
/SSPD {
dup length /d exch dict def
{
/v exch def
/k exch def
currentpagedevice k known {
/cpdv currentpagedevice k get def
v cpdv ne {
/upd false def
/nullv v type /nulltype eq def
/nullcpdv cpdv type /nulltype eq def
nullv nullcpdv or
{
/upd true def
} {
/sametype v type cpdv type eq def
sametype {
v type /arraytype eq {
/vlen v length def
/cpdvlen cpdv length def
vlen cpdvlen eq {
0 1 vlen 1 sub {
/i exch def
/obj v i get def
/cpdobj cpdv i get def
obj cpdobj ne {
/upd true def
exit
} if
} for
} {
/upd true def
} ifelse
} {
v type /dicttype eq {
v {
/dv exch def
/dk exch def
/cpddv cpdv dk get def
dv cpddv ne {
/upd true def
exit
} if
} forall
} {
/upd true def
} ifelse
} ifelse
} if
} ifelse
upd true eq {
d k v put
} if
} if
} if
} forall
d length 0 gt {
d setpagedevice
} if
} bd
%%EndResource
%%BeginResource: procset (Apache XML Graphics EPS ProcSet) 1.0 0
%%Version: 1.0 0
%%Copyright: (Copyright 2002-2003 The Apache Software Foundation. License terms: http://www.apache.org/licenses/LICENSE-2.0)
/BeginEPSF { %def
/b4_Inc_state save def         % Save state for cleanup
/dict_count countdictstack def % Count objects on dict stack
/op_count count 1 sub def      % Count objects on operand stack
userdict begin                 % Push userdict on dict stack
/showpage { } def              % Redefine showpage, { } = null proc
0 setgray 0 setlinecap         % Prepare graphics state
1 setlinewidth 0 setlinejoin
10 setmiterlimit [ ] 0 setdash newpath
/languagelevel where           % If level not equal to 1 then
{pop languagelevel             % set strokeadjust and
1 ne                           % overprint to their defaults.
{false setstrokeadjust false setoverprint
} if
} if
} bd
/EndEPSF { %def
count op_count sub {pop} repeat            % Clean up stacks
countdictstack dict_count sub {end} repeat
b4_Inc_state restore
} bd
%%EndResource
%FOPBeginFontDict
%%IncludeResource: font Courier-Bold
%%IncludeResource: font Helvetica
%%IncludeResource: font Courier-BoldOblique
%%IncludeResource: font Courier-Oblique
%%IncludeResource: font Times-Roman
%%IncludeResource: font Helvetica-BoldOblique
%%IncludeResource: font Helvetica-Bold
%%IncludeResource: font Helvetica-Oblique
%%IncludeResource: font Times-BoldItalic
%%IncludeResource: font Courier
%%IncludeResource: font Times-Italic
%%IncludeResource: font Times-Bold
%%IncludeResource: font Symbol
%%IncludeResource: font ZapfDingbats
%FOPEndFontDict
%%BeginResource: encoding WinAnsiEncoding
/WinAnsiEncoding [
/.notdef /.notdef /.notdef /.notdef /.notdef
/.notdef /.notdef /.notdef /.notdef /.notdef
/.notdef /.notdef /.notdef /.notdef /.notdef
/.notdef /.notdef /.notdef /.notdef /.notdef
/.notdef /.notdef /.notdef /.notdef /.notdef
/.notdef /.notdef /.notdef /.notdef /.notdef
/.notdef /.notdef /space /exclam /quotedbl
/numbersign /dollar /percent /ampersand /quotesingle
/parenleft /parenright /asterisk /plus /comma
/hyphen /period /slash /zero /one
/two /three /four /five /six
/seven /eight /nine /colon /semicolon
/less /equal /greater /question /at
/A /B /C /D /E
/F /G /H /I /J
/K /L /M /N /O
/P /Q /R /S /T
/U /V /W /X /Y
/Z /bracketleft /backslash /bracketright /asciicircum
/underscore /quoteleft /a /b /c
/d /e /f /g /h
/i /j /k /l /m
/n /o /p /q /r
/s /t /u /v /w
/x /y /z /braceleft /bar
/braceright /asciitilde /bullet /Euro /bullet
/quotesinglbase /florin /quotedblbase /ellipsis /dagger
/daggerdbl /circumflex /perthousand /Scaron /guilsinglleft
/OE /bullet /Zcaron /bullet /bullet
/quoteleft /quoteright /quotedblleft /quotedblright /bullet
/endash /emdash /asciitilde /trademark /scaron
/guilsinglright /oe /bullet /zcaron /Ydieresis
/space /exclamdown /cent /sterling /currency
/yen /brokenbar /section /dieresis /copyright
/ordfeminine /guillemotleft /logicalnot /sfthyphen /registered
/macron /degree /plusminus /twosuperior /threesuperior
/acute /mu /paragraph /middot /cedilla
/onesuperior /ordmasculine /guillemotright /onequarter /onehalf
/threequarters /questiondown /Agrave /Aacute /Acircumflex
/Atilde /Adieresis /Aring /AE /Ccedilla
/Egrave /Eacute /Ecircumflex /Edieresis /Igrave
/Iacute /Icircumflex /Idieresis /Eth /Ntilde
/Ograve /Oacute /Ocircumflex /Otilde /Odieresis
/multiply /Oslash /Ugrave /Uacute /Ucircumflex
/Udieresis /Yacute /Thorn /germandbls /agrave
/aacute /acircumflex /atilde /adieresis /aring
/ae /ccedilla /egrave /eacute /ecircumflex
/edieresis /igrave /iacute /icircumflex /idieresis
/eth /ntilde /ograve /oacute /ocircumflex
/otilde /odieresis /divide /oslash /ugrave
/uacute /ucircumflex /udieresis /yacute /thorn
/ydieresis
] def
%%EndResource
%FOPBeginFontReencode
/Courier-Bold findfont
dup length dict begin
  {1 index /FID ne {def} {pop pop} ifelse} forall
  /Encoding WinAnsiEncoding def
  currentdict
end
/Courier-Bold exch definefont pop
/Helvetica findfont
dup length dict begin
  {1 index /FID ne {def} {pop pop} ifelse} forall
  /Encoding WinAnsiEncoding def
  currentdict
end
/Helvetica exch definefont pop
/Courier-BoldOblique findfont
dup length dict begin
  {1 index /FID ne {def} {pop pop} ifelse} forall
  /Encoding WinAnsiEncoding def
  currentdict
end
/Courier-BoldOblique exch definefont pop
/Courier-Oblique findfont
dup length dict begin
  {1 index /FID ne {def} {pop pop} ifelse} forall
  /Encoding WinAnsiEncoding def
  currentdict
end
/Courier-Oblique exch definefont pop
/Times-Roman findfont
dup length dict begin
  {1 index /FID ne {def} {pop pop} ifelse} forall
  /Encoding WinAnsiEncoding def
  currentdict
end
/Times-Roman exch definefont pop
/Helvetica-BoldOblique findfont
dup length dict begin
  {1 index /FID ne {def} {pop pop} ifelse} forall
  /Encoding WinAnsiEncoding def
  currentdict
end
/Helvetica-BoldOblique exch definefont pop
/Helvetica-Bold findfont
dup length dict begin
  {1 index /FID ne {def} {pop pop} ifelse} forall
  /Encoding WinAnsiEncoding def
  currentdict
end
/Helvetica-Bold exch definefont pop
/Helvetica-Oblique findfont
dup length dict begin
  {1 index /FID ne {def} {pop pop} ifelse} forall
  /Encoding WinAnsiEncoding def
  currentdict
end
/Helvetica-Oblique exch definefont pop
/Times-BoldItalic findfont
dup length dict begin
  {1 index /FID ne {def} {pop pop} ifelse} forall
  /Encoding WinAnsiEncoding def
  currentdict
end
/Times-BoldItalic exch definefont pop
/Courier findfont
dup length dict begin
  {1 index /FID ne {def} {pop pop} ifelse} forall
  /Encoding WinAnsiEncoding def
  currentdict
end
/Courier exch definefont pop
/Times-Italic findfont
dup length dict begin
  {1 index /FID ne {def} {pop pop} ifelse} forall
  /Encoding WinAnsiEncoding def
  currentdict
end
/Times-Italic exch definefont pop
/Times-Bold findfont
dup length dict begin
  {1 index /FID ne {def} {pop pop} ifelse} forall
  /Encoding WinAnsiEncoding def
  currentdict
end
/Times-Bold exch definefont pop
%FOPEndFontReencode
%%EndProlog
%%Page: 1 1
%%PageBoundingBox: 0 0 576 432
%%BeginPageSetup
[1 0 0 -1 0 432] CT
%%EndPageSetup
GS
[0.75 0 0 0.75 0 0] CT
1 GC
N
0 0 768 576 re
f
GR
GS
[0.75 0 0 0.75 0 0] CT
1 GC
N
0 0 768 576 re
f
GR
GS
[0.75 0 0 0.75 0 0] CT
1 GC
N
100 513 M
695 513 L
695 43 L
100 43 L
cp
f
GR
GS
[0.75 0 0 0.75 0 0] CT
0.873 GC
1 LJ
0.667 LW
N
100 513 M
100 43 L
S
GR
GS
[0.75 0 0 0.75 0 0] CT
0.873 GC
1 LJ
0.667 LW
N
199.167 513 M
199.167 43 L
S
GR
GS
[0.75 0 0 0.75 0 0] CT
0.873 GC
1 LJ
0.667 LW
N
298.333 513 M
298.333 43 L
S
GR
GS
[0.75 0 0 0.75 0 0] CT
0.873 GC
1 LJ
0.667 LW
N
397.5 513 M
397.5 43 L
S
GR
GS
[0.75 0 0 0.75 0 0] CT
0.873 GC
1 LJ
0.667 LW
N
496.667 513 M
496.667 43 L
S
GR
GS
[0.75 0 0 0.75 0 0] CT
0.873 GC
1 LJ
0.667 LW
N
595.833 513 M
595.833 43 L
S
GR
GS
[0.75 0 0 0.75 0 0] CT
0.873 GC
1 LJ
0.667 LW
N
695 513 M
695 43 L
S
GR
GS
[0.75 0 0 0.75 0 0] CT
0.873 GC
1 LJ
0.667 LW
N
695 513 M
100 513 L
S
GR
GS
[0.75 0 0 0.75 0 0] CT
0.873 GC
1 LJ
0.667 LW
N
695 460.778 M
100 460.778 L
S
GR
GS
[0.75 0 0 0.75 0 0] CT
0.873 GC
1 LJ
0.667 LW
N
695 408.556 M
100 408.556 L
S
GR
GS
[0.75 0 0 0.75 0 0] CT
0.873 GC
1 LJ
0.667 LW
N
695 356.333 M
100 356.333 L
S
GR
GS
[0.75 0 0 0.75 0 0] CT
0.873 GC
1 LJ
0.667 LW
N
695 304.111 M
100 304.111 L
S
GR
GS
[0.75 0 0 0.75 0 0] CT
0.873 GC
1 LJ
0.667 LW
N
695 251.889 M
100 251.889 L
S
GR
GS
[0.75 0 0 0.75 0 0] CT
0.873 GC
1 LJ
0.667 LW
N
695 199.667 M
100 199.667 L
S
GR
GS
[0.75 0 0 0.75 0 0] CT
0.873 GC
1 LJ
0.667 LW
N
695 147.444 M
100 147.444 L
S
GR
GS
[0.75 0 0 0.75 0 0] CT
0.873 GC
1 LJ
0.667 LW
N
695 95.222 M
100 95.222 L
S
GR
GS
[0.75 0 0 0.75 0 0] CT
0.873 GC
1 LJ
0.667 LW
N
695 43 M
100 43 L
S
GR
GS
[0.75 0 0 0.75 0 0] CT
0.149 GC
2 setlinecap
1 LJ
0.667 LW
N
100 513 M
695 513 L
S
GR
GS
[0.75 0 0 0.75 0 0] CT
0.149 GC
2 setlinecap
1 LJ
0.667 LW
N
100 43 M
695 43 L
S
GR
GS
[0.75 0 0 0.75 0 0] CT
0.149 GC
2 setlinecap
1 LJ
0.667 LW
N
100 513 M
100 507.05 L
S
GR
GS
[0.75 0 0 0.75 0 0] CT
0.149 GC
2 setlinecap
1 LJ
0.667 LW
N
199.167 513 M
199.167 507.05 L
S
GR
GS
[0.75 0 0 0.75 0 0] CT
0.149 GC
2 setlinecap
1 LJ
0.667 LW
N
298.333 513 M
298.333 507.05 L
S
GR
GS
[0.75 0 0 0.75 0 0] CT
0.149 GC
2 setlinecap
1 LJ
0.667 LW
N
397.5 513 M
397.5 507.05 L
S
GR
GS
[0.75 0 0 0.75 0 0] CT
0.149 GC
2 setlinecap
1 LJ
0.667 LW
N
496.667 513 M
496.667 507.05 L
S
GR
GS
[0.75 0 0 0.75 0 0] CT
0.149 GC
2 setlinecap
1 LJ
0.667 LW
N
595.833 513 M
595.833 507.05 L
S
GR
GS
[0.75 0 0 0.75 0 0] CT
0.149 GC
2 setlinecap
1 LJ
0.667 LW
N
695 513 M
695 507.05 L
S
GR
GS
[0.75 0 0 0.75 0 0] CT
0.149 GC
2 setlinecap
1 LJ
0.667 LW
N
100 43 M
100 48.95 L
S
GR
GS
[0.75 0 0 0.75 0 0] CT
0.149 GC
2 setlinecap
1 LJ
0.667 LW
N
199.167 43 M
199.167 48.95 L
S
GR
GS
[0.75 0 0 0.75 0 0] CT
0.149 GC
2 setlinecap
1 LJ
0.667 LW
N
298.333 43 M
298.333 48.95 L
S
GR
GS
[0.75 0 0 0.75 0 0] CT
0.149 GC
2 setlinecap
1 LJ
0.667 LW
N
397.5 43 M
397.5 48.95 L
S
GR
GS
[0.75 0 0 0.75 0 0] CT
0.149 GC
2 setlinecap
1 LJ
0.667 LW
N
496.667 43 M
496.667 48.95 L
S
GR
GS
[0.75 0 0 0.75 0 0] CT
0.149 GC
2 setlinecap
1 LJ
0.667 LW
N
595.833 43 M
595.833 48.95 L
S
GR
GS
[0.75 0 0 0.75 0 0] CT
0.149 GC
2 setlinecap
1 LJ
0.667 LW
N
695 43 M
695 48.95 L
S
GR
GS
[0.75 0 0 0.75 75 388.74998] CT
0.149 GC
/Helvetica 13 F
GS
[1 0 0 1 0 0] CT
-4.5 13 moveto 
1 -1 scale
(0) t 
GR
GR
GS
[0.75 0 0 0.75 149.375 388.74998] CT
0.149 GC
/Helvetica 13 F
GS
[1 0 0 1 0 0] CT
-8.5 13 moveto 
1 -1 scale
(10) t 
GR
GR
GS
[0.75 0 0 0.75 223.75001 388.74998] CT
0.149 GC
/Helvetica 13 F
GS
[1 0 0 1 0 0] CT
-8.5 13 moveto 
1 -1 scale
(20) t 
GR
GR
GS
[0.75 0 0 0.75 298.125 388.74998] CT
0.149 GC
/Helvetica 13 F
GS
[1 0 0 1 0 0] CT
-8.5 13 moveto 
1 -1 scale
(30) t 
GR
GR
GS
[0.75 0 0 0.75 372.49999 388.74998] CT
0.149 GC
/Helvetica 13 F
GS
[1 0 0 1 0 0] CT
-8.5 13 moveto 
1 -1 scale
(40) t 
GR
GR
GS
[0.75 0 0 0.75 446.87498 388.74998] CT
0.149 GC
/Helvetica 13 F
GS
[1 0 0 1 0 0] CT
-8.5 13 moveto 
1 -1 scale
(50) t 
GR
GR
GS
[0.75 0 0 0.75 521.25 388.74998] CT
0.149 GC
/Helvetica 13 F
GS
[1 0 0 1 0 0] CT
-8.5 13 moveto 
1 -1 scale
(60) t 
GR
GR
GS
[0.75 0 0 0.75 298.12521 402.50002] CT
0.149 GC
/Helvetica 15 F
GS
[1 0 0 1 0 0] CT
-41 14 moveto 
1 -1 scale
(Time \(min\)) t 
GR
GR
GS
[0.75 0 0 0.75 0 0] CT
0.149 GC
2 setlinecap
1 LJ
0.667 LW
N
100 513 M
100 43 L
S
GR
GS
[0.75 0 0 0.75 0 0] CT
0.149 GC
2 setlinecap
1 LJ
0.667 LW
N
695 513 M
695 43 L
S
GR
GS
[0.75 0 0 0.75 0 0] CT
0.149 GC
2 setlinecap
1 LJ
0.667 LW
N
100 513 M
105.95 513 L
S
GR
GS
[0.75 0 0 0.75 0 0] CT
0.149 GC
2 setlinecap
1 LJ
0.667 LW
N
100 460.778 M
105.95 460.778 L
S
GR
GS
[0.75 0 0 0.75 0 0] CT
0.149 GC
2 setlinecap
1 LJ
0.667 LW
N
100 408.556 M
105.95 408.556 L
S
GR
GS
[0.75 0 0 0.75 0 0] CT
0.149 GC
2 setlinecap
1 LJ
0.667 LW
N
100 356.333 M
105.95 356.333 L
S
GR
GS
[0.75 0 0 0.75 0 0] CT
0.149 GC
2 setlinecap
1 LJ
0.667 LW
N
100 304.111 M
105.95 304.111 L
S
GR
GS
[0.75 0 0 0.75 0 0] CT
0.149 GC
2 setlinecap
1 LJ
0.667 LW
N
100 251.889 M
105.95 251.889 L
S
GR
GS
[0.75 0 0 0.75 0 0] CT
0.149 GC
2 setlinecap
1 LJ
0.667 LW
N
100 199.667 M
105.95 199.667 L
S
GR
GS
[0.75 0 0 0.75 0 0] CT
0.149 GC
2 setlinecap
1 LJ
0.667 LW
N
100 147.444 M
105.95 147.444 L
S
GR
GS
[0.75 0 0 0.75 0 0] CT
0.149 GC
2 setlinecap
1 LJ
0.667 LW
N
100 95.222 M
105.95 95.222 L
S
GR
GS
[0.75 0 0 0.75 0 0] CT
0.149 GC
2 setlinecap
1 LJ
0.667 LW
N
100 43 M
105.95 43 L
S
GR
GS
[0.75 0 0 0.75 0 0] CT
0.149 GC
2 setlinecap
1 LJ
0.667 LW
N
695 513 M
689.05 513 L
S
GR
GS
[0.75 0 0 0.75 0 0] CT
0.149 GC
2 setlinecap
1 LJ
0.667 LW
N
695 460.778 M
689.05 460.778 L
S
GR
GS
[0.75 0 0 0.75 0 0] CT
0.149 GC
2 setlinecap
1 LJ
0.667 LW
N
695 408.556 M
689.05 408.556 L
S
GR
GS
[0.75 0 0 0.75 0 0] CT
0.149 GC
2 setlinecap
1 LJ
0.667 LW
N
695 356.333 M
689.05 356.333 L
S
GR
GS
[0.75 0 0 0.75 0 0] CT
0.149 GC
2 setlinecap
1 LJ
0.667 LW
N
695 304.111 M
689.05 304.111 L
S
GR
GS
[0.75 0 0 0.75 0 0] CT
0.149 GC
2 setlinecap
1 LJ
0.667 LW
N
695 251.889 M
689.05 251.889 L
S
GR
GS
[0.75 0 0 0.75 0 0] CT
0.149 GC
2 setlinecap
1 LJ
0.667 LW
N
695 199.667 M
689.05 199.667 L
S
GR
GS
[0.75 0 0 0.75 0 0] CT
0.149 GC
2 setlinecap
1 LJ
0.667 LW
N
695 147.444 M
689.05 147.444 L
S
GR
GS
[0.75 0 0 0.75 0 0] CT
0.149 GC
2 setlinecap
1 LJ
0.667 LW
N
695 95.222 M
689.05 95.222 L
S
GR
GS
[0.75 0 0 0.75 0 0] CT
0.149 GC
2 setlinecap
1 LJ
0.667 LW
N
695 43 M
689.05 43 L
S
GR
GS
[0.75 0 0 0.75 71 384.75] CT
0.149 GC
/Helvetica 13 F
GS
[1 0 0 1 0 0] CT
-21 4.5 moveto 
1 -1 scale
(0.5) t 
GR
GR
GS
[0.75 0 0 0.75 71 345.58333] CT
0.149 GC
/Helvetica 13 F
GS
[1 0 0 1 0 0] CT
-9 4.5 moveto 
1 -1 scale
(1) t 
GR
GR
GS
[0.75 0 0 0.75 71 306.41666] CT
0.149 GC
/Helvetica 13 F
GS
[1 0 0 1 0 0] CT
-21 4.5 moveto 
1 -1 scale
(1.5) t 
GR
GR
GS
[0.75 0 0 0.75 71 267.25001] CT
0.149 GC
/Helvetica 13 F
GS
[1 0 0 1 0 0] CT
-9 4.5 moveto 
1 -1 scale
(2) t 
GR
GR
GS
[0.75 0 0 0.75 71 228.08334] CT
0.149 GC
/Helvetica 13 F
GS
[1 0 0 1 0 0] CT
-21 4.5 moveto 
1 -1 scale
(2.5) t 
GR
GR
GS
[0.75 0 0 0.75 71 188.91666] CT
0.149 GC
/Helvetica 13 F
GS
[1 0 0 1 0 0] CT
-9 4.5 moveto 
1 -1 scale
(3) t 
GR
GR
GS
[0.75 0 0 0.75 71 149.75] CT
0.149 GC
/Helvetica 13 F
GS
[1 0 0 1 0 0] CT
-21 4.5 moveto 
1 -1 scale
(3.5) t 
GR
GR
GS
[0.75 0 0 0.75 71 110.58333] CT
0.149 GC
/Helvetica 13 F
GS
[1 0 0 1 0 0] CT
-9 4.5 moveto 
1 -1 scale
(4) t 
GR
GR
GS
[0.75 0 0 0.75 71 71.41667] CT
0.149 GC
/Helvetica 13 F
GS
[1 0 0 1 0 0] CT
-21 4.5 moveto 
1 -1 scale
(4.5) t 
GR
GR
GS
[0.75 0 0 0.75 71 32.25] CT
0.149 GC
/Helvetica 13 F
GS
[1 0 0 1 0 0] CT
-9 4.5 moveto 
1 -1 scale
(5) t 
GR
GR
GS
[0 -0.75 0.75 0 52.25 208.49984] CT
0.149 GC
/Helvetica 15 F
GS
[1 0 0 1 0 0] CT
-157 -4 moveto 
1 -1 scale
(Concentration of Aqueous Bromine \(ppm\)) t 
GR
GR
GS
[0.75 0 0 0.75 298.12527 30.18748] CT
/Helvetica-Bold 15 F
GS
[1 0 0 1 0 0] CT
-243.5 -4 moveto 
1 -1 scale
(Photodegradation of Aqueous Bromine over Time \(th174\)) t 
GR
GR
GS
[0.75 0 0 0.75 0 0] CT
1 0 0 RC
10.0 ML
N
199.5 215.832 M
203.5 210.5 L
199.5 205.168 L
195.5 210.5 L
cp
S
GR
GS
[0.75 0 0 0.75 0 0] CT
1 0 0 RC
10.0 ML
N
298.5 298.832 M
302.5 293.5 L
298.5 288.168 L
294.5 293.5 L
cp
S
GR
GS
[0.75 0 0 0.75 0 0] CT
1 0 0 RC
10.0 ML
N
397.5 403.832 M
401.5 398.5 L
397.5 393.168 L
393.5 398.5 L
cp
S
GR
GS
[0.75 0 0 0.75 0 0] CT
1 0 0 RC
10.0 ML
N
496.5 434.832 M
500.5 429.5 L
496.5 424.168 L
492.5 429.5 L
cp
S
GR
GS
[0.75 0 0 0.75 0 0] CT
1 0 0 RC
10.0 ML
N
595.5 465.832 M
599.5 460.5 L
595.5 455.168 L
591.5 460.5 L
cp
S
GR
GS
[0.75 0 0 0.75 0 0] CT
1 0 0 RC
10.0 ML
N
695.5 517.832 M
699.5 512.5 L
695.5 507.168 L
691.5 512.5 L
cp
S
GR
GS
[0.75 0 0 0.75 0 0] CT
0 1 0 RC
[10 6] 0 setdash
2 LJ
0.667 LW
N
100 59.711 M
100.596 60.742 L
101.191 61.771 L
101.787 62.798 L
102.382 63.823 L
102.978 64.846 L
103.574 65.867 L
104.169 66.886 L
104.765 67.902 L
105.36 68.917 L
105.956 69.929 L
106.552 70.94 L
107.147 71.948 L
107.743 72.954 L
108.338 73.958 L
108.934 74.96 L
109.53 75.961 L
110.125 76.959 L
110.721 77.955 L
111.316 78.949 L
111.912 79.941 L
112.508 80.931 L
113.103 81.919 L
113.699 82.904 L
114.294 83.888 L
114.89 84.87 L
115.485 85.85 L
116.081 86.828 L
116.677 87.804 L
117.272 88.778 L
117.868 89.75 L
118.463 90.72 L
119.059 91.688 L
119.655 92.654 L
120.25 93.618 L
120.846 94.58 L
121.441 95.54 L
122.037 96.498 L
122.633 97.454 L
123.228 98.408 L
123.824 99.361 L
124.419 100.311 L
125.015 101.259 L
125.611 102.206 L
126.206 103.15 L
126.802 104.093 L
127.397 105.034 L
127.993 105.973 L
128.589 106.909 L
129.184 107.844 L
129.78 108.777 L
130.375 109.708 L
130.971 110.638 L
131.567 111.565 L
132.162 112.491 L
132.758 113.414 L
133.353 114.336 L
133.949 115.256 L
134.545 116.173 L
135.14 117.089 L
135.736 118.004 L
136.331 118.916 L
136.927 119.826 L
137.523 120.735 L
138.118 121.642 L
138.714 122.547 L
139.309 123.45 L
139.905 124.351 L
140.501 125.25 L
141.096 126.148 L
141.692 127.043 L
142.287 127.937 L
142.883 128.829 L
143.478 129.72 L
144.074 130.608 L
144.67 131.495 L
145.265 132.379 L
145.861 133.262 L
146.456 134.144 L
147.052 135.023 L
147.648 135.9 L
148.243 136.776 L
148.839 137.65 L
149.434 138.522 L
150.03 139.393 L
150.626 140.262 L
151.221 141.129 L
151.817 141.994 L
152.412 142.857 L
153.008 143.719 L
153.604 144.578 L
154.199 145.437 L
154.795 146.293 L
155.39 147.148 L
155.986 148 L
156.582 148.852 L
157.177 149.701 L
157.773 150.549 L
158.368 151.394 L
158.964 152.239 L
159.56 153.081 L
160.155 153.922 L
160.751 154.761 L
161.346 155.598 L
161.942 156.434 L
162.538 157.268 L
163.133 158.1 L
163.729 158.93 L
164.324 159.759 L
164.92 160.586 L
165.516 161.412 L
166.111 162.236 L
166.707 163.058 L
167.302 163.878 L
167.898 164.697 L
168.493 165.514 L
169.089 166.329 L
169.685 167.143 L
170.28 167.955 L
170.876 168.765 L
171.471 169.574 L
172.067 170.381 L
172.663 171.187 L
173.258 171.991 L
173.854 172.793 L
174.449 173.593 L
175.045 174.392 L
175.641 175.189 L
176.236 175.985 L
176.832 176.779 L
177.427 177.572 L
178.023 178.362 L
178.619 179.152 L
179.214 179.939 L
179.81 180.725 L
180.405 181.509 L
181.001 182.292 L
181.597 183.073 L
182.192 183.853 L
182.788 184.631 L
183.383 185.407 L
183.979 186.182 L
184.575 186.955 L
185.17 187.727 L
185.766 188.497 L
186.361 189.266 L
186.957 190.032 L
187.553 190.798 L
188.148 191.562 L
188.744 192.324 L
189.339 193.085 L
189.935 193.844 L
190.531 194.601 L
191.126 195.357 L
191.722 196.112 L
192.317 196.865 L
192.913 197.616 L
193.508 198.366 L
194.104 199.115 L
194.7 199.861 L
195.295 200.607 L
195.891 201.351 L
196.486 202.093 L
197.082 202.834 L
197.678 203.573 L
198.273 204.311 L
198.869 205.047 L
199.464 205.782 L
200.06 206.515 L
200.656 207.247 L
201.251 207.977 L
201.847 208.706 L
202.442 209.433 L
203.038 210.159 L
203.634 210.883 L
204.229 211.606 L
204.825 212.327 L
205.42 213.047 L
206.016 213.766 L
206.612 214.482 L
207.207 215.198 L
207.803 215.912 L
208.398 216.625 L
208.994 217.336 L
209.59 218.045 L
210.185 218.754 L
210.781 219.46 L
211.376 220.166 L
211.972 220.87 L
212.568 221.572 L
213.163 222.273 L
213.759 222.973 L
214.354 223.671 L
214.95 224.368 L
215.546 225.063 L
216.141 225.757 L
216.737 226.449 L
217.332 227.14 L
217.928 227.83 L
218.524 228.518 L
219.119 229.205 L
219.715 229.891 L
220.31 230.575 L
220.906 231.257 L
221.502 231.939 L
222.097 232.619 L
222.693 233.297 L
223.288 233.974 L
223.884 234.65 L
224.479 235.324 L
225.075 235.997 L
225.671 236.669 L
226.266 237.339 L
226.862 238.008 L
227.457 238.676 L
228.053 239.342 L
228.649 240.006 L
229.244 240.67 L
229.84 241.332 L
230.435 241.993 L
231.031 242.652 L
231.627 243.31 L
232.222 243.967 L
232.818 244.622 L
233.413 245.276 L
234.009 245.929 L
234.605 246.58 L
235.2 247.23 L
235.796 247.879 L
236.391 248.526 L
236.987 249.172 L
237.583 249.817 L
238.178 250.46 L
238.774 251.102 L
239.369 251.743 L
239.965 252.383 L
240.561 253.021 L
241.156 253.658 L
241.752 254.293 L
242.347 254.928 L
242.943 255.561 L
243.539 256.192 L
244.134 256.823 L
244.73 257.452 L
245.325 258.08 L
245.921 258.706 L
246.517 259.332 L
247.112 259.956 L
247.708 260.578 L
248.303 261.2 L
248.899 261.82 L
249.494 262.439 L
250.09 263.057 L
250.686 263.673 L
251.281 264.288 L
251.877 264.902 L
252.472 265.515 L
253.068 266.126 L
253.664 266.736 L
254.259 267.345 L
254.855 267.953 L
255.45 268.559 L
256.046 269.164 L
256.642 269.768 L
257.237 270.371 L
257.833 270.972 L
258.428 271.573 L
259.024 272.172 L
259.62 272.77 L
260.215 273.366 L
260.811 273.962 L
261.406 274.556 L
262.002 275.149 L
262.598 275.74 L
263.193 276.331 L
263.789 276.92 L
264.384 277.508 L
264.98 278.095 L
265.576 278.681 L
266.171 279.266 L
266.767 279.849 L
267.362 280.431 L
267.958 281.012 L
268.554 281.592 L
269.149 282.17 L
269.745 282.748 L
270.34 283.324 L
270.936 283.899 L
271.532 284.473 L
272.127 285.046 L
272.723 285.617 L
273.318 286.188 L
273.914 286.757 L
274.509 287.325 L
275.105 287.892 L
275.701 288.458 L
276.296 289.022 L
276.892 289.586 L
277.487 290.148 L
278.083 290.709 L
278.679 291.269 L
279.274 291.828 L
279.87 292.386 L
280.465 292.942 L
281.061 293.498 L
281.657 294.052 L
282.252 294.605 L
282.848 295.157 L
283.443 295.708 L
284.039 296.258 L
284.635 296.807 L
285.23 297.354 L
285.826 297.901 L
286.421 298.446 L
287.017 298.99 L
287.613 299.533 L
288.208 300.075 L
288.804 300.616 L
289.399 301.156 L
289.995 301.694 L
290.591 302.232 L
291.186 302.769 L
291.782 303.304 L
292.377 303.838 L
292.973 304.371 L
293.569 304.904 L
294.164 305.435 L
294.76 305.965 L
295.355 306.493 L
295.951 307.021 L
296.547 307.548 L
297.142 308.074 L
297.738 308.598 L
298.333 309.122 L
298.929 309.644 L
299.525 310.165 L
300.12 310.686 L
300.716 311.205 L
301.311 311.723 L
301.907 312.24 L
302.503 312.756 L
303.098 313.271 L
303.694 313.785 L
304.289 314.298 L
304.885 314.81 L
305.48 315.321 L
306.076 315.831 L
306.672 316.34 L
307.267 316.847 L
307.863 317.354 L
308.458 317.86 L
309.054 318.364 L
309.65 318.868 L
310.245 319.37 L
310.841 319.872 L
311.436 320.372 L
312.032 320.872 L
312.628 321.37 L
313.223 321.868 L
313.819 322.364 L
314.414 322.86 L
315.01 323.354 L
315.606 323.847 L
316.201 324.34 L
316.797 324.831 L
317.392 325.322 L
317.988 325.811 L
318.584 326.299 L
319.179 326.787 L
319.775 327.273 L
320.37 327.759 L
320.966 328.243 L
321.562 328.726 L
322.157 329.209 L
322.753 329.69 L
323.348 330.171 L
323.944 330.65 L
324.54 331.129 L
325.135 331.606 L
325.731 332.083 L
326.326 332.559 L
326.922 333.033 L
327.518 333.507 L
328.113 333.98 L
328.709 334.451 L
329.304 334.922 L
329.9 335.392 L
330.496 335.861 L
331.091 336.329 L
331.687 336.795 L
332.282 337.261 L
332.878 337.726 L
333.473 338.191 L
334.069 338.654 L
334.665 339.116 L
335.26 339.577 L
335.856 340.037 L
336.451 340.497 L
337.047 340.955 L
337.643 341.413 L
338.238 341.869 L
338.834 342.325 L
339.429 342.78 L
340.025 343.233 L
340.621 343.686 L
341.216 344.138 L
341.812 344.589 L
342.407 345.039 L
343.003 345.488 L
343.599 345.937 L
344.194 346.384 L
344.79 346.83 L
345.385 347.276 L
345.981 347.721 L
346.577 348.164 L
347.172 348.607 L
347.768 349.049 L
348.363 349.49 L
348.959 349.93 L
349.555 350.369 L
350.15 350.807 L
350.746 351.245 L
351.341 351.681 L
351.937 352.117 L
352.533 352.552 L
353.128 352.986 L
353.724 353.418 L
354.319 353.851 L
354.915 354.282 L
355.511 354.712 L
356.106 355.141 L
356.702 355.57 L
357.297 355.998 L
357.893 356.425 L
358.488 356.85 L
359.084 357.276 L
359.68 357.7 L
360.275 358.123 L
360.871 358.546 L
361.466 358.967 L
362.062 359.388 L
362.658 359.808 L
363.253 360.227 L
363.849 360.645 L
364.444 361.062 L
365.04 361.479 L
365.636 361.894 L
366.231 362.309 L
366.827 362.723 L
367.422 363.136 L
368.018 363.549 L
368.614 363.96 L
369.209 364.37 L
369.805 364.78 L
370.4 365.189 L
370.996 365.597 L
371.592 366.004 L
372.187 366.411 L
372.783 366.816 L
373.378 367.221 L
373.974 367.625 L
374.57 368.028 L
375.165 368.43 L
375.761 368.832 L
376.356 369.232 L
376.952 369.632 L
377.548 370.031 L
378.143 370.429 L
378.739 370.827 L
379.334 371.223 L
379.93 371.619 L
380.526 372.014 L
381.121 372.408 L
381.717 372.802 L
382.312 373.194 L
382.908 373.586 L
383.504 373.977 L
384.099 374.367 L
384.695 374.756 L
385.29 375.145 L
385.886 375.532 L
386.481 375.919 L
387.077 376.306 L
387.673 376.691 L
388.268 377.076 L
388.864 377.459 L
389.459 377.842 L
390.055 378.225 L
390.651 378.606 L
391.246 378.987 L
391.842 379.367 L
392.437 379.746 L
393.033 380.124 L
393.629 380.502 L
394.224 380.879 L
394.82 381.255 L
395.415 381.63 L
396.011 382.005 L
396.607 382.378 L
397.202 382.751 L
397.798 383.124 L
398.393 383.495 L
398.989 383.866 L
399.585 384.236 L
400.18 384.605 L
400.776 384.973 L
401.371 385.341 L
401.967 385.708 L
402.563 386.074 L
403.158 386.44 L
403.754 386.804 L
404.349 387.168 L
404.945 387.531 L
405.541 387.894 L
406.136 388.256 L
406.732 388.617 L
407.327 388.977 L
407.923 389.337 L
408.519 389.695 L
409.114 390.053 L
409.71 390.411 L
410.305 390.767 L
410.901 391.123 L
411.496 391.478 L
412.092 391.833 L
412.688 392.187 L
413.283 392.54 L
413.879 392.892 L
414.474 393.243 L
415.07 393.594 L
415.666 393.944 L
416.261 394.294 L
416.857 394.642 L
417.452 394.99 L
418.048 395.338 L
418.644 395.684 L
419.239 396.03 L
419.835 396.375 L
420.43 396.72 L
421.026 397.063 L
421.622 397.406 L
422.217 397.749 L
422.813 398.09 L
423.408 398.431 L
424.004 398.772 L
424.6 399.111 L
425.195 399.45 L
425.791 399.788 L
426.386 400.126 L
426.982 400.462 L
427.578 400.798 L
428.173 401.134 L
428.769 401.469 L
429.364 401.803 L
429.96 402.136 L
430.556 402.469 L
431.151 402.801 L
431.747 403.132 L
432.342 403.463 L
432.938 403.793 L
433.534 404.122 L
434.129 404.451 L
434.725 404.779 L
435.32 405.106 L
435.916 405.433 L
436.512 405.759 L
437.107 406.084 L
437.703 406.408 L
438.298 406.732 L
438.894 407.056 L
439.489 407.378 L
440.085 407.7 L
440.681 408.022 L
441.276 408.342 L
441.872 408.662 L
442.467 408.982 L
443.063 409.301 L
443.659 409.619 L
444.254 409.936 L
444.85 410.253 L
445.445 410.569 L
446.041 410.884 L
446.637 411.199 L
447.232 411.513 L
447.828 411.827 L
448.423 412.14 L
449.019 412.452 L
449.615 412.764 L
450.21 413.075 L
450.806 413.385 L
451.401 413.695 L
451.997 414.004 L
452.593 414.313 L
453.188 414.62 L
453.784 414.928 L
454.379 415.234 L
454.975 415.54 L
455.571 415.846 L
456.166 416.15 L
456.762 416.454 L
457.357 416.758 L
457.953 417.061 L
458.549 417.363 L
459.144 417.665 L
459.74 417.966 L
460.335 418.266 L
460.931 418.566 L
461.527 418.865 L
462.122 419.164 L
462.718 419.461 L
463.313 419.759 L
463.909 420.056 L
464.504 420.352 L
465.1 420.647 L
465.696 420.942 L
466.291 421.236 L
466.887 421.53 L
467.482 421.823 L
468.078 422.116 L
468.674 422.408 L
469.269 422.699 L
469.865 422.99 L
470.46 423.28 L
471.056 423.57 L
471.652 423.859 L
472.247 424.147 L
472.843 424.435 L
473.438 424.722 L
474.034 425.009 L
474.63 425.295 L
475.225 425.58 L
475.821 425.865 L
476.416 426.149 L
477.012 426.433 L
477.608 426.716 L
478.203 426.999 L
478.799 427.28 L
479.394 427.562 L
479.99 427.843 L
480.586 428.123 L
481.181 428.403 L
481.777 428.682 L
482.372 428.96 L
482.968 429.238 L
483.564 429.516 L
484.159 429.793 L
484.755 430.069 L
485.35 430.344 L
485.946 430.62 L
486.542 430.894 L
487.137 431.168 L
487.733 431.442 L
488.328 431.715 L
488.924 431.987 L
489.52 432.259 L
490.115 432.53 L
490.711 432.801 L
491.306 433.071 L
491.902 433.34 L
492.497 433.609 L
493.093 433.878 L
493.689 434.146 L
494.284 434.413 L
494.88 434.68 L
495.475 434.946 L
496.071 435.212 L
496.667 435.477 L
497.262 435.742 L
497.858 436.006 L
498.453 436.27 L
499.049 436.533 L
499.645 436.795 L
500.24 437.057 L
500.836 437.319 L
501.431 437.58 L
502.027 437.84 L
502.623 438.1 L
503.218 438.359 L
503.814 438.618 L
504.409 438.876 L
505.005 439.134 L
505.601 439.391 L
506.196 439.648 L
506.792 439.904 L
507.387 440.16 L
507.983 440.415 L
508.579 440.669 L
509.174 440.924 L
509.77 441.177 L
510.365 441.43 L
510.961 441.683 L
511.557 441.935 L
512.152 442.186 L
512.748 442.437 L
513.343 442.688 L
513.939 442.938 L
514.535 443.187 L
515.13 443.436 L
515.726 443.685 L
516.321 443.932 L
516.917 444.18 L
517.513 444.427 L
518.108 444.673 L
518.704 444.919 L
519.299 445.165 L
519.895 445.409 L
520.49 445.654 L
521.086 445.898 L
521.682 446.141 L
522.277 446.384 L
522.873 446.627 L
523.468 446.868 L
524.064 447.11 L
524.66 447.351 L
525.255 447.591 L
525.851 447.831 L
526.446 448.071 L
527.042 448.31 L
527.638 448.548 L
528.233 448.786 L
528.829 449.024 L
529.424 449.261 L
530.02 449.497 L
530.616 449.733 L
531.211 449.969 L
531.807 450.204 L
532.402 450.439 L
532.998 450.673 L
533.594 450.907 L
534.189 451.14 L
534.785 451.372 L
535.38 451.605 L
535.976 451.837 L
536.572 452.068 L
537.167 452.299 L
537.763 452.529 L
538.358 452.759 L
538.954 452.988 L
539.55 453.217 L
540.145 453.446 L
540.741 453.674 L
541.336 453.901 L
541.932 454.128 L
542.528 454.355 L
543.123 454.581 L
543.719 454.807 L
544.314 455.032 L
544.91 455.257 L
545.505 455.481 L
546.101 455.705 L
546.697 455.929 L
547.292 456.151 L
547.888 456.374 L
548.483 456.596 L
549.079 456.818 L
549.675 457.039 L
550.27 457.259 L
550.866 457.48 L
551.461 457.699 L
552.057 457.919 L
552.653 458.138 L
553.248 458.356 L
553.844 458.574 L
554.439 458.792 L
555.035 459.009 L
555.631 459.226 L
556.226 459.442 L
556.822 459.658 L
557.417 459.873 L
558.013 460.088 L
558.609 460.302 L
559.204 460.516 L
559.8 460.73 L
560.395 460.943 L
560.991 461.156 L
561.587 461.368 L
562.182 461.58 L
562.778 461.791 L
563.373 462.002 L
563.969 462.213 L
564.565 462.423 L
565.16 462.633 L
565.756 462.842 L
566.351 463.051 L
566.947 463.259 L
567.543 463.467 L
568.138 463.675 L
568.734 463.882 L
569.329 464.089 L
569.925 464.295 L
570.521 464.501 L
571.116 464.706 L
571.712 464.911 L
572.307 465.116 L
572.903 465.32 L
573.499 465.524 L
574.094 465.728 L
574.69 465.93 L
575.285 466.133 L
575.881 466.335 L
576.477 466.537 L
577.072 466.738 L
577.668 466.939 L
578.263 467.14 L
578.859 467.34 L
579.454 467.539 L
580.05 467.739 L
580.646 467.938 L
581.241 468.136 L
581.837 468.334 L
582.432 468.532 L
583.028 468.729 L
583.624 468.926 L
584.219 469.122 L
584.815 469.318 L
585.41 469.514 L
586.006 469.709 L
586.602 469.904 L
587.197 470.098 L
587.793 470.292 L
588.388 470.486 L
588.984 470.679 L
589.58 470.872 L
590.175 471.065 L
590.771 471.257 L
591.366 471.448 L
591.962 471.64 L
592.558 471.831 L
593.153 472.021 L
593.749 472.211 L
594.344 472.401 L
594.94 472.59 L
595.536 472.779 L
596.131 472.968 L
596.727 473.156 L
597.322 473.344 L
597.918 473.531 L
598.514 473.718 L
599.109 473.905 L
599.705 474.091 L
600.3 474.277 L
600.896 474.463 L
601.492 474.648 L
602.087 474.833 L
602.683 475.017 L
603.278 475.201 L
603.874 475.385 L
604.469 475.568 L
605.065 475.751 L
605.661 475.933 L
606.256 476.116 L
606.852 476.297 L
607.447 476.479 L
608.043 476.66 L
608.639 476.84 L
609.234 477.021 L
609.83 477.201 L
610.425 477.38 L
611.021 477.559 L
611.617 477.738 L
612.212 477.917 L
612.808 478.095 L
613.403 478.273 L
613.999 478.45 L
614.595 478.627 L
615.19 478.804 L
615.786 478.98 L
616.381 479.156 L
616.977 479.331 L
617.573 479.507 L
618.168 479.681 L
618.764 479.856 L
619.359 480.03 L
619.955 480.204 L
620.551 480.377 L
621.146 480.55 L
621.742 480.723 L
622.337 480.895 L
622.933 481.068 L
623.529 481.239 L
624.124 481.41 L
624.72 481.581 L
625.315 481.752 L
625.911 481.922 L
626.507 482.092 L
627.102 482.262 L
627.698 482.431 L
628.293 482.6 L
628.889 482.769 L
629.484 482.937 L
630.08 483.105 L
630.676 483.272 L
631.271 483.439 L
631.867 483.606 L
632.462 483.773 L
633.058 483.939 L
633.654 484.105 L
634.249 484.27 L
634.845 484.435 L
635.44 484.6 L
636.036 484.764 L
636.632 484.929 L
637.227 485.092 L
637.823 485.256 L
638.418 485.419 L
639.014 485.582 L
639.61 485.744 L
640.205 485.906 L
640.801 486.068 L
641.396 486.23 L
641.992 486.391 L
642.588 486.552 L
643.183 486.712 L
643.779 486.872 L
644.374 487.032 L
644.97 487.192 L
645.566 487.351 L
646.161 487.51 L
646.757 487.668 L
647.352 487.826 L
647.948 487.984 L
648.544 488.142 L
649.139 488.299 L
649.735 488.456 L
650.33 488.613 L
650.926 488.769 L
651.522 488.925 L
652.117 489.08 L
652.713 489.236 L
653.308 489.391 L
653.904 489.545 L
654.5 489.7 L
655.095 489.854 L
655.691 490.008 L
656.286 490.161 L
656.882 490.314 L
657.477 490.467 L
658.073 490.62 L
658.669 490.772 L
659.264 490.924 L
659.86 491.075 L
660.455 491.226 L
661.051 491.377 L
661.647 491.528 L
662.242 491.678 L
662.838 491.828 L
663.433 491.978 L
664.029 492.128 L
664.625 492.277 L
665.22 492.425 L
665.816 492.574 L
666.411 492.722 L
667.007 492.87 L
667.603 493.018 L
668.198 493.165 L
668.794 493.312 L
669.389 493.459 L
669.985 493.605 L
670.581 493.751 L
671.176 493.897 L
671.772 494.042 L
672.367 494.188 L
672.963 494.332 L
673.559 494.477 L
674.154 494.621 L
674.75 494.765 L
675.345 494.909 L
675.941 495.053 L
676.537 495.196 L
677.132 495.339 L
677.728 495.481 L
678.323 495.623 L
678.919 495.765 L
679.515 495.907 L
680.11 496.048 L
680.706 496.19 L
681.301 496.33 L
681.897 496.471 L
682.492 496.611 L
683.088 496.751 L
683.684 496.891 L
684.279 497.03 L
684.875 497.169 L
685.47 497.308 L
686.066 497.447 L
686.662 497.585 L
687.257 497.723 L
687.853 497.861 L
688.448 497.998 L
689.044 498.135 L
689.64 498.272 L
690.235 498.409 L
690.831 498.545 L
691.426 498.681 L
692.022 498.817 L
692.618 498.952 L
693.213 499.087 L
693.809 499.222 L
694.404 499.357 L
695 499.491 L
S
GR
%%Trailer
%%Pages: 1
%%EOF
