\relax 
\citation{Chapra}
\citation{Palm}
\citation{Other}
\citation{Palm}
\@writefile{toc}{\contentsline {section}{\numberline {1}Based on Chapra Problem 2.11}{2}}
\@writefile{toc}{\contentsline {section}{\numberline {2}Based on Chapra Problem 2.22}{2}}
\@writefile{toc}{\contentsline {section}{\numberline {3}Chapra Problem 3.10}{2}}
\@writefile{toc}{\contentsline {section}{\numberline {4}Palm Problem 4.44 - Pressures}{2}}
\@writefile{toc}{\contentsline {section}{\numberline {5}Weather Data Analysis}{3}}
\@writefile{toc}{\contentsline {section}{\numberline {A}Codes}{4}}
\@writefile{toc}{\contentsline {subsection}{\numberline {A.1}RunConc.m}{4}}
\@writefile{toc}{\contentsline {subsection}{\numberline {A.2}RunButterfly.m}{5}}
\@writefile{toc}{\contentsline {subsection}{\numberline {A.3}Butterfly.m}{6}}
\@writefile{toc}{\contentsline {subsection}{\numberline {A.4}TestSingularity.m}{7}}
\@writefile{toc}{\contentsline {subsection}{\numberline {A.5}BeamDisplacement.m}{8}}
\@writefile{toc}{\contentsline {subsection}{\numberline {A.6}GraphPressures.m}{9}}
\@writefile{toc}{\contentsline {subsection}{\numberline {A.7}VanDerWaals.m}{10}}
\@writefile{toc}{\contentsline {subsection}{\numberline {A.8}RunWeather.m}{11}}
\@writefile{toc}{\contentsline {section}{\numberline {B}Diary}{13}}
\@writefile{lot}{\contentsline {table}{\numberline {1}{\ignorespaces Output from TestWeather.m}}{13}}
\newlabel{WeatherTest}{{1}{13}}
\@writefile{toc}{\contentsline {section}{\numberline {C}Figures}{14}}
\@writefile{lof}{\contentsline {figure}{\numberline {1}{\ignorespaces Plot for Chapra 2.11.}}{14}}
\newlabel{ConcGraph}{{1}{14}}
\@writefile{lof}{\contentsline {figure}{\numberline {2}{\ignorespaces Butterfly Curve.}}{14}}
\newlabel{ButterflyGraph}{{2}{14}}
\@writefile{lof}{\contentsline {figure}{\numberline {3}{\ignorespaces VanDerWaals Calculations Plots.}}{14}}
\newlabel{PressureGraph}{{3}{14}}
\@writefile{lof}{\contentsline {figure}{\numberline {4}{\ignorespaces Test of Singularity function.}}{14}}
\@writefile{lof}{\contentsline {figure}{\numberline {5}{\ignorespaces Displacement plot for a beam.}}{14}}
\@writefile{lof}{\contentsline {figure}{\numberline {6}{\ignorespaces Midday Irradiance for 2013.}}{14}}
\newlabel{Weather1Graph}{{6}{14}}
\@writefile{lof}{\contentsline {figure}{\numberline {7}{\ignorespaces Hourly Temperatures for January 2013.}}{14}}
\newlabel{Weather2Graph}{{7}{14}}
\@writefile{lof}{\contentsline {figure}{\numberline {8}{\ignorespaces Top Average Windspeeds for 2013.}}{14}}
\newlabel{Weather3Graph}{{8}{14}}
\bibcite{Chapra}{1}
\bibcite{Palm}{2}
\bibcite{Other}{3}
