\contentsline {section}{\numberline {1}Based on Chapra Problem 2.11}{2}
\contentsline {section}{\numberline {2}Based on Chapra Problem 2.22}{2}
\contentsline {section}{\numberline {3}Chapra Problem 3.10}{2}
\contentsline {section}{\numberline {4}Palm Problem 4.44 - Pressures}{2}
\contentsline {section}{\numberline {5}Weather Data Analysis}{3}
\contentsline {section}{\numberline {A}Codes}{4}
\contentsline {subsection}{\numberline {A.1}RunConc.m}{4}
\contentsline {subsection}{\numberline {A.2}RunButterfly.m}{5}
\contentsline {subsection}{\numberline {A.3}Butterfly.m}{6}
\contentsline {subsection}{\numberline {A.4}TestSingularity.m}{7}
\contentsline {subsection}{\numberline {A.5}BeamDisplacement.m}{8}
\contentsline {subsection}{\numberline {A.6}GraphPressures.m}{9}
\contentsline {subsection}{\numberline {A.7}VanDerWaals.m}{10}
\contentsline {subsection}{\numberline {A.8}RunWeather.m}{11}
\contentsline {section}{\numberline {B}Diary}{13}
\contentsline {section}{\numberline {C}Figures}{14}
