%!PS-Adobe-3.0 EPSF-3.0
%%Creator: (MATLAB, The Mathworks, Inc. Version 8.6.0.267246 \(R2015b\). Operating System: Linux)
%%Title: ./PressuresPlot.eps
%%CreationDate: 2015-09-18T22:53:33
%%Pages: (atend)
%%BoundingBox:    41    16   525   416
%%LanguageLevel: 3
%%EndComments
%%BeginProlog
%%BeginResource: procset (Apache XML Graphics Std ProcSet) 1.2 0
%%Version: 1.2 0
%%Copyright: (Copyright 2001-2003,2010 The Apache Software Foundation. License terms: http://www.apache.org/licenses/LICENSE-2.0)
/bd{bind def}bind def
/ld{load def}bd
/GR/grestore ld
/M/moveto ld
/LJ/setlinejoin ld
/C/curveto ld
/f/fill ld
/LW/setlinewidth ld
/GC/setgray ld
/t/show ld
/N/newpath ld
/CT/concat ld
/cp/closepath ld
/S/stroke ld
/L/lineto ld
/CC/setcmykcolor ld
/A/ashow ld
/GS/gsave ld
/RC/setrgbcolor ld
/RM/rmoveto ld
/ML/setmiterlimit ld
/re {4 2 roll M
1 index 0 rlineto
0 exch rlineto
neg 0 rlineto
cp } bd
/_ctm matrix def
/_tm matrix def
/BT { _ctm currentmatrix pop matrix _tm copy pop 0 0 moveto } bd
/ET { _ctm setmatrix } bd
/iTm { _ctm setmatrix _tm concat } bd
/Tm { _tm astore pop iTm 0 0 moveto } bd
/ux 0.0 def
/uy 0.0 def
/F {
  /Tp exch def
  /Tf exch def
  Tf findfont Tp scalefont setfont
  /cf Tf def  /cs Tp def
} bd
/ULS {currentpoint /uy exch def /ux exch def} bd
/ULE {
  /Tcx currentpoint pop def
  gsave
  newpath
  cf findfont cs scalefont dup
  /FontMatrix get 0 get /Ts exch def /FontInfo get dup
  /UnderlinePosition get Ts mul /To exch def
  /UnderlineThickness get Ts mul /Tt exch def
  ux uy To add moveto  Tcx uy To add lineto
  Tt setlinewidth stroke
  grestore
} bd
/OLE {
  /Tcx currentpoint pop def
  gsave
  newpath
  cf findfont cs scalefont dup
  /FontMatrix get 0 get /Ts exch def /FontInfo get dup
  /UnderlinePosition get Ts mul /To exch def
  /UnderlineThickness get Ts mul /Tt exch def
  ux uy To add cs add moveto Tcx uy To add cs add lineto
  Tt setlinewidth stroke
  grestore
} bd
/SOE {
  /Tcx currentpoint pop def
  gsave
  newpath
  cf findfont cs scalefont dup
  /FontMatrix get 0 get /Ts exch def /FontInfo get dup
  /UnderlinePosition get Ts mul /To exch def
  /UnderlineThickness get Ts mul /Tt exch def
  ux uy To add cs 10 mul 26 idiv add moveto Tcx uy To add cs 10 mul 26 idiv add lineto
  Tt setlinewidth stroke
  grestore
} bd
/QT {
/Y22 exch store
/X22 exch store
/Y21 exch store
/X21 exch store
currentpoint
/Y21 load 2 mul add 3 div exch
/X21 load 2 mul add 3 div exch
/X21 load 2 mul /X22 load add 3 div
/Y21 load 2 mul /Y22 load add 3 div
/X22 load /Y22 load curveto
} bd
/SSPD {
dup length /d exch dict def
{
/v exch def
/k exch def
currentpagedevice k known {
/cpdv currentpagedevice k get def
v cpdv ne {
/upd false def
/nullv v type /nulltype eq def
/nullcpdv cpdv type /nulltype eq def
nullv nullcpdv or
{
/upd true def
} {
/sametype v type cpdv type eq def
sametype {
v type /arraytype eq {
/vlen v length def
/cpdvlen cpdv length def
vlen cpdvlen eq {
0 1 vlen 1 sub {
/i exch def
/obj v i get def
/cpdobj cpdv i get def
obj cpdobj ne {
/upd true def
exit
} if
} for
} {
/upd true def
} ifelse
} {
v type /dicttype eq {
v {
/dv exch def
/dk exch def
/cpddv cpdv dk get def
dv cpddv ne {
/upd true def
exit
} if
} forall
} {
/upd true def
} ifelse
} ifelse
} if
} ifelse
upd true eq {
d k v put
} if
} if
} if
} forall
d length 0 gt {
d setpagedevice
} if
} bd
%%EndResource
%%BeginResource: procset (Apache XML Graphics EPS ProcSet) 1.0 0
%%Version: 1.0 0
%%Copyright: (Copyright 2002-2003 The Apache Software Foundation. License terms: http://www.apache.org/licenses/LICENSE-2.0)
/BeginEPSF { %def
/b4_Inc_state save def         % Save state for cleanup
/dict_count countdictstack def % Count objects on dict stack
/op_count count 1 sub def      % Count objects on operand stack
userdict begin                 % Push userdict on dict stack
/showpage { } def              % Redefine showpage, { } = null proc
0 setgray 0 setlinecap         % Prepare graphics state
1 setlinewidth 0 setlinejoin
10 setmiterlimit [ ] 0 setdash newpath
/languagelevel where           % If level not equal to 1 then
{pop languagelevel             % set strokeadjust and
1 ne                           % overprint to their defaults.
{false setstrokeadjust false setoverprint
} if
} if
} bd
/EndEPSF { %def
count op_count sub {pop} repeat            % Clean up stacks
countdictstack dict_count sub {end} repeat
b4_Inc_state restore
} bd
%%EndResource
%FOPBeginFontDict
%%IncludeResource: font Courier-Bold
%%IncludeResource: font Helvetica
%%IncludeResource: font Courier-BoldOblique
%%IncludeResource: font Courier-Oblique
%%IncludeResource: font Times-Roman
%%IncludeResource: font Helvetica-BoldOblique
%%IncludeResource: font Helvetica-Bold
%%IncludeResource: font Helvetica-Oblique
%%IncludeResource: font Times-BoldItalic
%%IncludeResource: font Courier
%%IncludeResource: font Times-Italic
%%IncludeResource: font Times-Bold
%%IncludeResource: font Symbol
%%IncludeResource: font ZapfDingbats
%FOPEndFontDict
%%BeginResource: encoding WinAnsiEncoding
/WinAnsiEncoding [
/.notdef /.notdef /.notdef /.notdef /.notdef
/.notdef /.notdef /.notdef /.notdef /.notdef
/.notdef /.notdef /.notdef /.notdef /.notdef
/.notdef /.notdef /.notdef /.notdef /.notdef
/.notdef /.notdef /.notdef /.notdef /.notdef
/.notdef /.notdef /.notdef /.notdef /.notdef
/.notdef /.notdef /space /exclam /quotedbl
/numbersign /dollar /percent /ampersand /quotesingle
/parenleft /parenright /asterisk /plus /comma
/hyphen /period /slash /zero /one
/two /three /four /five /six
/seven /eight /nine /colon /semicolon
/less /equal /greater /question /at
/A /B /C /D /E
/F /G /H /I /J
/K /L /M /N /O
/P /Q /R /S /T
/U /V /W /X /Y
/Z /bracketleft /backslash /bracketright /asciicircum
/underscore /quoteleft /a /b /c
/d /e /f /g /h
/i /j /k /l /m
/n /o /p /q /r
/s /t /u /v /w
/x /y /z /braceleft /bar
/braceright /asciitilde /bullet /Euro /bullet
/quotesinglbase /florin /quotedblbase /ellipsis /dagger
/daggerdbl /circumflex /perthousand /Scaron /guilsinglleft
/OE /bullet /Zcaron /bullet /bullet
/quoteleft /quoteright /quotedblleft /quotedblright /bullet
/endash /emdash /asciitilde /trademark /scaron
/guilsinglright /oe /bullet /zcaron /Ydieresis
/space /exclamdown /cent /sterling /currency
/yen /brokenbar /section /dieresis /copyright
/ordfeminine /guillemotleft /logicalnot /sfthyphen /registered
/macron /degree /plusminus /twosuperior /threesuperior
/acute /mu /paragraph /middot /cedilla
/onesuperior /ordmasculine /guillemotright /onequarter /onehalf
/threequarters /questiondown /Agrave /Aacute /Acircumflex
/Atilde /Adieresis /Aring /AE /Ccedilla
/Egrave /Eacute /Ecircumflex /Edieresis /Igrave
/Iacute /Icircumflex /Idieresis /Eth /Ntilde
/Ograve /Oacute /Ocircumflex /Otilde /Odieresis
/multiply /Oslash /Ugrave /Uacute /Ucircumflex
/Udieresis /Yacute /Thorn /germandbls /agrave
/aacute /acircumflex /atilde /adieresis /aring
/ae /ccedilla /egrave /eacute /ecircumflex
/edieresis /igrave /iacute /icircumflex /idieresis
/eth /ntilde /ograve /oacute /ocircumflex
/otilde /odieresis /divide /oslash /ugrave
/uacute /ucircumflex /udieresis /yacute /thorn
/ydieresis
] def
%%EndResource
%FOPBeginFontReencode
/Courier-Bold findfont
dup length dict begin
  {1 index /FID ne {def} {pop pop} ifelse} forall
  /Encoding WinAnsiEncoding def
  currentdict
end
/Courier-Bold exch definefont pop
/Helvetica findfont
dup length dict begin
  {1 index /FID ne {def} {pop pop} ifelse} forall
  /Encoding WinAnsiEncoding def
  currentdict
end
/Helvetica exch definefont pop
/Courier-BoldOblique findfont
dup length dict begin
  {1 index /FID ne {def} {pop pop} ifelse} forall
  /Encoding WinAnsiEncoding def
  currentdict
end
/Courier-BoldOblique exch definefont pop
/Courier-Oblique findfont
dup length dict begin
  {1 index /FID ne {def} {pop pop} ifelse} forall
  /Encoding WinAnsiEncoding def
  currentdict
end
/Courier-Oblique exch definefont pop
/Times-Roman findfont
dup length dict begin
  {1 index /FID ne {def} {pop pop} ifelse} forall
  /Encoding WinAnsiEncoding def
  currentdict
end
/Times-Roman exch definefont pop
/Helvetica-BoldOblique findfont
dup length dict begin
  {1 index /FID ne {def} {pop pop} ifelse} forall
  /Encoding WinAnsiEncoding def
  currentdict
end
/Helvetica-BoldOblique exch definefont pop
/Helvetica-Bold findfont
dup length dict begin
  {1 index /FID ne {def} {pop pop} ifelse} forall
  /Encoding WinAnsiEncoding def
  currentdict
end
/Helvetica-Bold exch definefont pop
/Helvetica-Oblique findfont
dup length dict begin
  {1 index /FID ne {def} {pop pop} ifelse} forall
  /Encoding WinAnsiEncoding def
  currentdict
end
/Helvetica-Oblique exch definefont pop
/Times-BoldItalic findfont
dup length dict begin
  {1 index /FID ne {def} {pop pop} ifelse} forall
  /Encoding WinAnsiEncoding def
  currentdict
end
/Times-BoldItalic exch definefont pop
/Courier findfont
dup length dict begin
  {1 index /FID ne {def} {pop pop} ifelse} forall
  /Encoding WinAnsiEncoding def
  currentdict
end
/Courier exch definefont pop
/Times-Italic findfont
dup length dict begin
  {1 index /FID ne {def} {pop pop} ifelse} forall
  /Encoding WinAnsiEncoding def
  currentdict
end
/Times-Italic exch definefont pop
/Times-Bold findfont
dup length dict begin
  {1 index /FID ne {def} {pop pop} ifelse} forall
  /Encoding WinAnsiEncoding def
  currentdict
end
/Times-Bold exch definefont pop
%FOPEndFontReencode
%%EndProlog
%%Page: 1 1
%%PageBoundingBox: 0 0 576 432
%%BeginPageSetup
[1 0 0 -1 0 432] CT
%%EndPageSetup
GS
[0.75 0 0 0.75 0 0] CT
0.997 GC
N
0 0 768 576 re
f
GR
GS
[0.75 0 0 0.75 0 0] CT
0.997 GC
N
0 0 768 576 re
f
GR
GS
[0.75 0 0 0.75 0 0] CT
0.997 GC
N
100 513 M
695 513 L
695 43 L
100 43 L
cp
f
GR
GS
[0.75 0 0 0.75 0 0] CT
0 GC
2 setlinecap
1 LJ
0.667 LW
N
100 513 M
695 513 L
S
GR
GS
[0.75 0 0 0.75 0 0] CT
0 GC
2 setlinecap
1 LJ
0.667 LW
N
100 513 M
100 507.05 L
S
GR
GS
[0.75 0 0 0.75 0 0] CT
0 GC
2 setlinecap
1 LJ
0.667 LW
N
159.5 513 M
159.5 507.05 L
S
GR
GS
[0.75 0 0 0.75 0 0] CT
0 GC
2 setlinecap
1 LJ
0.667 LW
N
219 513 M
219 507.05 L
S
GR
GS
[0.75 0 0 0.75 0 0] CT
0 GC
2 setlinecap
1 LJ
0.667 LW
N
278.5 513 M
278.5 507.05 L
S
GR
GS
[0.75 0 0 0.75 0 0] CT
0 GC
2 setlinecap
1 LJ
0.667 LW
N
338 513 M
338 507.05 L
S
GR
GS
[0.75 0 0 0.75 0 0] CT
0 GC
2 setlinecap
1 LJ
0.667 LW
N
397.5 513 M
397.5 507.05 L
S
GR
GS
[0.75 0 0 0.75 0 0] CT
0 GC
2 setlinecap
1 LJ
0.667 LW
N
457 513 M
457 507.05 L
S
GR
GS
[0.75 0 0 0.75 0 0] CT
0 GC
2 setlinecap
1 LJ
0.667 LW
N
516.5 513 M
516.5 507.05 L
S
GR
GS
[0.75 0 0 0.75 0 0] CT
0 GC
2 setlinecap
1 LJ
0.667 LW
N
576 513 M
576 507.05 L
S
GR
GS
[0.75 0 0 0.75 0 0] CT
0 GC
2 setlinecap
1 LJ
0.667 LW
N
635.5 513 M
635.5 507.05 L
S
GR
GS
[0.75 0 0 0.75 0 0] CT
0 GC
2 setlinecap
1 LJ
0.667 LW
N
695 513 M
695 507.05 L
S
GR
GS
[0.75 0 0 0.75 75 388.74998] CT
0 GC
/Helvetica 13 F
GS
[1 0 0 1 0 0] CT
-4.5 13 moveto 
1 -1 scale
(1) t 
GR
GR
GS
[0.75 0 0 0.75 119.62501 388.74998] CT
0 GC
/Helvetica 13 F
GS
[1 0 0 1 0 0] CT
-10.5 13 moveto 
1 -1 scale
(1.1) t 
GR
GR
GS
[0.75 0 0 0.75 164.25002 388.74998] CT
0 GC
/Helvetica 13 F
GS
[1 0 0 1 0 0] CT
-10.5 13 moveto 
1 -1 scale
(1.2) t 
GR
GR
GS
[0.75 0 0 0.75 208.87498 388.74998] CT
0 GC
/Helvetica 13 F
GS
[1 0 0 1 0 0] CT
-10.5 13 moveto 
1 -1 scale
(1.3) t 
GR
GR
GS
[0.75 0 0 0.75 253.5 388.74998] CT
0 GC
/Helvetica 13 F
GS
[1 0 0 1 0 0] CT
-10.5 13 moveto 
1 -1 scale
(1.4) t 
GR
GR
GS
[0.75 0 0 0.75 298.125 388.74998] CT
0 GC
/Helvetica 13 F
GS
[1 0 0 1 0 0] CT
-10.5 13 moveto 
1 -1 scale
(1.5) t 
GR
GR
GS
[0.75 0 0 0.75 342.75 388.74998] CT
0 GC
/Helvetica 13 F
GS
[1 0 0 1 0 0] CT
-10.5 13 moveto 
1 -1 scale
(1.6) t 
GR
GR
GS
[0.75 0 0 0.75 387.375 388.74998] CT
0 GC
/Helvetica 13 F
GS
[1 0 0 1 0 0] CT
-10.5 13 moveto 
1 -1 scale
(1.7) t 
GR
GR
GS
[0.75 0 0 0.75 432 388.74998] CT
0 GC
/Helvetica 13 F
GS
[1 0 0 1 0 0] CT
-10.5 13 moveto 
1 -1 scale
(1.8) t 
GR
GR
GS
[0.75 0 0 0.75 476.625 388.74998] CT
0 GC
/Helvetica 13 F
GS
[1 0 0 1 0 0] CT
-10.5 13 moveto 
1 -1 scale
(1.9) t 
GR
GR
GS
[0.75 0 0 0.75 521.25 388.74998] CT
0 GC
/Helvetica 13 F
GS
[1 0 0 1 0 0] CT
-4.5 13 moveto 
1 -1 scale
(2) t 
GR
GR
GS
[0.75 0 0 0.75 298.12521 402.50002] CT
0 GC
/Helvetica 15 F
GS
[1 0 0 1 0 0] CT
-58 14 moveto 
1 -1 scale
(Volume \(Liters\)) t 
GR
GR
GS
[0.75 0 0 0.75 0 0] CT
0 GC
2 setlinecap
1 LJ
0.667 LW
N
100 513 M
100 43 L
S
GR
GS
[0.75 0 0 0.75 0 0] CT
0 GC
2 setlinecap
1 LJ
0.667 LW
N
100 513 M
105.95 513 L
S
GR
GS
[0.75 0 0 0.75 0 0] CT
0 GC
2 setlinecap
1 LJ
0.667 LW
N
100 454.25 M
105.95 454.25 L
S
GR
GS
[0.75 0 0 0.75 0 0] CT
0 GC
2 setlinecap
1 LJ
0.667 LW
N
100 395.5 M
105.95 395.5 L
S
GR
GS
[0.75 0 0 0.75 0 0] CT
0 GC
2 setlinecap
1 LJ
0.667 LW
N
100 336.75 M
105.95 336.75 L
S
GR
GS
[0.75 0 0 0.75 0 0] CT
0 GC
2 setlinecap
1 LJ
0.667 LW
N
100 278 M
105.95 278 L
S
GR
GS
[0.75 0 0 0.75 0 0] CT
0 GC
2 setlinecap
1 LJ
0.667 LW
N
100 219.25 M
105.95 219.25 L
S
GR
GS
[0.75 0 0 0.75 0 0] CT
0 GC
2 setlinecap
1 LJ
0.667 LW
N
100 160.5 M
105.95 160.5 L
S
GR
GS
[0.75 0 0 0.75 0 0] CT
0 GC
2 setlinecap
1 LJ
0.667 LW
N
100 101.75 M
105.95 101.75 L
S
GR
GS
[0.75 0 0 0.75 0 0] CT
0 GC
2 setlinecap
1 LJ
0.667 LW
N
100 43 M
105.95 43 L
S
GR
GS
[0.75 0 0 0.75 71 384.75] CT
0 GC
/Helvetica 13 F
GS
[1 0 0 1 0 0] CT
-17 4.5 moveto 
1 -1 scale
(10) t 
GR
GR
GS
[0.75 0 0 0.75 71 340.6875] CT
0 GC
/Helvetica 13 F
GS
[1 0 0 1 0 0] CT
-17 4.5 moveto 
1 -1 scale
(12) t 
GR
GR
GS
[0.75 0 0 0.75 71 296.625] CT
0 GC
/Helvetica 13 F
GS
[1 0 0 1 0 0] CT
-17 4.5 moveto 
1 -1 scale
(14) t 
GR
GR
GS
[0.75 0 0 0.75 71 252.5625] CT
0 GC
/Helvetica 13 F
GS
[1 0 0 1 0 0] CT
-17 4.5 moveto 
1 -1 scale
(16) t 
GR
GR
GS
[0.75 0 0 0.75 71 208.5] CT
0 GC
/Helvetica 13 F
GS
[1 0 0 1 0 0] CT
-17 4.5 moveto 
1 -1 scale
(18) t 
GR
GR
GS
[0.75 0 0 0.75 71 164.4375] CT
0 GC
/Helvetica 13 F
GS
[1 0 0 1 0 0] CT
-17 4.5 moveto 
1 -1 scale
(20) t 
GR
GR
GS
[0.75 0 0 0.75 71 120.375] CT
0 GC
/Helvetica 13 F
GS
[1 0 0 1 0 0] CT
-17 4.5 moveto 
1 -1 scale
(22) t 
GR
GR
GS
[0.75 0 0 0.75 71 76.3125] CT
0 GC
/Helvetica 13 F
GS
[1 0 0 1 0 0] CT
-17 4.5 moveto 
1 -1 scale
(24) t 
GR
GR
GS
[0.75 0 0 0.75 71 32.25] CT
0 GC
/Helvetica 13 F
GS
[1 0 0 1 0 0] CT
-17 4.5 moveto 
1 -1 scale
(26) t 
GR
GR
GS
[0 -0.75 0.75 0 55.25 208.49984] CT
0 GC
/Helvetica 15 F
GS
[1 0 0 1 0 0] CT
-90.5 -4 moveto 
1 -1 scale
(Pressure \(Atmospheres\)) t 
GR
GR
GS
[0.75 0 0 0.75 298.12527 30.18751] CT
0 GC
/Helvetica-Bold 15 F
GS
[1 0 0 1 0 0] CT
-242 -4 moveto 
1 -1 scale
(Pressure and Volume of Non-Ideal Gases at 300K \(th174\)) t 
GR
GR
GS
[0.75 0 0 0.75 0 0] CT
0 GC
1 LJ
0.667 LW
N
100 67.043 M
102.99 70.826 L
105.98 74.571 L
108.97 78.277 L
111.96 81.946 L
114.95 85.579 L
117.94 89.175 L
120.93 92.736 L
123.92 96.261 L
126.91 99.752 L
129.899 103.208 L
132.889 106.631 L
135.879 110.021 L
138.869 113.378 L
141.859 116.703 L
144.849 119.996 L
147.839 123.258 L
150.829 126.489 L
153.819 129.69 L
156.809 132.861 L
159.799 136.002 L
162.789 139.114 L
165.779 142.197 L
168.769 145.252 L
171.759 148.279 L
174.749 151.278 L
177.739 154.251 L
180.729 157.196 L
183.719 160.115 L
186.709 163.007 L
189.698 165.874 L
192.688 168.716 L
195.678 171.532 L
198.668 174.324 L
201.658 177.091 L
204.648 179.835 L
207.638 182.554 L
210.628 185.25 L
213.618 187.922 L
216.608 190.572 L
219.598 193.199 L
222.588 195.804 L
225.578 198.387 L
228.568 200.948 L
231.558 203.488 L
234.548 206.006 L
237.538 208.504 L
240.528 210.981 L
243.518 213.437 L
246.508 215.873 L
S
GR
GS
[0.75 0 0 0.75 0 0] CT
0 GC
1 LJ
0.667 LW
N
243.518 213.437 M
246.508 215.873 L
249.497 218.29 L
252.487 220.686 L
255.477 223.063 L
258.467 225.421 L
261.457 227.76 L
264.447 230.08 L
267.437 232.382 L
270.427 234.666 L
273.417 236.931 L
276.407 239.178 L
279.397 241.408 L
282.387 243.62 L
285.377 245.816 L
288.367 247.994 L
291.357 250.155 L
294.347 252.299 L
297.337 254.427 L
300.327 256.539 L
303.317 258.635 L
306.307 260.715 L
309.297 262.779 L
312.286 264.827 L
315.276 266.861 L
318.266 268.878 L
321.256 270.881 L
324.246 272.869 L
327.236 274.843 L
330.226 276.802 L
333.216 278.746 L
336.206 280.676 L
339.196 282.593 L
342.186 284.495 L
345.176 286.383 L
348.166 288.258 L
351.156 290.12 L
354.146 291.968 L
357.136 293.803 L
360.126 295.625 L
363.116 297.434 L
366.106 299.23 L
369.095 301.014 L
372.085 302.785 L
375.075 304.544 L
378.065 306.29 L
381.055 308.025 L
384.045 309.747 L
387.035 311.458 L
390.025 313.157 L
393.015 314.844 L
396.005 316.52 L
S
GR
GS
[0.75 0 0 0.75 0 0] CT
0 GC
1 LJ
0.667 LW
N
393.015 314.844 M
396.005 316.52 L
398.995 318.184 L
401.985 319.837 L
404.975 321.479 L
407.965 323.11 L
410.955 324.73 L
413.945 326.339 L
416.935 327.938 L
419.925 329.526 L
422.915 331.103 L
425.905 332.67 L
428.894 334.227 L
431.884 335.773 L
434.874 337.309 L
437.864 338.836 L
440.854 340.352 L
443.844 341.859 L
446.834 343.356 L
449.824 344.844 L
452.814 346.321 L
455.804 347.79 L
458.794 349.249 L
461.784 350.699 L
464.774 352.14 L
467.764 353.571 L
470.754 354.994 L
473.744 356.408 L
476.734 357.813 L
479.724 359.209 L
482.714 360.596 L
485.703 361.975 L
488.693 363.346 L
491.683 364.708 L
494.673 366.062 L
497.663 367.407 L
500.653 368.744 L
503.643 370.073 L
506.633 371.394 L
509.623 372.708 L
512.613 374.013 L
515.603 375.31 L
518.593 376.6 L
521.583 377.882 L
524.573 379.156 L
527.563 380.423 L
530.553 381.682 L
533.543 382.934 L
536.533 384.179 L
539.523 385.416 L
542.513 386.646 L
545.503 387.869 L
S
GR
GS
[0.75 0 0 0.75 0 0] CT
0 GC
1 LJ
0.667 LW
N
542.513 386.646 M
545.503 387.869 L
548.492 389.084 L
551.482 390.293 L
554.472 391.495 L
557.462 392.69 L
560.452 393.878 L
563.442 395.059 L
566.432 396.233 L
569.422 397.401 L
572.412 398.562 L
575.402 399.717 L
578.392 400.865 L
581.382 402.006 L
584.372 403.141 L
587.362 404.27 L
590.352 405.393 L
593.342 406.509 L
596.332 407.619 L
599.322 408.723 L
602.312 409.821 L
605.302 410.913 L
608.292 411.999 L
611.281 413.079 L
614.271 414.153 L
617.261 415.221 L
620.251 416.283 L
623.241 417.34 L
626.231 418.391 L
629.221 419.436 L
632.211 420.476 L
635.201 421.51 L
638.191 422.538 L
641.181 423.561 L
644.171 424.579 L
647.161 425.591 L
650.151 426.598 L
653.141 427.6 L
656.131 428.596 L
659.121 429.587 L
662.111 430.573 L
665.101 431.554 L
668.09 432.529 L
671.08 433.5 L
674.07 434.466 L
677.06 435.426 L
680.05 436.382 L
683.04 437.333 L
686.03 438.279 L
689.02 439.22 L
692.01 440.156 L
695 441.087 L
S
GR
GS
[0.75 0 0 0.75 0 0] CT
0 GC
1 LJ
0.667 LW
N
692.01 440.156 M
695 441.087 L
S
GR
GS
[0.75 0 0 0.75 0 0] CT
0 GC
1 LJ
0.667 LW
N
100 71.002 M
102.99 74.746 L
105.98 78.452 L
108.97 82.121 L
111.96 85.753 L
114.95 89.349 L
117.94 92.909 L
120.93 96.434 L
123.92 99.924 L
126.91 103.38 L
129.899 106.803 L
132.889 110.192 L
135.879 113.548 L
138.869 116.873 L
141.859 120.166 L
144.849 123.427 L
147.839 126.657 L
150.829 129.857 L
153.819 133.028 L
156.809 136.168 L
159.799 139.279 L
162.789 142.362 L
165.779 145.416 L
168.769 148.443 L
171.759 151.441 L
174.749 154.413 L
177.739 157.358 L
180.729 160.276 L
183.719 163.168 L
186.709 166.034 L
189.698 168.875 L
192.688 171.691 L
195.678 174.482 L
198.668 177.249 L
201.658 179.991 L
204.648 182.71 L
207.638 185.405 L
210.628 188.077 L
213.618 190.727 L
216.608 193.353 L
219.598 195.957 L
222.588 198.54 L
225.578 201.1 L
228.568 203.639 L
231.558 206.157 L
234.548 208.654 L
237.538 211.13 L
240.528 213.586 L
243.518 216.021 L
246.508 218.437 L
S
GR
GS
[0.75 0 0 0.75 0 0] CT
0 GC
1 LJ
0.667 LW
N
243.518 216.021 M
246.508 218.437 L
249.497 220.833 L
252.487 223.209 L
255.477 225.567 L
258.467 227.905 L
261.457 230.225 L
264.447 232.526 L
267.437 234.808 L
270.427 237.073 L
273.417 239.32 L
276.407 241.549 L
279.397 243.761 L
282.387 245.955 L
285.377 248.133 L
288.367 250.293 L
291.357 252.437 L
294.347 254.565 L
297.337 256.676 L
300.327 258.771 L
303.317 260.85 L
306.307 262.914 L
309.297 264.962 L
312.286 266.994 L
315.276 269.011 L
318.266 271.014 L
321.256 273.001 L
324.246 274.974 L
327.236 276.932 L
330.226 278.876 L
333.216 280.806 L
336.206 282.721 L
339.196 284.623 L
342.186 286.511 L
345.176 288.385 L
348.166 290.246 L
351.156 292.094 L
354.146 293.928 L
357.136 295.75 L
360.126 297.558 L
363.116 299.354 L
366.106 301.137 L
369.095 302.908 L
372.085 304.666 L
375.075 306.412 L
378.065 308.146 L
381.055 309.868 L
384.045 311.578 L
387.035 313.276 L
390.025 314.963 L
393.015 316.638 L
396.005 318.302 L
S
GR
GS
[0.75 0 0 0.75 0 0] CT
0 GC
1 LJ
0.667 LW
N
393.015 316.638 M
396.005 318.302 L
398.995 319.954 L
401.985 321.596 L
404.975 323.226 L
407.965 324.846 L
410.955 326.454 L
413.945 328.052 L
416.935 329.64 L
419.925 331.217 L
422.915 332.783 L
425.905 334.339 L
428.894 335.885 L
431.884 337.421 L
434.874 338.947 L
437.864 340.463 L
440.854 341.969 L
443.844 343.466 L
446.834 344.953 L
449.824 346.43 L
452.814 347.898 L
455.804 349.357 L
458.794 350.806 L
461.784 352.246 L
464.774 353.678 L
467.764 355.1 L
470.754 356.513 L
473.744 357.918 L
476.734 359.313 L
479.724 360.7 L
482.714 362.079 L
485.703 363.449 L
488.693 364.81 L
491.683 366.164 L
494.673 367.509 L
497.663 368.846 L
500.653 370.174 L
503.643 371.495 L
506.633 372.808 L
509.623 374.112 L
512.613 375.409 L
515.603 376.698 L
518.593 377.98 L
521.583 379.254 L
524.573 380.52 L
527.563 381.779 L
530.553 383.031 L
533.543 384.275 L
536.533 385.512 L
539.523 386.741 L
542.513 387.964 L
545.503 389.179 L
S
GR
GS
[0.75 0 0 0.75 0 0] CT
0 GC
1 LJ
0.667 LW
N
542.513 387.964 M
545.503 389.179 L
548.492 390.387 L
551.482 391.589 L
554.472 392.783 L
557.462 393.971 L
560.452 395.151 L
563.442 396.325 L
566.432 397.493 L
569.422 398.653 L
572.412 399.808 L
575.402 400.955 L
578.392 402.096 L
581.382 403.231 L
584.372 404.36 L
587.362 405.482 L
590.352 406.598 L
593.342 407.708 L
596.332 408.811 L
599.322 409.909 L
602.312 411 L
605.302 412.086 L
608.292 413.165 L
611.281 414.239 L
614.271 415.307 L
617.261 416.369 L
620.251 417.425 L
623.241 418.475 L
626.231 419.52 L
629.221 420.56 L
632.211 421.593 L
635.201 422.622 L
638.191 423.644 L
641.181 424.662 L
644.171 425.673 L
647.161 426.68 L
650.151 427.681 L
653.141 428.677 L
656.131 429.668 L
659.121 430.654 L
662.111 431.634 L
665.101 432.61 L
668.09 433.58 L
671.08 434.545 L
674.07 435.505 L
677.06 436.461 L
680.05 437.411 L
683.04 438.357 L
686.03 439.298 L
689.02 440.234 L
692.01 441.165 L
695 442.091 L
S
GR
GS
[0.75 0 0 0.75 0 0] CT
0 GC
1 LJ
0.667 LW
N
692.01 441.165 M
695 442.091 L
S
GR
GS
[0.75 0 0 0.75 0 0] CT
0 GC
1 LJ
0.667 LW
N
100 99.795 M
102.99 103.253 L
105.98 106.677 L
108.97 110.068 L
111.96 113.427 L
114.95 116.753 L
117.94 120.047 L
120.93 123.31 L
123.92 126.543 L
126.91 129.744 L
129.899 132.916 L
132.889 136.058 L
135.879 139.171 L
138.869 142.255 L
141.859 145.311 L
144.849 148.339 L
147.839 151.339 L
150.829 154.312 L
153.819 157.258 L
156.809 160.178 L
159.799 163.071 L
162.789 165.939 L
165.779 168.781 L
168.769 171.598 L
171.759 174.39 L
174.749 177.158 L
177.739 179.902 L
180.729 182.622 L
183.719 185.318 L
186.709 187.991 L
189.698 190.642 L
192.688 193.269 L
195.678 195.875 L
198.668 198.458 L
201.658 201.019 L
204.648 203.559 L
207.638 206.078 L
210.628 208.576 L
213.618 211.053 L
216.608 213.51 L
219.598 215.946 L
222.588 218.363 L
225.578 220.76 L
228.568 223.137 L
231.558 225.495 L
234.548 227.834 L
237.538 230.155 L
240.528 232.457 L
243.518 234.74 L
246.508 237.006 L
S
GR
GS
[0.75 0 0 0.75 0 0] CT
0 GC
1 LJ
0.667 LW
N
243.518 234.74 M
246.508 237.006 L
249.497 239.253 L
252.487 241.483 L
255.477 243.696 L
258.467 245.891 L
261.457 248.069 L
264.447 250.23 L
267.437 252.375 L
270.427 254.503 L
273.417 256.615 L
276.407 258.711 L
279.397 260.791 L
282.387 262.855 L
285.377 264.903 L
288.367 266.937 L
291.357 268.955 L
294.347 270.958 L
297.337 272.946 L
300.327 274.919 L
303.317 276.878 L
306.307 278.822 L
309.297 280.753 L
312.286 282.669 L
315.276 284.571 L
318.266 286.46 L
321.256 288.334 L
324.246 290.196 L
327.236 292.044 L
330.226 293.879 L
333.216 295.701 L
336.206 297.51 L
339.196 299.306 L
342.186 301.089 L
345.176 302.86 L
348.166 304.619 L
351.156 306.365 L
354.146 308.1 L
357.136 309.822 L
360.126 311.533 L
363.116 313.231 L
366.106 314.919 L
369.095 316.594 L
372.085 318.259 L
375.075 319.912 L
378.065 321.553 L
381.055 323.184 L
384.045 324.804 L
387.035 326.413 L
390.025 328.011 L
393.015 329.599 L
396.005 331.176 L
S
GR
GS
[0.75 0 0 0.75 0 0] CT
0 GC
1 LJ
0.667 LW
N
393.015 329.599 M
396.005 331.176 L
398.995 332.743 L
401.985 334.3 L
404.975 335.846 L
407.965 337.382 L
410.955 338.909 L
413.945 340.425 L
416.935 341.932 L
419.925 343.428 L
422.915 344.916 L
425.905 346.393 L
428.894 347.862 L
431.884 349.321 L
434.874 350.77 L
437.864 352.211 L
440.854 353.643 L
443.844 355.065 L
446.834 356.479 L
449.824 357.883 L
452.814 359.279 L
455.804 360.667 L
458.794 362.046 L
461.784 363.416 L
464.774 364.778 L
467.764 366.131 L
470.754 367.476 L
473.744 368.814 L
476.734 370.142 L
479.724 371.463 L
482.714 372.776 L
485.703 374.081 L
488.693 375.379 L
491.683 376.668 L
494.673 377.95 L
497.663 379.224 L
500.653 380.491 L
503.643 381.75 L
506.633 383.001 L
509.623 384.246 L
512.613 385.483 L
515.603 386.713 L
518.593 387.935 L
521.583 389.151 L
524.573 390.359 L
527.563 391.561 L
530.553 392.755 L
533.543 393.943 L
536.533 395.124 L
539.523 396.299 L
542.513 397.466 L
545.503 398.627 L
S
GR
GS
[0.75 0 0 0.75 0 0] CT
0 GC
1 LJ
0.667 LW
N
542.513 397.466 M
545.503 398.627 L
548.492 399.781 L
551.482 400.929 L
554.472 402.071 L
557.462 403.206 L
560.452 404.334 L
563.442 405.457 L
566.432 406.573 L
569.422 407.683 L
572.412 408.786 L
575.402 409.884 L
578.392 410.976 L
581.382 412.061 L
584.372 413.141 L
587.362 414.215 L
590.352 415.283 L
593.342 416.345 L
596.332 417.401 L
599.322 418.452 L
602.312 419.497 L
605.302 420.537 L
608.292 421.571 L
611.281 422.599 L
614.271 423.622 L
617.261 424.639 L
620.251 425.651 L
623.241 426.658 L
626.231 427.66 L
629.221 428.656 L
632.211 429.647 L
635.201 430.632 L
638.191 431.613 L
641.181 432.588 L
644.171 433.559 L
647.161 434.524 L
650.151 435.485 L
653.141 436.44 L
656.131 437.391 L
659.121 438.337 L
662.111 439.277 L
665.101 440.214 L
668.09 441.145 L
671.08 442.072 L
674.07 442.993 L
677.06 443.911 L
680.05 444.823 L
683.04 445.731 L
686.03 446.635 L
689.02 447.534 L
692.01 448.429 L
695 449.319 L
S
GR
GS
[0.75 0 0 0.75 0 0] CT
0 GC
1 LJ
0.667 LW
N
692.01 448.429 M
695 449.319 L
S
GR
GS
[0.75 0 0 0.75 0 0] CT
0 GC
1 LJ
0.667 LW
N
100 156.797 M
102.99 159.689 L
105.98 162.557 L
108.97 165.399 L
111.96 168.217 L
114.95 171.01 L
117.94 173.779 L
120.93 176.525 L
123.92 179.247 L
126.91 181.946 L
129.899 184.622 L
132.889 187.276 L
135.879 189.907 L
138.869 192.516 L
141.859 195.104 L
144.849 197.67 L
147.839 200.214 L
150.829 202.738 L
153.819 205.241 L
156.809 207.724 L
159.799 210.187 L
162.789 212.629 L
165.779 215.052 L
168.769 217.455 L
171.759 219.839 L
174.749 222.204 L
177.739 224.55 L
180.729 226.878 L
183.719 229.187 L
186.709 231.478 L
189.698 233.751 L
192.688 236.007 L
195.678 238.245 L
198.668 240.465 L
201.658 242.669 L
204.648 244.855 L
207.638 247.025 L
210.628 249.178 L
213.618 251.315 L
216.608 253.436 L
219.598 255.54 L
222.588 257.629 L
225.578 259.702 L
228.568 261.76 L
231.558 263.802 L
234.548 265.83 L
237.538 267.842 L
240.528 269.84 L
243.518 271.822 L
246.508 273.791 L
S
GR
GS
[0.75 0 0 0.75 0 0] CT
0 GC
1 LJ
0.667 LW
N
243.518 271.822 M
246.508 273.791 L
249.497 275.745 L
252.487 277.685 L
255.477 279.611 L
258.467 281.523 L
261.457 283.421 L
264.447 285.306 L
267.437 287.177 L
270.427 289.035 L
273.417 290.88 L
276.407 292.711 L
279.397 294.53 L
282.387 296.337 L
285.377 298.13 L
288.367 299.911 L
291.357 301.68 L
294.347 303.437 L
297.337 305.181 L
300.327 306.914 L
303.317 308.634 L
306.307 310.343 L
309.297 312.04 L
312.286 313.726 L
315.276 315.401 L
318.266 317.064 L
321.256 318.716 L
324.246 320.357 L
327.236 321.987 L
330.226 323.606 L
333.216 325.214 L
336.206 326.812 L
339.196 328.399 L
342.186 329.976 L
345.176 331.543 L
348.166 333.099 L
351.156 334.646 L
354.146 336.182 L
357.136 337.708 L
360.126 339.225 L
363.116 340.732 L
366.106 342.229 L
369.095 343.717 L
372.085 345.195 L
375.075 346.664 L
378.065 348.124 L
381.055 349.574 L
384.045 351.015 L
387.035 352.448 L
390.025 353.871 L
393.015 355.286 L
396.005 356.691 L
S
GR
GS
[0.75 0 0 0.75 0 0] CT
0 GC
1 LJ
0.667 LW
N
393.015 355.286 M
396.005 356.691 L
398.995 358.088 L
401.985 359.477 L
404.975 360.857 L
407.965 362.228 L
410.955 363.592 L
413.945 364.946 L
416.935 366.293 L
419.925 367.631 L
422.915 368.962 L
425.905 370.284 L
428.894 371.599 L
431.884 372.905 L
434.874 374.204 L
437.864 375.495 L
440.854 376.779 L
443.844 378.055 L
446.834 379.323 L
449.824 380.584 L
452.814 381.837 L
455.804 383.084 L
458.794 384.323 L
461.784 385.554 L
464.774 386.779 L
467.764 387.996 L
470.754 389.207 L
473.744 390.411 L
476.734 391.607 L
479.724 392.797 L
482.714 393.98 L
485.703 395.157 L
488.693 396.326 L
491.683 397.489 L
494.673 398.646 L
497.663 399.796 L
500.653 400.94 L
503.643 402.077 L
506.633 403.208 L
509.623 404.332 L
512.613 405.451 L
515.603 406.563 L
518.593 407.669 L
521.583 408.769 L
524.573 409.863 L
527.563 410.951 L
530.553 412.033 L
533.543 413.11 L
536.533 414.18 L
539.523 415.245 L
542.513 416.303 L
545.503 417.357 L
S
GR
GS
[0.75 0 0 0.75 0 0] CT
0 GC
1 LJ
0.667 LW
N
542.513 416.303 M
545.503 417.357 L
548.492 418.404 L
551.482 419.446 L
554.472 420.482 L
557.462 421.513 L
560.452 422.539 L
563.442 423.559 L
566.432 424.573 L
569.422 425.582 L
572.412 426.586 L
575.402 427.585 L
578.392 428.578 L
581.382 429.567 L
584.372 430.55 L
587.362 431.528 L
590.352 432.501 L
593.342 433.469 L
596.332 434.432 L
599.322 435.39 L
602.312 436.343 L
605.302 437.291 L
608.292 438.235 L
611.281 439.174 L
614.271 440.108 L
617.261 441.037 L
620.251 441.961 L
623.241 442.881 L
626.231 443.796 L
629.221 444.707 L
632.211 445.613 L
635.201 446.515 L
638.191 447.412 L
641.181 448.305 L
644.171 449.193 L
647.161 450.077 L
650.151 450.956 L
653.141 451.832 L
656.131 452.703 L
659.121 453.569 L
662.111 454.432 L
665.101 455.29 L
668.09 456.144 L
671.08 456.994 L
674.07 457.84 L
677.06 458.682 L
680.05 459.52 L
683.04 460.354 L
686.03 461.183 L
689.02 462.009 L
692.01 462.831 L
695 463.649 L
S
GR
GS
[0.75 0 0 0.75 0 0] CT
0 GC
1 LJ
0.667 LW
N
692.01 462.831 M
695 463.649 L
S
GR
GS
[0.75 0 0 0.75 0 0] CT
0 GC
1 LJ
0.667 LW
N
100 231.179 M
102.99 233.335 L
105.98 235.477 L
108.97 237.604 L
111.96 239.718 L
114.95 241.817 L
117.94 243.902 L
120.93 245.974 L
123.92 248.031 L
126.91 250.075 L
129.899 252.105 L
132.889 254.122 L
135.879 256.126 L
138.869 258.116 L
141.859 260.094 L
144.849 262.058 L
147.839 264.009 L
150.829 265.948 L
153.819 267.874 L
156.809 269.787 L
159.799 271.688 L
162.789 273.576 L
165.779 275.452 L
168.769 277.316 L
171.759 279.168 L
174.749 281.008 L
177.739 282.836 L
180.729 284.652 L
183.719 286.457 L
186.709 288.25 L
189.698 290.032 L
192.688 291.802 L
195.678 293.561 L
198.668 295.309 L
201.658 297.045 L
204.648 298.771 L
207.638 300.485 L
210.628 302.189 L
213.618 303.883 L
216.608 305.565 L
219.598 307.237 L
222.588 308.899 L
225.578 310.55 L
228.568 312.191 L
231.558 313.821 L
234.548 315.442 L
237.538 317.052 L
240.528 318.653 L
243.518 320.244 L
246.508 321.825 L
S
GR
GS
[0.75 0 0 0.75 0 0] CT
0 GC
1 LJ
0.667 LW
N
243.518 320.244 M
246.508 321.825 L
249.497 323.396 L
252.487 324.958 L
255.477 326.51 L
258.467 328.052 L
261.457 329.586 L
264.447 331.11 L
267.437 332.624 L
270.427 334.13 L
273.417 335.627 L
276.407 337.114 L
279.397 338.593 L
282.387 340.063 L
285.377 341.524 L
288.367 342.976 L
291.357 344.42 L
294.347 345.855 L
297.337 347.281 L
300.327 348.7 L
303.317 350.11 L
306.307 351.511 L
309.297 352.905 L
312.286 354.29 L
315.276 355.667 L
318.266 357.036 L
321.256 358.397 L
324.246 359.751 L
327.236 361.096 L
330.226 362.434 L
333.216 363.764 L
336.206 365.086 L
339.196 366.401 L
342.186 367.709 L
345.176 369.009 L
348.166 370.301 L
351.156 371.586 L
354.146 372.864 L
357.136 374.135 L
360.126 375.399 L
363.116 376.655 L
366.106 377.904 L
369.095 379.147 L
372.085 380.382 L
375.075 381.611 L
378.065 382.833 L
381.055 384.048 L
384.045 385.256 L
387.035 386.458 L
390.025 387.653 L
393.015 388.842 L
396.005 390.024 L
S
GR
GS
[0.75 0 0 0.75 0 0] CT
0 GC
1 LJ
0.667 LW
N
393.015 388.842 M
396.005 390.024 L
398.995 391.199 L
401.985 392.368 L
404.975 393.531 L
407.965 394.688 L
410.955 395.838 L
413.945 396.982 L
416.935 398.12 L
419.925 399.252 L
422.915 400.377 L
425.905 401.497 L
428.894 402.611 L
431.884 403.718 L
434.874 404.82 L
437.864 405.916 L
440.854 407.007 L
443.844 408.091 L
446.834 409.17 L
449.824 410.243 L
452.814 411.311 L
455.804 412.372 L
458.794 413.429 L
461.784 414.48 L
464.774 415.525 L
467.764 416.565 L
470.754 417.6 L
473.744 418.629 L
476.734 419.653 L
479.724 420.672 L
482.714 421.686 L
485.703 422.694 L
488.693 423.698 L
491.683 424.696 L
494.673 425.689 L
497.663 426.677 L
500.653 427.66 L
503.643 428.638 L
506.633 429.611 L
509.623 430.58 L
512.613 431.543 L
515.603 432.502 L
518.593 433.456 L
521.583 434.405 L
524.573 435.35 L
527.563 436.289 L
530.553 437.225 L
533.543 438.155 L
536.533 439.081 L
539.523 440.003 L
542.513 440.919 L
545.503 441.832 L
S
GR
GS
[0.75 0 0 0.75 0 0] CT
0 GC
1 LJ
0.667 LW
N
542.513 440.919 M
545.503 441.832 L
548.492 442.74 L
551.482 443.644 L
554.472 444.543 L
557.462 445.438 L
560.452 446.328 L
563.442 447.215 L
566.432 448.097 L
569.422 448.974 L
572.412 449.848 L
575.402 450.717 L
578.392 451.583 L
581.382 452.444 L
584.372 453.301 L
587.362 454.154 L
590.352 455.003 L
593.342 455.848 L
596.332 456.689 L
599.322 457.526 L
602.312 458.359 L
605.302 459.188 L
608.292 460.014 L
611.281 460.835 L
614.271 461.653 L
617.261 462.467 L
620.251 463.277 L
623.241 464.084 L
626.231 464.886 L
629.221 465.685 L
632.211 466.481 L
635.201 467.273 L
638.191 468.061 L
641.181 468.845 L
644.171 469.626 L
647.161 470.404 L
650.151 471.178 L
653.141 471.948 L
656.131 472.715 L
659.121 473.479 L
662.111 474.239 L
665.101 474.995 L
668.09 475.749 L
671.08 476.499 L
674.07 477.245 L
677.06 477.989 L
680.05 478.729 L
683.04 479.465 L
686.03 480.199 L
689.02 480.929 L
692.01 481.656 L
695 482.38 L
S
GR
GS
[0.75 0 0 0.75 0 0] CT
0 GC
1 LJ
0.667 LW
N
692.01 481.656 M
695 482.38 L
S
GR
GS
[0.75 0 0 0.75 0 0] CT
0 GC
1 LJ
0.667 LW
N
100 223.474 M
102.99 225.698 L
105.98 227.907 L
108.97 230.1 L
111.96 232.279 L
114.95 234.442 L
117.94 236.591 L
120.93 238.725 L
123.92 240.845 L
126.91 242.95 L
129.899 245.04 L
132.889 247.117 L
135.879 249.179 L
138.869 251.228 L
141.859 253.263 L
144.849 255.284 L
147.839 257.291 L
150.829 259.285 L
153.819 261.266 L
156.809 263.233 L
159.799 265.187 L
162.789 267.128 L
165.779 269.057 L
168.769 270.972 L
171.759 272.875 L
174.749 274.765 L
177.739 276.643 L
180.729 278.509 L
183.719 280.362 L
186.709 282.203 L
189.698 284.032 L
192.688 285.849 L
195.678 287.655 L
198.668 289.448 L
201.658 291.23 L
204.648 293.001 L
207.638 294.76 L
210.628 296.507 L
213.618 298.244 L
216.608 299.969 L
219.598 301.683 L
222.588 303.387 L
225.578 305.079 L
228.568 306.761 L
231.558 308.432 L
234.548 310.093 L
237.538 311.743 L
240.528 313.383 L
243.518 315.013 L
246.508 316.632 L
S
GR
GS
[0.75 0 0 0.75 0 0] CT
0 GC
1 LJ
0.667 LW
N
243.518 315.013 M
246.508 316.632 L
249.497 318.241 L
252.487 319.84 L
255.477 321.429 L
258.467 323.009 L
261.457 324.578 L
264.447 326.138 L
267.437 327.689 L
270.427 329.229 L
273.417 330.761 L
276.407 332.283 L
279.397 333.796 L
282.387 335.299 L
285.377 336.793 L
288.367 338.279 L
291.357 339.755 L
294.347 341.223 L
297.337 342.681 L
300.327 344.131 L
303.317 345.573 L
306.307 347.005 L
309.297 348.429 L
312.286 349.845 L
315.276 351.252 L
318.266 352.651 L
321.256 354.042 L
324.246 355.425 L
327.236 356.799 L
330.226 358.166 L
333.216 359.524 L
336.206 360.875 L
339.196 362.217 L
342.186 363.552 L
345.176 364.879 L
348.166 366.199 L
351.156 367.511 L
354.146 368.815 L
357.136 370.112 L
360.126 371.402 L
363.116 372.684 L
366.106 373.959 L
369.095 375.227 L
372.085 376.487 L
375.075 377.741 L
378.065 378.987 L
381.055 380.226 L
384.045 381.459 L
387.035 382.684 L
390.025 383.903 L
393.015 385.115 L
396.005 386.32 L
S
GR
GS
[0.75 0 0 0.75 0 0] CT
0 GC
1 LJ
0.667 LW
N
393.015 385.115 M
396.005 386.32 L
398.995 387.519 L
401.985 388.711 L
404.975 389.896 L
407.965 391.075 L
410.955 392.247 L
413.945 393.413 L
416.935 394.573 L
419.925 395.726 L
422.915 396.873 L
425.905 398.014 L
428.894 399.149 L
431.884 400.277 L
434.874 401.4 L
437.864 402.516 L
440.854 403.627 L
443.844 404.731 L
446.834 405.83 L
449.824 406.923 L
452.814 408.01 L
455.804 409.091 L
458.794 410.167 L
461.784 411.237 L
464.774 412.301 L
467.764 413.36 L
470.754 414.413 L
473.744 415.461 L
476.734 416.503 L
479.724 417.54 L
482.714 418.572 L
485.703 419.598 L
488.693 420.619 L
491.683 421.634 L
494.673 422.645 L
497.663 423.65 L
500.653 424.65 L
503.643 425.645 L
506.633 426.635 L
509.623 427.62 L
512.613 428.6 L
515.603 429.575 L
518.593 430.545 L
521.583 431.51 L
524.573 432.471 L
527.563 433.426 L
530.553 434.377 L
533.543 435.323 L
536.533 436.265 L
539.523 437.202 L
542.513 438.134 L
545.503 439.061 L
S
GR
GS
[0.75 0 0 0.75 0 0] CT
0 GC
1 LJ
0.667 LW
N
542.513 438.134 M
545.503 439.061 L
548.492 439.984 L
551.482 440.903 L
554.472 441.816 L
557.462 442.726 L
560.452 443.631 L
563.442 444.532 L
566.432 445.428 L
569.422 446.32 L
572.412 447.207 L
575.402 448.091 L
578.392 448.97 L
581.382 449.845 L
584.372 450.715 L
587.362 451.582 L
590.352 452.444 L
593.342 453.302 L
596.332 454.156 L
599.322 455.007 L
602.312 455.853 L
605.302 456.695 L
608.292 457.533 L
611.281 458.367 L
614.271 459.197 L
617.261 460.024 L
620.251 460.846 L
623.241 461.665 L
626.231 462.48 L
629.221 463.291 L
632.211 464.099 L
635.201 464.902 L
638.191 465.702 L
641.181 466.499 L
644.171 467.291 L
647.161 468.08 L
650.151 468.866 L
653.141 469.648 L
656.131 470.426 L
659.121 471.201 L
662.111 471.972 L
665.101 472.74 L
668.09 473.504 L
671.08 474.265 L
674.07 475.022 L
677.06 475.776 L
680.05 476.527 L
683.04 477.274 L
686.03 478.018 L
689.02 478.759 L
692.01 479.496 L
695 480.231 L
S
GR
GS
[0.75 0 0 0.75 0 0] CT
0 GC
1 LJ
0.667 LW
N
692.01 479.496 M
695 480.231 L
S
GR
GS
[0.75 0 0 0.75 0 0] CT
0 GC
1 LJ
N
96 67.5 M
105 67.5 L
S
GR
GS
[0.75 0 0 0.75 0 0] CT
0 GC
1 LJ
N
100.5 72 M
100.5 63 L
S
GR
GS
[0.75 0 0 0.75 0 0] CT
0 GC
1 LJ
N
131 110.5 M
140 110.5 L
S
GR
GS
[0.75 0 0 0.75 0 0] CT
0 GC
1 LJ
N
135.5 115 M
135.5 106 L
S
GR
GS
[0.75 0 0 0.75 0 0] CT
0 GC
1 LJ
N
167 148.5 M
176 148.5 L
S
GR
GS
[0.75 0 0 0.75 0 0] CT
0 GC
1 LJ
N
171.5 153 M
171.5 144 L
S
GR
GS
[0.75 0 0 0.75 0 0] CT
0 GC
1 LJ
N
203 182.5 M
212 182.5 L
S
GR
GS
[0.75 0 0 0.75 0 0] CT
0 GC
1 LJ
N
207.5 187 M
207.5 178 L
S
GR
GS
[0.75 0 0 0.75 0 0] CT
0 GC
1 LJ
N
239 213.5 M
248 213.5 L
S
GR
GS
[0.75 0 0 0.75 0 0] CT
0 GC
1 LJ
N
243.5 218 M
243.5 209 L
S
GR
GS
[0.75 0 0 0.75 0 0] CT
0 GC
1 LJ
N
275 241.5 M
284 241.5 L
S
GR
GS
[0.75 0 0 0.75 0 0] CT
0 GC
1 LJ
N
279.5 246 M
279.5 237 L
S
GR
GS
[0.75 0 0 0.75 0 0] CT
0 GC
1 LJ
N
311 266.5 M
320 266.5 L
S
GR
GS
[0.75 0 0 0.75 0 0] CT
0 GC
1 LJ
N
315.5 271 M
315.5 262 L
S
GR
GS
[0.75 0 0 0.75 0 0] CT
0 GC
1 LJ
N
347 290.5 M
356 290.5 L
S
GR
GS
[0.75 0 0 0.75 0 0] CT
0 GC
1 LJ
N
351.5 295 M
351.5 286 L
S
GR
GS
[0.75 0 0 0.75 0 0] CT
0 GC
1 LJ
N
383 311.5 M
392 311.5 L
S
GR
GS
[0.75 0 0 0.75 0 0] CT
0 GC
1 LJ
N
387.5 316 M
387.5 307 L
S
GR
GS
[0.75 0 0 0.75 0 0] CT
0 GC
1 LJ
N
418 331.5 M
427 331.5 L
S
GR
GS
[0.75 0 0 0.75 0 0] CT
0 GC
1 LJ
N
422.5 336 M
422.5 327 L
S
GR
GS
[0.75 0 0 0.75 0 0] CT
0 GC
1 LJ
N
454 349.5 M
463 349.5 L
S
GR
GS
[0.75 0 0 0.75 0 0] CT
0 GC
1 LJ
N
458.5 354 M
458.5 345 L
S
GR
GS
[0.75 0 0 0.75 0 0] CT
0 GC
1 LJ
N
490 366.5 M
499 366.5 L
S
GR
GS
[0.75 0 0 0.75 0 0] CT
0 GC
1 LJ
N
494.5 371 M
494.5 362 L
S
GR
GS
[0.75 0 0 0.75 0 0] CT
0 GC
1 LJ
N
526 381.5 M
535 381.5 L
S
GR
GS
[0.75 0 0 0.75 0 0] CT
0 GC
1 LJ
N
530.5 386 M
530.5 377 L
S
GR
GS
[0.75 0 0 0.75 0 0] CT
0 GC
1 LJ
N
562 396.5 M
571 396.5 L
S
GR
GS
[0.75 0 0 0.75 0 0] CT
0 GC
1 LJ
N
566.5 401 M
566.5 392 L
S
GR
GS
[0.75 0 0 0.75 0 0] CT
0 GC
1 LJ
N
598 409.5 M
607 409.5 L
S
GR
GS
[0.75 0 0 0.75 0 0] CT
0 GC
1 LJ
N
602.5 414 M
602.5 405 L
S
GR
GS
[0.75 0 0 0.75 0 0] CT
0 GC
1 LJ
N
634 422.5 M
643 422.5 L
S
GR
GS
[0.75 0 0 0.75 0 0] CT
0 GC
1 LJ
N
638.5 427 M
638.5 418 L
S
GR
GS
[0.75 0 0 0.75 0 0] CT
0 GC
1 LJ
N
670 434.5 M
679 434.5 L
S
GR
GS
[0.75 0 0 0.75 0 0] CT
0 GC
1 LJ
N
674.5 439 M
674.5 430 L
S
GR
GS
[0.75 0 0 0.75 0 0] CT
0 GC
1 LJ
N
104.5 71.5 M
103.736 69.149 L
101.736 67.696 L
99.264 67.696 L
97.264 69.149 L
96.5 71.5 L
97.264 73.851 L
99.264 75.304 L
101.736 75.304 L
103.736 73.851 L
cp
S
GR
GS
[0.75 0 0 0.75 0 0] CT
0 GC
1 LJ
N
139.5 113.5 M
138.736 111.149 L
136.736 109.696 L
134.264 109.696 L
132.264 111.149 L
131.5 113.5 L
132.264 115.851 L
134.264 117.304 L
136.736 117.304 L
138.736 115.851 L
cp
S
GR
GS
[0.75 0 0 0.75 0 0] CT
0 GC
1 LJ
N
175.5 151.5 M
174.736 149.149 L
172.736 147.696 L
170.264 147.696 L
168.264 149.149 L
167.5 151.5 L
168.264 153.851 L
170.264 155.304 L
172.736 155.304 L
174.736 153.851 L
cp
S
GR
GS
[0.75 0 0 0.75 0 0] CT
0 GC
1 LJ
N
211.5 185.5 M
210.736 183.149 L
208.736 181.696 L
206.264 181.696 L
204.264 183.149 L
203.5 185.5 L
204.264 187.851 L
206.264 189.304 L
208.736 189.304 L
210.736 187.851 L
cp
S
GR
GS
[0.75 0 0 0.75 0 0] CT
0 GC
1 LJ
N
247.5 216.5 M
246.736 214.149 L
244.736 212.696 L
242.264 212.696 L
240.264 214.149 L
239.5 216.5 L
240.264 218.851 L
242.264 220.304 L
244.736 220.304 L
246.736 218.851 L
cp
S
GR
GS
[0.75 0 0 0.75 0 0] CT
0 GC
1 LJ
N
283.5 243.5 M
282.736 241.149 L
280.736 239.696 L
278.264 239.696 L
276.264 241.149 L
275.5 243.5 L
276.264 245.851 L
278.264 247.304 L
280.736 247.304 L
282.736 245.851 L
cp
S
GR
GS
[0.75 0 0 0.75 0 0] CT
0 GC
1 LJ
N
319.5 269.5 M
318.736 267.149 L
316.736 265.696 L
314.264 265.696 L
312.264 267.149 L
311.5 269.5 L
312.264 271.851 L
314.264 273.304 L
316.736 273.304 L
318.736 271.851 L
cp
S
GR
GS
[0.75 0 0 0.75 0 0] CT
0 GC
1 LJ
N
355.5 292.5 M
354.736 290.149 L
352.736 288.696 L
350.264 288.696 L
348.264 290.149 L
347.5 292.5 L
348.264 294.851 L
350.264 296.304 L
352.736 296.304 L
354.736 294.851 L
cp
S
GR
GS
[0.75 0 0 0.75 0 0] CT
0 GC
1 LJ
N
391.5 313.5 M
390.736 311.149 L
388.736 309.696 L
386.264 309.696 L
384.264 311.149 L
383.5 313.5 L
384.264 315.851 L
386.264 317.304 L
388.736 317.304 L
390.736 315.851 L
cp
S
GR
GS
[0.75 0 0 0.75 0 0] CT
0 GC
1 LJ
N
426.5 332.5 M
425.736 330.149 L
423.736 328.696 L
421.264 328.696 L
419.264 330.149 L
418.5 332.5 L
419.264 334.851 L
421.264 336.304 L
423.736 336.304 L
425.736 334.851 L
cp
S
GR
GS
[0.75 0 0 0.75 0 0] CT
0 GC
1 LJ
N
462.5 350.5 M
461.736 348.149 L
459.736 346.696 L
457.264 346.696 L
455.264 348.149 L
454.5 350.5 L
455.264 352.851 L
457.264 354.304 L
459.736 354.304 L
461.736 352.851 L
cp
S
GR
GS
[0.75 0 0 0.75 0 0] CT
0 GC
1 LJ
N
498.5 367.5 M
497.736 365.149 L
495.736 363.696 L
493.264 363.696 L
491.264 365.149 L
490.5 367.5 L
491.264 369.851 L
493.264 371.304 L
495.736 371.304 L
497.736 369.851 L
cp
S
GR
GS
[0.75 0 0 0.75 0 0] CT
0 GC
1 LJ
N
534.5 383.5 M
533.736 381.149 L
531.736 379.696 L
529.264 379.696 L
527.264 381.149 L
526.5 383.5 L
527.264 385.851 L
529.264 387.304 L
531.736 387.304 L
533.736 385.851 L
cp
S
GR
GS
[0.75 0 0 0.75 0 0] CT
0 GC
1 LJ
N
570.5 397.5 M
569.736 395.149 L
567.736 393.696 L
565.264 393.696 L
563.264 395.149 L
562.5 397.5 L
563.264 399.851 L
565.264 401.304 L
567.736 401.304 L
569.736 399.851 L
cp
S
GR
GS
[0.75 0 0 0.75 0 0] CT
0 GC
1 LJ
N
606.5 411.5 M
605.736 409.149 L
603.736 407.696 L
601.264 407.696 L
599.264 409.149 L
598.5 411.5 L
599.264 413.851 L
601.264 415.304 L
603.736 415.304 L
605.736 413.851 L
cp
S
GR
GS
[0.75 0 0 0.75 0 0] CT
0 GC
1 LJ
N
642.5 423.5 M
641.736 421.149 L
639.736 419.696 L
637.264 419.696 L
635.264 421.149 L
634.5 423.5 L
635.264 425.851 L
637.264 427.304 L
639.736 427.304 L
641.736 425.851 L
cp
S
GR
GS
[0.75 0 0 0.75 0 0] CT
0 GC
1 LJ
N
678.5 435.5 M
677.736 433.149 L
675.736 431.696 L
673.264 431.696 L
671.264 433.149 L
670.5 435.5 L
671.264 437.851 L
673.264 439.304 L
675.736 439.304 L
677.736 437.851 L
cp
S
GR
GS
[0.75 0 0 0.75 0 0] CT
0 GC
10.0 ML
N
96.696 98.264 M
99.56 98.264 L
100.5 95.5 L
101.44 98.264 L
104.304 98.264 L
102.022 99.994 L
102.851 102.736 L
100.5 101.1 L
98.149 102.736 L
98.978 99.994 L
cp
S
GR
GS
[0.75 0 0 0.75 0 0] CT
0 GC
10.0 ML
N
131.696 138.264 M
134.56 138.264 L
135.5 135.5 L
136.44 138.264 L
139.304 138.264 L
137.022 139.994 L
137.851 142.736 L
135.5 141.1 L
133.149 142.736 L
133.978 139.994 L
cp
S
GR
GS
[0.75 0 0 0.75 0 0] CT
0 GC
10.0 ML
N
167.696 173.264 M
170.56 173.264 L
171.5 170.5 L
172.44 173.264 L
175.304 173.264 L
173.022 174.994 L
173.851 177.736 L
171.5 176.1 L
169.149 177.736 L
169.978 174.994 L
cp
S
GR
GS
[0.75 0 0 0.75 0 0] CT
0 GC
10.0 ML
N
203.696 205.264 M
206.56 205.264 L
207.5 202.5 L
208.44 205.264 L
211.304 205.264 L
209.022 206.994 L
209.851 209.736 L
207.5 208.1 L
205.149 209.736 L
205.978 206.994 L
cp
S
GR
GS
[0.75 0 0 0.75 0 0] CT
0 GC
10.0 ML
N
239.696 233.264 M
242.56 233.264 L
243.5 230.5 L
244.44 233.264 L
247.304 233.264 L
245.022 234.994 L
245.851 237.736 L
243.5 236.1 L
241.149 237.736 L
241.978 234.994 L
cp
S
GR
GS
[0.75 0 0 0.75 0 0] CT
0 GC
10.0 ML
N
275.696 259.264 M
278.56 259.264 L
279.5 256.5 L
280.44 259.264 L
283.304 259.264 L
281.022 260.994 L
281.851 263.736 L
279.5 262.1 L
277.149 263.736 L
277.978 260.994 L
cp
S
GR
GS
[0.75 0 0 0.75 0 0] CT
0 GC
10.0 ML
N
311.696 283.264 M
314.56 283.264 L
315.5 280.5 L
316.44 283.264 L
319.304 283.264 L
317.022 284.994 L
317.851 287.736 L
315.5 286.1 L
313.149 287.736 L
313.978 284.994 L
cp
S
GR
GS
[0.75 0 0 0.75 0 0] CT
0 GC
10.0 ML
N
347.696 305.264 M
350.56 305.264 L
351.5 302.5 L
352.44 305.264 L
355.304 305.264 L
353.022 306.994 L
353.851 309.736 L
351.5 308.1 L
349.149 309.736 L
349.978 306.994 L
cp
S
GR
GS
[0.75 0 0 0.75 0 0] CT
0 GC
10.0 ML
N
383.696 325.264 M
386.56 325.264 L
387.5 322.5 L
388.44 325.264 L
391.304 325.264 L
389.022 326.994 L
389.851 329.736 L
387.5 328.1 L
385.149 329.736 L
385.978 326.994 L
cp
S
GR
GS
[0.75 0 0 0.75 0 0] CT
0 GC
10.0 ML
N
418.696 343.264 M
421.56 343.264 L
422.5 340.5 L
423.44 343.264 L
426.304 343.264 L
424.022 344.994 L
424.851 347.736 L
422.5 346.1 L
420.149 347.736 L
420.978 344.994 L
cp
S
GR
GS
[0.75 0 0 0.75 0 0] CT
0 GC
10.0 ML
N
454.696 361.264 M
457.56 361.264 L
458.5 358.5 L
459.44 361.264 L
462.304 361.264 L
460.022 362.994 L
460.851 365.736 L
458.5 364.1 L
456.149 365.736 L
456.978 362.994 L
cp
S
GR
GS
[0.75 0 0 0.75 0 0] CT
0 GC
10.0 ML
N
490.696 376.264 M
493.56 376.264 L
494.5 373.5 L
495.44 376.264 L
498.304 376.264 L
496.022 377.994 L
496.851 380.736 L
494.5 379.1 L
492.149 380.736 L
492.978 377.994 L
cp
S
GR
GS
[0.75 0 0 0.75 0 0] CT
0 GC
10.0 ML
N
526.696 391.264 M
529.56 391.264 L
530.5 388.5 L
531.44 391.264 L
534.304 391.264 L
532.022 392.994 L
532.851 395.736 L
530.5 394.1 L
528.149 395.736 L
528.978 392.994 L
cp
S
GR
GS
[0.75 0 0 0.75 0 0] CT
0 GC
10.0 ML
N
562.696 405.264 M
565.56 405.264 L
566.5 402.5 L
567.44 405.264 L
570.304 405.264 L
568.022 406.994 L
568.851 409.736 L
566.5 408.1 L
564.149 409.736 L
564.978 406.994 L
cp
S
GR
GS
[0.75 0 0 0.75 0 0] CT
0 GC
10.0 ML
N
598.696 418.264 M
601.56 418.264 L
602.5 415.5 L
603.44 418.264 L
606.304 418.264 L
604.022 419.994 L
604.851 422.736 L
602.5 421.1 L
600.149 422.736 L
600.978 419.994 L
cp
S
GR
GS
[0.75 0 0 0.75 0 0] CT
0 GC
10.0 ML
N
634.696 430.264 M
637.56 430.264 L
638.5 427.5 L
639.44 430.264 L
642.304 430.264 L
640.022 431.994 L
640.851 434.736 L
638.5 433.1 L
636.149 434.736 L
636.978 431.994 L
cp
S
GR
GS
[0.75 0 0 0.75 0 0] CT
0 GC
10.0 ML
N
670.696 441.264 M
673.56 441.264 L
674.5 438.5 L
675.44 441.264 L
678.304 441.264 L
676.022 442.994 L
676.851 445.736 L
674.5 444.1 L
672.149 445.736 L
672.978 442.994 L
cp
S
GR
GS
[0.75 0 0 0.75 0 0] CT
0 GC
1 LJ
N
96 156.5 M
105 156.5 L
S
GR
GS
[0.75 0 0 0.75 0 0] CT
0 GC
1 LJ
N
100.5 161 M
100.5 152 L
S
GR
GS
[0.75 0 0 0.75 0 0] CT
0 GC
1 LJ
N
97 160 M
104 153 L
S
GR
GS
[0.75 0 0 0.75 0 0] CT
0 GC
1 LJ
N
97 153 M
104 160 L
S
GR
GS
[0.75 0 0 0.75 0 0] CT
0 GC
1 LJ
N
131 189.5 M
140 189.5 L
S
GR
GS
[0.75 0 0 0.75 0 0] CT
0 GC
1 LJ
N
135.5 194 M
135.5 185 L
S
GR
GS
[0.75 0 0 0.75 0 0] CT
0 GC
1 LJ
N
132 193 M
139 186 L
S
GR
GS
[0.75 0 0 0.75 0 0] CT
0 GC
1 LJ
N
132 186 M
139 193 L
S
GR
GS
[0.75 0 0 0.75 0 0] CT
0 GC
1 LJ
N
167 219.5 M
176 219.5 L
S
GR
GS
[0.75 0 0 0.75 0 0] CT
0 GC
1 LJ
N
171.5 224 M
171.5 215 L
S
GR
GS
[0.75 0 0 0.75 0 0] CT
0 GC
1 LJ
N
168 223 M
175 216 L
S
GR
GS
[0.75 0 0 0.75 0 0] CT
0 GC
1 LJ
N
168 216 M
175 223 L
S
GR
GS
[0.75 0 0 0.75 0 0] CT
0 GC
1 LJ
N
203 247.5 M
212 247.5 L
S
GR
GS
[0.75 0 0 0.75 0 0] CT
0 GC
1 LJ
N
207.5 252 M
207.5 243 L
S
GR
GS
[0.75 0 0 0.75 0 0] CT
0 GC
1 LJ
N
204 251 M
211 244 L
S
GR
GS
[0.75 0 0 0.75 0 0] CT
0 GC
1 LJ
N
204 244 M
211 251 L
S
GR
GS
[0.75 0 0 0.75 0 0] CT
0 GC
1 LJ
N
239 271.5 M
248 271.5 L
S
GR
GS
[0.75 0 0 0.75 0 0] CT
0 GC
1 LJ
N
243.5 276 M
243.5 267 L
S
GR
GS
[0.75 0 0 0.75 0 0] CT
0 GC
1 LJ
N
240 275 M
247 268 L
S
GR
GS
[0.75 0 0 0.75 0 0] CT
0 GC
1 LJ
N
240 268 M
247 275 L
S
GR
GS
[0.75 0 0 0.75 0 0] CT
0 GC
1 LJ
N
275 294.5 M
284 294.5 L
S
GR
GS
[0.75 0 0 0.75 0 0] CT
0 GC
1 LJ
N
279.5 299 M
279.5 290 L
S
GR
GS
[0.75 0 0 0.75 0 0] CT
0 GC
1 LJ
N
276 298 M
283 291 L
S
GR
GS
[0.75 0 0 0.75 0 0] CT
0 GC
1 LJ
N
276 291 M
283 298 L
S
GR
GS
[0.75 0 0 0.75 0 0] CT
0 GC
1 LJ
N
311 315.5 M
320 315.5 L
S
GR
GS
[0.75 0 0 0.75 0 0] CT
0 GC
1 LJ
N
315.5 320 M
315.5 311 L
S
GR
GS
[0.75 0 0 0.75 0 0] CT
0 GC
1 LJ
N
312 319 M
319 312 L
S
GR
GS
[0.75 0 0 0.75 0 0] CT
0 GC
1 LJ
N
312 312 M
319 319 L
S
GR
GS
[0.75 0 0 0.75 0 0] CT
0 GC
1 LJ
N
347 334.5 M
356 334.5 L
S
GR
GS
[0.75 0 0 0.75 0 0] CT
0 GC
1 LJ
N
351.5 339 M
351.5 330 L
S
GR
GS
[0.75 0 0 0.75 0 0] CT
0 GC
1 LJ
N
348 338 M
355 331 L
S
GR
GS
[0.75 0 0 0.75 0 0] CT
0 GC
1 LJ
N
348 331 M
355 338 L
S
GR
GS
[0.75 0 0 0.75 0 0] CT
0 GC
1 LJ
N
383 352.5 M
392 352.5 L
S
GR
GS
[0.75 0 0 0.75 0 0] CT
0 GC
1 LJ
N
387.5 357 M
387.5 348 L
S
GR
GS
[0.75 0 0 0.75 0 0] CT
0 GC
1 LJ
N
384 356 M
391 349 L
S
GR
GS
[0.75 0 0 0.75 0 0] CT
0 GC
1 LJ
N
384 349 M
391 356 L
S
GR
GS
[0.75 0 0 0.75 0 0] CT
0 GC
1 LJ
N
418 368.5 M
427 368.5 L
S
GR
GS
[0.75 0 0 0.75 0 0] CT
0 GC
1 LJ
N
422.5 373 M
422.5 364 L
S
GR
GS
[0.75 0 0 0.75 0 0] CT
0 GC
1 LJ
N
419 372 M
426 365 L
S
GR
GS
[0.75 0 0 0.75 0 0] CT
0 GC
1 LJ
N
419 365 M
426 372 L
S
GR
GS
[0.75 0 0 0.75 0 0] CT
0 GC
1 LJ
N
454 384.5 M
463 384.5 L
S
GR
GS
[0.75 0 0 0.75 0 0] CT
0 GC
1 LJ
N
458.5 389 M
458.5 380 L
S
GR
GS
[0.75 0 0 0.75 0 0] CT
0 GC
1 LJ
N
455 388 M
462 381 L
S
GR
GS
[0.75 0 0 0.75 0 0] CT
0 GC
1 LJ
N
455 381 M
462 388 L
S
GR
GS
[0.75 0 0 0.75 0 0] CT
0 GC
1 LJ
N
490 398.5 M
499 398.5 L
S
GR
GS
[0.75 0 0 0.75 0 0] CT
0 GC
1 LJ
N
494.5 403 M
494.5 394 L
S
GR
GS
[0.75 0 0 0.75 0 0] CT
0 GC
1 LJ
N
491 402 M
498 395 L
S
GR
GS
[0.75 0 0 0.75 0 0] CT
0 GC
1 LJ
N
491 395 M
498 402 L
S
GR
GS
[0.75 0 0 0.75 0 0] CT
0 GC
1 LJ
N
526 412.5 M
535 412.5 L
S
GR
GS
[0.75 0 0 0.75 0 0] CT
0 GC
1 LJ
N
530.5 417 M
530.5 408 L
S
GR
GS
[0.75 0 0 0.75 0 0] CT
0 GC
1 LJ
N
527 416 M
534 409 L
S
GR
GS
[0.75 0 0 0.75 0 0] CT
0 GC
1 LJ
N
527 409 M
534 416 L
S
GR
GS
[0.75 0 0 0.75 0 0] CT
0 GC
1 LJ
N
562 424.5 M
571 424.5 L
S
GR
GS
[0.75 0 0 0.75 0 0] CT
0 GC
1 LJ
N
566.5 429 M
566.5 420 L
S
GR
GS
[0.75 0 0 0.75 0 0] CT
0 GC
1 LJ
N
563 428 M
570 421 L
S
GR
GS
[0.75 0 0 0.75 0 0] CT
0 GC
1 LJ
N
563 421 M
570 428 L
S
GR
GS
[0.75 0 0 0.75 0 0] CT
0 GC
1 LJ
N
598 436.5 M
607 436.5 L
S
GR
GS
[0.75 0 0 0.75 0 0] CT
0 GC
1 LJ
N
602.5 441 M
602.5 432 L
S
GR
GS
[0.75 0 0 0.75 0 0] CT
0 GC
1 LJ
N
599 440 M
606 433 L
S
GR
GS
[0.75 0 0 0.75 0 0] CT
0 GC
1 LJ
N
599 433 M
606 440 L
S
GR
GS
[0.75 0 0 0.75 0 0] CT
0 GC
1 LJ
N
634 447.5 M
643 447.5 L
S
GR
GS
[0.75 0 0 0.75 0 0] CT
0 GC
1 LJ
N
638.5 452 M
638.5 443 L
S
GR
GS
[0.75 0 0 0.75 0 0] CT
0 GC
1 LJ
N
635 451 M
642 444 L
S
GR
GS
[0.75 0 0 0.75 0 0] CT
0 GC
1 LJ
N
635 444 M
642 451 L
S
GR
GS
[0.75 0 0 0.75 0 0] CT
0 GC
1 LJ
N
670 457.5 M
679 457.5 L
S
GR
GS
[0.75 0 0 0.75 0 0] CT
0 GC
1 LJ
N
674.5 462 M
674.5 453 L
S
GR
GS
[0.75 0 0 0.75 0 0] CT
0 GC
1 LJ
N
671 461 M
678 454 L
S
GR
GS
[0.75 0 0 0.75 0 0] CT
0 GC
1 LJ
N
671 454 M
678 461 L
S
GR
GS
[0.75 0 0 0.75 0 0] CT
0 GC
10.0 ML
N
95.882 234.166 M
105.118 234.166 L
100.5 226.168 L
cp
S
GR
GS
[0.75 0 0 0.75 0 0] CT
0 GC
10.0 ML
N
130.882 259.166 M
140.118 259.166 L
135.5 251.168 L
cp
S
GR
GS
[0.75 0 0 0.75 0 0] CT
0 GC
10.0 ML
N
166.882 282.166 M
176.118 282.166 L
171.5 274.168 L
cp
S
GR
GS
[0.75 0 0 0.75 0 0] CT
0 GC
10.0 ML
N
202.882 303.166 M
212.118 303.166 L
207.5 295.168 L
cp
S
GR
GS
[0.75 0 0 0.75 0 0] CT
0 GC
10.0 ML
N
238.882 323.166 M
248.118 323.166 L
243.5 315.168 L
cp
S
GR
GS
[0.75 0 0 0.75 0 0] CT
0 GC
10.0 ML
N
274.882 341.166 M
284.118 341.166 L
279.5 333.168 L
cp
S
GR
GS
[0.75 0 0 0.75 0 0] CT
0 GC
10.0 ML
N
310.882 358.166 M
320.118 358.166 L
315.5 350.168 L
cp
S
GR
GS
[0.75 0 0 0.75 0 0] CT
0 GC
10.0 ML
N
346.882 374.166 M
356.118 374.166 L
351.5 366.168 L
cp
S
GR
GS
[0.75 0 0 0.75 0 0] CT
0 GC
10.0 ML
N
382.882 389.166 M
392.118 389.166 L
387.5 381.168 L
cp
S
GR
GS
[0.75 0 0 0.75 0 0] CT
0 GC
10.0 ML
N
417.882 403.166 M
427.118 403.166 L
422.5 395.168 L
cp
S
GR
GS
[0.75 0 0 0.75 0 0] CT
0 GC
10.0 ML
N
453.882 416.166 M
463.118 416.166 L
458.5 408.168 L
cp
S
GR
GS
[0.75 0 0 0.75 0 0] CT
0 GC
10.0 ML
N
489.882 428.166 M
499.118 428.166 L
494.5 420.168 L
cp
S
GR
GS
[0.75 0 0 0.75 0 0] CT
0 GC
10.0 ML
N
525.883 440.166 M
535.117 440.166 L
530.5 432.168 L
cp
S
GR
GS
[0.75 0 0 0.75 0 0] CT
0 GC
10.0 ML
N
561.883 451.166 M
571.117 451.166 L
566.5 443.168 L
cp
S
GR
GS
[0.75 0 0 0.75 0 0] CT
0 GC
10.0 ML
N
597.883 461.166 M
607.117 461.166 L
602.5 453.168 L
cp
S
GR
GS
[0.75 0 0 0.75 0 0] CT
0 GC
10.0 ML
N
633.883 471.166 M
643.117 471.166 L
638.5 463.168 L
cp
S
GR
GS
[0.75 0 0 0.75 0 0] CT
0 GC
10.0 ML
N
669.883 480.166 M
679.117 480.166 L
674.5 472.168 L
cp
S
GR
GS
[0.75 0 0 0.75 0 0] CT
0 GC
10.0 ML
N
97.38 226.62 M
97.38 220.38 L
103.62 220.38 L
103.62 226.62 L
cp
S
GR
GS
[0.75 0 0 0.75 0 0] CT
0 GC
10.0 ML
N
132.38 252.62 M
132.38 246.38 L
138.62 246.38 L
138.62 252.62 L
cp
S
GR
GS
[0.75 0 0 0.75 0 0] CT
0 GC
10.0 ML
N
168.38 275.62 M
168.38 269.38 L
174.62 269.38 L
174.62 275.62 L
cp
S
GR
GS
[0.75 0 0 0.75 0 0] CT
0 GC
10.0 ML
N
204.38 297.62 M
204.38 291.38 L
210.62 291.38 L
210.62 297.62 L
cp
S
GR
GS
[0.75 0 0 0.75 0 0] CT
0 GC
10.0 ML
N
240.38 318.62 M
240.38 312.38 L
246.62 312.38 L
246.62 318.62 L
cp
S
GR
GS
[0.75 0 0 0.75 0 0] CT
0 GC
10.0 ML
N
276.38 336.62 M
276.38 330.38 L
282.62 330.38 L
282.62 336.62 L
cp
S
GR
GS
[0.75 0 0 0.75 0 0] CT
0 GC
10.0 ML
N
312.38 354.62 M
312.38 348.38 L
318.62 348.38 L
318.62 354.62 L
cp
S
GR
GS
[0.75 0 0 0.75 0 0] CT
0 GC
10.0 ML
N
348.38 370.62 M
348.38 364.38 L
354.62 364.38 L
354.62 370.62 L
cp
S
GR
GS
[0.75 0 0 0.75 0 0] CT
0 GC
10.0 ML
N
384.38 385.62 M
384.38 379.38 L
390.62 379.38 L
390.62 385.62 L
cp
S
GR
GS
[0.75 0 0 0.75 0 0] CT
0 GC
10.0 ML
N
419.38 399.62 M
419.38 393.38 L
425.62 393.38 L
425.62 399.62 L
cp
S
GR
GS
[0.75 0 0 0.75 0 0] CT
0 GC
10.0 ML
N
455.38 413.62 M
455.38 407.38 L
461.62 407.38 L
461.62 413.62 L
cp
S
GR
GS
[0.75 0 0 0.75 0 0] CT
0 GC
10.0 ML
N
491.38 425.62 M
491.38 419.38 L
497.62 419.38 L
497.62 425.62 L
cp
S
GR
GS
[0.75 0 0 0.75 0 0] CT
0 GC
10.0 ML
N
527.38 437.62 M
527.38 431.38 L
533.62 431.38 L
533.62 437.62 L
cp
S
GR
GS
[0.75 0 0 0.75 0 0] CT
0 GC
10.0 ML
N
563.38 448.62 M
563.38 442.38 L
569.62 442.38 L
569.62 448.62 L
cp
S
GR
GS
[0.75 0 0 0.75 0 0] CT
0 GC
10.0 ML
N
599.38 458.62 M
599.38 452.38 L
605.62 452.38 L
605.62 458.62 L
cp
S
GR
GS
[0.75 0 0 0.75 0 0] CT
0 GC
10.0 ML
N
635.38 468.62 M
635.38 462.38 L
641.62 462.38 L
641.62 468.62 L
cp
S
GR
GS
[0.75 0 0 0.75 0 0] CT
0 GC
10.0 ML
N
671.38 478.62 M
671.38 472.38 L
677.62 472.38 L
677.62 478.62 L
cp
S
GR
GS
[0.75 0 0 0.75 0 0] CT
0.997 GC
N
535 155 M
535 56 L
682 56 L
682 155 L
cp
f
GR
GS
[0.75 0 0 0.75 440.25 49.65076] CT
0 GC
/Helvetica 12 F
GS
[1 0 0 1 0 0] CT
0 4.5 moveto 
1 -1 scale
(Helium) t 
GR
GR
GS
[0.75 0 0 0.75 0 0] CT
0 GC
1 LJ
N
559 66.5 M
568 66.5 L
S
GR
GS
[0.75 0 0 0.75 0 0] CT
0 GC
1 LJ
N
563.5 71 M
563.5 62 L
S
GR
GS
[0.75 0 0 0.75 440.25 61.44046] CT
0 GC
/Helvetica 12 F
GS
[1 0 0 1 0 0] CT
0 4.5 moveto 
1 -1 scale
(Hydrogen) t 
GR
GR
GS
[0.75 0 0 0.75 0 0] CT
0 GC
1 LJ
N
567.5 81.5 M
566.736 79.149 L
564.736 77.696 L
562.264 77.696 L
560.264 79.149 L
559.5 81.5 L
560.264 83.851 L
562.264 85.304 L
564.736 85.304 L
566.736 83.851 L
cp
S
GR
GS
[0.75 0 0 0.75 440.25 73.23015] CT
0 GC
/Helvetica 12 F
GS
[1 0 0 1 0 0] CT
0 4.5 moveto 
1 -1 scale
(Oxygen) t 
GR
GR
GS
[0.75 0 0 0.75 0 0] CT
0 GC
10.0 ML
N
559.696 96.264 M
562.56 96.264 L
563.5 93.5 L
564.44 96.264 L
567.304 96.264 L
565.022 97.994 L
565.851 100.736 L
563.5 99.1 L
561.149 100.736 L
561.978 97.994 L
cp
S
GR
GS
[0.75 0 0 0.75 440.25 85.01985] CT
0 GC
/Helvetica 12 F
GS
[1 0 0 1 0 0] CT
0 4.5 moveto 
1 -1 scale
(Carbon dioxide) t 
GR
GR
GS
[0.75 0 0 0.75 0 0] CT
0 GC
1 LJ
N
559 113.5 M
568 113.5 L
S
GR
GS
[0.75 0 0 0.75 0 0] CT
0 GC
1 LJ
N
563.5 118 M
563.5 109 L
S
GR
GS
[0.75 0 0 0.75 0 0] CT
0 GC
1 LJ
N
560 117 M
567 110 L
S
GR
GS
[0.75 0 0 0.75 0 0] CT
0 GC
1 LJ
N
560 110 M
567 117 L
S
GR
GS
[0.75 0 0 0.75 440.25 96.80954] CT
0 GC
/Helvetica 12 F
GS
[1 0 0 1 0 0] CT
0 4.5 moveto 
1 -1 scale
(Chlorine) t 
GR
GR
GS
[0.75 0 0 0.75 0 0] CT
0 GC
10.0 ML
N
558.883 132.166 M
568.117 132.166 L
563.5 124.168 L
cp
S
GR
GS
[0.75 0 0 0.75 440.25 108.59924] CT
0 GC
/Helvetica 12 F
GS
[1 0 0 1 0 0] CT
0 4.5 moveto 
1 -1 scale
(Water vapour) t 
GR
GR
GS
[0.75 0 0 0.75 0 0] CT
0 GC
10.0 ML
N
560.38 147.62 M
560.38 141.38 L
566.62 141.38 L
566.62 147.62 L
cp
S
GR
GS
[0.75 0 0 0.75 0 0] CT
0 GC
10.0 ML
0.667 LW
N
535 155 M
535 56 L
682 56 L
682 155 L
cp
S
GR
%%Trailer
%%Pages: 1
%%EOF
