%!PS-Adobe-3.0 EPSF-3.0
%%Creator: (MATLAB, The Mathworks, Inc. Version 8.6.0.267246 \(R2015b\). Operating System: Linux)
%%Title: ./SingPlots.eps
%%CreationDate: 2015-09-18T23:07:13
%%Pages: (atend)
%%BoundingBox:    38    16   525   418
%%LanguageLevel: 3
%%EndComments
%%BeginProlog
%%BeginResource: procset (Apache XML Graphics Std ProcSet) 1.2 0
%%Version: 1.2 0
%%Copyright: (Copyright 2001-2003,2010 The Apache Software Foundation. License terms: http://www.apache.org/licenses/LICENSE-2.0)
/bd{bind def}bind def
/ld{load def}bd
/GR/grestore ld
/M/moveto ld
/LJ/setlinejoin ld
/C/curveto ld
/f/fill ld
/LW/setlinewidth ld
/GC/setgray ld
/t/show ld
/N/newpath ld
/CT/concat ld
/cp/closepath ld
/S/stroke ld
/L/lineto ld
/CC/setcmykcolor ld
/A/ashow ld
/GS/gsave ld
/RC/setrgbcolor ld
/RM/rmoveto ld
/ML/setmiterlimit ld
/re {4 2 roll M
1 index 0 rlineto
0 exch rlineto
neg 0 rlineto
cp } bd
/_ctm matrix def
/_tm matrix def
/BT { _ctm currentmatrix pop matrix _tm copy pop 0 0 moveto } bd
/ET { _ctm setmatrix } bd
/iTm { _ctm setmatrix _tm concat } bd
/Tm { _tm astore pop iTm 0 0 moveto } bd
/ux 0.0 def
/uy 0.0 def
/F {
  /Tp exch def
  /Tf exch def
  Tf findfont Tp scalefont setfont
  /cf Tf def  /cs Tp def
} bd
/ULS {currentpoint /uy exch def /ux exch def} bd
/ULE {
  /Tcx currentpoint pop def
  gsave
  newpath
  cf findfont cs scalefont dup
  /FontMatrix get 0 get /Ts exch def /FontInfo get dup
  /UnderlinePosition get Ts mul /To exch def
  /UnderlineThickness get Ts mul /Tt exch def
  ux uy To add moveto  Tcx uy To add lineto
  Tt setlinewidth stroke
  grestore
} bd
/OLE {
  /Tcx currentpoint pop def
  gsave
  newpath
  cf findfont cs scalefont dup
  /FontMatrix get 0 get /Ts exch def /FontInfo get dup
  /UnderlinePosition get Ts mul /To exch def
  /UnderlineThickness get Ts mul /Tt exch def
  ux uy To add cs add moveto Tcx uy To add cs add lineto
  Tt setlinewidth stroke
  grestore
} bd
/SOE {
  /Tcx currentpoint pop def
  gsave
  newpath
  cf findfont cs scalefont dup
  /FontMatrix get 0 get /Ts exch def /FontInfo get dup
  /UnderlinePosition get Ts mul /To exch def
  /UnderlineThickness get Ts mul /Tt exch def
  ux uy To add cs 10 mul 26 idiv add moveto Tcx uy To add cs 10 mul 26 idiv add lineto
  Tt setlinewidth stroke
  grestore
} bd
/QT {
/Y22 exch store
/X22 exch store
/Y21 exch store
/X21 exch store
currentpoint
/Y21 load 2 mul add 3 div exch
/X21 load 2 mul add 3 div exch
/X21 load 2 mul /X22 load add 3 div
/Y21 load 2 mul /Y22 load add 3 div
/X22 load /Y22 load curveto
} bd
/SSPD {
dup length /d exch dict def
{
/v exch def
/k exch def
currentpagedevice k known {
/cpdv currentpagedevice k get def
v cpdv ne {
/upd false def
/nullv v type /nulltype eq def
/nullcpdv cpdv type /nulltype eq def
nullv nullcpdv or
{
/upd true def
} {
/sametype v type cpdv type eq def
sametype {
v type /arraytype eq {
/vlen v length def
/cpdvlen cpdv length def
vlen cpdvlen eq {
0 1 vlen 1 sub {
/i exch def
/obj v i get def
/cpdobj cpdv i get def
obj cpdobj ne {
/upd true def
exit
} if
} for
} {
/upd true def
} ifelse
} {
v type /dicttype eq {
v {
/dv exch def
/dk exch def
/cpddv cpdv dk get def
dv cpddv ne {
/upd true def
exit
} if
} forall
} {
/upd true def
} ifelse
} ifelse
} if
} ifelse
upd true eq {
d k v put
} if
} if
} if
} forall
d length 0 gt {
d setpagedevice
} if
} bd
%%EndResource
%%BeginResource: procset (Apache XML Graphics EPS ProcSet) 1.0 0
%%Version: 1.0 0
%%Copyright: (Copyright 2002-2003 The Apache Software Foundation. License terms: http://www.apache.org/licenses/LICENSE-2.0)
/BeginEPSF { %def
/b4_Inc_state save def         % Save state for cleanup
/dict_count countdictstack def % Count objects on dict stack
/op_count count 1 sub def      % Count objects on operand stack
userdict begin                 % Push userdict on dict stack
/showpage { } def              % Redefine showpage, { } = null proc
0 setgray 0 setlinecap         % Prepare graphics state
1 setlinewidth 0 setlinejoin
10 setmiterlimit [ ] 0 setdash newpath
/languagelevel where           % If level not equal to 1 then
{pop languagelevel             % set strokeadjust and
1 ne                           % overprint to their defaults.
{false setstrokeadjust false setoverprint
} if
} if
} bd
/EndEPSF { %def
count op_count sub {pop} repeat            % Clean up stacks
countdictstack dict_count sub {end} repeat
b4_Inc_state restore
} bd
%%EndResource
%FOPBeginFontDict
%%IncludeResource: font Courier-Bold
%%IncludeResource: font Helvetica
%%IncludeResource: font Courier-BoldOblique
%%IncludeResource: font Courier-Oblique
%%IncludeResource: font Times-Roman
%%IncludeResource: font Helvetica-BoldOblique
%%IncludeResource: font Helvetica-Bold
%%IncludeResource: font Helvetica-Oblique
%%IncludeResource: font Times-BoldItalic
%%IncludeResource: font Courier
%%IncludeResource: font Times-Italic
%%IncludeResource: font Times-Bold
%%IncludeResource: font Symbol
%%IncludeResource: font ZapfDingbats
%FOPEndFontDict
%%BeginResource: encoding WinAnsiEncoding
/WinAnsiEncoding [
/.notdef /.notdef /.notdef /.notdef /.notdef
/.notdef /.notdef /.notdef /.notdef /.notdef
/.notdef /.notdef /.notdef /.notdef /.notdef
/.notdef /.notdef /.notdef /.notdef /.notdef
/.notdef /.notdef /.notdef /.notdef /.notdef
/.notdef /.notdef /.notdef /.notdef /.notdef
/.notdef /.notdef /space /exclam /quotedbl
/numbersign /dollar /percent /ampersand /quotesingle
/parenleft /parenright /asterisk /plus /comma
/hyphen /period /slash /zero /one
/two /three /four /five /six
/seven /eight /nine /colon /semicolon
/less /equal /greater /question /at
/A /B /C /D /E
/F /G /H /I /J
/K /L /M /N /O
/P /Q /R /S /T
/U /V /W /X /Y
/Z /bracketleft /backslash /bracketright /asciicircum
/underscore /quoteleft /a /b /c
/d /e /f /g /h
/i /j /k /l /m
/n /o /p /q /r
/s /t /u /v /w
/x /y /z /braceleft /bar
/braceright /asciitilde /bullet /Euro /bullet
/quotesinglbase /florin /quotedblbase /ellipsis /dagger
/daggerdbl /circumflex /perthousand /Scaron /guilsinglleft
/OE /bullet /Zcaron /bullet /bullet
/quoteleft /quoteright /quotedblleft /quotedblright /bullet
/endash /emdash /asciitilde /trademark /scaron
/guilsinglright /oe /bullet /zcaron /Ydieresis
/space /exclamdown /cent /sterling /currency
/yen /brokenbar /section /dieresis /copyright
/ordfeminine /guillemotleft /logicalnot /sfthyphen /registered
/macron /degree /plusminus /twosuperior /threesuperior
/acute /mu /paragraph /middot /cedilla
/onesuperior /ordmasculine /guillemotright /onequarter /onehalf
/threequarters /questiondown /Agrave /Aacute /Acircumflex
/Atilde /Adieresis /Aring /AE /Ccedilla
/Egrave /Eacute /Ecircumflex /Edieresis /Igrave
/Iacute /Icircumflex /Idieresis /Eth /Ntilde
/Ograve /Oacute /Ocircumflex /Otilde /Odieresis
/multiply /Oslash /Ugrave /Uacute /Ucircumflex
/Udieresis /Yacute /Thorn /germandbls /agrave
/aacute /acircumflex /atilde /adieresis /aring
/ae /ccedilla /egrave /eacute /ecircumflex
/edieresis /igrave /iacute /icircumflex /idieresis
/eth /ntilde /ograve /oacute /ocircumflex
/otilde /odieresis /divide /oslash /ugrave
/uacute /ucircumflex /udieresis /yacute /thorn
/ydieresis
] def
%%EndResource
%FOPBeginFontReencode
/Courier-Bold findfont
dup length dict begin
  {1 index /FID ne {def} {pop pop} ifelse} forall
  /Encoding WinAnsiEncoding def
  currentdict
end
/Courier-Bold exch definefont pop
/Helvetica findfont
dup length dict begin
  {1 index /FID ne {def} {pop pop} ifelse} forall
  /Encoding WinAnsiEncoding def
  currentdict
end
/Helvetica exch definefont pop
/Courier-BoldOblique findfont
dup length dict begin
  {1 index /FID ne {def} {pop pop} ifelse} forall
  /Encoding WinAnsiEncoding def
  currentdict
end
/Courier-BoldOblique exch definefont pop
/Courier-Oblique findfont
dup length dict begin
  {1 index /FID ne {def} {pop pop} ifelse} forall
  /Encoding WinAnsiEncoding def
  currentdict
end
/Courier-Oblique exch definefont pop
/Times-Roman findfont
dup length dict begin
  {1 index /FID ne {def} {pop pop} ifelse} forall
  /Encoding WinAnsiEncoding def
  currentdict
end
/Times-Roman exch definefont pop
/Helvetica-BoldOblique findfont
dup length dict begin
  {1 index /FID ne {def} {pop pop} ifelse} forall
  /Encoding WinAnsiEncoding def
  currentdict
end
/Helvetica-BoldOblique exch definefont pop
/Helvetica-Bold findfont
dup length dict begin
  {1 index /FID ne {def} {pop pop} ifelse} forall
  /Encoding WinAnsiEncoding def
  currentdict
end
/Helvetica-Bold exch definefont pop
/Helvetica-Oblique findfont
dup length dict begin
  {1 index /FID ne {def} {pop pop} ifelse} forall
  /Encoding WinAnsiEncoding def
  currentdict
end
/Helvetica-Oblique exch definefont pop
/Times-BoldItalic findfont
dup length dict begin
  {1 index /FID ne {def} {pop pop} ifelse} forall
  /Encoding WinAnsiEncoding def
  currentdict
end
/Times-BoldItalic exch definefont pop
/Courier findfont
dup length dict begin
  {1 index /FID ne {def} {pop pop} ifelse} forall
  /Encoding WinAnsiEncoding def
  currentdict
end
/Courier exch definefont pop
/Times-Italic findfont
dup length dict begin
  {1 index /FID ne {def} {pop pop} ifelse} forall
  /Encoding WinAnsiEncoding def
  currentdict
end
/Times-Italic exch definefont pop
/Times-Bold findfont
dup length dict begin
  {1 index /FID ne {def} {pop pop} ifelse} forall
  /Encoding WinAnsiEncoding def
  currentdict
end
/Times-Bold exch definefont pop
%FOPEndFontReencode
%%EndProlog
%%Page: 1 1
%%PageBoundingBox: 0 0 576 432
%%BeginPageSetup
[1 0 0 -1 0 432] CT
%%EndPageSetup
GS
[0.75 0 0 0.75 0 0] CT
0.997 GC
N
0 0 768 576 re
f
GR
GS
[0.75 0 0 0.75 0 0] CT
0.997 GC
N
0 0 768 576 re
f
GR
GS
[0.75 0 0 0.75 0 0] CT
0.997 GC
N
100 513 M
695 513 L
695 43 L
100 43 L
cp
f
GR
GS
[0.75 0 0 0.75 0 0] CT
0 GC
2 setlinecap
1 LJ
0.667 LW
N
100 513 M
695 513 L
S
GR
GS
[0.75 0 0 0.75 0 0] CT
0 GC
2 setlinecap
1 LJ
0.667 LW
N
100 43 M
695 43 L
S
GR
GS
[0.75 0 0 0.75 0 0] CT
0 GC
2 setlinecap
1 LJ
0.667 LW
N
100 513 M
100 507.05 L
S
GR
GS
[0.75 0 0 0.75 0 0] CT
0 GC
2 setlinecap
1 LJ
0.667 LW
N
185 513 M
185 507.05 L
S
GR
GS
[0.75 0 0 0.75 0 0] CT
0 GC
2 setlinecap
1 LJ
0.667 LW
N
270 513 M
270 507.05 L
S
GR
GS
[0.75 0 0 0.75 0 0] CT
0 GC
2 setlinecap
1 LJ
0.667 LW
N
355 513 M
355 507.05 L
S
GR
GS
[0.75 0 0 0.75 0 0] CT
0 GC
2 setlinecap
1 LJ
0.667 LW
N
440 513 M
440 507.05 L
S
GR
GS
[0.75 0 0 0.75 0 0] CT
0 GC
2 setlinecap
1 LJ
0.667 LW
N
525 513 M
525 507.05 L
S
GR
GS
[0.75 0 0 0.75 0 0] CT
0 GC
2 setlinecap
1 LJ
0.667 LW
N
610 513 M
610 507.05 L
S
GR
GS
[0.75 0 0 0.75 0 0] CT
0 GC
2 setlinecap
1 LJ
0.667 LW
N
695 513 M
695 507.05 L
S
GR
GS
[0.75 0 0 0.75 0 0] CT
0 GC
2 setlinecap
1 LJ
0.667 LW
N
100 43 M
100 48.95 L
S
GR
GS
[0.75 0 0 0.75 0 0] CT
0 GC
2 setlinecap
1 LJ
0.667 LW
N
185 43 M
185 48.95 L
S
GR
GS
[0.75 0 0 0.75 0 0] CT
0 GC
2 setlinecap
1 LJ
0.667 LW
N
270 43 M
270 48.95 L
S
GR
GS
[0.75 0 0 0.75 0 0] CT
0 GC
2 setlinecap
1 LJ
0.667 LW
N
355 43 M
355 48.95 L
S
GR
GS
[0.75 0 0 0.75 0 0] CT
0 GC
2 setlinecap
1 LJ
0.667 LW
N
440 43 M
440 48.95 L
S
GR
GS
[0.75 0 0 0.75 0 0] CT
0 GC
2 setlinecap
1 LJ
0.667 LW
N
525 43 M
525 48.95 L
S
GR
GS
[0.75 0 0 0.75 0 0] CT
0 GC
2 setlinecap
1 LJ
0.667 LW
N
610 43 M
610 48.95 L
S
GR
GS
[0.75 0 0 0.75 0 0] CT
0 GC
2 setlinecap
1 LJ
0.667 LW
N
695 43 M
695 48.95 L
S
GR
GS
[0.75 0 0 0.75 75 388.74998] CT
0 GC
/Helvetica 13 F
GS
[1 0 0 1 0 0] CT
-6.5 13 moveto 
1 -1 scale
(-2) t 
GR
GR
GS
[0.75 0 0 0.75 138.75 388.74998] CT
0 GC
/Helvetica 13 F
GS
[1 0 0 1 0 0] CT
-6.5 13 moveto 
1 -1 scale
(-1) t 
GR
GR
GS
[0.75 0 0 0.75 202.5 388.74998] CT
0 GC
/Helvetica 13 F
GS
[1 0 0 1 0 0] CT
-4.5 13 moveto 
1 -1 scale
(0) t 
GR
GR
GS
[0.75 0 0 0.75 266.25 388.74998] CT
0 GC
/Helvetica 13 F
GS
[1 0 0 1 0 0] CT
-4.5 13 moveto 
1 -1 scale
(1) t 
GR
GR
GS
[0.75 0 0 0.75 330 388.74998] CT
0 GC
/Helvetica 13 F
GS
[1 0 0 1 0 0] CT
-4.5 13 moveto 
1 -1 scale
(2) t 
GR
GR
GS
[0.75 0 0 0.75 393.75 388.74998] CT
0 GC
/Helvetica 13 F
GS
[1 0 0 1 0 0] CT
-4.5 13 moveto 
1 -1 scale
(3) t 
GR
GR
GS
[0.75 0 0 0.75 457.5 388.74998] CT
0 GC
/Helvetica 13 F
GS
[1 0 0 1 0 0] CT
-4.5 13 moveto 
1 -1 scale
(4) t 
GR
GR
GS
[0.75 0 0 0.75 521.25 388.74998] CT
0 GC
/Helvetica 13 F
GS
[1 0 0 1 0 0] CT
-4.5 13 moveto 
1 -1 scale
(5) t 
GR
GR
GS
[0.75 0 0 0.75 298.12521 402.50002] CT
0 GC
/Helvetica 15 F
GS
[1 0 0 1 0 0] CT
-4.5 14 moveto 
1 -1 scale
(x) t 
GR
GR
GS
[0.75 0 0 0.75 0 0] CT
0 GC
2 setlinecap
1 LJ
0.667 LW
N
100 513 M
100 43 L
S
GR
GS
[0.75 0 0 0.75 0 0] CT
0 GC
2 setlinecap
1 LJ
0.667 LW
N
695 513 M
695 43 L
S
GR
GS
[0.75 0 0 0.75 0 0] CT
0 GC
2 setlinecap
1 LJ
0.667 LW
N
100 513 M
105.95 513 L
S
GR
GS
[0.75 0 0 0.75 0 0] CT
0 GC
2 setlinecap
1 LJ
0.667 LW
N
100 466 M
105.95 466 L
S
GR
GS
[0.75 0 0 0.75 0 0] CT
0 GC
2 setlinecap
1 LJ
0.667 LW
N
100 419 M
105.95 419 L
S
GR
GS
[0.75 0 0 0.75 0 0] CT
0 GC
2 setlinecap
1 LJ
0.667 LW
N
100 372 M
105.95 372 L
S
GR
GS
[0.75 0 0 0.75 0 0] CT
0 GC
2 setlinecap
1 LJ
0.667 LW
N
100 325 M
105.95 325 L
S
GR
GS
[0.75 0 0 0.75 0 0] CT
0 GC
2 setlinecap
1 LJ
0.667 LW
N
100 278 M
105.95 278 L
S
GR
GS
[0.75 0 0 0.75 0 0] CT
0 GC
2 setlinecap
1 LJ
0.667 LW
N
100 231 M
105.95 231 L
S
GR
GS
[0.75 0 0 0.75 0 0] CT
0 GC
2 setlinecap
1 LJ
0.667 LW
N
100 184 M
105.95 184 L
S
GR
GS
[0.75 0 0 0.75 0 0] CT
0 GC
2 setlinecap
1 LJ
0.667 LW
N
100 137 M
105.95 137 L
S
GR
GS
[0.75 0 0 0.75 0 0] CT
0 GC
2 setlinecap
1 LJ
0.667 LW
N
100 90 M
105.95 90 L
S
GR
GS
[0.75 0 0 0.75 0 0] CT
0 GC
2 setlinecap
1 LJ
0.667 LW
N
100 43 M
105.95 43 L
S
GR
GS
[0.75 0 0 0.75 0 0] CT
0 GC
2 setlinecap
1 LJ
0.667 LW
N
695 513 M
689.05 513 L
S
GR
GS
[0.75 0 0 0.75 0 0] CT
0 GC
2 setlinecap
1 LJ
0.667 LW
N
695 466 M
689.05 466 L
S
GR
GS
[0.75 0 0 0.75 0 0] CT
0 GC
2 setlinecap
1 LJ
0.667 LW
N
695 419 M
689.05 419 L
S
GR
GS
[0.75 0 0 0.75 0 0] CT
0 GC
2 setlinecap
1 LJ
0.667 LW
N
695 372 M
689.05 372 L
S
GR
GS
[0.75 0 0 0.75 0 0] CT
0 GC
2 setlinecap
1 LJ
0.667 LW
N
695 325 M
689.05 325 L
S
GR
GS
[0.75 0 0 0.75 0 0] CT
0 GC
2 setlinecap
1 LJ
0.667 LW
N
695 278 M
689.05 278 L
S
GR
GS
[0.75 0 0 0.75 0 0] CT
0 GC
2 setlinecap
1 LJ
0.667 LW
N
695 231 M
689.05 231 L
S
GR
GS
[0.75 0 0 0.75 0 0] CT
0 GC
2 setlinecap
1 LJ
0.667 LW
N
695 184 M
689.05 184 L
S
GR
GS
[0.75 0 0 0.75 0 0] CT
0 GC
2 setlinecap
1 LJ
0.667 LW
N
695 137 M
689.05 137 L
S
GR
GS
[0.75 0 0 0.75 0 0] CT
0 GC
2 setlinecap
1 LJ
0.667 LW
N
695 90 M
689.05 90 L
S
GR
GS
[0.75 0 0 0.75 0 0] CT
0 GC
2 setlinecap
1 LJ
0.667 LW
N
695 43 M
689.05 43 L
S
GR
GS
[0.75 0 0 0.75 71 384.75] CT
0 GC
/Helvetica 13 F
GS
[1 0 0 1 0 0] CT
-9 4.5 moveto 
1 -1 scale
(0) t 
GR
GR
GS
[0.75 0 0 0.75 71 349.5] CT
0 GC
/Helvetica 13 F
GS
[1 0 0 1 0 0] CT
-21 4.5 moveto 
1 -1 scale
(0.5) t 
GR
GR
GS
[0.75 0 0 0.75 71 314.25] CT
0 GC
/Helvetica 13 F
GS
[1 0 0 1 0 0] CT
-9 4.5 moveto 
1 -1 scale
(1) t 
GR
GR
GS
[0.75 0 0 0.75 71 279] CT
0 GC
/Helvetica 13 F
GS
[1 0 0 1 0 0] CT
-21 4.5 moveto 
1 -1 scale
(1.5) t 
GR
GR
GS
[0.75 0 0 0.75 71 243.75] CT
0 GC
/Helvetica 13 F
GS
[1 0 0 1 0 0] CT
-9 4.5 moveto 
1 -1 scale
(2) t 
GR
GR
GS
[0.75 0 0 0.75 71 208.5] CT
0 GC
/Helvetica 13 F
GS
[1 0 0 1 0 0] CT
-21 4.5 moveto 
1 -1 scale
(2.5) t 
GR
GR
GS
[0.75 0 0 0.75 71 173.25] CT
0 GC
/Helvetica 13 F
GS
[1 0 0 1 0 0] CT
-9 4.5 moveto 
1 -1 scale
(3) t 
GR
GR
GS
[0.75 0 0 0.75 71 138] CT
0 GC
/Helvetica 13 F
GS
[1 0 0 1 0 0] CT
-21 4.5 moveto 
1 -1 scale
(3.5) t 
GR
GR
GS
[0.75 0 0 0.75 71 102.75] CT
0 GC
/Helvetica 13 F
GS
[1 0 0 1 0 0] CT
-9 4.5 moveto 
1 -1 scale
(4) t 
GR
GR
GS
[0.75 0 0 0.75 71 67.5] CT
0 GC
/Helvetica 13 F
GS
[1 0 0 1 0 0] CT
-21 4.5 moveto 
1 -1 scale
(4.5) t 
GR
GR
GS
[0.75 0 0 0.75 71 32.25] CT
0 GC
/Helvetica 13 F
GS
[1 0 0 1 0 0] CT
-9 4.5 moveto 
1 -1 scale
(5) t 
GR
GR
GS
[0 -0.75 0.75 0 52.25 208.49984] CT
0 GC
/Helvetica 15 F
GS
[1 0 0 1 0 0] CT
-4.5 -4 moveto 
1 -1 scale
(y) t 
GR
GR
GS
[0.75 0 0 0.75 163.5 27] CT
0 GC
/Helvetica-Bold 15 F
GS
[1 0 0 1 0 0] CT
0 0 moveto 
1 -1 scale
(Four Different Values of y=<x-a>) t 
GR
GR
GS
[0.75 0 0 0.75 375.75 21.75] CT
0 GC
/Helvetica-Bold 11 F
GS
[1 0 0 1 0 0] CT
0 0 moveto 
1 -1 scale
(n) t 
GR
GR
GS
[0.75 0 0 0.75 381.75 27] CT
0 GC
/Helvetica-Bold 15 F
GS
[1 0 0 1 0 0] CT
0 0 moveto 
1 -1 scale
( \(th174\)) t 
GR
GR
GS
[0.75 0 0 0.75 0 0] CT
0 GC
1 LJ
0.667 LW
N
100 513 M
101.192 513 L
102.385 513 L
103.577 513 L
104.77 513 L
105.962 513 L
107.154 513 L
108.347 513 L
109.539 513 L
110.731 513 L
111.924 513 L
113.116 513 L
114.309 513 L
115.501 513 L
116.693 513 L
117.886 513 L
119.078 513 L
120.271 513 L
121.463 513 L
122.655 513 L
123.848 513 L
125.04 513 L
126.232 513 L
127.425 513 L
128.617 513 L
129.81 513 L
131.002 513 L
132.194 513 L
133.387 513 L
134.579 513 L
135.772 513 L
136.964 513 L
138.156 513 L
139.349 513 L
140.541 513 L
141.733 513 L
142.926 513 L
144.118 513 L
145.311 513 L
146.503 513 L
147.695 513 L
148.888 513 L
150.08 513 L
151.273 513 L
152.465 513 L
153.657 513 L
154.85 513 L
156.042 513 L
157.234 513 L
158.427 513 L
S
GR
GS
[0.75 0 0 0.75 0 0] CT
0 GC
1 LJ
0.667 LW
N
157.234 513 M
158.427 513 L
159.619 513 L
160.812 513 L
162.004 513 L
163.196 513 L
164.389 513 L
165.581 513 L
166.774 513 L
167.966 513 L
169.158 513 L
170.351 513 L
171.543 513 L
172.735 513 L
173.928 513 L
175.12 513 L
176.313 513 L
177.505 513 L
178.697 513 L
179.89 513 L
181.082 513 L
182.275 513 L
183.467 513 L
184.659 513 L
185.852 419 L
187.044 419 L
188.236 419 L
189.429 419 L
190.621 419 L
191.814 419 L
193.006 419 L
194.198 419 L
195.391 419 L
196.583 419 L
197.776 419 L
198.968 419 L
200.16 419 L
201.353 419 L
202.545 419 L
203.737 419 L
204.93 419 L
206.122 419 L
207.315 419 L
208.507 419 L
209.699 419 L
210.892 419 L
212.084 419 L
213.277 419 L
214.469 419 L
215.661 419 L
216.854 419 L
218.046 419 L
S
GR
GS
[0.75 0 0 0.75 0 0] CT
0 GC
1 LJ
0.667 LW
N
216.854 419 M
218.046 419 L
219.238 419 L
220.431 419 L
221.623 419 L
222.816 419 L
224.008 419 L
225.2 419 L
226.393 419 L
227.585 419 L
228.778 419 L
229.97 419 L
231.162 419 L
232.355 419 L
233.547 419 L
234.739 419 L
235.932 419 L
237.124 419 L
238.317 419 L
239.509 419 L
240.701 419 L
241.894 419 L
243.086 419 L
244.279 419 L
245.471 419 L
246.663 419 L
247.856 419 L
249.048 419 L
250.24 419 L
251.433 419 L
252.625 419 L
253.818 419 L
255.01 419 L
256.202 419 L
257.395 419 L
258.587 419 L
259.78 419 L
260.972 419 L
262.164 419 L
263.357 419 L
264.549 419 L
265.741 419 L
266.934 419 L
268.126 419 L
269.319 419 L
270.511 419 L
271.703 419 L
272.896 419 L
274.088 419 L
275.281 419 L
276.473 419 L
277.665 419 L
S
GR
GS
[0.75 0 0 0.75 0 0] CT
0 GC
1 LJ
0.667 LW
N
276.473 419 M
277.665 419 L
278.858 419 L
280.05 419 L
281.242 419 L
282.435 419 L
283.627 419 L
284.82 419 L
286.012 419 L
287.204 419 L
288.397 419 L
289.589 419 L
290.782 419 L
291.974 419 L
293.166 419 L
294.359 419 L
295.551 419 L
296.743 419 L
297.936 419 L
299.128 419 L
300.321 419 L
301.513 419 L
302.705 419 L
303.898 419 L
305.09 419 L
306.283 419 L
307.475 419 L
308.667 419 L
309.86 419 L
311.052 419 L
312.244 419 L
313.437 419 L
314.629 419 L
315.822 419 L
317.014 419 L
318.206 419 L
319.399 419 L
320.591 419 L
321.784 419 L
322.976 419 L
324.168 419 L
325.361 419 L
326.553 419 L
327.745 419 L
328.938 419 L
330.13 419 L
331.323 419 L
332.515 419 L
333.707 419 L
334.9 419 L
336.092 419 L
337.285 419 L
S
GR
GS
[0.75 0 0 0.75 0 0] CT
0 GC
1 LJ
0.667 LW
N
336.092 419 M
337.285 419 L
338.477 419 L
339.669 419 L
340.862 419 L
342.054 419 L
343.246 419 L
344.439 419 L
345.631 419 L
346.824 419 L
348.016 419 L
349.208 419 L
350.401 419 L
351.593 419 L
352.786 419 L
353.978 419 L
355.17 419 L
356.363 419 L
357.555 419 L
358.747 419 L
359.94 419 L
361.132 419 L
362.325 419 L
363.517 419 L
364.709 419 L
365.902 419 L
367.094 419 L
368.287 419 L
369.479 419 L
370.671 419 L
371.864 419 L
373.056 419 L
374.249 419 L
375.441 419 L
376.633 419 L
377.826 419 L
379.018 419 L
380.21 419 L
381.403 419 L
382.595 419 L
383.788 419 L
384.98 419 L
386.172 419 L
387.365 419 L
388.557 419 L
389.75 419 L
390.942 419 L
392.134 419 L
393.327 419 L
394.519 419 L
395.711 419 L
396.904 419 L
S
GR
GS
[0.75 0 0 0.75 0 0] CT
0 GC
1 LJ
0.667 LW
N
395.711 419 M
396.904 419 L
398.096 419 L
399.289 419 L
400.481 419 L
401.673 419 L
402.866 419 L
404.058 419 L
405.25 419 L
406.443 419 L
407.635 419 L
408.828 419 L
410.02 419 L
411.212 419 L
412.405 419 L
413.597 419 L
414.79 419 L
415.982 419 L
417.174 419 L
418.367 419 L
419.559 419 L
420.751 419 L
421.944 419 L
423.136 419 L
424.329 419 L
425.521 419 L
426.713 419 L
427.906 419 L
429.098 419 L
430.291 419 L
431.483 419 L
432.675 419 L
433.868 419 L
435.06 419 L
436.253 419 L
437.445 419 L
438.637 419 L
439.83 419 L
441.022 419 L
442.214 419 L
443.407 419 L
444.599 419 L
445.792 419 L
446.984 419 L
448.176 419 L
449.369 419 L
450.561 419 L
451.754 419 L
452.946 419 L
454.138 419 L
455.331 419 L
456.523 419 L
S
GR
GS
[0.75 0 0 0.75 0 0] CT
0 GC
1 LJ
0.667 LW
N
455.331 419 M
456.523 419 L
457.715 419 L
458.908 419 L
460.1 419 L
461.293 419 L
462.485 419 L
463.677 419 L
464.87 419 L
466.062 419 L
467.255 419 L
468.447 419 L
469.639 419 L
470.832 419 L
472.024 419 L
473.216 419 L
474.409 419 L
475.601 419 L
476.794 419 L
477.986 419 L
479.178 419 L
480.371 419 L
481.563 419 L
482.755 419 L
483.948 419 L
485.14 419 L
486.333 419 L
487.525 419 L
488.717 419 L
489.91 419 L
491.102 419 L
492.295 419 L
493.487 419 L
494.679 419 L
495.872 419 L
497.064 419 L
498.257 419 L
499.449 419 L
500.641 419 L
501.834 419 L
503.026 419 L
504.218 419 L
505.411 419 L
506.603 419 L
507.796 419 L
508.988 419 L
510.18 419 L
511.373 419 L
512.565 419 L
513.758 419 L
514.95 419 L
516.142 419 L
S
GR
GS
[0.75 0 0 0.75 0 0] CT
0 GC
1 LJ
0.667 LW
N
514.95 419 M
516.142 419 L
517.335 419 L
518.527 419 L
519.719 419 L
520.912 419 L
522.104 419 L
523.297 419 L
524.489 419 L
525.681 419 L
526.874 419 L
528.066 419 L
529.258 419 L
530.451 419 L
531.643 419 L
532.836 419 L
534.028 419 L
535.22 419 L
536.413 419 L
537.605 419 L
538.798 419 L
539.99 419 L
541.182 419 L
542.375 419 L
543.567 419 L
544.76 419 L
545.952 419 L
547.144 419 L
548.337 419 L
549.529 419 L
550.721 419 L
551.914 419 L
553.106 419 L
554.299 419 L
555.491 419 L
556.683 419 L
557.876 419 L
559.068 419 L
560.26 419 L
561.453 419 L
562.645 419 L
563.838 419 L
565.03 419 L
566.222 419 L
567.415 419 L
568.607 419 L
569.8 419 L
570.992 419 L
572.184 419 L
573.377 419 L
574.569 419 L
575.762 419 L
S
GR
GS
[0.75 0 0 0.75 0 0] CT
0 GC
1 LJ
0.667 LW
N
574.569 419 M
575.762 419 L
576.954 419 L
578.146 419 L
579.339 419 L
580.531 419 L
581.723 419 L
582.916 419 L
584.108 419 L
585.301 419 L
586.493 419 L
587.685 419 L
588.878 419 L
590.07 419 L
591.263 419 L
592.455 419 L
593.647 419 L
594.84 419 L
596.032 419 L
597.224 419 L
598.417 419 L
599.609 419 L
600.802 419 L
601.994 419 L
603.186 419 L
604.379 419 L
605.571 419 L
606.764 419 L
607.956 419 L
609.148 419 L
610.341 419 L
611.533 419 L
612.725 419 L
613.918 419 L
615.11 419 L
616.303 419 L
617.495 419 L
618.687 419 L
619.88 419 L
621.072 419 L
622.265 419 L
623.457 419 L
624.649 419 L
625.842 419 L
627.034 419 L
628.226 419 L
629.419 419 L
630.611 419 L
631.804 419 L
632.996 419 L
634.188 419 L
635.381 419 L
S
GR
GS
[0.75 0 0 0.75 0 0] CT
0 GC
1 LJ
0.667 LW
N
634.188 419 M
635.381 419 L
636.573 419 L
637.766 419 L
638.958 419 L
640.15 419 L
641.343 419 L
642.535 419 L
643.727 419 L
644.92 419 L
646.112 419 L
647.305 419 L
648.497 419 L
649.689 419 L
650.882 419 L
652.074 419 L
653.267 419 L
654.459 419 L
655.651 419 L
656.844 419 L
658.036 419 L
659.228 419 L
660.421 419 L
661.613 419 L
662.806 419 L
663.998 419 L
665.19 419 L
666.383 419 L
667.575 419 L
668.768 419 L
669.96 419 L
671.152 419 L
672.345 419 L
673.537 419 L
674.729 419 L
675.922 419 L
677.114 419 L
678.307 419 L
679.499 419 L
680.691 419 L
681.884 419 L
683.076 419 L
684.269 419 L
685.461 419 L
686.653 419 L
687.846 419 L
689.038 419 L
690.23 419 L
691.423 419 L
692.615 419 L
693.808 419 L
695 419 L
S
GR
GS
[0.75 0 0 0.75 0 0] CT
0 GC
1 LJ
0.667 LW
N
693.808 419 M
695 419 L
S
GR
GS
[0.75 0 0 0.75 0 0] CT
0 GC
[10 6] 0 setdash
2 LJ
0.667 LW
N
100 513 M
101.192 513 L
102.385 513 L
103.577 513 L
104.77 513 L
105.962 513 L
107.154 513 L
108.347 513 L
109.539 513 L
110.731 513 L
111.924 513 L
113.116 513 L
114.309 513 L
115.501 513 L
116.693 513 L
117.886 513 L
119.078 513 L
120.271 513 L
121.463 513 L
122.655 513 L
123.848 513 L
125.04 513 L
126.232 513 L
127.425 513 L
128.617 513 L
129.81 513 L
131.002 513 L
132.194 513 L
133.387 513 L
134.579 513 L
135.772 513 L
136.964 513 L
138.156 513 L
139.349 513 L
140.541 513 L
141.733 513 L
142.926 513 L
144.118 513 L
145.311 513 L
146.503 513 L
147.695 513 L
148.888 513 L
150.08 513 L
151.273 513 L
152.465 513 L
153.657 513 L
154.85 513 L
156.042 513 L
157.234 513 L
158.427 513 L
159.619 513 L
160.812 513 L
162.004 513 L
163.196 513 L
164.389 513 L
165.581 513 L
166.774 513 L
167.966 513 L
169.158 513 L
170.351 513 L
171.543 513 L
172.735 513 L
173.928 513 L
175.12 513 L
176.313 513 L
177.505 513 L
178.697 513 L
179.89 513 L
181.082 513 L
182.275 513 L
183.467 513 L
184.659 513 L
185.852 513 L
187.044 513 L
188.236 513 L
189.429 513 L
190.621 513 L
191.814 513 L
193.006 513 L
194.198 513 L
195.391 513 L
196.583 513 L
197.776 513 L
198.968 513 L
200.16 513 L
201.353 513 L
202.545 513 L
203.737 513 L
204.93 513 L
206.122 513 L
207.315 513 L
208.507 513 L
209.699 513 L
210.892 513 L
212.084 513 L
213.277 513 L
214.469 513 L
215.661 513 L
216.854 513 L
218.046 513 L
219.238 513 L
220.431 513 L
221.623 513 L
222.816 513 L
224.008 513 L
225.2 513 L
226.393 513 L
227.585 513 L
228.778 513 L
229.97 513 L
231.162 513 L
232.355 513 L
233.547 513 L
234.739 513 L
235.932 513 L
237.124 513 L
238.317 513 L
239.509 513 L
240.701 513 L
241.894 513 L
243.086 513 L
244.279 513 L
245.471 513 L
246.663 513 L
247.856 513 L
249.048 513 L
250.24 513 L
251.433 513 L
252.625 513 L
253.818 513 L
255.01 513 L
256.202 513 L
257.395 513 L
258.587 513 L
259.78 513 L
260.972 513 L
262.164 513 L
263.357 513 L
264.549 513 L
265.741 513 L
266.934 513 L
268.126 513 L
269.319 513 L
270.511 512.435 L
271.703 511.116 L
272.896 509.798 L
274.088 508.479 L
275.281 507.16 L
276.473 505.842 L
277.665 504.523 L
278.858 503.204 L
280.05 501.886 L
281.242 500.567 L
282.435 499.249 L
283.627 497.93 L
284.82 496.611 L
286.012 495.293 L
287.204 493.974 L
288.397 492.655 L
289.589 491.337 L
290.782 490.018 L
291.974 488.699 L
293.166 487.381 L
294.359 486.062 L
295.551 484.743 L
296.743 483.425 L
297.936 482.106 L
299.128 480.788 L
300.321 479.469 L
301.513 478.15 L
302.705 476.832 L
303.898 475.513 L
305.09 474.194 L
306.283 472.876 L
307.475 471.557 L
308.667 470.238 L
309.86 468.92 L
311.052 467.601 L
312.244 466.283 L
313.437 464.964 L
314.629 463.645 L
315.822 462.327 L
317.014 461.008 L
318.206 459.689 L
319.399 458.371 L
320.591 457.052 L
321.784 455.733 L
322.976 454.415 L
324.168 453.096 L
325.361 451.778 L
326.553 450.459 L
327.745 449.14 L
328.938 447.822 L
330.13 446.503 L
331.323 445.184 L
332.515 443.866 L
333.707 442.547 L
334.9 441.228 L
336.092 439.91 L
337.285 438.591 L
338.477 437.273 L
339.669 435.954 L
340.862 434.635 L
342.054 433.317 L
343.246 431.998 L
344.439 430.679 L
345.631 429.361 L
346.824 428.042 L
348.016 426.723 L
349.208 425.405 L
350.401 424.086 L
351.593 422.768 L
352.786 421.449 L
353.978 420.13 L
355.17 418.812 L
356.363 417.493 L
357.555 416.174 L
358.747 414.856 L
359.94 413.537 L
361.132 412.218 L
362.325 410.9 L
363.517 409.581 L
364.709 408.263 L
365.902 406.944 L
367.094 405.625 L
368.287 404.307 L
369.479 402.988 L
370.671 401.669 L
371.864 400.351 L
373.056 399.032 L
374.249 397.713 L
375.441 396.395 L
376.633 395.076 L
377.826 393.758 L
379.018 392.439 L
380.21 391.12 L
381.403 389.802 L
382.595 388.483 L
383.788 387.164 L
384.98 385.846 L
386.172 384.527 L
387.365 383.208 L
388.557 381.89 L
389.75 380.571 L
390.942 379.253 L
392.134 377.934 L
393.327 376.615 L
394.519 375.297 L
395.711 373.978 L
396.904 372.659 L
398.096 371.341 L
399.289 370.022 L
400.481 368.703 L
401.673 367.385 L
402.866 366.066 L
404.058 364.747 L
405.25 363.429 L
406.443 362.11 L
407.635 360.792 L
408.828 359.473 L
410.02 358.154 L
411.212 356.836 L
412.405 355.517 L
413.597 354.198 L
414.79 352.88 L
415.982 351.561 L
417.174 350.242 L
418.367 348.924 L
419.559 347.605 L
420.751 346.287 L
421.944 344.968 L
423.136 343.649 L
424.329 342.331 L
425.521 341.012 L
426.713 339.693 L
427.906 338.375 L
429.098 337.056 L
430.291 335.737 L
431.483 334.419 L
432.675 333.1 L
433.868 331.782 L
435.06 330.463 L
436.253 329.144 L
437.445 327.826 L
438.637 326.507 L
439.83 325.188 L
441.022 323.87 L
442.214 322.551 L
443.407 321.232 L
444.599 319.914 L
445.792 318.595 L
446.984 317.277 L
448.176 315.958 L
449.369 314.639 L
450.561 313.321 L
451.754 312.002 L
452.946 310.683 L
454.138 309.365 L
455.331 308.046 L
456.523 306.727 L
457.715 305.409 L
458.908 304.09 L
460.1 302.772 L
461.293 301.453 L
462.485 300.134 L
463.677 298.816 L
464.87 297.497 L
466.062 296.178 L
467.255 294.86 L
468.447 293.541 L
469.639 292.222 L
470.832 290.904 L
472.024 289.585 L
473.216 288.267 L
474.409 286.948 L
475.601 285.629 L
476.794 284.311 L
477.986 282.992 L
479.178 281.673 L
480.371 280.355 L
481.563 279.036 L
482.755 277.717 L
483.948 276.399 L
485.14 275.08 L
486.333 273.762 L
487.525 272.443 L
488.717 271.124 L
489.91 269.806 L
491.102 268.487 L
492.295 267.168 L
493.487 265.85 L
494.679 264.531 L
495.872 263.212 L
497.064 261.894 L
498.257 260.575 L
499.449 259.257 L
500.641 257.938 L
501.834 256.619 L
503.026 255.301 L
504.218 253.982 L
505.411 252.663 L
506.603 251.345 L
507.796 250.026 L
508.988 248.707 L
510.18 247.389 L
511.373 246.07 L
512.565 244.752 L
513.758 243.433 L
514.95 242.114 L
516.142 240.796 L
517.335 239.477 L
518.527 238.158 L
519.719 236.84 L
520.912 235.521 L
522.104 234.202 L
523.297 232.884 L
524.489 231.565 L
525.681 230.246 L
526.874 228.928 L
528.066 227.609 L
529.258 226.291 L
530.451 224.972 L
531.643 223.653 L
532.836 222.335 L
534.028 221.016 L
535.22 219.697 L
536.413 218.379 L
537.605 217.06 L
538.798 215.741 L
539.99 214.423 L
541.182 213.104 L
542.375 211.786 L
543.567 210.467 L
544.76 209.148 L
545.952 207.83 L
547.144 206.511 L
548.337 205.192 L
549.529 203.874 L
550.721 202.555 L
551.914 201.236 L
553.106 199.918 L
554.299 198.599 L
555.491 197.281 L
556.683 195.962 L
557.876 194.643 L
559.068 193.325 L
560.26 192.006 L
561.453 190.687 L
562.645 189.369 L
563.838 188.05 L
565.03 186.731 L
566.222 185.413 L
567.415 184.094 L
568.607 182.776 L
569.8 181.457 L
570.992 180.138 L
572.184 178.82 L
573.377 177.501 L
574.569 176.182 L
575.762 174.864 L
576.954 173.545 L
578.146 172.226 L
579.339 170.908 L
580.531 169.589 L
581.723 168.271 L
582.916 166.952 L
584.108 165.633 L
585.301 164.315 L
586.493 162.996 L
587.685 161.677 L
588.878 160.359 L
590.07 159.04 L
591.263 157.721 L
592.455 156.403 L
593.647 155.084 L
594.84 153.766 L
596.032 152.447 L
597.224 151.128 L
598.417 149.81 L
599.609 148.491 L
600.802 147.172 L
601.994 145.854 L
603.186 144.535 L
604.379 143.216 L
605.571 141.898 L
606.764 140.579 L
607.956 139.261 L
609.148 137.942 L
610.341 136.623 L
611.533 135.305 L
612.725 133.986 L
613.918 132.667 L
615.11 131.349 L
616.303 130.03 L
617.495 128.711 L
618.687 127.393 L
619.88 126.074 L
621.072 124.756 L
622.265 123.437 L
623.457 122.118 L
624.649 120.8 L
625.842 119.481 L
627.034 118.162 L
628.226 116.844 L
629.419 115.525 L
630.611 114.206 L
631.804 112.888 L
632.996 111.569 L
634.188 110.25 L
635.381 108.932 L
636.573 107.613 L
637.766 106.295 L
638.958 104.976 L
640.15 103.657 L
641.343 102.339 L
642.535 101.02 L
643.727 99.701 L
644.92 98.383 L
646.112 97.064 L
647.305 95.746 L
648.497 94.427 L
649.689 93.108 L
650.882 91.79 L
652.074 90.471 L
653.267 89.152 L
654.459 87.834 L
655.651 86.515 L
656.844 85.196 L
658.036 83.878 L
659.228 82.559 L
660.421 81.24 L
661.613 79.922 L
662.806 78.603 L
663.998 77.285 L
665.19 75.966 L
666.383 74.647 L
667.575 73.329 L
668.768 72.01 L
669.96 70.691 L
671.152 69.373 L
672.345 68.054 L
673.537 66.735 L
674.729 65.417 L
675.922 64.098 L
677.114 62.78 L
678.307 61.461 L
679.499 60.142 L
680.691 58.824 L
681.884 57.505 L
683.076 56.186 L
684.269 54.868 L
685.461 53.549 L
686.653 52.23 L
687.846 50.912 L
689.038 49.593 L
690.23 48.275 L
691.423 46.956 L
692.615 45.637 L
693.808 44.319 L
695 43 L
S
GR
GS
[0.75 0 0 0.75 0 0] CT
0 GC
[8 3 2 3] 0 setdash
2 LJ
0.667 LW
N
100 513 M
101.192 513 L
102.385 513 L
103.577 513 L
104.77 513 L
105.962 513 L
107.154 513 L
108.347 513 L
109.539 513 L
110.731 513 L
111.924 513 L
113.116 513 L
114.309 513 L
115.501 513 L
116.693 513 L
117.886 513 L
119.078 513 L
120.271 513 L
121.463 513 L
122.655 513 L
123.848 513 L
125.04 513 L
126.232 513 L
127.425 513 L
128.617 513 L
129.81 513 L
131.002 513 L
132.194 513 L
133.387 513 L
134.579 513 L
135.772 513 L
136.964 513 L
138.156 513 L
139.349 513 L
140.541 513 L
141.733 513 L
142.926 513 L
144.118 513 L
145.311 513 L
146.503 513 L
147.695 513 L
148.888 513 L
150.08 513 L
151.273 513 L
152.465 513 L
153.657 513 L
154.85 513 L
156.042 513 L
157.234 513 L
158.427 513 L
159.619 513 L
160.812 513 L
162.004 513 L
163.196 513 L
164.389 513 L
165.581 513 L
166.774 513 L
167.966 513 L
169.158 513 L
170.351 513 L
171.543 513 L
172.735 513 L
173.928 513 L
175.12 513 L
176.313 513 L
177.505 513 L
178.697 513 L
179.89 513 L
181.082 513 L
182.275 513 L
183.467 513 L
184.659 513 L
185.852 513 L
187.044 513 L
188.236 513 L
189.429 513 L
190.621 513 L
191.814 513 L
193.006 513 L
194.198 513 L
195.391 513 L
196.583 513 L
197.776 513 L
198.968 513 L
200.16 513 L
201.353 513 L
202.545 513 L
203.737 513 L
204.93 513 L
206.122 513 L
207.315 513 L
208.507 513 L
209.699 513 L
210.892 513 L
212.084 513 L
213.277 513 L
214.469 513 L
215.661 513 L
216.854 513 L
218.046 513 L
219.238 513 L
220.431 513 L
221.623 513 L
222.816 513 L
224.008 513 L
225.2 513 L
226.393 513 L
227.585 513 L
228.778 513 L
229.97 513 L
231.162 513 L
232.355 513 L
233.547 513 L
234.739 513 L
235.932 513 L
237.124 513 L
238.317 513 L
239.509 513 L
240.701 513 L
241.894 513 L
243.086 513 L
244.279 513 L
245.471 513 L
246.663 513 L
247.856 513 L
249.048 513 L
250.24 513 L
251.433 513 L
252.625 513 L
253.818 513 L
255.01 513 L
256.202 513 L
257.395 513 L
258.587 513 L
259.78 513 L
260.972 513 L
262.164 513 L
263.357 513 L
264.549 513 L
265.741 513 L
266.934 513 L
268.126 513 L
269.319 513 L
270.511 513 L
271.703 513 L
272.896 513 L
274.088 513 L
275.281 513 L
276.473 513 L
277.665 513 L
278.858 513 L
280.05 513 L
281.242 513 L
282.435 513 L
283.627 513 L
284.82 513 L
286.012 513 L
287.204 513 L
288.397 513 L
289.589 513 L
290.782 513 L
291.974 513 L
293.166 513 L
294.359 513 L
295.551 513 L
296.743 513 L
297.936 513 L
299.128 513 L
300.321 513 L
301.513 513 L
302.705 513 L
303.898 513 L
305.09 513 L
306.283 513 L
307.475 513 L
308.667 513 L
309.86 513 L
311.052 513 L
312.244 513 L
313.437 513 L
314.629 513 L
315.822 513 L
317.014 513 L
318.206 513 L
319.399 513 L
320.591 513 L
321.784 513 L
322.976 513 L
324.168 513 L
325.361 513 L
326.553 513 L
327.745 513 L
328.938 513 L
330.13 513 L
331.323 513 L
332.515 513 L
333.707 513 L
334.9 513 L
336.092 513 L
337.285 513 L
338.477 513 L
339.669 513 L
340.862 513 L
342.054 513 L
343.246 513 L
344.439 513 L
345.631 513 L
346.824 513 L
348.016 513 L
349.208 513 L
350.401 513 L
351.593 513 L
352.786 513 L
353.978 513 L
355.17 512.812 L
356.363 511.493 L
357.555 510.174 L
358.747 508.856 L
359.94 507.537 L
361.132 506.218 L
362.325 504.9 L
363.517 503.581 L
364.709 502.263 L
365.902 500.944 L
367.094 499.625 L
368.287 498.307 L
369.479 496.988 L
370.671 495.669 L
371.864 494.351 L
373.056 493.032 L
374.249 491.713 L
375.441 490.395 L
376.633 489.076 L
377.826 487.758 L
379.018 486.439 L
380.21 485.12 L
381.403 483.802 L
382.595 482.483 L
383.788 481.164 L
384.98 479.846 L
386.172 478.527 L
387.365 477.208 L
388.557 475.89 L
389.75 474.571 L
390.942 473.253 L
392.134 471.934 L
393.327 470.615 L
394.519 469.297 L
395.711 467.978 L
396.904 466.659 L
398.096 465.341 L
399.289 464.022 L
400.481 462.703 L
401.673 461.385 L
402.866 460.066 L
404.058 458.747 L
405.25 457.429 L
406.443 456.11 L
407.635 454.792 L
408.828 453.473 L
410.02 452.154 L
411.212 450.836 L
412.405 449.517 L
413.597 448.198 L
414.79 446.88 L
415.982 445.561 L
417.174 444.242 L
418.367 442.924 L
419.559 441.605 L
420.751 440.287 L
421.944 438.968 L
423.136 437.649 L
424.329 436.331 L
425.521 435.012 L
426.713 433.693 L
427.906 432.375 L
429.098 431.056 L
430.291 429.737 L
431.483 428.419 L
432.675 427.1 L
433.868 425.782 L
435.06 424.463 L
436.253 423.144 L
437.445 421.826 L
438.637 420.507 L
439.83 419.188 L
441.022 417.87 L
442.214 416.551 L
443.407 415.232 L
444.599 413.914 L
445.792 412.595 L
446.984 411.277 L
448.176 409.958 L
449.369 408.639 L
450.561 407.321 L
451.754 406.002 L
452.946 404.683 L
454.138 403.365 L
455.331 402.046 L
456.523 400.727 L
457.715 399.409 L
458.908 398.09 L
460.1 396.772 L
461.293 395.453 L
462.485 394.134 L
463.677 392.816 L
464.87 391.497 L
466.062 390.178 L
467.255 388.86 L
468.447 387.541 L
469.639 386.222 L
470.832 384.904 L
472.024 383.585 L
473.216 382.267 L
474.409 380.948 L
475.601 379.629 L
476.794 378.311 L
477.986 376.992 L
479.178 375.673 L
480.371 374.355 L
481.563 373.036 L
482.755 371.717 L
483.948 370.399 L
485.14 369.08 L
486.333 367.762 L
487.525 366.443 L
488.717 365.124 L
489.91 363.806 L
491.102 362.487 L
492.295 361.168 L
493.487 359.85 L
494.679 358.531 L
495.872 357.212 L
497.064 355.894 L
498.257 354.575 L
499.449 353.257 L
500.641 351.938 L
501.834 350.619 L
503.026 349.301 L
504.218 347.982 L
505.411 346.663 L
506.603 345.345 L
507.796 344.026 L
508.988 342.707 L
510.18 341.389 L
511.373 340.07 L
512.565 338.751 L
513.758 337.433 L
514.95 336.114 L
516.142 334.796 L
517.335 333.477 L
518.527 332.158 L
519.719 330.84 L
520.912 329.521 L
522.104 328.202 L
523.297 326.884 L
524.489 325.565 L
525.681 324.246 L
526.874 322.928 L
528.066 321.609 L
529.258 320.291 L
530.451 318.972 L
531.643 317.653 L
532.836 316.335 L
534.028 315.016 L
535.22 313.697 L
536.413 312.379 L
537.605 311.06 L
538.798 309.741 L
539.99 308.423 L
541.182 307.104 L
542.375 305.786 L
543.567 304.467 L
544.76 303.148 L
545.952 301.83 L
547.144 300.511 L
548.337 299.192 L
549.529 297.874 L
550.721 296.555 L
551.914 295.236 L
553.106 293.918 L
554.299 292.599 L
555.491 291.281 L
556.683 289.962 L
557.876 288.643 L
559.068 287.325 L
560.26 286.006 L
561.453 284.687 L
562.645 283.369 L
563.838 282.05 L
565.03 280.731 L
566.222 279.413 L
567.415 278.094 L
568.607 276.776 L
569.8 275.457 L
570.992 274.138 L
572.184 272.82 L
573.377 271.501 L
574.569 270.182 L
575.762 268.864 L
576.954 267.545 L
578.146 266.226 L
579.339 264.908 L
580.531 263.589 L
581.723 262.271 L
582.916 260.952 L
584.108 259.633 L
585.301 258.315 L
586.493 256.996 L
587.685 255.677 L
588.878 254.359 L
590.07 253.04 L
591.263 251.721 L
592.455 250.403 L
593.647 249.084 L
594.84 247.766 L
596.032 246.447 L
597.224 245.128 L
598.417 243.81 L
599.609 242.491 L
600.802 241.172 L
601.994 239.854 L
603.186 238.535 L
604.379 237.216 L
605.571 235.898 L
606.764 234.579 L
607.956 233.261 L
609.148 231.942 L
610.341 230.623 L
611.533 229.305 L
612.725 227.986 L
613.918 226.667 L
615.11 225.349 L
616.303 224.03 L
617.495 222.711 L
618.687 221.393 L
619.88 220.074 L
621.072 218.756 L
622.265 217.437 L
623.457 216.118 L
624.649 214.8 L
625.842 213.481 L
627.034 212.162 L
628.226 210.844 L
629.419 209.525 L
630.611 208.206 L
631.804 206.888 L
632.996 205.569 L
634.188 204.251 L
635.381 202.932 L
636.573 201.613 L
637.766 200.295 L
638.958 198.976 L
640.15 197.657 L
641.343 196.339 L
642.535 195.02 L
643.727 193.701 L
644.92 192.383 L
646.112 191.064 L
647.305 189.745 L
648.497 188.427 L
649.689 187.108 L
650.882 185.79 L
652.074 184.471 L
653.267 183.152 L
654.459 181.834 L
655.651 180.515 L
656.844 179.196 L
658.036 177.878 L
659.228 176.559 L
660.421 175.24 L
661.613 173.922 L
662.806 172.603 L
663.998 171.285 L
665.19 169.966 L
666.383 168.647 L
667.575 167.329 L
668.768 166.01 L
669.96 164.691 L
671.152 163.373 L
672.345 162.054 L
673.537 160.735 L
674.729 159.417 L
675.922 158.098 L
677.114 156.78 L
678.307 155.461 L
679.499 154.142 L
680.691 152.824 L
681.884 151.505 L
683.076 150.186 L
684.269 148.868 L
685.461 147.549 L
686.653 146.23 L
687.846 144.912 L
689.038 143.593 L
690.23 142.275 L
691.423 140.956 L
692.615 139.637 L
693.808 138.319 L
695 137 L
S
GR
GS
[0.75 0 0 0.75 0 0] CT
0 GC
[1 3] 0 setdash
2 LJ
0.667 LW
N
100 513 M
101.192 513 L
102.385 513 L
103.577 513 L
104.77 513 L
105.962 513 L
107.154 513 L
108.347 513 L
109.539 513 L
110.731 513 L
111.924 513 L
113.116 513 L
114.309 513 L
115.501 513 L
116.693 513 L
117.886 513 L
119.078 513 L
120.271 513 L
121.463 513 L
122.655 513 L
123.848 513 L
125.04 513 L
126.232 513 L
127.425 513 L
128.617 513 L
129.81 513 L
131.002 513 L
132.194 513 L
133.387 513 L
134.579 513 L
135.772 513 L
136.964 513 L
138.156 513 L
139.349 513 L
140.541 513 L
141.733 513 L
142.926 513 L
144.118 513 L
145.311 513 L
146.503 513 L
147.695 513 L
148.888 513 L
150.08 513 L
151.273 513 L
152.465 513 L
153.657 513 L
154.85 513 L
156.042 513 L
157.234 513 L
158.427 513 L
159.619 513 L
160.812 513 L
162.004 513 L
163.196 513 L
164.389 513 L
165.581 513 L
166.774 513 L
167.966 513 L
169.158 513 L
170.351 513 L
171.543 513 L
172.735 513 L
173.928 513 L
175.12 513 L
176.313 513 L
177.505 513 L
178.697 513 L
179.89 513 L
181.082 513 L
182.275 513 L
183.467 513 L
184.659 513 L
185.852 513 L
187.044 513 L
188.236 513 L
189.429 513 L
190.621 513 L
191.814 513 L
193.006 513 L
194.198 513 L
195.391 513 L
196.583 513 L
197.776 513 L
198.968 513 L
200.16 513 L
201.353 513 L
202.545 513 L
203.737 513 L
204.93 513 L
206.122 513 L
207.315 513 L
208.507 513 L
209.699 513 L
210.892 513 L
212.084 513 L
213.277 513 L
214.469 513 L
215.661 513 L
216.854 513 L
218.046 513 L
219.238 513 L
220.431 513 L
221.623 513 L
222.816 513 L
224.008 513 L
225.2 513 L
226.393 513 L
227.585 513 L
228.778 513 L
229.97 513 L
231.162 513 L
232.355 513 L
233.547 513 L
234.739 513 L
235.932 513 L
237.124 513 L
238.317 513 L
239.509 513 L
240.701 513 L
241.894 513 L
243.086 513 L
244.279 513 L
245.471 513 L
246.663 513 L
247.856 513 L
249.048 513 L
250.24 513 L
251.433 513 L
252.625 513 L
253.818 513 L
255.01 513 L
256.202 513 L
257.395 513 L
258.587 513 L
259.78 513 L
260.972 513 L
262.164 513 L
263.357 513 L
264.549 513 L
265.741 513 L
266.934 513 L
268.126 513 L
269.319 513 L
270.511 513 L
271.703 513 L
272.896 513 L
274.088 513 L
275.281 513 L
276.473 513 L
277.665 513 L
278.858 513 L
280.05 513 L
281.242 513 L
282.435 513 L
283.627 513 L
284.82 513 L
286.012 513 L
287.204 513 L
288.397 513 L
289.589 513 L
290.782 513 L
291.974 513 L
293.166 513 L
294.359 513 L
295.551 513 L
296.743 513 L
297.936 513 L
299.128 513 L
300.321 513 L
301.513 513 L
302.705 513 L
303.898 513 L
305.09 513 L
306.283 513 L
307.475 513 L
308.667 513 L
309.86 513 L
311.052 513 L
312.244 513 L
313.437 513 L
314.629 513 L
315.822 513 L
317.014 513 L
318.206 513 L
319.399 513 L
320.591 513 L
321.784 513 L
322.976 513 L
324.168 513 L
325.361 513 L
326.553 513 L
327.745 513 L
328.938 513 L
330.13 513 L
331.323 513 L
332.515 513 L
333.707 513 L
334.9 513 L
336.092 513 L
337.285 513 L
338.477 513 L
339.669 513 L
340.862 513 L
342.054 513 L
343.246 513 L
344.439 513 L
345.631 513 L
346.824 513 L
348.016 513 L
349.208 513 L
350.401 513 L
351.593 513 L
352.786 513 L
353.978 513 L
355.17 513 L
356.363 513 L
357.555 513 L
358.747 513 L
359.94 513 L
361.132 513 L
362.325 513 L
363.517 513 L
364.709 513 L
365.902 513 L
367.094 513 L
368.287 513 L
369.479 513 L
370.671 513 L
371.864 513 L
373.056 513 L
374.249 513 L
375.441 513 L
376.633 513 L
377.826 513 L
379.018 513 L
380.21 513 L
381.403 513 L
382.595 513 L
383.788 513 L
384.98 513 L
386.172 513 L
387.365 513 L
388.557 513 L
389.75 513 L
390.942 513 L
392.134 513 L
393.327 513 L
394.519 513 L
395.711 513 L
396.904 513 L
398.096 513 L
399.289 513 L
400.481 513 L
401.673 513 L
402.866 513 L
404.058 513 L
405.25 513 L
406.443 513 L
407.635 513 L
408.828 513 L
410.02 513 L
411.212 513 L
412.405 513 L
413.597 513 L
414.79 513 L
415.982 513 L
417.174 513 L
418.367 513 L
419.559 513 L
420.751 513 L
421.944 513 L
423.136 513 L
424.329 513 L
425.521 513 L
426.713 513 L
427.906 513 L
429.098 513 L
430.291 513 L
431.483 513 L
432.675 513 L
433.868 513 L
435.06 513 L
436.253 513 L
437.445 513 L
438.637 513 L
439.83 513 L
441.022 513 L
442.214 513 L
443.407 513 L
444.599 513 L
445.792 513 L
446.984 513 L
448.176 513 L
449.369 513 L
450.561 513 L
451.754 513 L
452.946 513 L
454.138 513 L
455.331 513 L
456.523 513 L
457.715 513 L
458.908 513 L
460.1 513 L
461.293 513 L
462.485 513 L
463.677 513 L
464.87 513 L
466.062 513 L
467.255 513 L
468.447 513 L
469.639 513 L
470.832 513 L
472.024 513 L
473.216 513 L
474.409 513 L
475.601 513 L
476.794 513 L
477.986 513 L
479.178 513 L
480.371 513 L
481.563 513 L
482.755 513 L
483.948 513 L
485.14 513 L
486.333 513 L
487.525 513 L
488.717 513 L
489.91 513 L
491.102 513 L
492.295 513 L
493.487 513 L
494.679 513 L
495.872 513 L
497.064 513 L
498.257 513 L
499.449 513 L
500.641 513 L
501.834 513 L
503.026 513 L
504.218 513 L
505.411 513 L
506.603 513 L
507.796 513 L
508.988 513 L
510.18 513 L
511.373 513 L
512.565 513 L
513.758 513 L
514.95 513 L
516.142 513 L
517.335 513 L
518.527 513 L
519.719 513 L
520.912 513 L
522.104 513 L
523.297 513 L
524.489 513 L
525.681 512.994 L
526.874 512.954 L
528.066 512.878 L
529.258 512.764 L
530.451 512.613 L
531.643 512.426 L
532.836 512.201 L
534.028 511.94 L
535.22 511.641 L
536.413 511.305 L
537.605 510.933 L
538.798 510.523 L
539.99 510.077 L
541.182 509.593 L
542.375 509.072 L
543.567 508.515 L
544.76 507.92 L
545.952 507.289 L
547.144 506.62 L
548.337 505.915 L
549.529 505.172 L
550.721 504.392 L
551.914 503.576 L
553.106 502.722 L
554.299 501.832 L
555.491 500.904 L
556.683 499.94 L
557.876 498.938 L
559.068 497.9 L
560.26 496.824 L
561.453 495.712 L
562.645 494.562 L
563.838 493.376 L
565.03 492.152 L
566.222 490.892 L
567.415 489.594 L
568.607 488.26 L
569.8 486.888 L
570.992 485.48 L
572.184 484.034 L
573.377 482.552 L
574.569 481.032 L
575.762 479.476 L
576.954 477.882 L
578.146 476.252 L
579.339 474.584 L
580.531 472.88 L
581.723 471.138 L
582.916 469.36 L
584.108 467.545 L
585.301 465.692 L
586.493 463.803 L
587.685 461.876 L
588.878 459.913 L
590.07 457.912 L
591.263 455.875 L
592.455 453.801 L
593.647 451.689 L
594.84 449.541 L
596.032 447.355 L
597.224 445.133 L
598.417 442.874 L
599.609 440.577 L
600.802 438.244 L
601.994 435.874 L
603.186 433.466 L
604.379 431.022 L
605.571 428.54 L
606.764 426.022 L
607.956 423.467 L
609.148 420.874 L
610.341 418.245 L
611.533 415.579 L
612.725 412.875 L
613.918 410.135 L
615.11 407.358 L
616.303 404.543 L
617.495 401.692 L
618.687 398.804 L
619.88 395.878 L
621.072 392.916 L
622.265 389.917 L
623.457 386.88 L
624.649 383.807 L
625.842 380.697 L
627.034 377.55 L
628.226 374.365 L
629.419 371.144 L
630.611 367.886 L
631.804 364.59 L
632.996 361.258 L
634.188 357.889 L
635.381 354.483 L
636.573 351.039 L
637.766 347.559 L
638.958 344.042 L
640.15 340.488 L
641.343 336.896 L
642.535 333.268 L
643.727 329.603 L
644.92 325.901 L
646.112 322.161 L
647.305 318.385 L
648.497 314.572 L
649.689 310.722 L
650.882 306.835 L
652.074 302.91 L
653.267 298.949 L
654.459 294.951 L
655.651 290.916 L
656.844 286.844 L
658.036 282.735 L
659.228 278.588 L
660.421 274.405 L
661.613 270.185 L
662.806 265.928 L
663.998 261.634 L
665.19 257.303 L
666.383 252.934 L
667.575 248.529 L
668.768 244.087 L
669.96 239.608 L
671.152 235.092 L
672.345 230.539 L
673.537 225.949 L
674.729 221.321 L
675.922 216.657 L
677.114 211.956 L
678.307 207.218 L
679.499 202.443 L
680.691 197.631 L
681.884 192.782 L
683.076 187.896 L
684.269 182.973 L
685.461 178.013 L
686.653 173.015 L
687.846 167.981 L
689.038 162.91 L
690.23 157.802 L
691.423 152.657 L
692.615 147.475 L
693.808 142.256 L
695 137 L
S
GR
GS
[0.75 0 0 0.75 0 0] CT
0.997 GC
N
575 136 M
575 56 L
682 56 L
682 136 L
cp
f
GR
GS
[0.75 0 0 0.75 470.25 55.5] CT
0 GC
/Helvetica 12 F
GS
[1 0 0 1 0 0] CT
0 0 moveto 
1 -1 scale
(<x+1>) t 
GR
GR
GS
[0.75 0 0 0.75 504 51] CT
0 GC
/Helvetica 9 F
GS
[1 0 0 1 0 0] CT
0 0 moveto 
1 -1 scale
(0) t 
GR
GR
GS
[0.75 0 0 0.75 0 0] CT
0 GC
1 LJ
0.667 LW
N
583 67.765 M
623 67.765 L
S
GR
GS
[0.75 0 0 0.75 470.25 69.75] CT
0 GC
/Helvetica 12 F
GS
[1 0 0 1 0 0] CT
0 0 moveto 
1 -1 scale
(<x>) t 
GR
GR
GS
[0.75 0 0 0.75 491.25 65.25] CT
0 GC
/Helvetica 9 F
GS
[1 0 0 1 0 0] CT
0 0 moveto 
1 -1 scale
(1) t 
GR
GR
GS
[0.75 0 0 0.75 0 0] CT
0 GC
[10 6] 0 setdash
2 LJ
0.667 LW
N
583 86.588 M
623 86.588 L
S
GR
GS
[0.75 0 0 0.75 470.25 83.25] CT
0 GC
/Helvetica 12 F
GS
[1 0 0 1 0 0] CT
0 0 moveto 
1 -1 scale
(<x-1>) t 
GR
GR
GS
[0.75 0 0 0.75 500.25 78.75] CT
0 GC
/Helvetica 9 F
GS
[1 0 0 1 0 0] CT
0 0 moveto 
1 -1 scale
(1) t 
GR
GR
GS
[0.75 0 0 0.75 0 0] CT
0 GC
[8 3 2 3] 0 setdash
2 LJ
0.667 LW
N
583 105.412 M
623 105.412 L
S
GR
GS
[0.75 0 0 0.75 470.25 97.5] CT
0 GC
/Helvetica 12 F
GS
[1 0 0 1 0 0] CT
0 0 moveto 
1 -1 scale
(<x-3>) t 
GR
GR
GS
[0.75 0 0 0.75 500.25 93] CT
0 GC
/Helvetica 9 F
GS
[1 0 0 1 0 0] CT
0 0 moveto 
1 -1 scale
(2) t 
GR
GR
GS
[0.75 0 0 0.75 0 0] CT
0 GC
[1 3] 0 setdash
2 LJ
0.667 LW
N
583 124.235 M
623 124.235 L
S
GR
GS
[0.75 0 0 0.75 0 0] CT
0 GC
10.0 ML
0.667 LW
N
575 136 M
575 56 L
682 56 L
682 136 L
cp
S
GR
%%Trailer
%%Pages: 1
%%EOF
