%!PS-Adobe-3.0 EPSF-3.0
%%Creator: (MATLAB, The Mathworks, Inc. Version 8.6.0.267246 \(R2015b\). Operating System: Linux)
%%Title: ./WeatherPlot1.eps
%%CreationDate: 2015-09-18T22:23:46
%%Pages: (atend)
%%BoundingBox:    26    16   531   416
%%LanguageLevel: 3
%%EndComments
%%BeginProlog
%%BeginResource: procset (Apache XML Graphics Std ProcSet) 1.2 0
%%Version: 1.2 0
%%Copyright: (Copyright 2001-2003,2010 The Apache Software Foundation. License terms: http://www.apache.org/licenses/LICENSE-2.0)
/bd{bind def}bind def
/ld{load def}bd
/GR/grestore ld
/M/moveto ld
/LJ/setlinejoin ld
/C/curveto ld
/f/fill ld
/LW/setlinewidth ld
/GC/setgray ld
/t/show ld
/N/newpath ld
/CT/concat ld
/cp/closepath ld
/S/stroke ld
/L/lineto ld
/CC/setcmykcolor ld
/A/ashow ld
/GS/gsave ld
/RC/setrgbcolor ld
/RM/rmoveto ld
/ML/setmiterlimit ld
/re {4 2 roll M
1 index 0 rlineto
0 exch rlineto
neg 0 rlineto
cp } bd
/_ctm matrix def
/_tm matrix def
/BT { _ctm currentmatrix pop matrix _tm copy pop 0 0 moveto } bd
/ET { _ctm setmatrix } bd
/iTm { _ctm setmatrix _tm concat } bd
/Tm { _tm astore pop iTm 0 0 moveto } bd
/ux 0.0 def
/uy 0.0 def
/F {
  /Tp exch def
  /Tf exch def
  Tf findfont Tp scalefont setfont
  /cf Tf def  /cs Tp def
} bd
/ULS {currentpoint /uy exch def /ux exch def} bd
/ULE {
  /Tcx currentpoint pop def
  gsave
  newpath
  cf findfont cs scalefont dup
  /FontMatrix get 0 get /Ts exch def /FontInfo get dup
  /UnderlinePosition get Ts mul /To exch def
  /UnderlineThickness get Ts mul /Tt exch def
  ux uy To add moveto  Tcx uy To add lineto
  Tt setlinewidth stroke
  grestore
} bd
/OLE {
  /Tcx currentpoint pop def
  gsave
  newpath
  cf findfont cs scalefont dup
  /FontMatrix get 0 get /Ts exch def /FontInfo get dup
  /UnderlinePosition get Ts mul /To exch def
  /UnderlineThickness get Ts mul /Tt exch def
  ux uy To add cs add moveto Tcx uy To add cs add lineto
  Tt setlinewidth stroke
  grestore
} bd
/SOE {
  /Tcx currentpoint pop def
  gsave
  newpath
  cf findfont cs scalefont dup
  /FontMatrix get 0 get /Ts exch def /FontInfo get dup
  /UnderlinePosition get Ts mul /To exch def
  /UnderlineThickness get Ts mul /Tt exch def
  ux uy To add cs 10 mul 26 idiv add moveto Tcx uy To add cs 10 mul 26 idiv add lineto
  Tt setlinewidth stroke
  grestore
} bd
/QT {
/Y22 exch store
/X22 exch store
/Y21 exch store
/X21 exch store
currentpoint
/Y21 load 2 mul add 3 div exch
/X21 load 2 mul add 3 div exch
/X21 load 2 mul /X22 load add 3 div
/Y21 load 2 mul /Y22 load add 3 div
/X22 load /Y22 load curveto
} bd
/SSPD {
dup length /d exch dict def
{
/v exch def
/k exch def
currentpagedevice k known {
/cpdv currentpagedevice k get def
v cpdv ne {
/upd false def
/nullv v type /nulltype eq def
/nullcpdv cpdv type /nulltype eq def
nullv nullcpdv or
{
/upd true def
} {
/sametype v type cpdv type eq def
sametype {
v type /arraytype eq {
/vlen v length def
/cpdvlen cpdv length def
vlen cpdvlen eq {
0 1 vlen 1 sub {
/i exch def
/obj v i get def
/cpdobj cpdv i get def
obj cpdobj ne {
/upd true def
exit
} if
} for
} {
/upd true def
} ifelse
} {
v type /dicttype eq {
v {
/dv exch def
/dk exch def
/cpddv cpdv dk get def
dv cpddv ne {
/upd true def
exit
} if
} forall
} {
/upd true def
} ifelse
} ifelse
} if
} ifelse
upd true eq {
d k v put
} if
} if
} if
} forall
d length 0 gt {
d setpagedevice
} if
} bd
%%EndResource
%%BeginResource: procset (Apache XML Graphics EPS ProcSet) 1.0 0
%%Version: 1.0 0
%%Copyright: (Copyright 2002-2003 The Apache Software Foundation. License terms: http://www.apache.org/licenses/LICENSE-2.0)
/BeginEPSF { %def
/b4_Inc_state save def         % Save state for cleanup
/dict_count countdictstack def % Count objects on dict stack
/op_count count 1 sub def      % Count objects on operand stack
userdict begin                 % Push userdict on dict stack
/showpage { } def              % Redefine showpage, { } = null proc
0 setgray 0 setlinecap         % Prepare graphics state
1 setlinewidth 0 setlinejoin
10 setmiterlimit [ ] 0 setdash newpath
/languagelevel where           % If level not equal to 1 then
{pop languagelevel             % set strokeadjust and
1 ne                           % overprint to their defaults.
{false setstrokeadjust false setoverprint
} if
} if
} bd
/EndEPSF { %def
count op_count sub {pop} repeat            % Clean up stacks
countdictstack dict_count sub {end} repeat
b4_Inc_state restore
} bd
%%EndResource
%FOPBeginFontDict
%%IncludeResource: font Courier-Bold
%%IncludeResource: font Helvetica
%%IncludeResource: font Courier-BoldOblique
%%IncludeResource: font Courier-Oblique
%%IncludeResource: font Times-Roman
%%IncludeResource: font Helvetica-BoldOblique
%%IncludeResource: font Helvetica-Bold
%%IncludeResource: font Helvetica-Oblique
%%IncludeResource: font Times-BoldItalic
%%IncludeResource: font Courier
%%IncludeResource: font Times-Italic
%%IncludeResource: font Times-Bold
%%IncludeResource: font Symbol
%%IncludeResource: font ZapfDingbats
%FOPEndFontDict
%%BeginResource: encoding WinAnsiEncoding
/WinAnsiEncoding [
/.notdef /.notdef /.notdef /.notdef /.notdef
/.notdef /.notdef /.notdef /.notdef /.notdef
/.notdef /.notdef /.notdef /.notdef /.notdef
/.notdef /.notdef /.notdef /.notdef /.notdef
/.notdef /.notdef /.notdef /.notdef /.notdef
/.notdef /.notdef /.notdef /.notdef /.notdef
/.notdef /.notdef /space /exclam /quotedbl
/numbersign /dollar /percent /ampersand /quotesingle
/parenleft /parenright /asterisk /plus /comma
/hyphen /period /slash /zero /one
/two /three /four /five /six
/seven /eight /nine /colon /semicolon
/less /equal /greater /question /at
/A /B /C /D /E
/F /G /H /I /J
/K /L /M /N /O
/P /Q /R /S /T
/U /V /W /X /Y
/Z /bracketleft /backslash /bracketright /asciicircum
/underscore /quoteleft /a /b /c
/d /e /f /g /h
/i /j /k /l /m
/n /o /p /q /r
/s /t /u /v /w
/x /y /z /braceleft /bar
/braceright /asciitilde /bullet /Euro /bullet
/quotesinglbase /florin /quotedblbase /ellipsis /dagger
/daggerdbl /circumflex /perthousand /Scaron /guilsinglleft
/OE /bullet /Zcaron /bullet /bullet
/quoteleft /quoteright /quotedblleft /quotedblright /bullet
/endash /emdash /asciitilde /trademark /scaron
/guilsinglright /oe /bullet /zcaron /Ydieresis
/space /exclamdown /cent /sterling /currency
/yen /brokenbar /section /dieresis /copyright
/ordfeminine /guillemotleft /logicalnot /sfthyphen /registered
/macron /degree /plusminus /twosuperior /threesuperior
/acute /mu /paragraph /middot /cedilla
/onesuperior /ordmasculine /guillemotright /onequarter /onehalf
/threequarters /questiondown /Agrave /Aacute /Acircumflex
/Atilde /Adieresis /Aring /AE /Ccedilla
/Egrave /Eacute /Ecircumflex /Edieresis /Igrave
/Iacute /Icircumflex /Idieresis /Eth /Ntilde
/Ograve /Oacute /Ocircumflex /Otilde /Odieresis
/multiply /Oslash /Ugrave /Uacute /Ucircumflex
/Udieresis /Yacute /Thorn /germandbls /agrave
/aacute /acircumflex /atilde /adieresis /aring
/ae /ccedilla /egrave /eacute /ecircumflex
/edieresis /igrave /iacute /icircumflex /idieresis
/eth /ntilde /ograve /oacute /ocircumflex
/otilde /odieresis /divide /oslash /ugrave
/uacute /ucircumflex /udieresis /yacute /thorn
/ydieresis
] def
%%EndResource
%FOPBeginFontReencode
/Courier-Bold findfont
dup length dict begin
  {1 index /FID ne {def} {pop pop} ifelse} forall
  /Encoding WinAnsiEncoding def
  currentdict
end
/Courier-Bold exch definefont pop
/Helvetica findfont
dup length dict begin
  {1 index /FID ne {def} {pop pop} ifelse} forall
  /Encoding WinAnsiEncoding def
  currentdict
end
/Helvetica exch definefont pop
/Courier-BoldOblique findfont
dup length dict begin
  {1 index /FID ne {def} {pop pop} ifelse} forall
  /Encoding WinAnsiEncoding def
  currentdict
end
/Courier-BoldOblique exch definefont pop
/Courier-Oblique findfont
dup length dict begin
  {1 index /FID ne {def} {pop pop} ifelse} forall
  /Encoding WinAnsiEncoding def
  currentdict
end
/Courier-Oblique exch definefont pop
/Times-Roman findfont
dup length dict begin
  {1 index /FID ne {def} {pop pop} ifelse} forall
  /Encoding WinAnsiEncoding def
  currentdict
end
/Times-Roman exch definefont pop
/Helvetica-BoldOblique findfont
dup length dict begin
  {1 index /FID ne {def} {pop pop} ifelse} forall
  /Encoding WinAnsiEncoding def
  currentdict
end
/Helvetica-BoldOblique exch definefont pop
/Helvetica-Bold findfont
dup length dict begin
  {1 index /FID ne {def} {pop pop} ifelse} forall
  /Encoding WinAnsiEncoding def
  currentdict
end
/Helvetica-Bold exch definefont pop
/Helvetica-Oblique findfont
dup length dict begin
  {1 index /FID ne {def} {pop pop} ifelse} forall
  /Encoding WinAnsiEncoding def
  currentdict
end
/Helvetica-Oblique exch definefont pop
/Times-BoldItalic findfont
dup length dict begin
  {1 index /FID ne {def} {pop pop} ifelse} forall
  /Encoding WinAnsiEncoding def
  currentdict
end
/Times-BoldItalic exch definefont pop
/Courier findfont
dup length dict begin
  {1 index /FID ne {def} {pop pop} ifelse} forall
  /Encoding WinAnsiEncoding def
  currentdict
end
/Courier exch definefont pop
/Times-Italic findfont
dup length dict begin
  {1 index /FID ne {def} {pop pop} ifelse} forall
  /Encoding WinAnsiEncoding def
  currentdict
end
/Times-Italic exch definefont pop
/Times-Bold findfont
dup length dict begin
  {1 index /FID ne {def} {pop pop} ifelse} forall
  /Encoding WinAnsiEncoding def
  currentdict
end
/Times-Bold exch definefont pop
%FOPEndFontReencode
%%EndProlog
%%Page: 1 1
%%PageBoundingBox: 0 0 576 432
%%BeginPageSetup
[1 0 0 -1 0 432] CT
%%EndPageSetup
GS
[0.75 0 0 0.75 0 0] CT
0.997 GC
N
0 0 768 576 re
f
GR
GS
[0.75 0 0 0.75 0 0] CT
0.997 GC
N
0 0 768 576 re
f
GR
GS
[0.75 0 0 0.75 0 0] CT
0.997 GC
N
100 513 M
695 513 L
695 43 L
100 43 L
cp
f
GR
GS
[0.75 0 0 0.75 0 0] CT
0 GC
2 setlinecap
1 LJ
0.667 LW
N
100 513 M
695 513 L
S
GR
GS
[0.75 0 0 0.75 0 0] CT
0 GC
2 setlinecap
1 LJ
0.667 LW
N
100 43 M
695 43 L
S
GR
GS
[0.75 0 0 0.75 0 0] CT
0 GC
2 setlinecap
1 LJ
0.667 LW
N
100 513 M
100 507.05 L
S
GR
GS
[0.75 0 0 0.75 0 0] CT
0 GC
2 setlinecap
1 LJ
0.667 LW
N
174.375 513 M
174.375 507.05 L
S
GR
GS
[0.75 0 0 0.75 0 0] CT
0 GC
2 setlinecap
1 LJ
0.667 LW
N
248.75 513 M
248.75 507.05 L
S
GR
GS
[0.75 0 0 0.75 0 0] CT
0 GC
2 setlinecap
1 LJ
0.667 LW
N
323.125 513 M
323.125 507.05 L
S
GR
GS
[0.75 0 0 0.75 0 0] CT
0 GC
2 setlinecap
1 LJ
0.667 LW
N
397.5 513 M
397.5 507.05 L
S
GR
GS
[0.75 0 0 0.75 0 0] CT
0 GC
2 setlinecap
1 LJ
0.667 LW
N
471.875 513 M
471.875 507.05 L
S
GR
GS
[0.75 0 0 0.75 0 0] CT
0 GC
2 setlinecap
1 LJ
0.667 LW
N
546.25 513 M
546.25 507.05 L
S
GR
GS
[0.75 0 0 0.75 0 0] CT
0 GC
2 setlinecap
1 LJ
0.667 LW
N
620.625 513 M
620.625 507.05 L
S
GR
GS
[0.75 0 0 0.75 0 0] CT
0 GC
2 setlinecap
1 LJ
0.667 LW
N
695 513 M
695 507.05 L
S
GR
GS
[0.75 0 0 0.75 0 0] CT
0 GC
2 setlinecap
1 LJ
0.667 LW
N
100 43 M
100 48.95 L
S
GR
GS
[0.75 0 0 0.75 0 0] CT
0 GC
2 setlinecap
1 LJ
0.667 LW
N
174.375 43 M
174.375 48.95 L
S
GR
GS
[0.75 0 0 0.75 0 0] CT
0 GC
2 setlinecap
1 LJ
0.667 LW
N
248.75 43 M
248.75 48.95 L
S
GR
GS
[0.75 0 0 0.75 0 0] CT
0 GC
2 setlinecap
1 LJ
0.667 LW
N
323.125 43 M
323.125 48.95 L
S
GR
GS
[0.75 0 0 0.75 0 0] CT
0 GC
2 setlinecap
1 LJ
0.667 LW
N
397.5 43 M
397.5 48.95 L
S
GR
GS
[0.75 0 0 0.75 0 0] CT
0 GC
2 setlinecap
1 LJ
0.667 LW
N
471.875 43 M
471.875 48.95 L
S
GR
GS
[0.75 0 0 0.75 0 0] CT
0 GC
2 setlinecap
1 LJ
0.667 LW
N
546.25 43 M
546.25 48.95 L
S
GR
GS
[0.75 0 0 0.75 0 0] CT
0 GC
2 setlinecap
1 LJ
0.667 LW
N
620.625 43 M
620.625 48.95 L
S
GR
GS
[0.75 0 0 0.75 0 0] CT
0 GC
2 setlinecap
1 LJ
0.667 LW
N
695 43 M
695 48.95 L
S
GR
GS
[0.75 0 0 0.75 75 388.74998] CT
0 GC
/Helvetica 13 F
GS
[1 0 0 1 0 0] CT
-4.5 13 moveto 
1 -1 scale
(0) t 
GR
GR
GS
[0.75 0 0 0.75 130.78125 388.74998] CT
0 GC
/Helvetica 13 F
GS
[1 0 0 1 0 0] CT
-8.5 13 moveto 
1 -1 scale
(50) t 
GR
GR
GS
[0.75 0 0 0.75 186.5625 388.74998] CT
0 GC
/Helvetica 13 F
GS
[1 0 0 1 0 0] CT
-12.5 13 moveto 
1 -1 scale
(100) t 
GR
GR
GS
[0.75 0 0 0.75 242.34375 388.74998] CT
0 GC
/Helvetica 13 F
GS
[1 0 0 1 0 0] CT
-12.5 13 moveto 
1 -1 scale
(150) t 
GR
GR
GS
[0.75 0 0 0.75 298.125 388.74998] CT
0 GC
/Helvetica 13 F
GS
[1 0 0 1 0 0] CT
-12.5 13 moveto 
1 -1 scale
(200) t 
GR
GR
GS
[0.75 0 0 0.75 353.90625 388.74998] CT
0 GC
/Helvetica 13 F
GS
[1 0 0 1 0 0] CT
-12.5 13 moveto 
1 -1 scale
(250) t 
GR
GR
GS
[0.75 0 0 0.75 409.6875 388.74998] CT
0 GC
/Helvetica 13 F
GS
[1 0 0 1 0 0] CT
-12.5 13 moveto 
1 -1 scale
(300) t 
GR
GR
GS
[0.75 0 0 0.75 465.46875 388.74998] CT
0 GC
/Helvetica 13 F
GS
[1 0 0 1 0 0] CT
-12.5 13 moveto 
1 -1 scale
(350) t 
GR
GR
GS
[0.75 0 0 0.75 521.25 388.74998] CT
0 GC
/Helvetica 13 F
GS
[1 0 0 1 0 0] CT
-12.5 13 moveto 
1 -1 scale
(400) t 
GR
GR
GS
[0.75 0 0 0.75 298.12521 402.50002] CT
0 GC
/Helvetica 15 F
GS
[1 0 0 1 0 0] CT
-44 14 moveto 
1 -1 scale
(Day of Year) t 
GR
GR
GS
[0.75 0 0 0.75 0 0] CT
0 GC
2 setlinecap
1 LJ
0.667 LW
N
100 513 M
100 43 L
S
GR
GS
[0.75 0 0 0.75 0 0] CT
0 GC
2 setlinecap
1 LJ
0.667 LW
N
695 513 M
695 43 L
S
GR
GS
[0.75 0 0 0.75 0 0] CT
0 GC
2 setlinecap
1 LJ
0.667 LW
N
100 513 M
105.95 513 L
S
GR
GS
[0.75 0 0 0.75 0 0] CT
0 GC
2 setlinecap
1 LJ
0.667 LW
N
100 434.667 M
105.95 434.667 L
S
GR
GS
[0.75 0 0 0.75 0 0] CT
0 GC
2 setlinecap
1 LJ
0.667 LW
N
100 356.333 M
105.95 356.333 L
S
GR
GS
[0.75 0 0 0.75 0 0] CT
0 GC
2 setlinecap
1 LJ
0.667 LW
N
100 278 M
105.95 278 L
S
GR
GS
[0.75 0 0 0.75 0 0] CT
0 GC
2 setlinecap
1 LJ
0.667 LW
N
100 199.667 M
105.95 199.667 L
S
GR
GS
[0.75 0 0 0.75 0 0] CT
0 GC
2 setlinecap
1 LJ
0.667 LW
N
100 121.333 M
105.95 121.333 L
S
GR
GS
[0.75 0 0 0.75 0 0] CT
0 GC
2 setlinecap
1 LJ
0.667 LW
N
100 43 M
105.95 43 L
S
GR
GS
[0.75 0 0 0.75 0 0] CT
0 GC
2 setlinecap
1 LJ
0.667 LW
N
695 513 M
689.05 513 L
S
GR
GS
[0.75 0 0 0.75 0 0] CT
0 GC
2 setlinecap
1 LJ
0.667 LW
N
695 434.667 M
689.05 434.667 L
S
GR
GS
[0.75 0 0 0.75 0 0] CT
0 GC
2 setlinecap
1 LJ
0.667 LW
N
695 356.333 M
689.05 356.333 L
S
GR
GS
[0.75 0 0 0.75 0 0] CT
0 GC
2 setlinecap
1 LJ
0.667 LW
N
695 278 M
689.05 278 L
S
GR
GS
[0.75 0 0 0.75 0 0] CT
0 GC
2 setlinecap
1 LJ
0.667 LW
N
695 199.667 M
689.05 199.667 L
S
GR
GS
[0.75 0 0 0.75 0 0] CT
0 GC
2 setlinecap
1 LJ
0.667 LW
N
695 121.333 M
689.05 121.333 L
S
GR
GS
[0.75 0 0 0.75 0 0] CT
0 GC
2 setlinecap
1 LJ
0.667 LW
N
695 43 M
689.05 43 L
S
GR
GS
[0.75 0 0 0.75 71 384.75] CT
0 GC
/Helvetica 13 F
GS
[1 0 0 1 0 0] CT
-9 4.5 moveto 
1 -1 scale
(0) t 
GR
GR
GS
[0.75 0 0 0.75 71 325.99999] CT
0 GC
/Helvetica 13 F
GS
[1 0 0 1 0 0] CT
-25 4.5 moveto 
1 -1 scale
(200) t 
GR
GR
GS
[0.75 0 0 0.75 71 267.25001] CT
0 GC
/Helvetica 13 F
GS
[1 0 0 1 0 0] CT
-25 4.5 moveto 
1 -1 scale
(400) t 
GR
GR
GS
[0.75 0 0 0.75 71 208.5] CT
0 GC
/Helvetica 13 F
GS
[1 0 0 1 0 0] CT
-25 4.5 moveto 
1 -1 scale
(600) t 
GR
GR
GS
[0.75 0 0 0.75 71 149.75] CT
0 GC
/Helvetica 13 F
GS
[1 0 0 1 0 0] CT
-25 4.5 moveto 
1 -1 scale
(800) t 
GR
GR
GS
[0.75 0 0 0.75 71 91] CT
0 GC
/Helvetica 13 F
GS
[1 0 0 1 0 0] CT
-34 4.5 moveto 
1 -1 scale
(1000) t 
GR
GR
GS
[0.75 0 0 0.75 71 32.25] CT
0 GC
/Helvetica 13 F
GS
[1 0 0 1 0 0] CT
-34 4.5 moveto 
1 -1 scale
(1200) t 
GR
GR
GS
[0 -0.75 0.75 0 39.75 256.5] CT
0 GC
/Helvetica 15 F
GS
[1 0 0 1 0 0] CT
0 0 moveto 
1 -1 scale
(Irradiance, W/m) t 
GR
GR
GS
[0 -0.75 0.75 0 34.5 166.5] CT
0 GC
/Helvetica 11 F
GS
[1 0 0 1 0 0] CT
0 0 moveto 
1 -1 scale
(2) t 
GR
GR
GS
[0.75 0 0 0.75 298.1253 30.18751] CT
0 GC
/Helvetica-Bold 15 F
GS
[1 0 0 1 0 0] CT
-185.5 -4 moveto 
1 -1 scale
(Post-Noon-Hour Irradiance for 2013 \(th174\)) t 
GR
GR
GS
[0.75 0 0 0.75 0 0] CT
0 GC
1 LJ
0.667 LW
N
101.488 479.572 M
102.975 439.32 L
104.463 448.154 L
105.95 307.616 L
107.438 318.509 L
108.925 452.278 L
110.412 308.364 L
111.9 326.248 L
113.387 315.506 L
114.875 304.852 L
116.363 427.655 L
117.85 457.417 L
119.338 333.082 L
120.825 337.877 L
122.313 483.525 L
123.8 469.684 L
125.287 489.374 L
126.775 299.724 L
128.262 297.514 L
129.75 301.88 L
131.238 293.923 L
132.725 283.25 L
134.212 306.201 L
135.7 354.868 L
137.188 454.646 L
138.675 444.214 L
140.163 283.511 L
141.65 439.008 L
143.137 289.954 L
144.625 324.018 L
146.113 267.527 L
147.6 261.444 L
149.087 307.61 L
150.575 336.512 L
152.063 296.769 L
153.55 369.875 L
155.038 267.587 L
156.525 383.724 L
158.012 462.585 L
159.5 251.509 L
160.988 262.612 L
162.475 485.52 L
163.962 265.051 L
165.45 479.019 L
166.938 364.28 L
168.425 246.055 L
169.913 439.878 L
171.4 276.601 L
172.887 230.026 L
174.375 446.306 L
S
GR
GS
[0.75 0 0 0.75 0 0] CT
0 GC
1 LJ
0.667 LW
N
172.887 230.026 M
174.375 446.306 L
175.863 221.772 L
177.35 226.503 L
178.837 404.419 L
180.325 450.448 L
181.813 422.499 L
183.3 323.78 L
184.788 485.511 L
186.275 242.712 L
187.762 333.546 L
189.25 321.881 L
190.738 304.203 L
192.225 366.372 L
193.712 198.961 L
195.2 276.418 L
196.688 448.323 L
198.175 198.1 L
199.663 292.204 L
201.15 191.87 L
202.637 194.213 L
204.125 238.298 L
205.613 404.795 L
207.1 195.343 L
208.587 183.435 L
210.075 182.251 L
211.563 206.088 L
213.05 410.908 L
214.538 445 L
216.025 193.034 L
217.512 307.145 L
219 473.331 L
220.488 163.708 L
221.975 298.069 L
223.462 470.245 L
224.95 388.279 L
226.438 423.211 L
227.925 299.241 L
229.413 255.153 L
230.9 226.042 L
232.387 172.342 L
233.875 378.037 L
235.363 159.392 L
236.85 152.798 L
238.337 155.209 L
239.825 288.818 L
241.313 347.687 L
242.8 149.036 L
244.288 153.892 L
245.775 223.161 L
247.262 171.512 L
248.75 164.859 L
S
GR
GS
[0.75 0 0 0.75 0 0] CT
0 GC
1 LJ
0.667 LW
N
247.262 171.512 M
248.75 164.859 L
250.238 169.573 L
251.725 256.499 L
253.212 188.084 L
254.7 148.403 L
256.188 456.508 L
257.675 235.409 L
259.163 157.815 L
260.65 158.274 L
262.138 204.167 L
263.625 370.523 L
265.112 134.566 L
266.6 445.388 L
268.087 400.547 L
269.575 141.677 L
271.063 252.19 L
272.55 131.506 L
274.038 144.84 L
275.525 189.811 L
277.013 417.259 L
278.5 365.567 L
279.987 243.932 L
281.475 176.131 L
282.962 205.101 L
284.45 313.245 L
285.938 241.121 L
287.425 197.105 L
288.913 126.576 L
290.4 194.1 L
291.888 132.601 L
293.375 165.139 L
294.862 202.951 L
296.35 155.207 L
297.837 319.14 L
299.325 121.044 L
300.813 140.875 L
302.3 132.256 L
303.788 134.001 L
305.275 375.362 L
306.763 437.061 L
308.25 277.036 L
309.737 180.158 L
311.225 135.216 L
312.712 365.913 L
314.2 443.903 L
315.688 112.371 L
317.175 114.048 L
318.663 122.898 L
320.15 139.642 L
321.638 138.606 L
323.125 127.368 L
S
GR
GS
[0.75 0 0 0.75 0 0] CT
0 GC
1 LJ
0.667 LW
N
321.638 138.606 M
323.125 127.368 L
324.612 127.369 L
326.1 130.99 L
327.587 148.786 L
329.075 412.458 L
330.563 127.049 L
332.05 230.648 L
333.538 280.581 L
335.025 191.931 L
336.513 209.898 L
338 202.615 L
339.487 141.426 L
340.975 131.211 L
342.462 136.064 L
343.95 139.416 L
345.438 238.87 L
346.925 148.141 L
348.413 133.158 L
349.9 244.861 L
351.388 338.313 L
352.875 277.818 L
354.362 114.029 L
355.85 224.429 L
357.337 214.649 L
358.825 201.858 L
360.313 441.048 L
361.8 218.715 L
363.288 158.346 L
364.775 209.001 L
366.263 130.25 L
367.75 265.921 L
369.237 449.047 L
370.725 424.235 L
372.212 175.707 L
373.7 260.111 L
375.188 147.451 L
376.675 109.671 L
378.163 195.776 L
379.65 140.536 L
381.138 353.323 L
382.625 195.623 L
384.112 236.506 L
385.6 209.519 L
387.087 459.249 L
388.575 133.71 L
390.063 167.556 L
391.55 164.902 L
393.038 219.826 L
394.525 351.282 L
396.013 276.942 L
397.5 190.804 L
S
GR
GS
[0.75 0 0 0.75 0 0] CT
0 GC
1 LJ
0.667 LW
N
396.013 276.942 M
397.5 190.804 L
398.987 176.355 L
400.475 138.539 L
401.962 353.111 L
403.45 260.182 L
404.938 163.245 L
406.425 236.721 L
407.913 147.567 L
409.4 184.224 L
410.888 148.926 L
412.375 290.336 L
413.862 190.168 L
415.35 275.306 L
416.837 323.754 L
418.325 175.136 L
419.813 244.131 L
421.3 195.033 L
422.788 247.996 L
424.275 479.111 L
425.763 162.329 L
427.25 190.579 L
428.737 194.622 L
430.225 178.461 L
431.712 210.173 L
433.2 217.912 L
434.688 218.706 L
436.175 361.598 L
437.663 397.093 L
439.15 360.885 L
440.638 457.811 L
442.125 199.298 L
443.612 431.26 L
445.1 377.431 L
446.587 332.838 L
448.075 193.29 L
449.563 272.927 L
451.05 279.963 L
452.538 187.105 L
454.025 152.554 L
455.513 201.109 L
457 259.342 L
458.487 399.444 L
459.975 154.194 L
461.462 187.49 L
462.95 239.142 L
464.438 216.046 L
465.925 405.42 L
467.413 179.086 L
468.9 171.803 L
470.388 217.144 L
471.875 181.333 L
S
GR
GS
[0.75 0 0 0.75 0 0] CT
0 GC
1 LJ
0.667 LW
N
470.388 217.144 M
471.875 181.333 L
473.362 185.283 L
474.85 203.89 L
476.337 187.543 L
477.825 196.748 L
479.313 191.696 L
480.8 221.885 L
482.288 237.322 L
483.775 178.493 L
485.263 333.131 L
486.75 251.213 L
488.237 306.815 L
489.725 188.43 L
491.212 307.88 L
492.7 350.091 L
494.188 398.896 L
495.675 357.834 L
497.163 206.041 L
498.65 262.598 L
500.138 234.363 L
501.625 332.713 L
503.112 370.341 L
504.6 368.02 L
506.087 246.451 L
507.575 227.658 L
509.063 293.877 L
510.55 323.247 L
512.037 325.561 L
513.525 272.162 L
515.013 235.377 L
516.5 244.617 L
517.987 466.413 L
519.475 464.976 L
520.963 461.012 L
522.45 443.891 L
523.938 408.25 L
525.425 434.917 L
526.912 340.346 L
528.4 398.159 L
529.888 253.497 L
531.375 340.554 L
532.862 383.494 L
534.35 460.286 L
535.838 246.732 L
537.325 320.382 L
538.813 467.052 L
540.3 405.543 L
541.787 253.208 L
543.275 250.461 L
544.763 257.76 L
546.25 270.81 L
S
GR
GS
[0.75 0 0 0.75 0 0] CT
0 GC
1 LJ
0.667 LW
N
544.763 257.76 M
546.25 270.81 L
547.737 400.867 L
549.225 277.304 L
550.713 312.215 L
552.2 328.819 L
553.688 406.708 L
555.175 402.213 L
556.662 290.032 L
558.15 288.448 L
559.638 306.727 L
561.125 308.801 L
562.612 436.165 L
564.1 276.976 L
565.588 299.476 L
567.075 286.764 L
568.563 287.453 L
570.05 348.449 L
571.537 283.006 L
573.025 285.76 L
574.513 311.8 L
576 374.581 L
577.487 336.72 L
578.975 306.07 L
580.463 296.16 L
581.95 295.216 L
583.438 423.151 L
584.925 310.501 L
586.412 460.641 L
587.9 294.001 L
589.388 310.678 L
590.875 453.383 L
592.362 474.916 L
593.85 305.509 L
595.338 309.003 L
596.825 311.156 L
598.313 349.342 L
599.8 398.5 L
601.287 323.128 L
602.775 467.469 L
604.263 432.395 L
605.75 360.118 L
607.237 473.742 L
608.725 484.973 L
610.213 483.939 L
611.7 494.746 L
613.188 314.5 L
614.675 366.271 L
616.162 317.988 L
617.65 451.716 L
619.138 398.934 L
620.625 323.882 L
S
GR
GS
[0.75 0 0 0.75 0 0] CT
0 GC
1 LJ
0.667 LW
N
619.138 398.934 M
620.625 323.882 L
622.112 323.022 L
623.6 318.161 L
625.088 319.102 L
626.575 403.961 L
628.063 380.608 L
629.55 362.479 L
631.037 429.022 L
632.525 420.882 L
634.013 313.952 L
635.5 457.127 L
636.987 318.862 L
638.475 308.483 L
639.963 498.205 L
641.45 375.898 L
642.938 361.829 L
S
GR
%%Trailer
%%Pages: 1
%%EOF
