%!PS-Adobe-3.0 EPSF-3.0
%%Creator: (MATLAB, The Mathworks, Inc. Version 8.6.0.267246 \(R2015b\). Operating System: Linux)
%%Title: ./WeatherPlot3.eps
%%CreationDate: 2015-09-18T22:23:48
%%Pages: (atend)
%%BoundingBox:    41    16   528   416
%%LanguageLevel: 3
%%EndComments
%%BeginProlog
%%BeginResource: procset (Apache XML Graphics Std ProcSet) 1.2 0
%%Version: 1.2 0
%%Copyright: (Copyright 2001-2003,2010 The Apache Software Foundation. License terms: http://www.apache.org/licenses/LICENSE-2.0)
/bd{bind def}bind def
/ld{load def}bd
/GR/grestore ld
/M/moveto ld
/LJ/setlinejoin ld
/C/curveto ld
/f/fill ld
/LW/setlinewidth ld
/GC/setgray ld
/t/show ld
/N/newpath ld
/CT/concat ld
/cp/closepath ld
/S/stroke ld
/L/lineto ld
/CC/setcmykcolor ld
/A/ashow ld
/GS/gsave ld
/RC/setrgbcolor ld
/RM/rmoveto ld
/ML/setmiterlimit ld
/re {4 2 roll M
1 index 0 rlineto
0 exch rlineto
neg 0 rlineto
cp } bd
/_ctm matrix def
/_tm matrix def
/BT { _ctm currentmatrix pop matrix _tm copy pop 0 0 moveto } bd
/ET { _ctm setmatrix } bd
/iTm { _ctm setmatrix _tm concat } bd
/Tm { _tm astore pop iTm 0 0 moveto } bd
/ux 0.0 def
/uy 0.0 def
/F {
  /Tp exch def
  /Tf exch def
  Tf findfont Tp scalefont setfont
  /cf Tf def  /cs Tp def
} bd
/ULS {currentpoint /uy exch def /ux exch def} bd
/ULE {
  /Tcx currentpoint pop def
  gsave
  newpath
  cf findfont cs scalefont dup
  /FontMatrix get 0 get /Ts exch def /FontInfo get dup
  /UnderlinePosition get Ts mul /To exch def
  /UnderlineThickness get Ts mul /Tt exch def
  ux uy To add moveto  Tcx uy To add lineto
  Tt setlinewidth stroke
  grestore
} bd
/OLE {
  /Tcx currentpoint pop def
  gsave
  newpath
  cf findfont cs scalefont dup
  /FontMatrix get 0 get /Ts exch def /FontInfo get dup
  /UnderlinePosition get Ts mul /To exch def
  /UnderlineThickness get Ts mul /Tt exch def
  ux uy To add cs add moveto Tcx uy To add cs add lineto
  Tt setlinewidth stroke
  grestore
} bd
/SOE {
  /Tcx currentpoint pop def
  gsave
  newpath
  cf findfont cs scalefont dup
  /FontMatrix get 0 get /Ts exch def /FontInfo get dup
  /UnderlinePosition get Ts mul /To exch def
  /UnderlineThickness get Ts mul /Tt exch def
  ux uy To add cs 10 mul 26 idiv add moveto Tcx uy To add cs 10 mul 26 idiv add lineto
  Tt setlinewidth stroke
  grestore
} bd
/QT {
/Y22 exch store
/X22 exch store
/Y21 exch store
/X21 exch store
currentpoint
/Y21 load 2 mul add 3 div exch
/X21 load 2 mul add 3 div exch
/X21 load 2 mul /X22 load add 3 div
/Y21 load 2 mul /Y22 load add 3 div
/X22 load /Y22 load curveto
} bd
/SSPD {
dup length /d exch dict def
{
/v exch def
/k exch def
currentpagedevice k known {
/cpdv currentpagedevice k get def
v cpdv ne {
/upd false def
/nullv v type /nulltype eq def
/nullcpdv cpdv type /nulltype eq def
nullv nullcpdv or
{
/upd true def
} {
/sametype v type cpdv type eq def
sametype {
v type /arraytype eq {
/vlen v length def
/cpdvlen cpdv length def
vlen cpdvlen eq {
0 1 vlen 1 sub {
/i exch def
/obj v i get def
/cpdobj cpdv i get def
obj cpdobj ne {
/upd true def
exit
} if
} for
} {
/upd true def
} ifelse
} {
v type /dicttype eq {
v {
/dv exch def
/dk exch def
/cpddv cpdv dk get def
dv cpddv ne {
/upd true def
exit
} if
} forall
} {
/upd true def
} ifelse
} ifelse
} if
} ifelse
upd true eq {
d k v put
} if
} if
} if
} forall
d length 0 gt {
d setpagedevice
} if
} bd
%%EndResource
%%BeginResource: procset (Apache XML Graphics EPS ProcSet) 1.0 0
%%Version: 1.0 0
%%Copyright: (Copyright 2002-2003 The Apache Software Foundation. License terms: http://www.apache.org/licenses/LICENSE-2.0)
/BeginEPSF { %def
/b4_Inc_state save def         % Save state for cleanup
/dict_count countdictstack def % Count objects on dict stack
/op_count count 1 sub def      % Count objects on operand stack
userdict begin                 % Push userdict on dict stack
/showpage { } def              % Redefine showpage, { } = null proc
0 setgray 0 setlinecap         % Prepare graphics state
1 setlinewidth 0 setlinejoin
10 setmiterlimit [ ] 0 setdash newpath
/languagelevel where           % If level not equal to 1 then
{pop languagelevel             % set strokeadjust and
1 ne                           % overprint to their defaults.
{false setstrokeadjust false setoverprint
} if
} if
} bd
/EndEPSF { %def
count op_count sub {pop} repeat            % Clean up stacks
countdictstack dict_count sub {end} repeat
b4_Inc_state restore
} bd
%%EndResource
%FOPBeginFontDict
%%IncludeResource: font Courier-Bold
%%IncludeResource: font Helvetica
%%IncludeResource: font Courier-BoldOblique
%%IncludeResource: font Courier-Oblique
%%IncludeResource: font Times-Roman
%%IncludeResource: font Helvetica-BoldOblique
%%IncludeResource: font Helvetica-Bold
%%IncludeResource: font Helvetica-Oblique
%%IncludeResource: font Times-BoldItalic
%%IncludeResource: font Courier
%%IncludeResource: font Times-Italic
%%IncludeResource: font Times-Bold
%%IncludeResource: font Symbol
%%IncludeResource: font ZapfDingbats
%FOPEndFontDict
%%BeginResource: encoding WinAnsiEncoding
/WinAnsiEncoding [
/.notdef /.notdef /.notdef /.notdef /.notdef
/.notdef /.notdef /.notdef /.notdef /.notdef
/.notdef /.notdef /.notdef /.notdef /.notdef
/.notdef /.notdef /.notdef /.notdef /.notdef
/.notdef /.notdef /.notdef /.notdef /.notdef
/.notdef /.notdef /.notdef /.notdef /.notdef
/.notdef /.notdef /space /exclam /quotedbl
/numbersign /dollar /percent /ampersand /quotesingle
/parenleft /parenright /asterisk /plus /comma
/hyphen /period /slash /zero /one
/two /three /four /five /six
/seven /eight /nine /colon /semicolon
/less /equal /greater /question /at
/A /B /C /D /E
/F /G /H /I /J
/K /L /M /N /O
/P /Q /R /S /T
/U /V /W /X /Y
/Z /bracketleft /backslash /bracketright /asciicircum
/underscore /quoteleft /a /b /c
/d /e /f /g /h
/i /j /k /l /m
/n /o /p /q /r
/s /t /u /v /w
/x /y /z /braceleft /bar
/braceright /asciitilde /bullet /Euro /bullet
/quotesinglbase /florin /quotedblbase /ellipsis /dagger
/daggerdbl /circumflex /perthousand /Scaron /guilsinglleft
/OE /bullet /Zcaron /bullet /bullet
/quoteleft /quoteright /quotedblleft /quotedblright /bullet
/endash /emdash /asciitilde /trademark /scaron
/guilsinglright /oe /bullet /zcaron /Ydieresis
/space /exclamdown /cent /sterling /currency
/yen /brokenbar /section /dieresis /copyright
/ordfeminine /guillemotleft /logicalnot /sfthyphen /registered
/macron /degree /plusminus /twosuperior /threesuperior
/acute /mu /paragraph /middot /cedilla
/onesuperior /ordmasculine /guillemotright /onequarter /onehalf
/threequarters /questiondown /Agrave /Aacute /Acircumflex
/Atilde /Adieresis /Aring /AE /Ccedilla
/Egrave /Eacute /Ecircumflex /Edieresis /Igrave
/Iacute /Icircumflex /Idieresis /Eth /Ntilde
/Ograve /Oacute /Ocircumflex /Otilde /Odieresis
/multiply /Oslash /Ugrave /Uacute /Ucircumflex
/Udieresis /Yacute /Thorn /germandbls /agrave
/aacute /acircumflex /atilde /adieresis /aring
/ae /ccedilla /egrave /eacute /ecircumflex
/edieresis /igrave /iacute /icircumflex /idieresis
/eth /ntilde /ograve /oacute /ocircumflex
/otilde /odieresis /divide /oslash /ugrave
/uacute /ucircumflex /udieresis /yacute /thorn
/ydieresis
] def
%%EndResource
%FOPBeginFontReencode
/Courier-Bold findfont
dup length dict begin
  {1 index /FID ne {def} {pop pop} ifelse} forall
  /Encoding WinAnsiEncoding def
  currentdict
end
/Courier-Bold exch definefont pop
/Helvetica findfont
dup length dict begin
  {1 index /FID ne {def} {pop pop} ifelse} forall
  /Encoding WinAnsiEncoding def
  currentdict
end
/Helvetica exch definefont pop
/Courier-BoldOblique findfont
dup length dict begin
  {1 index /FID ne {def} {pop pop} ifelse} forall
  /Encoding WinAnsiEncoding def
  currentdict
end
/Courier-BoldOblique exch definefont pop
/Courier-Oblique findfont
dup length dict begin
  {1 index /FID ne {def} {pop pop} ifelse} forall
  /Encoding WinAnsiEncoding def
  currentdict
end
/Courier-Oblique exch definefont pop
/Times-Roman findfont
dup length dict begin
  {1 index /FID ne {def} {pop pop} ifelse} forall
  /Encoding WinAnsiEncoding def
  currentdict
end
/Times-Roman exch definefont pop
/Helvetica-BoldOblique findfont
dup length dict begin
  {1 index /FID ne {def} {pop pop} ifelse} forall
  /Encoding WinAnsiEncoding def
  currentdict
end
/Helvetica-BoldOblique exch definefont pop
/Helvetica-Bold findfont
dup length dict begin
  {1 index /FID ne {def} {pop pop} ifelse} forall
  /Encoding WinAnsiEncoding def
  currentdict
end
/Helvetica-Bold exch definefont pop
/Helvetica-Oblique findfont
dup length dict begin
  {1 index /FID ne {def} {pop pop} ifelse} forall
  /Encoding WinAnsiEncoding def
  currentdict
end
/Helvetica-Oblique exch definefont pop
/Times-BoldItalic findfont
dup length dict begin
  {1 index /FID ne {def} {pop pop} ifelse} forall
  /Encoding WinAnsiEncoding def
  currentdict
end
/Times-BoldItalic exch definefont pop
/Courier findfont
dup length dict begin
  {1 index /FID ne {def} {pop pop} ifelse} forall
  /Encoding WinAnsiEncoding def
  currentdict
end
/Courier exch definefont pop
/Times-Italic findfont
dup length dict begin
  {1 index /FID ne {def} {pop pop} ifelse} forall
  /Encoding WinAnsiEncoding def
  currentdict
end
/Times-Italic exch definefont pop
/Times-Bold findfont
dup length dict begin
  {1 index /FID ne {def} {pop pop} ifelse} forall
  /Encoding WinAnsiEncoding def
  currentdict
end
/Times-Bold exch definefont pop
%FOPEndFontReencode
%%EndProlog
%%Page: 1 1
%%PageBoundingBox: 0 0 576 432
%%BeginPageSetup
[1 0 0 -1 0 432] CT
%%EndPageSetup
GS
[0.75 0 0 0.75 0 0] CT
0.997 GC
N
0 0 768 576 re
f
GR
GS
[0.75 0 0 0.75 0 0] CT
0.997 GC
N
0 0 768 576 re
f
GR
GS
[0.75 0 0 0.75 0 0] CT
0.997 GC
N
100 513 M
695 513 L
695 43 L
100 43 L
cp
f
GR
GS
[0.75 0 0 0.75 0 0] CT
0 GC
2 setlinecap
1 LJ
0.667 LW
N
100 513 M
695 513 L
S
GR
GS
[0.75 0 0 0.75 0 0] CT
0 GC
2 setlinecap
1 LJ
0.667 LW
N
100 43 M
695 43 L
S
GR
GS
[0.75 0 0 0.75 0 0] CT
0 GC
2 setlinecap
1 LJ
0.667 LW
N
100 513 M
100 507.05 L
S
GR
GS
[0.75 0 0 0.75 0 0] CT
0 GC
2 setlinecap
1 LJ
0.667 LW
N
199.167 513 M
199.167 507.05 L
S
GR
GS
[0.75 0 0 0.75 0 0] CT
0 GC
2 setlinecap
1 LJ
0.667 LW
N
298.333 513 M
298.333 507.05 L
S
GR
GS
[0.75 0 0 0.75 0 0] CT
0 GC
2 setlinecap
1 LJ
0.667 LW
N
397.5 513 M
397.5 507.05 L
S
GR
GS
[0.75 0 0 0.75 0 0] CT
0 GC
2 setlinecap
1 LJ
0.667 LW
N
496.667 513 M
496.667 507.05 L
S
GR
GS
[0.75 0 0 0.75 0 0] CT
0 GC
2 setlinecap
1 LJ
0.667 LW
N
595.833 513 M
595.833 507.05 L
S
GR
GS
[0.75 0 0 0.75 0 0] CT
0 GC
2 setlinecap
1 LJ
0.667 LW
N
695 513 M
695 507.05 L
S
GR
GS
[0.75 0 0 0.75 0 0] CT
0 GC
2 setlinecap
1 LJ
0.667 LW
N
100 43 M
100 48.95 L
S
GR
GS
[0.75 0 0 0.75 0 0] CT
0 GC
2 setlinecap
1 LJ
0.667 LW
N
199.167 43 M
199.167 48.95 L
S
GR
GS
[0.75 0 0 0.75 0 0] CT
0 GC
2 setlinecap
1 LJ
0.667 LW
N
298.333 43 M
298.333 48.95 L
S
GR
GS
[0.75 0 0 0.75 0 0] CT
0 GC
2 setlinecap
1 LJ
0.667 LW
N
397.5 43 M
397.5 48.95 L
S
GR
GS
[0.75 0 0 0.75 0 0] CT
0 GC
2 setlinecap
1 LJ
0.667 LW
N
496.667 43 M
496.667 48.95 L
S
GR
GS
[0.75 0 0 0.75 0 0] CT
0 GC
2 setlinecap
1 LJ
0.667 LW
N
595.833 43 M
595.833 48.95 L
S
GR
GS
[0.75 0 0 0.75 0 0] CT
0 GC
2 setlinecap
1 LJ
0.667 LW
N
695 43 M
695 48.95 L
S
GR
GS
[0.75 0 0 0.75 75 388.74998] CT
0 GC
/Helvetica 13 F
GS
[1 0 0 1 0 0] CT
-4.5 13 moveto 
1 -1 scale
(0) t 
GR
GR
GS
[0.75 0 0 0.75 149.375 388.74998] CT
0 GC
/Helvetica 13 F
GS
[1 0 0 1 0 0] CT
-4.5 13 moveto 
1 -1 scale
(5) t 
GR
GR
GS
[0.75 0 0 0.75 223.75001 388.74998] CT
0 GC
/Helvetica 13 F
GS
[1 0 0 1 0 0] CT
-8.5 13 moveto 
1 -1 scale
(10) t 
GR
GR
GS
[0.75 0 0 0.75 298.125 388.74998] CT
0 GC
/Helvetica 13 F
GS
[1 0 0 1 0 0] CT
-8.5 13 moveto 
1 -1 scale
(15) t 
GR
GR
GS
[0.75 0 0 0.75 372.49999 388.74998] CT
0 GC
/Helvetica 13 F
GS
[1 0 0 1 0 0] CT
-8.5 13 moveto 
1 -1 scale
(20) t 
GR
GR
GS
[0.75 0 0 0.75 446.87498 388.74998] CT
0 GC
/Helvetica 13 F
GS
[1 0 0 1 0 0] CT
-8.5 13 moveto 
1 -1 scale
(25) t 
GR
GR
GS
[0.75 0 0 0.75 521.25 388.74998] CT
0 GC
/Helvetica 13 F
GS
[1 0 0 1 0 0] CT
-8.5 13 moveto 
1 -1 scale
(30) t 
GR
GR
GS
[0.75 0 0 0.75 298.12521 402.50002] CT
0 GC
/Helvetica 15 F
GS
[1 0 0 1 0 0] CT
-19 14 moveto 
1 -1 scale
(Rank) t 
GR
GR
GS
[0.75 0 0 0.75 0 0] CT
0 GC
2 setlinecap
1 LJ
0.667 LW
N
100 513 M
100 43 L
S
GR
GS
[0.75 0 0 0.75 0 0] CT
0 GC
2 setlinecap
1 LJ
0.667 LW
N
695 513 M
695 43 L
S
GR
GS
[0.75 0 0 0.75 0 0] CT
0 GC
2 setlinecap
1 LJ
0.667 LW
N
100 513 M
105.95 513 L
S
GR
GS
[0.75 0 0 0.75 0 0] CT
0 GC
2 setlinecap
1 LJ
0.667 LW
N
100 434.667 M
105.95 434.667 L
S
GR
GS
[0.75 0 0 0.75 0 0] CT
0 GC
2 setlinecap
1 LJ
0.667 LW
N
100 356.333 M
105.95 356.333 L
S
GR
GS
[0.75 0 0 0.75 0 0] CT
0 GC
2 setlinecap
1 LJ
0.667 LW
N
100 278 M
105.95 278 L
S
GR
GS
[0.75 0 0 0.75 0 0] CT
0 GC
2 setlinecap
1 LJ
0.667 LW
N
100 199.667 M
105.95 199.667 L
S
GR
GS
[0.75 0 0 0.75 0 0] CT
0 GC
2 setlinecap
1 LJ
0.667 LW
N
100 121.333 M
105.95 121.333 L
S
GR
GS
[0.75 0 0 0.75 0 0] CT
0 GC
2 setlinecap
1 LJ
0.667 LW
N
100 43 M
105.95 43 L
S
GR
GS
[0.75 0 0 0.75 0 0] CT
0 GC
2 setlinecap
1 LJ
0.667 LW
N
695 513 M
689.05 513 L
S
GR
GS
[0.75 0 0 0.75 0 0] CT
0 GC
2 setlinecap
1 LJ
0.667 LW
N
695 434.667 M
689.05 434.667 L
S
GR
GS
[0.75 0 0 0.75 0 0] CT
0 GC
2 setlinecap
1 LJ
0.667 LW
N
695 356.333 M
689.05 356.333 L
S
GR
GS
[0.75 0 0 0.75 0 0] CT
0 GC
2 setlinecap
1 LJ
0.667 LW
N
695 278 M
689.05 278 L
S
GR
GS
[0.75 0 0 0.75 0 0] CT
0 GC
2 setlinecap
1 LJ
0.667 LW
N
695 199.667 M
689.05 199.667 L
S
GR
GS
[0.75 0 0 0.75 0 0] CT
0 GC
2 setlinecap
1 LJ
0.667 LW
N
695 121.333 M
689.05 121.333 L
S
GR
GS
[0.75 0 0 0.75 0 0] CT
0 GC
2 setlinecap
1 LJ
0.667 LW
N
695 43 M
689.05 43 L
S
GR
GS
[0.75 0 0 0.75 71 384.75] CT
0 GC
/Helvetica 13 F
GS
[1 0 0 1 0 0] CT
-9 4.5 moveto 
1 -1 scale
(0) t 
GR
GR
GS
[0.75 0 0 0.75 71 325.99999] CT
0 GC
/Helvetica 13 F
GS
[1 0 0 1 0 0] CT
-9 4.5 moveto 
1 -1 scale
(2) t 
GR
GR
GS
[0.75 0 0 0.75 71 267.25001] CT
0 GC
/Helvetica 13 F
GS
[1 0 0 1 0 0] CT
-9 4.5 moveto 
1 -1 scale
(4) t 
GR
GR
GS
[0.75 0 0 0.75 71 208.5] CT
0 GC
/Helvetica 13 F
GS
[1 0 0 1 0 0] CT
-9 4.5 moveto 
1 -1 scale
(6) t 
GR
GR
GS
[0.75 0 0 0.75 71 149.75] CT
0 GC
/Helvetica 13 F
GS
[1 0 0 1 0 0] CT
-9 4.5 moveto 
1 -1 scale
(8) t 
GR
GR
GS
[0.75 0 0 0.75 71 91] CT
0 GC
/Helvetica 13 F
GS
[1 0 0 1 0 0] CT
-17 4.5 moveto 
1 -1 scale
(10) t 
GR
GR
GS
[0.75 0 0 0.75 71 32.25] CT
0 GC
/Helvetica 13 F
GS
[1 0 0 1 0 0] CT
-17 4.5 moveto 
1 -1 scale
(12) t 
GR
GR
GS
[0 -0.75 0.75 0 55.25 208.49984] CT
0 GC
/Helvetica 15 F
GS
[1 0 0 1 0 0] CT
-72.5 -4 moveto 
1 -1 scale
(Wind Speed, m/sec) t 
GR
GR
GS
[0.75 0 0 0.75 298.12527 30.18751] CT
0 GC
/Helvetica-Bold 15 F
GS
[1 0 0 1 0 0] CT
-170.5 -4 moveto 
1 -1 scale
(25 Fastest Average Hourly Wind Speeds) t 
GR
GR
GS
[0.75 0 0 0.75 0 0] CT
0 GC
1 LJ
0.667 LW
N
100 513 M
695 513 L
S
GR
GS
[0.75 0 0 0.75 0 0] CT
0 GC
N
111.9 513 M
127.767 513 L
127.767 86.867 L
111.9 86.867 L
cp
f
GR
GS
[0.75 0 0 0.75 0 0] CT
0 GC
N
131.733 513 M
147.6 513 L
147.6 118.592 L
131.733 118.592 L
cp
f
GR
GS
[0.75 0 0 0.75 0 0] CT
0 GC
N
151.567 513 M
167.433 513 L
167.433 134.129 L
151.567 134.129 L
cp
f
GR
GS
[0.75 0 0 0.75 0 0] CT
0 GC
N
171.4 513 M
187.267 513 L
187.267 137.556 L
171.4 137.556 L
cp
f
GR
GS
[0.75 0 0 0.75 0 0] CT
0 GC
N
191.233 513 M
207.1 513 L
207.1 151.198 L
191.233 151.198 L
cp
f
GR
GS
[0.75 0 0 0.75 0 0] CT
0 GC
N
211.067 513 M
226.933 513 L
226.933 158.279 L
211.067 158.279 L
cp
f
GR
GS
[0.75 0 0 0.75 0 0] CT
0 GC
N
230.9 513 M
246.767 513 L
246.767 170.554 L
230.9 170.554 L
cp
f
GR
GS
[0.75 0 0 0.75 0 0] CT
0 GC
N
250.733 513 M
266.6 513 L
266.6 179.355 L
250.733 179.355 L
cp
f
GR
GS
[0.75 0 0 0.75 0 0] CT
0 GC
N
270.567 513 M
286.433 513 L
286.433 181.325 L
270.567 181.325 L
cp
f
GR
GS
[0.75 0 0 0.75 0 0] CT
0 GC
N
290.4 513 M
306.267 513 L
306.267 198.86 L
290.4 198.86 L
cp
f
GR
GS
[0.75 0 0 0.75 0 0] CT
0 GC
N
310.233 513 M
326.1 513 L
326.1 202.213 L
310.233 202.213 L
cp
f
GR
GS
[0.75 0 0 0.75 0 0] CT
0 GC
N
330.067 513 M
345.933 513 L
345.933 203.121 L
330.067 203.121 L
cp
f
GR
GS
[0.75 0 0 0.75 0 0] CT
0 GC
N
349.9 513 M
365.767 513 L
365.767 203.65 L
349.9 203.65 L
cp
f
GR
GS
[0.75 0 0 0.75 0 0] CT
0 GC
N
369.733 513 M
385.6 513 L
385.6 213.089 L
369.733 213.089 L
cp
f
GR
GS
[0.75 0 0 0.75 0 0] CT
0 GC
N
389.567 513 M
405.433 513 L
405.433 216.399 L
389.567 216.399 L
cp
f
GR
GS
[0.75 0 0 0.75 0 0] CT
0 GC
N
409.4 513 M
425.267 513 L
425.267 216.442 L
409.4 216.442 L
cp
f
GR
GS
[0.75 0 0 0.75 0 0] CT
0 GC
N
429.233 513 M
445.1 513 L
445.1 217.425 L
429.233 217.425 L
cp
f
GR
GS
[0.75 0 0 0.75 0 0] CT
0 GC
N
449.067 513 M
464.933 513 L
464.933 218.913 L
449.067 218.913 L
cp
f
GR
GS
[0.75 0 0 0.75 0 0] CT
0 GC
N
468.9 513 M
484.767 513 L
484.767 220.586 L
468.9 220.586 L
cp
f
GR
GS
[0.75 0 0 0.75 0 0] CT
0 GC
N
488.733 513 M
504.6 513 L
504.6 224.78 L
488.733 224.78 L
cp
f
GR
GS
[0.75 0 0 0.75 0 0] CT
0 GC
N
508.567 513 M
524.433 513 L
524.433 225.207 L
508.567 225.207 L
cp
f
GR
GS
[0.75 0 0 0.75 0 0] CT
0 GC
N
528.4 513 M
544.267 513 L
544.267 226.927 L
528.4 226.927 L
cp
f
GR
GS
[0.75 0 0 0.75 0 0] CT
0 GC
N
548.233 513 M
564.1 513 L
564.1 227.381 L
548.233 227.381 L
cp
f
GR
GS
[0.75 0 0 0.75 0 0] CT
0 GC
N
568.067 513 M
583.933 513 L
583.933 227.436 L
568.067 227.436 L
cp
f
GR
GS
[0.75 0 0 0.75 0 0] CT
0 GC
N
587.9 513 M
603.767 513 L
603.767 234.415 L
587.9 234.415 L
cp
f
GR
GS
[0.75 0 0 0.75 0 0] CT
0 GC
10.0 ML
0.667 LW
N
111.9 513 M
111.9 86.867 L
127.767 86.867 L
127.767 513 L
cp
S
GR
GS
[0.75 0 0 0.75 0 0] CT
0 GC
10.0 ML
0.667 LW
N
131.733 513 M
131.733 118.592 L
147.6 118.592 L
147.6 513 L
cp
S
GR
GS
[0.75 0 0 0.75 0 0] CT
0 GC
10.0 ML
0.667 LW
N
151.567 513 M
151.567 134.129 L
167.433 134.129 L
167.433 513 L
cp
S
GR
GS
[0.75 0 0 0.75 0 0] CT
0 GC
10.0 ML
0.667 LW
N
171.4 513 M
171.4 137.556 L
187.267 137.556 L
187.267 513 L
cp
S
GR
GS
[0.75 0 0 0.75 0 0] CT
0 GC
10.0 ML
0.667 LW
N
191.233 513 M
191.233 151.198 L
207.1 151.198 L
207.1 513 L
cp
S
GR
GS
[0.75 0 0 0.75 0 0] CT
0 GC
10.0 ML
0.667 LW
N
211.067 513 M
211.067 158.279 L
226.933 158.279 L
226.933 513 L
cp
S
GR
GS
[0.75 0 0 0.75 0 0] CT
0 GC
10.0 ML
0.667 LW
N
230.9 513 M
230.9 170.554 L
246.767 170.554 L
246.767 513 L
cp
S
GR
GS
[0.75 0 0 0.75 0 0] CT
0 GC
10.0 ML
0.667 LW
N
250.733 513 M
250.733 179.355 L
266.6 179.355 L
266.6 513 L
cp
S
GR
GS
[0.75 0 0 0.75 0 0] CT
0 GC
10.0 ML
0.667 LW
N
270.567 513 M
270.567 181.325 L
286.433 181.325 L
286.433 513 L
cp
S
GR
GS
[0.75 0 0 0.75 0 0] CT
0 GC
10.0 ML
0.667 LW
N
290.4 513 M
290.4 198.86 L
306.267 198.86 L
306.267 513 L
cp
S
GR
GS
[0.75 0 0 0.75 0 0] CT
0 GC
10.0 ML
0.667 LW
N
310.233 513 M
310.233 202.213 L
326.1 202.213 L
326.1 513 L
cp
S
GR
GS
[0.75 0 0 0.75 0 0] CT
0 GC
10.0 ML
0.667 LW
N
330.067 513 M
330.067 203.121 L
345.933 203.121 L
345.933 513 L
cp
S
GR
GS
[0.75 0 0 0.75 0 0] CT
0 GC
10.0 ML
0.667 LW
N
349.9 513 M
349.9 203.65 L
365.767 203.65 L
365.767 513 L
cp
S
GR
GS
[0.75 0 0 0.75 0 0] CT
0 GC
10.0 ML
0.667 LW
N
369.733 513 M
369.733 213.089 L
385.6 213.089 L
385.6 513 L
cp
S
GR
GS
[0.75 0 0 0.75 0 0] CT
0 GC
10.0 ML
0.667 LW
N
389.567 513 M
389.567 216.399 L
405.433 216.399 L
405.433 513 L
cp
S
GR
GS
[0.75 0 0 0.75 0 0] CT
0 GC
10.0 ML
0.667 LW
N
409.4 513 M
409.4 216.442 L
425.267 216.442 L
425.267 513 L
cp
S
GR
GS
[0.75 0 0 0.75 0 0] CT
0 GC
10.0 ML
0.667 LW
N
429.233 513 M
429.233 217.425 L
445.1 217.425 L
445.1 513 L
cp
S
GR
GS
[0.75 0 0 0.75 0 0] CT
0 GC
10.0 ML
0.667 LW
N
449.067 513 M
449.067 218.913 L
464.933 218.913 L
464.933 513 L
cp
S
GR
GS
[0.75 0 0 0.75 0 0] CT
0 GC
10.0 ML
0.667 LW
N
468.9 513 M
468.9 220.586 L
484.767 220.586 L
484.767 513 L
cp
S
GR
GS
[0.75 0 0 0.75 0 0] CT
0 GC
10.0 ML
0.667 LW
N
488.733 513 M
488.733 224.78 L
504.6 224.78 L
504.6 513 L
cp
S
GR
GS
[0.75 0 0 0.75 0 0] CT
0 GC
10.0 ML
0.667 LW
N
508.567 513 M
508.567 225.207 L
524.433 225.207 L
524.433 513 L
cp
S
GR
GS
[0.75 0 0 0.75 0 0] CT
0 GC
10.0 ML
0.667 LW
N
528.4 513 M
528.4 226.927 L
544.267 226.927 L
544.267 513 L
cp
S
GR
GS
[0.75 0 0 0.75 0 0] CT
0 GC
10.0 ML
0.667 LW
N
548.233 513 M
548.233 227.381 L
564.1 227.381 L
564.1 513 L
cp
S
GR
GS
[0.75 0 0 0.75 0 0] CT
0 GC
10.0 ML
0.667 LW
N
568.067 513 M
568.067 227.436 L
583.933 227.436 L
583.933 513 L
cp
S
GR
GS
[0.75 0 0 0.75 0 0] CT
0 GC
10.0 ML
0.667 LW
N
587.9 513 M
587.9 234.415 L
603.767 234.415 L
603.767 513 L
cp
S
GR
%%Trailer
%%Pages: 1
%%EOF
