%!PS-Adobe-3.0 EPSF-3.0
%%Creator: (MATLAB, The Mathworks, Inc. Version 8.6.0.267246 \(R2015b\). Operating System: Linux)
%%Title: ./WeatherPlot2.eps
%%CreationDate: 2015-09-18T22:23:47
%%Pages: (atend)
%%BoundingBox:    38    16   531   416
%%LanguageLevel: 3
%%EndComments
%%BeginProlog
%%BeginResource: procset (Apache XML Graphics Std ProcSet) 1.2 0
%%Version: 1.2 0
%%Copyright: (Copyright 2001-2003,2010 The Apache Software Foundation. License terms: http://www.apache.org/licenses/LICENSE-2.0)
/bd{bind def}bind def
/ld{load def}bd
/GR/grestore ld
/M/moveto ld
/LJ/setlinejoin ld
/C/curveto ld
/f/fill ld
/LW/setlinewidth ld
/GC/setgray ld
/t/show ld
/N/newpath ld
/CT/concat ld
/cp/closepath ld
/S/stroke ld
/L/lineto ld
/CC/setcmykcolor ld
/A/ashow ld
/GS/gsave ld
/RC/setrgbcolor ld
/RM/rmoveto ld
/ML/setmiterlimit ld
/re {4 2 roll M
1 index 0 rlineto
0 exch rlineto
neg 0 rlineto
cp } bd
/_ctm matrix def
/_tm matrix def
/BT { _ctm currentmatrix pop matrix _tm copy pop 0 0 moveto } bd
/ET { _ctm setmatrix } bd
/iTm { _ctm setmatrix _tm concat } bd
/Tm { _tm astore pop iTm 0 0 moveto } bd
/ux 0.0 def
/uy 0.0 def
/F {
  /Tp exch def
  /Tf exch def
  Tf findfont Tp scalefont setfont
  /cf Tf def  /cs Tp def
} bd
/ULS {currentpoint /uy exch def /ux exch def} bd
/ULE {
  /Tcx currentpoint pop def
  gsave
  newpath
  cf findfont cs scalefont dup
  /FontMatrix get 0 get /Ts exch def /FontInfo get dup
  /UnderlinePosition get Ts mul /To exch def
  /UnderlineThickness get Ts mul /Tt exch def
  ux uy To add moveto  Tcx uy To add lineto
  Tt setlinewidth stroke
  grestore
} bd
/OLE {
  /Tcx currentpoint pop def
  gsave
  newpath
  cf findfont cs scalefont dup
  /FontMatrix get 0 get /Ts exch def /FontInfo get dup
  /UnderlinePosition get Ts mul /To exch def
  /UnderlineThickness get Ts mul /Tt exch def
  ux uy To add cs add moveto Tcx uy To add cs add lineto
  Tt setlinewidth stroke
  grestore
} bd
/SOE {
  /Tcx currentpoint pop def
  gsave
  newpath
  cf findfont cs scalefont dup
  /FontMatrix get 0 get /Ts exch def /FontInfo get dup
  /UnderlinePosition get Ts mul /To exch def
  /UnderlineThickness get Ts mul /Tt exch def
  ux uy To add cs 10 mul 26 idiv add moveto Tcx uy To add cs 10 mul 26 idiv add lineto
  Tt setlinewidth stroke
  grestore
} bd
/QT {
/Y22 exch store
/X22 exch store
/Y21 exch store
/X21 exch store
currentpoint
/Y21 load 2 mul add 3 div exch
/X21 load 2 mul add 3 div exch
/X21 load 2 mul /X22 load add 3 div
/Y21 load 2 mul /Y22 load add 3 div
/X22 load /Y22 load curveto
} bd
/SSPD {
dup length /d exch dict def
{
/v exch def
/k exch def
currentpagedevice k known {
/cpdv currentpagedevice k get def
v cpdv ne {
/upd false def
/nullv v type /nulltype eq def
/nullcpdv cpdv type /nulltype eq def
nullv nullcpdv or
{
/upd true def
} {
/sametype v type cpdv type eq def
sametype {
v type /arraytype eq {
/vlen v length def
/cpdvlen cpdv length def
vlen cpdvlen eq {
0 1 vlen 1 sub {
/i exch def
/obj v i get def
/cpdobj cpdv i get def
obj cpdobj ne {
/upd true def
exit
} if
} for
} {
/upd true def
} ifelse
} {
v type /dicttype eq {
v {
/dv exch def
/dk exch def
/cpddv cpdv dk get def
dv cpddv ne {
/upd true def
exit
} if
} forall
} {
/upd true def
} ifelse
} ifelse
} if
} ifelse
upd true eq {
d k v put
} if
} if
} if
} forall
d length 0 gt {
d setpagedevice
} if
} bd
%%EndResource
%%BeginResource: procset (Apache XML Graphics EPS ProcSet) 1.0 0
%%Version: 1.0 0
%%Copyright: (Copyright 2002-2003 The Apache Software Foundation. License terms: http://www.apache.org/licenses/LICENSE-2.0)
/BeginEPSF { %def
/b4_Inc_state save def         % Save state for cleanup
/dict_count countdictstack def % Count objects on dict stack
/op_count count 1 sub def      % Count objects on operand stack
userdict begin                 % Push userdict on dict stack
/showpage { } def              % Redefine showpage, { } = null proc
0 setgray 0 setlinecap         % Prepare graphics state
1 setlinewidth 0 setlinejoin
10 setmiterlimit [ ] 0 setdash newpath
/languagelevel where           % If level not equal to 1 then
{pop languagelevel             % set strokeadjust and
1 ne                           % overprint to their defaults.
{false setstrokeadjust false setoverprint
} if
} if
} bd
/EndEPSF { %def
count op_count sub {pop} repeat            % Clean up stacks
countdictstack dict_count sub {end} repeat
b4_Inc_state restore
} bd
%%EndResource
%FOPBeginFontDict
%%IncludeResource: font Courier-Bold
%%IncludeResource: font Helvetica
%%IncludeResource: font Courier-BoldOblique
%%IncludeResource: font Courier-Oblique
%%IncludeResource: font Times-Roman
%%IncludeResource: font Helvetica-BoldOblique
%%IncludeResource: font Helvetica-Bold
%%IncludeResource: font Helvetica-Oblique
%%IncludeResource: font Times-BoldItalic
%%IncludeResource: font Courier
%%IncludeResource: font Times-Italic
%%IncludeResource: font Times-Bold
%%IncludeResource: font Symbol
%%IncludeResource: font ZapfDingbats
%FOPEndFontDict
%%BeginResource: encoding WinAnsiEncoding
/WinAnsiEncoding [
/.notdef /.notdef /.notdef /.notdef /.notdef
/.notdef /.notdef /.notdef /.notdef /.notdef
/.notdef /.notdef /.notdef /.notdef /.notdef
/.notdef /.notdef /.notdef /.notdef /.notdef
/.notdef /.notdef /.notdef /.notdef /.notdef
/.notdef /.notdef /.notdef /.notdef /.notdef
/.notdef /.notdef /space /exclam /quotedbl
/numbersign /dollar /percent /ampersand /quotesingle
/parenleft /parenright /asterisk /plus /comma
/hyphen /period /slash /zero /one
/two /three /four /five /six
/seven /eight /nine /colon /semicolon
/less /equal /greater /question /at
/A /B /C /D /E
/F /G /H /I /J
/K /L /M /N /O
/P /Q /R /S /T
/U /V /W /X /Y
/Z /bracketleft /backslash /bracketright /asciicircum
/underscore /quoteleft /a /b /c
/d /e /f /g /h
/i /j /k /l /m
/n /o /p /q /r
/s /t /u /v /w
/x /y /z /braceleft /bar
/braceright /asciitilde /bullet /Euro /bullet
/quotesinglbase /florin /quotedblbase /ellipsis /dagger
/daggerdbl /circumflex /perthousand /Scaron /guilsinglleft
/OE /bullet /Zcaron /bullet /bullet
/quoteleft /quoteright /quotedblleft /quotedblright /bullet
/endash /emdash /asciitilde /trademark /scaron
/guilsinglright /oe /bullet /zcaron /Ydieresis
/space /exclamdown /cent /sterling /currency
/yen /brokenbar /section /dieresis /copyright
/ordfeminine /guillemotleft /logicalnot /sfthyphen /registered
/macron /degree /plusminus /twosuperior /threesuperior
/acute /mu /paragraph /middot /cedilla
/onesuperior /ordmasculine /guillemotright /onequarter /onehalf
/threequarters /questiondown /Agrave /Aacute /Acircumflex
/Atilde /Adieresis /Aring /AE /Ccedilla
/Egrave /Eacute /Ecircumflex /Edieresis /Igrave
/Iacute /Icircumflex /Idieresis /Eth /Ntilde
/Ograve /Oacute /Ocircumflex /Otilde /Odieresis
/multiply /Oslash /Ugrave /Uacute /Ucircumflex
/Udieresis /Yacute /Thorn /germandbls /agrave
/aacute /acircumflex /atilde /adieresis /aring
/ae /ccedilla /egrave /eacute /ecircumflex
/edieresis /igrave /iacute /icircumflex /idieresis
/eth /ntilde /ograve /oacute /ocircumflex
/otilde /odieresis /divide /oslash /ugrave
/uacute /ucircumflex /udieresis /yacute /thorn
/ydieresis
] def
%%EndResource
%FOPBeginFontReencode
/Courier-Bold findfont
dup length dict begin
  {1 index /FID ne {def} {pop pop} ifelse} forall
  /Encoding WinAnsiEncoding def
  currentdict
end
/Courier-Bold exch definefont pop
/Helvetica findfont
dup length dict begin
  {1 index /FID ne {def} {pop pop} ifelse} forall
  /Encoding WinAnsiEncoding def
  currentdict
end
/Helvetica exch definefont pop
/Courier-BoldOblique findfont
dup length dict begin
  {1 index /FID ne {def} {pop pop} ifelse} forall
  /Encoding WinAnsiEncoding def
  currentdict
end
/Courier-BoldOblique exch definefont pop
/Courier-Oblique findfont
dup length dict begin
  {1 index /FID ne {def} {pop pop} ifelse} forall
  /Encoding WinAnsiEncoding def
  currentdict
end
/Courier-Oblique exch definefont pop
/Times-Roman findfont
dup length dict begin
  {1 index /FID ne {def} {pop pop} ifelse} forall
  /Encoding WinAnsiEncoding def
  currentdict
end
/Times-Roman exch definefont pop
/Helvetica-BoldOblique findfont
dup length dict begin
  {1 index /FID ne {def} {pop pop} ifelse} forall
  /Encoding WinAnsiEncoding def
  currentdict
end
/Helvetica-BoldOblique exch definefont pop
/Helvetica-Bold findfont
dup length dict begin
  {1 index /FID ne {def} {pop pop} ifelse} forall
  /Encoding WinAnsiEncoding def
  currentdict
end
/Helvetica-Bold exch definefont pop
/Helvetica-Oblique findfont
dup length dict begin
  {1 index /FID ne {def} {pop pop} ifelse} forall
  /Encoding WinAnsiEncoding def
  currentdict
end
/Helvetica-Oblique exch definefont pop
/Times-BoldItalic findfont
dup length dict begin
  {1 index /FID ne {def} {pop pop} ifelse} forall
  /Encoding WinAnsiEncoding def
  currentdict
end
/Times-BoldItalic exch definefont pop
/Courier findfont
dup length dict begin
  {1 index /FID ne {def} {pop pop} ifelse} forall
  /Encoding WinAnsiEncoding def
  currentdict
end
/Courier exch definefont pop
/Times-Italic findfont
dup length dict begin
  {1 index /FID ne {def} {pop pop} ifelse} forall
  /Encoding WinAnsiEncoding def
  currentdict
end
/Times-Italic exch definefont pop
/Times-Bold findfont
dup length dict begin
  {1 index /FID ne {def} {pop pop} ifelse} forall
  /Encoding WinAnsiEncoding def
  currentdict
end
/Times-Bold exch definefont pop
%FOPEndFontReencode
%%EndProlog
%%Page: 1 1
%%PageBoundingBox: 0 0 576 432
%%BeginPageSetup
[1 0 0 -1 0 432] CT
%%EndPageSetup
GS
[0.75 0 0 0.75 0 0] CT
0.997 GC
N
0 0 768 576 re
f
GR
GS
[0.75 0 0 0.75 0 0] CT
0.997 GC
N
0 0 768 576 re
f
GR
GS
[0.75 0 0 0.75 0 0] CT
0.997 GC
N
100 513 M
695 513 L
695 43 L
100 43 L
cp
f
GR
GS
[0.75 0 0 0.75 0 0] CT
0 GC
2 setlinecap
1 LJ
0.667 LW
N
100 513 M
695 513 L
S
GR
GS
[0.75 0 0 0.75 0 0] CT
0 GC
2 setlinecap
1 LJ
0.667 LW
N
100 43 M
695 43 L
S
GR
GS
[0.75 0 0 0.75 0 0] CT
0 GC
2 setlinecap
1 LJ
0.667 LW
N
100 513 M
100 507.05 L
S
GR
GS
[0.75 0 0 0.75 0 0] CT
0 GC
2 setlinecap
1 LJ
0.667 LW
N
174.375 513 M
174.375 507.05 L
S
GR
GS
[0.75 0 0 0.75 0 0] CT
0 GC
2 setlinecap
1 LJ
0.667 LW
N
248.75 513 M
248.75 507.05 L
S
GR
GS
[0.75 0 0 0.75 0 0] CT
0 GC
2 setlinecap
1 LJ
0.667 LW
N
323.125 513 M
323.125 507.05 L
S
GR
GS
[0.75 0 0 0.75 0 0] CT
0 GC
2 setlinecap
1 LJ
0.667 LW
N
397.5 513 M
397.5 507.05 L
S
GR
GS
[0.75 0 0 0.75 0 0] CT
0 GC
2 setlinecap
1 LJ
0.667 LW
N
471.875 513 M
471.875 507.05 L
S
GR
GS
[0.75 0 0 0.75 0 0] CT
0 GC
2 setlinecap
1 LJ
0.667 LW
N
546.25 513 M
546.25 507.05 L
S
GR
GS
[0.75 0 0 0.75 0 0] CT
0 GC
2 setlinecap
1 LJ
0.667 LW
N
620.625 513 M
620.625 507.05 L
S
GR
GS
[0.75 0 0 0.75 0 0] CT
0 GC
2 setlinecap
1 LJ
0.667 LW
N
695 513 M
695 507.05 L
S
GR
GS
[0.75 0 0 0.75 0 0] CT
0 GC
2 setlinecap
1 LJ
0.667 LW
N
100 43 M
100 48.95 L
S
GR
GS
[0.75 0 0 0.75 0 0] CT
0 GC
2 setlinecap
1 LJ
0.667 LW
N
174.375 43 M
174.375 48.95 L
S
GR
GS
[0.75 0 0 0.75 0 0] CT
0 GC
2 setlinecap
1 LJ
0.667 LW
N
248.75 43 M
248.75 48.95 L
S
GR
GS
[0.75 0 0 0.75 0 0] CT
0 GC
2 setlinecap
1 LJ
0.667 LW
N
323.125 43 M
323.125 48.95 L
S
GR
GS
[0.75 0 0 0.75 0 0] CT
0 GC
2 setlinecap
1 LJ
0.667 LW
N
397.5 43 M
397.5 48.95 L
S
GR
GS
[0.75 0 0 0.75 0 0] CT
0 GC
2 setlinecap
1 LJ
0.667 LW
N
471.875 43 M
471.875 48.95 L
S
GR
GS
[0.75 0 0 0.75 0 0] CT
0 GC
2 setlinecap
1 LJ
0.667 LW
N
546.25 43 M
546.25 48.95 L
S
GR
GS
[0.75 0 0 0.75 0 0] CT
0 GC
2 setlinecap
1 LJ
0.667 LW
N
620.625 43 M
620.625 48.95 L
S
GR
GS
[0.75 0 0 0.75 0 0] CT
0 GC
2 setlinecap
1 LJ
0.667 LW
N
695 43 M
695 48.95 L
S
GR
GS
[0.75 0 0 0.75 75 388.74998] CT
0 GC
/Helvetica 13 F
GS
[1 0 0 1 0 0] CT
-4.5 13 moveto 
1 -1 scale
(0) t 
GR
GR
GS
[0.75 0 0 0.75 130.78125 388.74998] CT
0 GC
/Helvetica 13 F
GS
[1 0 0 1 0 0] CT
-12.5 13 moveto 
1 -1 scale
(100) t 
GR
GR
GS
[0.75 0 0 0.75 186.5625 388.74998] CT
0 GC
/Helvetica 13 F
GS
[1 0 0 1 0 0] CT
-12.5 13 moveto 
1 -1 scale
(200) t 
GR
GR
GS
[0.75 0 0 0.75 242.34375 388.74998] CT
0 GC
/Helvetica 13 F
GS
[1 0 0 1 0 0] CT
-12.5 13 moveto 
1 -1 scale
(300) t 
GR
GR
GS
[0.75 0 0 0.75 298.125 388.74998] CT
0 GC
/Helvetica 13 F
GS
[1 0 0 1 0 0] CT
-12.5 13 moveto 
1 -1 scale
(400) t 
GR
GR
GS
[0.75 0 0 0.75 353.90625 388.74998] CT
0 GC
/Helvetica 13 F
GS
[1 0 0 1 0 0] CT
-12.5 13 moveto 
1 -1 scale
(500) t 
GR
GR
GS
[0.75 0 0 0.75 409.6875 388.74998] CT
0 GC
/Helvetica 13 F
GS
[1 0 0 1 0 0] CT
-12.5 13 moveto 
1 -1 scale
(600) t 
GR
GR
GS
[0.75 0 0 0.75 465.46875 388.74998] CT
0 GC
/Helvetica 13 F
GS
[1 0 0 1 0 0] CT
-12.5 13 moveto 
1 -1 scale
(700) t 
GR
GR
GS
[0.75 0 0 0.75 521.25 388.74998] CT
0 GC
/Helvetica 13 F
GS
[1 0 0 1 0 0] CT
-12.5 13 moveto 
1 -1 scale
(800) t 
GR
GR
GS
[0.75 0 0 0.75 298.12523 402.50002] CT
0 GC
/Helvetica 15 F
GS
[1 0 0 1 0 0] CT
-89 14 moveto 
1 -1 scale
(Time in January \(Hours\)) t 
GR
GR
GS
[0.75 0 0 0.75 0 0] CT
0 GC
2 setlinecap
1 LJ
0.667 LW
N
100 513 M
100 43 L
S
GR
GS
[0.75 0 0 0.75 0 0] CT
0 GC
2 setlinecap
1 LJ
0.667 LW
N
695 513 M
695 43 L
S
GR
GS
[0.75 0 0 0.75 0 0] CT
0 GC
2 setlinecap
1 LJ
0.667 LW
N
100 513 M
105.95 513 L
S
GR
GS
[0.75 0 0 0.75 0 0] CT
0 GC
2 setlinecap
1 LJ
0.667 LW
N
100 445.857 M
105.95 445.857 L
S
GR
GS
[0.75 0 0 0.75 0 0] CT
0 GC
2 setlinecap
1 LJ
0.667 LW
N
100 378.714 M
105.95 378.714 L
S
GR
GS
[0.75 0 0 0.75 0 0] CT
0 GC
2 setlinecap
1 LJ
0.667 LW
N
100 311.571 M
105.95 311.571 L
S
GR
GS
[0.75 0 0 0.75 0 0] CT
0 GC
2 setlinecap
1 LJ
0.667 LW
N
100 244.429 M
105.95 244.429 L
S
GR
GS
[0.75 0 0 0.75 0 0] CT
0 GC
2 setlinecap
1 LJ
0.667 LW
N
100 177.286 M
105.95 177.286 L
S
GR
GS
[0.75 0 0 0.75 0 0] CT
0 GC
2 setlinecap
1 LJ
0.667 LW
N
100 110.143 M
105.95 110.143 L
S
GR
GS
[0.75 0 0 0.75 0 0] CT
0 GC
2 setlinecap
1 LJ
0.667 LW
N
100 43 M
105.95 43 L
S
GR
GS
[0.75 0 0 0.75 0 0] CT
0 GC
2 setlinecap
1 LJ
0.667 LW
N
695 513 M
689.05 513 L
S
GR
GS
[0.75 0 0 0.75 0 0] CT
0 GC
2 setlinecap
1 LJ
0.667 LW
N
695 445.857 M
689.05 445.857 L
S
GR
GS
[0.75 0 0 0.75 0 0] CT
0 GC
2 setlinecap
1 LJ
0.667 LW
N
695 378.714 M
689.05 378.714 L
S
GR
GS
[0.75 0 0 0.75 0 0] CT
0 GC
2 setlinecap
1 LJ
0.667 LW
N
695 311.571 M
689.05 311.571 L
S
GR
GS
[0.75 0 0 0.75 0 0] CT
0 GC
2 setlinecap
1 LJ
0.667 LW
N
695 244.429 M
689.05 244.429 L
S
GR
GS
[0.75 0 0 0.75 0 0] CT
0 GC
2 setlinecap
1 LJ
0.667 LW
N
695 177.286 M
689.05 177.286 L
S
GR
GS
[0.75 0 0 0.75 0 0] CT
0 GC
2 setlinecap
1 LJ
0.667 LW
N
695 110.143 M
689.05 110.143 L
S
GR
GS
[0.75 0 0 0.75 0 0] CT
0 GC
2 setlinecap
1 LJ
0.667 LW
N
695 43 M
689.05 43 L
S
GR
GS
[0.75 0 0 0.75 71 384.75] CT
0 GC
/Helvetica 13 F
GS
[1 0 0 1 0 0] CT
-22 4.5 moveto 
1 -1 scale
(-10) t 
GR
GR
GS
[0.75 0 0 0.75 71 334.39286] CT
0 GC
/Helvetica 13 F
GS
[1 0 0 1 0 0] CT
-13 4.5 moveto 
1 -1 scale
(-5) t 
GR
GR
GS
[0.75 0 0 0.75 71 284.03572] CT
0 GC
/Helvetica 13 F
GS
[1 0 0 1 0 0] CT
-9 4.5 moveto 
1 -1 scale
(0) t 
GR
GR
GS
[0.75 0 0 0.75 71 233.67858] CT
0 GC
/Helvetica 13 F
GS
[1 0 0 1 0 0] CT
-9 4.5 moveto 
1 -1 scale
(5) t 
GR
GR
GS
[0.75 0 0 0.75 71 183.32143] CT
0 GC
/Helvetica 13 F
GS
[1 0 0 1 0 0] CT
-17 4.5 moveto 
1 -1 scale
(10) t 
GR
GR
GS
[0.75 0 0 0.75 71 132.96429] CT
0 GC
/Helvetica 13 F
GS
[1 0 0 1 0 0] CT
-17 4.5 moveto 
1 -1 scale
(15) t 
GR
GR
GS
[0.75 0 0 0.75 71 82.60715] CT
0 GC
/Helvetica 13 F
GS
[1 0 0 1 0 0] CT
-17 4.5 moveto 
1 -1 scale
(20) t 
GR
GR
GS
[0.75 0 0 0.75 71 32.25] CT
0 GC
/Helvetica 13 F
GS
[1 0 0 1 0 0] CT
-17 4.5 moveto 
1 -1 scale
(25) t 
GR
GR
GS
[0 -0.75 0.75 0 51.5 208.49984] CT
0 GC
/Helvetica 15 F
GS
[1 0 0 1 0 0] CT
-92 -4 moveto 
1 -1 scale
(Temperature, degrees C) t 
GR
GR
GS
[0.75 0 0 0.75 298.1253 30.18751] CT
0 GC
/Helvetica-Bold 15 F
GS
[1 0 0 1 0 0] CT
-238.5 -4 moveto 
1 -1 scale
(Hourly Average Temperatures for Janurary 2013 \(th174\)) t 
GR
GR
GS
[0.75 0 0 0.75 0 0] CT
0 GC
1 LJ
0.667 LW
N
100.744 271.42 M
101.488 273.659 L
102.231 272.662 L
102.975 271.766 L
103.719 265.736 L
104.463 259.76 L
105.206 265.467 L
105.95 267.637 L
106.694 267.179 L
107.438 261.751 L
108.181 263.206 L
108.925 259.838 L
109.669 255.731 L
110.412 255.854 L
111.156 259.479 L
111.9 265.232 L
112.644 264.605 L
113.387 266.149 L
114.131 265.814 L
114.875 267.604 L
115.619 270.849 L
116.363 272.337 L
117.106 273.155 L
117.85 270.547 L
118.594 272.841 L
119.338 279.041 L
120.081 289.449 L
120.825 303.158 L
121.569 306.07 L
122.313 306.404 L
123.056 311.054 L
123.8 321.686 L
124.544 324.997 L
125.287 321.126 L
126.031 319.795 L
126.775 319.287 L
127.519 313.481 L
128.262 309.297 L
129.006 310.748 L
129.75 313.623 L
130.494 317.452 L
131.238 322.148 L
131.981 327.085 L
132.725 330.807 L
133.469 334.35 L
134.212 335.665 L
134.956 336.998 L
135.7 338.163 L
136.444 337.814 L
137.188 338.418 L
S
GR
GS
[0.75 0 0 0.75 0 0] CT
0 GC
1 LJ
0.667 LW
N
136.444 337.814 M
137.188 338.418 L
137.931 339.66 L
138.675 341.913 L
139.419 343.94 L
140.163 344.835 L
140.906 343.956 L
141.65 344.874 L
142.394 344.877 L
143.137 341.96 L
143.881 338.031 L
144.625 331.694 L
145.369 322.494 L
146.113 317.892 L
146.856 312.795 L
147.6 312 L
148.344 322.559 L
149.087 328.368 L
149.831 333.99 L
150.575 342.911 L
151.319 349.809 L
152.063 367.833 L
152.806 376.703 L
153.55 385.559 L
154.294 390.298 L
155.038 388.733 L
155.781 383.04 L
156.525 379.885 L
157.269 377.666 L
158.012 378.44 L
158.756 382.004 L
159.5 385.317 L
160.244 370.449 L
160.988 345.915 L
161.731 324.809 L
162.475 305.486 L
163.219 296.463 L
163.962 291.301 L
164.706 279.962 L
165.45 271.376 L
166.194 275.847 L
166.938 295.163 L
167.681 297.761 L
168.425 296.521 L
169.169 303.811 L
169.913 311.823 L
170.656 313.944 L
171.4 318.797 L
172.144 330.648 L
172.887 341.9 L
173.631 354.789 L
174.375 366.563 L
S
GR
GS
[0.75 0 0 0.75 0 0] CT
0 GC
1 LJ
0.667 LW
N
173.631 354.789 M
174.375 366.563 L
175.119 375.353 L
175.863 377.287 L
176.606 380.069 L
177.35 381.362 L
178.094 362.785 L
178.837 329.367 L
179.581 300.11 L
180.325 281.098 L
181.069 266.004 L
181.813 258.719 L
182.556 258.059 L
183.3 265.757 L
184.044 278.346 L
184.788 293.392 L
185.531 304.38 L
186.275 309.902 L
187.019 312.94 L
187.762 313.011 L
188.506 321.428 L
189.25 323.492 L
189.994 320.379 L
190.738 319.282 L
191.481 312.955 L
192.225 306.986 L
192.969 306.512 L
193.712 305.835 L
194.456 309.614 L
195.2 312.266 L
195.944 308.553 L
196.688 297.267 L
197.431 287.506 L
198.175 280.945 L
198.919 274.419 L
199.663 270.457 L
200.406 272.931 L
201.15 272.729 L
201.894 274.576 L
202.637 276.915 L
203.381 280.283 L
204.125 283.206 L
204.869 285.974 L
205.613 291.682 L
206.356 296.678 L
207.1 297.941 L
207.844 307.034 L
208.587 318.1 L
209.331 319.544 L
210.075 322.498 L
210.819 327.829 L
211.563 322.263 L
S
GR
GS
[0.75 0 0 0.75 0 0] CT
0 GC
1 LJ
0.667 LW
N
210.819 327.829 M
211.563 322.263 L
212.306 325.73 L
213.05 328.508 L
213.794 312.408 L
214.538 285.141 L
215.281 265.669 L
216.025 252.777 L
216.769 248.636 L
217.512 248.692 L
218.256 245.614 L
219 249.386 L
219.744 263.844 L
220.488 287.44 L
221.231 301.256 L
221.975 310.427 L
222.719 315.208 L
223.462 322.9 L
224.206 333.163 L
224.95 350.203 L
225.694 358.894 L
226.438 360.481 L
227.181 359.918 L
227.925 358.471 L
228.669 359.164 L
229.413 351.102 L
230.156 361.467 L
230.9 354.081 L
231.644 313.649 L
232.387 274.408 L
233.131 244.686 L
233.875 208.866 L
234.619 192.236 L
235.363 182.747 L
236.106 180.676 L
236.85 186.373 L
237.594 198.559 L
238.337 213.979 L
239.081 227.531 L
239.825 244.16 L
240.569 255.463 L
241.313 261.729 L
242.056 263.575 L
242.8 266.508 L
243.544 267.616 L
244.288 287.916 L
245.031 287.506 L
245.775 292.896 L
246.519 295.994 L
247.262 299.713 L
248.006 299.094 L
248.75 305.961 L
S
GR
GS
[0.75 0 0 0.75 0 0] CT
0 GC
1 LJ
0.667 LW
N
248.006 299.094 M
248.75 305.961 L
249.494 282.192 L
250.238 225.841 L
250.981 182.546 L
251.725 152.756 L
252.469 123.997 L
253.212 114.608 L
253.956 109.27 L
254.7 121.266 L
255.444 131.752 L
256.188 141.521 L
256.931 156.684 L
257.675 168.188 L
258.419 177.04 L
259.163 181.941 L
259.906 182.758 L
260.65 187.089 L
261.394 196.008 L
262.138 204.378 L
262.881 211.864 L
263.625 224.229 L
264.369 233.675 L
265.112 236.764 L
265.856 241.43 L
266.6 243.365 L
267.344 236.529 L
268.087 225.505 L
268.831 212.391 L
269.575 200.708 L
270.319 194.061 L
271.063 203.001 L
271.806 207.836 L
272.55 216.34 L
273.294 237.67 L
274.038 261.829 L
274.781 272.349 L
275.525 284.072 L
276.269 298.543 L
277.013 301.754 L
277.756 311.48 L
278.5 320.534 L
279.244 319.189 L
279.987 321.965 L
280.731 316.559 L
281.475 310.116 L
282.219 309.695 L
282.962 307.806 L
283.706 295.836 L
284.45 278.453 L
285.194 252.597 L
285.938 223.167 L
S
GR
GS
[0.75 0 0 0.75 0 0] CT
0 GC
1 LJ
0.667 LW
N
285.194 252.597 M
285.938 223.167 L
286.681 199.487 L
287.425 171.299 L
288.169 157.724 L
288.913 142.237 L
289.656 133.162 L
290.4 138.802 L
291.144 158.765 L
291.888 169.206 L
292.631 162.122 L
293.375 165.089 L
294.119 167.091 L
294.862 174.946 L
295.606 180.431 L
296.35 179.256 L
297.094 177.766 L
297.837 177.699 L
298.581 179.77 L
299.325 192.806 L
300.069 197.036 L
300.813 200.662 L
301.556 200.305 L
302.3 198.939 L
303.044 197.171 L
303.788 194.027 L
304.531 192.147 L
305.275 191.274 L
306.019 186.999 L
306.763 183.608 L
307.506 179.132 L
308.25 177.599 L
308.994 176.927 L
309.737 183.91 L
310.481 186.507 L
311.225 190.591 L
311.969 202.968 L
312.712 206.157 L
313.456 212.244 L
314.2 216.676 L
314.944 224.241 L
315.688 234.615 L
316.431 241.911 L
317.175 254.758 L
317.919 260.956 L
318.663 267.045 L
319.406 270.503 L
320.15 266.754 L
320.894 255.261 L
321.638 237.771 L
322.381 211.115 L
323.125 193.601 L
S
GR
GS
[0.75 0 0 0.75 0 0] CT
0 GC
1 LJ
0.667 LW
N
322.381 211.115 M
323.125 193.601 L
323.869 179.244 L
324.612 166.05 L
325.356 151.805 L
326.1 136.765 L
326.844 152.611 L
327.587 180.307 L
328.331 184.829 L
329.075 179.793 L
329.819 167.326 L
330.563 164.976 L
331.306 167.997 L
332.05 172.239 L
332.794 172.664 L
333.538 170.985 L
334.281 171.959 L
335.025 172.294 L
335.769 178.102 L
336.513 183.855 L
337.256 185.164 L
338 183.956 L
338.744 168.054 L
339.487 134.438 L
340.231 105.309 L
340.975 82.86 L
341.719 68.436 L
342.462 71.401 L
343.206 71.189 L
343.95 69.209 L
344.694 115 L
345.438 124.78 L
346.181 127.992 L
346.925 130.733 L
347.669 136.44 L
348.413 140.469 L
349.156 144.711 L
349.9 192.516 L
350.644 238.979 L
351.388 258.327 L
352.131 265.052 L
352.875 270.916 L
353.619 280.876 L
354.362 279.622 L
355.106 273.176 L
355.85 274.072 L
356.594 269.741 L
357.337 258.025 L
358.081 247.305 L
358.825 248.883 L
359.569 262.647 L
360.313 271.219 L
S
GR
GS
[0.75 0 0 0.75 0 0] CT
0 GC
1 LJ
0.667 LW
N
359.569 262.647 M
360.313 271.219 L
361.056 268.6 L
361.8 268.476 L
362.544 265.276 L
363.288 260.654 L
364.031 258.965 L
364.775 258.081 L
365.519 261.382 L
366.263 260.789 L
367.006 258.596 L
367.75 255.619 L
368.494 254.556 L
369.237 254.489 L
369.981 251.669 L
370.725 243.411 L
371.469 232.589 L
372.212 245.492 L
372.956 247.574 L
373.7 253.839 L
374.444 255.507 L
375.188 251.21 L
375.931 251.646 L
376.675 257.544 L
377.419 258.461 L
378.163 265.232 L
378.906 267.929 L
379.65 268.186 L
380.394 264.336 L
381.138 258.361 L
381.881 253.18 L
382.625 250.18 L
383.369 244.741 L
384.112 236.281 L
384.856 233.696 L
385.6 234.166 L
386.344 235.778 L
387.087 235.398 L
387.831 235.006 L
388.575 240.725 L
389.319 251.724 L
390.063 252.788 L
390.806 253.134 L
391.55 256.011 L
392.294 259.525 L
393.038 263.43 L
393.781 267.637 L
394.525 267.694 L
395.269 275.986 L
396.013 293.141 L
396.756 300.831 L
397.5 300.509 L
S
GR
GS
[0.75 0 0 0.75 0 0] CT
0 GC
1 LJ
0.667 LW
N
396.756 300.831 M
397.5 300.509 L
398.244 302.874 L
398.987 302.502 L
399.731 303.561 L
400.475 307.332 L
401.219 310.856 L
401.962 319.035 L
402.706 325.897 L
403.45 338.392 L
404.194 360.312 L
404.938 361.511 L
405.681 357.547 L
406.425 351.521 L
407.169 351.599 L
407.913 362.976 L
408.656 369.103 L
409.4 371.654 L
410.144 358.55 L
410.888 344.191 L
411.631 328.51 L
412.375 310.537 L
413.119 294.501 L
413.862 289.945 L
414.606 287.412 L
415.35 289.276 L
416.094 300.424 L
416.837 319.954 L
417.581 336.365 L
418.325 344.289 L
419.069 353.514 L
419.813 363.731 L
420.556 372.038 L
421.3 376.057 L
422.044 389.57 L
422.788 388.933 L
423.531 389.585 L
424.275 378.423 L
425.019 388.269 L
425.763 391.442 L
426.506 399.858 L
427.25 395.684 L
427.994 350.685 L
428.737 308.86 L
429.481 283.723 L
430.225 262.49 L
430.969 238.14 L
431.712 218.22 L
432.456 213.062 L
433.2 200.92 L
433.944 204.971 L
434.688 234.234 L
S
GR
GS
[0.75 0 0 0.75 0 0] CT
0 GC
1 LJ
0.667 LW
N
433.944 204.971 M
434.688 234.234 L
435.431 257.589 L
436.175 267.738 L
436.919 262.177 L
437.663 266.854 L
438.406 266.529 L
439.15 266.049 L
439.894 268.141 L
440.638 265.656 L
441.381 261.997 L
442.125 265.713 L
442.869 267.234 L
443.612 272.236 L
444.356 274.486 L
445.1 276.982 L
445.844 264.672 L
446.587 242.257 L
447.331 223.581 L
448.075 202.464 L
448.819 182.769 L
449.563 166.868 L
450.306 153.014 L
451.05 149.869 L
451.794 157.154 L
452.538 179.457 L
453.281 196.969 L
454.025 211.384 L
454.769 224.464 L
455.513 236.08 L
456.256 248.77 L
457 267.28 L
457.744 279.606 L
458.487 294.12 L
459.231 301.088 L
459.975 304.864 L
460.719 313.868 L
461.462 324.354 L
462.206 325.077 L
462.95 320.26 L
463.694 290.103 L
464.438 257.343 L
465.181 238.732 L
465.925 225.081 L
466.669 213.106 L
467.413 200.249 L
468.156 190.502 L
468.9 187.044 L
469.644 189.898 L
470.388 212.592 L
471.131 228.09 L
471.875 236.898 L
S
GR
GS
[0.75 0 0 0.75 0 0] CT
0 GC
1 LJ
0.667 LW
N
471.131 228.09 M
471.875 236.898 L
472.619 247.853 L
473.362 248.121 L
474.106 244.271 L
474.85 262.904 L
475.594 279.936 L
476.337 294.772 L
477.081 307.601 L
477.825 327.323 L
478.569 346.988 L
479.313 358.746 L
480.056 366.458 L
480.8 376.413 L
481.544 371.419 L
482.288 363.61 L
483.031 358.71 L
483.775 352.159 L
484.519 347.408 L
485.263 347.455 L
486.006 345.096 L
486.75 347.921 L
487.494 353.796 L
488.237 371.279 L
488.981 384.808 L
489.725 394.034 L
490.469 401.515 L
491.212 408.291 L
491.956 414.841 L
492.7 423.622 L
493.444 433.053 L
494.188 437.697 L
494.931 442.944 L
495.675 449.269 L
496.419 441.267 L
497.163 439.125 L
497.906 446.469 L
498.65 451.286 L
499.394 432.03 L
500.138 416.359 L
500.881 403.387 L
501.625 394.43 L
502.369 390.3 L
503.112 388.113 L
503.856 378.342 L
504.6 372.085 L
505.344 376.096 L
506.087 380.815 L
506.831 393.448 L
507.575 395.531 L
508.319 396.966 L
509.063 391.775 L
S
GR
GS
[0.75 0 0 0.75 0 0] CT
0 GC
1 LJ
0.667 LW
N
508.319 396.966 M
509.063 391.775 L
509.806 382.053 L
510.55 372.462 L
511.294 369.481 L
512.037 363.419 L
512.781 356.146 L
513.525 356.699 L
514.269 361.211 L
515.013 360.05 L
515.756 372.215 L
516.5 370.339 L
517.244 376.261 L
517.987 375.174 L
518.731 375.521 L
519.475 387.554 L
520.219 397.632 L
520.963 401.68 L
521.706 410.779 L
522.45 403.873 L
523.194 409.514 L
523.938 416.247 L
524.681 420.701 L
525.425 426.243 L
526.169 431.378 L
526.912 434.803 L
527.656 438.612 L
528.4 442.448 L
529.144 449.006 L
529.888 454.196 L
530.631 456.777 L
531.375 467.594 L
532.119 472.768 L
532.862 476.787 L
533.606 476.464 L
534.35 473.494 L
535.094 450.393 L
535.838 432.284 L
536.581 417.595 L
537.325 407.881 L
538.069 401.853 L
538.813 401.211 L
539.556 400.317 L
540.3 412.33 L
541.044 424.504 L
541.787 423.802 L
542.531 421.836 L
543.275 420.156 L
544.019 420.086 L
544.763 417.92 L
545.506 417.254 L
546.25 417.171 L
S
GR
GS
[0.75 0 0 0.75 0 0] CT
0 GC
1 LJ
0.667 LW
N
545.506 417.254 M
546.25 417.171 L
546.994 417.824 L
547.737 417.829 L
548.481 416.877 L
549.225 419.387 L
549.969 425.033 L
550.713 427.892 L
551.456 428.174 L
552.2 425.755 L
552.944 420.078 L
553.688 409.85 L
554.431 399.036 L
555.175 389.223 L
555.919 369.972 L
556.662 364.089 L
557.406 357.881 L
558.15 358.067 L
558.894 361.634 L
559.638 371.667 L
560.381 382.925 L
561.125 392.297 L
561.869 400.655 L
562.612 407.987 L
563.356 412.258 L
564.1 408.765 L
564.844 409.415 L
565.588 405.621 L
566.331 405.943 L
567.075 407.578 L
567.819 406.446 L
568.563 409.192 L
569.306 410.721 L
570.05 412.597 L
570.794 400.11 L
571.537 377.892 L
572.281 358.985 L
573.025 344.559 L
573.769 336.351 L
574.513 328.373 L
575.256 325.823 L
576 326.307 L
576.744 333.029 L
577.487 349.374 L
578.231 364.113 L
578.975 369.5 L
579.719 377.937 L
580.463 381.847 L
581.206 377.788 L
581.95 376.985 L
582.694 381.307 L
583.438 388.279 L
S
GR
GS
[0.75 0 0 0.75 0 0] CT
0 GC
1 LJ
0.667 LW
N
582.694 381.307 M
583.438 388.279 L
584.181 383.647 L
584.925 379.18 L
585.669 371.871 L
586.412 369.266 L
587.156 365.742 L
587.9 363.408 L
588.644 353.645 L
589.388 352.797 L
590.131 348.903 L
590.875 338.406 L
591.619 323.249 L
592.362 299.766 L
593.106 272.203 L
593.85 258.461 L
594.594 253.896 L
595.338 259.435 L
596.081 267.257 L
596.825 269.798 L
597.569 265.333 L
598.313 253.94 L
599.056 251.389 L
599.8 250.561 L
600.544 245.996 L
601.287 238.184 L
602.031 232.622 L
602.775 229.131 L
603.519 231.179 L
604.263 238.699 L
605.006 234.536 L
605.75 233.474 L
606.494 221.342 L
607.237 206.638 L
607.981 184.604 L
608.725 158.821 L
609.469 134.74 L
610.213 112.392 L
610.956 91.354 L
611.7 98.863 L
612.444 117.786 L
613.188 150.888 L
613.931 187.569 L
614.675 189.999 L
615.419 195.001 L
616.162 183.933 L
616.906 174.298 L
617.65 173.549 L
618.394 183.821 L
619.138 187.548 L
619.881 193.131 L
620.625 190.334 L
S
GR
GS
[0.75 0 0 0.75 0 0] CT
0 GC
1 LJ
0.667 LW
N
619.881 193.131 M
620.625 190.334 L
621.369 194.363 L
622.112 192.404 L
622.856 176.301 L
623.6 171.769 L
624.344 152.197 L
625.088 128.003 L
625.831 111.307 L
626.575 94.644 L
627.319 80.241 L
628.063 76.336 L
628.806 75.151 L
629.55 89.989 L
630.294 99.635 L
631.037 111.933 L
631.781 120.741 L
632.525 125.743 L
633.269 119.566 L
634.013 115.38 L
634.756 114.094 L
635.5 111.979 L
636.244 110.344 L
636.987 109.427 L
637.731 112.224 L
638.475 187.021 L
639.219 196.063 L
639.963 200.372 L
640.706 212.614 L
641.45 218.489 L
642.194 227.419 L
642.938 223.48 L
643.681 225.192 L
644.425 226.659 L
645.169 222.596 L
645.912 225.92 L
646.656 231.493 L
647.4 230.284 L
648.144 235.991 L
648.888 260.935 L
649.631 280.612 L
650.375 289.365 L
651.119 294.944 L
651.862 307.566 L
652.606 316.416 L
653.35 320.791 L
S
GR
%%Trailer
%%Pages: 1
%%EOF
